{"code":0,"msg":"success","data":{"total":173,"per_page":10,"current_page":9,"last_page":18,"data":[{"id":"1016032","ufid":"58994978","name":"\u5e26\u8f68\u9053\u5706\u70b9\u6eda\u52a8\u6548\u679c","file":"http:\/\/rdfile.oss-cn-hangzhou.aliyuncs.com\/filemanage\/e069b36c568d909f\/templateapi\/16637295721804\/file.zip?nonce=edea4c3452fbe5397464718c9f9b7bc4","cover":"http:\/\/rdfile.oss-cn-hangzhou.aliyuncs.com\/filemanage\/e069b36c568d909f\/templateapi\/16637295721804\/cover.webp?nonce=edea4c3452fbe5397464718c9f9b7bc4","updatetime":"1684914312","height":1060,"width":596,"video":"http:\/\/rdfile.oss-cn-hangzhou.aliyuncs.com\/filemanage\/e069b36c568d909f\/templateapi\/16637295721804\/video.mp4?nonce=edea4c3452fbe5397464718c9f9b7bc4","sort":0,"version":153,"cover2":"","appkey":"init","duration":0,"extra":{},"polyglot":[],"category":"0","audit":0,"is_ugc":0,"text_need":3,"picture_need":0,"video_need":2,"type":"templateapi"},{"id":"1016006","ufid":"63524381","name":"\u900f\u660e\u5fae\u4fe1\u5934\u50cf\u58c1\u7eb8","file":"http:\/\/rdfile.oss-cn-hangzhou.aliyuncs.com\/filemanage\/e069b36c568d909f\/templateapi\/16630611008842\/file.zip?nonce=528998a7bb95660b36dd7f38d73f5eb5","cover":"http:\/\/rdfile.oss-cn-hangzhou.aliyuncs.com\/filemanage\/e069b36c568d909f\/templateapi\/16630611008842\/cover.webp?nonce=528998a7bb95660b36dd7f38d73f5eb5","updatetime":"1684912251","height":1060,"width":596,"video":"http:\/\/rdfile.oss-cn-hangzhou.aliyuncs.com\/filemanage\/e069b36c568d909f\/templateapi\/16630611008842\/video.mp4?nonce=528998a7bb95660b36dd7f38d73f5eb5","sort":0,"version":153,"cover2":"","appkey":"init","duration":0,"extra":{},"polyglot":[],"category":"0","audit":0,"is_ugc":0,"text_need":3,"picture_need":5,"video_need":0,"type":"templateapi"},{"id":"1014865","ufid":"51095182","name":"\u5207\u5272\u8f6c\u573a","file":"http:\/\/rdfile.oss-cn-hangzhou.aliyuncs.com\/filemanage\/e069b36c568d909f\/templateapi\/16504292575499\/file.zip?nonce=3f3c2fae784bbaf2894e528b2ce2c4bb","cover":"http:\/\/rdfile.oss-cn-hangzhou.aliyuncs.com\/filemanage\/e069b36c568d909f\/templateapi\/16504292575499\/cover.webp?nonce=3f3c2fae784bbaf2894e528b2ce2c4bb","updatetime":"1684897013","height":720,"width":960,"video":"http:\/\/rdfile.oss-cn-hangzhou.aliyuncs.com\/filemanage\/e069b36c568d909f\/templateapi\/16504292575499\/video.mp4?nonce=3f3c2fae784bbaf2894e528b2ce2c4bb","sort":0,"version":152,"cover2":"","appkey":"init","duration":0,"extra":{},"polyglot":[],"category":"0","audit":0,"is_ugc":0,"text_need":0,"picture_need":63,"video_need":0,"type":"templateapi"},{"id":"1014829","ufid":"17786974","name":"\u767e\u53f6\u7a97","file":"http:\/\/rdfile.oss-cn-hangzhou.aliyuncs.com\/filemanage\/e069b36c568d909f\/templateapi\/16500069743006\/file.zip?nonce=bbab8d3b3290ee7d1f6f87d7f19e144f","cover":"http:\/\/rdfile.oss-cn-hangzhou.aliyuncs.com\/filemanage\/e069b36c568d909f\/templateapi\/1650352324839\/cover_e069b36c568d909f.jpg?nonce=bbab8d3b3290ee7d1f6f87d7f19e144f&x-oss-process=style\/templateapi","updatetime":"1684897022","height":720,"width":1278,"video":"http:\/\/rdfile.oss-cn-hangzhou.aliyuncs.com\/filemanage\/e069b36c568d909f\/templateapi\/16500069743006\/video.mp4?nonce=bbab8d3b3290ee7d1f6f87d7f19e144f","sort":0,"version":152,"cover2":"","appkey":"init","duration":0,"extra":{},"polyglot":[],"category":"0","audit":0,"is_ugc":0,"text_need":0,"picture_need":30,"video_need":0,"type":"templateapi"},{"id":"1014651","ufid":"87423526","name":"\u7070\u8272\u8f68\u8ff9","file":"http:\/\/rdfile.oss-cn-hangzhou.aliyuncs.com\/filemanage\/e069b36c568d909f\/templateapi\/16480256115681\/file.zip?nonce=358514fd3759e127cd07af1d06213266","cover":"http:\/\/rdfile.oss-cn-hangzhou.aliyuncs.com\/filemanage\/e069b36c568d909f\/templateapi\/16480256115681\/cover.png?nonce=358514fd3759e127cd07af1d06213266&x-oss-process=style\/templateapi","updatetime":"1684913322","height":1280,"width":720,"video":"http:\/\/rdfile.oss-cn-hangzhou.aliyuncs.com\/filemanage\/e069b36c568d909f\/templateapi\/16480256115681\/video.mp4?nonce=358514fd3759e127cd07af1d06213266","sort":0,"version":150,"cover2":"","appkey":"init","duration":0,"extra":{},"polyglot":[],"category":"0","audit":0,"is_ugc":0,"text_need":0,"picture_need":0,"video_need":1,"type":"templateapi"},{"id":"1014385","ufid":"16512633","name":"\u4f24\u5fc3\u592a\u5e73\u6d0b","file":"http:\/\/rdfile.oss-cn-hangzhou.aliyuncs.com\/filemanage\/e069b36c568d909f\/templateapi\/16461070254187\/file.zip?nonce=0a89b3f63d0b6a44cf98204fb593d19a","cover":"http:\/\/rdfile.oss-cn-hangzhou.aliyuncs.com\/filemanage\/e069b36c568d909f\/templateapi\/16461070254187\/cover.png?nonce=0a89b3f63d0b6a44cf98204fb593d19a&x-oss-process=style\/templateapi","updatetime":"1684913843","height":1230,"width":692,"video":"http:\/\/rdfile.oss-cn-hangzhou.aliyuncs.com\/filemanage\/e069b36c568d909f\/templateapi\/16461070254187\/video.mp4?nonce=0a89b3f63d0b6a44cf98204fb593d19a","sort":0,"version":150,"cover2":"","appkey":"init","duration":0,"extra":{},"polyglot":[],"category":"0","audit":0,"is_ugc":0,"text_need":1,"picture_need":1,"video_need":0,"type":"templateapi"},{"id":"1015998","ufid":"37041049","name":"\u7167\u7247\u8fd0\u955c","file":"http:\/\/rdfile.oss-cn-hangzhou.aliyuncs.com\/filemanage\/e069b36c568d909f\/templateapi\/16627136371476\/file.zip?nonce=4d767289e7ddd6c74131cdb8f7971595","cover":"http:\/\/rdfile.oss-cn-hangzhou.aliyuncs.com\/filemanage\/e069b36c568d909f\/templateapi\/16627136371476\/cover.webp?nonce=4d767289e7ddd6c74131cdb8f7971595","updatetime":"1684898048","height":810,"width":1440,"video":"http:\/\/rdfile.oss-cn-hangzhou.aliyuncs.com\/filemanage\/e069b36c568d909f\/templateapi\/16627136371476\/video.mp4?nonce=4d767289e7ddd6c74131cdb8f7971595","sort":0,"version":153,"cover2":"","appkey":"init","duration":0,"extra":{},"polyglot":[],"category":"0","audit":0,"is_ugc":0,"text_need":0,"picture_need":0,"video_need":5,"type":"templateapi"},{"id":"1015907","ufid":"61313814","name":"\u7ffb\u9875\u76f8\u518c","file":"http:\/\/rdfile.oss-cn-hangzhou.aliyuncs.com\/filemanage\/e069b36c568d909f\/templateapi\/16606205818634\/file.zip?nonce=c8ab780a86ee4c6724ab8a4ff89c75e7","cover":"http:\/\/rdfile.oss-cn-hangzhou.aliyuncs.com\/filemanage\/e069b36c568d909f\/templateapi\/16606205818634\/cover.webp?nonce=c8ab780a86ee4c6724ab8a4ff89c75e7","updatetime":"1684914332","height":720,"width":1280,"video":"http:\/\/rdfile.oss-cn-hangzhou.aliyuncs.com\/filemanage\/e069b36c568d909f\/templateapi\/16606205818634\/video.mp4?nonce=c8ab780a86ee4c6724ab8a4ff89c75e7","sort":0,"version":153,"cover2":"","appkey":"init","duration":0,"extra":{},"polyglot":[],"category":"0","audit":0,"is_ugc":0,"text_need":0,"picture_need":0,"video_need":32,"type":"templateapi"},{"id":"1014764","ufid":"91090996","name":"\u6298\u75d5\u98ce\u666f","file":"http:\/\/rdfile.oss-cn-hangzhou.aliyuncs.com\/filemanage\/e069b36c568d909f\/templateapi\/16494125029190\/file.zip?nonce=260a8e4d8a7448efa9aa27a53bdaedd7","cover":"http:\/\/rdfile.oss-cn-hangzhou.aliyuncs.com\/filemanage\/e069b36c568d909f\/templateapi\/16494125029190\/cover.png?nonce=260a8e4d8a7448efa9aa27a53bdaedd7&x-oss-process=style\/templateapi","updatetime":"1684897042","height":633,"width":356,"video":"http:\/\/rdfile.oss-cn-hangzhou.aliyuncs.com\/filemanage\/e069b36c568d909f\/templateapi\/16494125029190\/video.mp4?nonce=260a8e4d8a7448efa9aa27a53bdaedd7","sort":0,"version":151,"cover2":"","appkey":"init","duration":0,"extra":{},"polyglot":[],"category":"0","audit":0,"is_ugc":0,"text_need":0,"picture_need":6,"video_need":0,"type":"templateapi"},{"id":"1014708","ufid":"14847986","name":"3D\u8fd0\u955c","file":"http:\/\/rdfile.oss-cn-hangzhou.aliyuncs.com\/filemanage\/e069b36c568d909f\/templateapi\/16486132799925\/file.zip?nonce=2aa3718e7ee9e39867cc107b50cd9575","cover":"http:\/\/rdfile.oss-cn-hangzhou.aliyuncs.com\/filemanage\/e069b36c568d909f\/templateapi\/16486132799925\/cover.png?nonce=2aa3718e7ee9e39867cc107b50cd9575&x-oss-process=style\/templateapi","updatetime":"1684899124","height":1042,"width":720,"video":"http:\/\/rdfile.oss-cn-hangzhou.aliyuncs.com\/filemanage\/e069b36c568d909f\/templateapi\/16486132799925\/video.mp4?nonce=2aa3718e7ee9e39867cc107b50cd9575","sort":0,"version":150,"cover2":"","appkey":"init","duration":0,"extra":{},"polyglot":[],"category":"0","audit":0,"is_ugc":0,"text_need":0,"picture_need":3,"video_need":0,"type":"templateapi"}]}}