{"code":0,"msg":"success","data":{"total":636,"per_page":10,"current_page":18,"last_page":64,"data":[{"id":"1016316","ufid":"57477286","name":"\u9f20\u6807\u7ffb\u9875\u6548\u679c","file":"http:\/\/rdfile.oss-cn-hangzhou.aliyuncs.com\/filemanage\/e069b36c568d909f\/templateapi\/16668677228530\/file.zip?nonce=f38793210fd58869df209c5368cc0e0e","cover":"http:\/\/rdfile.oss-cn-hangzhou.aliyuncs.com\/filemanage\/e069b36c568d909f\/templateapi\/16668677228530\/cover.webp?nonce=f38793210fd58869df209c5368cc0e0e","updatetime":"1704185967","height":1059,"width":1059,"video":"http:\/\/rdfile.oss-cn-hangzhou.aliyuncs.com\/filemanage\/e069b36c568d909f\/templateapi\/16668677228530\/video.mp4?nonce=f38793210fd58869df209c5368cc0e0e","sort":0,"version":153,"cover2":"","appkey":"init","duration":0,"extra":{},"polyglot":{"en":"Mouse page turning effect"},"category":"0","audit":0,"is_ugc":0,"text_need":2,"picture_need":7,"video_need":0,"type":"templateapi"},{"id":"1016314","ufid":"99608019","name":"\u52a8\u611f\u97f3\u4e50\u5361\u70b9","file":"http:\/\/rdfile.oss-cn-hangzhou.aliyuncs.com\/filemanage\/e069b36c568d909f\/templateapi\/16668641304720\/file.zip?nonce=f38793210fd58869df209c5368cc0e0e","cover":"http:\/\/rdfile.oss-cn-hangzhou.aliyuncs.com\/filemanage\/e069b36c568d909f\/templateapi\/16668641304720\/cover.webp?nonce=f38793210fd58869df209c5368cc0e0e","updatetime":"1704185967","height":1920,"width":1080,"video":"http:\/\/rdfile.oss-cn-hangzhou.aliyuncs.com\/filemanage\/e069b36c568d909f\/templateapi\/16668641304720\/video.mp4?nonce=f38793210fd58869df209c5368cc0e0e","sort":0,"version":154,"cover2":"","appkey":"init","duration":0,"extra":{},"polyglot":{"en":"Right time dynamic music"},"category":"0","audit":0,"is_ugc":0,"text_need":0,"picture_need":0,"video_need":5,"type":"templateapi"},{"id":"1016312","ufid":"32262340","name":"\u82e5\u628a\u4f60\u6bd4\u4f5c\u6b4c","file":"http:\/\/rdfile.oss-cn-hangzhou.aliyuncs.com\/filemanage\/e069b36c568d909f\/templateapi\/16668605643588\/file.zip?nonce=f38793210fd58869df209c5368cc0e0e","cover":"http:\/\/rdfile.oss-cn-hangzhou.aliyuncs.com\/filemanage\/e069b36c568d909f\/templateapi\/16668605643588\/cover.webp?nonce=f38793210fd58869df209c5368cc0e0e","updatetime":"1704185967","height":1920,"width":1080,"video":"http:\/\/rdfile.oss-cn-hangzhou.aliyuncs.com\/filemanage\/e069b36c568d909f\/templateapi\/16668605643588\/video.mp4?nonce=f38793210fd58869df209c5368cc0e0e","sort":0,"version":154,"cover2":"","appkey":"init","duration":0,"extra":{},"polyglot":{"en":"If you were compared to a song"},"category":"0","audit":0,"is_ugc":0,"text_need":0,"picture_need":0,"video_need":3,"type":"templateapi"},{"id":"1016310","ufid":"49993015","name":"I like that\u97f3\u4e50\u5361\u70b9","file":"http:\/\/rdfile.oss-cn-hangzhou.aliyuncs.com\/filemanage\/e069b36c568d909f\/templateapi\/16668425464643\/file.zip?nonce=f38793210fd58869df209c5368cc0e0e","cover":"http:\/\/rdfile.oss-cn-hangzhou.aliyuncs.com\/filemanage\/e069b36c568d909f\/templateapi\/16668425464643\/cover.webp?nonce=f38793210fd58869df209c5368cc0e0e","updatetime":"1704185967","height":1920,"width":1080,"video":"http:\/\/rdfile.oss-cn-hangzhou.aliyuncs.com\/filemanage\/e069b36c568d909f\/templateapi\/16668425464643\/video.mp4?nonce=f38793210fd58869df209c5368cc0e0e","sort":0,"version":154,"cover2":"","appkey":"init","duration":0,"extra":{},"polyglot":{"en":"Right time music I like that"},"category":"0","audit":0,"is_ugc":0,"text_need":0,"picture_need":0,"video_need":7,"type":"templateapi"},{"id":"1016308","ufid":"71027933","name":"\u6e05\u7eaf\u5c11\u5973\u8857\u62cd","file":"http:\/\/rdfile.oss-cn-hangzhou.aliyuncs.com\/filemanage\/e069b36c568d909f\/templateapi\/16667744592007\/file.zip?nonce=2bdcf67e79abffa085a58f72f10fbf94","cover":"http:\/\/rdfile.oss-cn-hangzhou.aliyuncs.com\/filemanage\/e069b36c568d909f\/templateapi\/16667744592007\/cover.webp?nonce=2bdcf67e79abffa085a58f72f10fbf94","updatetime":"1704185966","height":1920,"width":1080,"video":"http:\/\/rdfile.oss-cn-hangzhou.aliyuncs.com\/filemanage\/e069b36c568d909f\/templateapi\/16667744592007\/video.mp4?nonce=2bdcf67e79abffa085a58f72f10fbf94","sort":0,"version":154,"cover2":"","appkey":"init","duration":0,"extra":{},"polyglot":{"en":"Street photography of innocent girls"},"category":"0","audit":0,"is_ugc":0,"text_need":0,"picture_need":0,"video_need":3,"type":"templateapi"},{"id":"1016306","ufid":"31824503","name":"\u53e4\u88c5\u7f8e\u5973","file":"http:\/\/rdfile.oss-cn-hangzhou.aliyuncs.com\/filemanage\/e069b36c568d909f\/templateapi\/16667694176294\/file.zip?nonce=2bdcf67e79abffa085a58f72f10fbf94","cover":"http:\/\/rdfile.oss-cn-hangzhou.aliyuncs.com\/filemanage\/e069b36c568d909f\/templateapi\/16667694176294\/cover.webp?nonce=2bdcf67e79abffa085a58f72f10fbf94","updatetime":"1704185966","height":1918,"width":1080,"video":"http:\/\/rdfile.oss-cn-hangzhou.aliyuncs.com\/filemanage\/e069b36c568d909f\/templateapi\/16667694176294\/video.mp4?nonce=2bdcf67e79abffa085a58f72f10fbf94","sort":0,"version":154,"cover2":"","appkey":"init","duration":0,"extra":{},"polyglot":{"en":"Beauties in ancient costumes"},"category":"0","audit":0,"is_ugc":0,"text_need":0,"picture_need":0,"video_need":6,"type":"templateapi"},{"id":"1016305","ufid":"77913371","name":"Gangsta Walk \u97f3\u4e50\u5361\u70b9","file":"http:\/\/rdfile.oss-cn-hangzhou.aliyuncs.com\/filemanage\/e069b36c568d909f\/templateapi\/16667626996374\/file.zip?nonce=2bdcf67e79abffa085a58f72f10fbf94","cover":"http:\/\/rdfile.oss-cn-hangzhou.aliyuncs.com\/filemanage\/e069b36c568d909f\/templateapi\/16667626996374\/cover.webp?nonce=2bdcf67e79abffa085a58f72f10fbf94","updatetime":"1704185966","height":1920,"width":1080,"video":"http:\/\/rdfile.oss-cn-hangzhou.aliyuncs.com\/filemanage\/e069b36c568d909f\/templateapi\/16667626996374\/video.mp4?nonce=2bdcf67e79abffa085a58f72f10fbf94","sort":0,"version":154,"cover2":"","appkey":"init","duration":0,"extra":{},"polyglot":{"en":"Right time music Gangsta Walk"},"category":"0","audit":0,"is_ugc":0,"text_need":0,"picture_need":0,"video_need":5,"type":"templateapi"},{"id":"1016302","ufid":"57633731","name":"\u5fa1\u59d0\u8857\u62cd","file":"http:\/\/rdfile.oss-cn-hangzhou.aliyuncs.com\/filemanage\/e069b36c568d909f\/templateapi\/16666887379670\/file.zip?nonce=5960c05586e08629fa9b28fff44dea8b","cover":"http:\/\/rdfile.oss-cn-hangzhou.aliyuncs.com\/filemanage\/e069b36c568d909f\/templateapi\/16666887379670\/cover.webp?nonce=5960c05586e08629fa9b28fff44dea8b","updatetime":"1704185965","height":1920,"width":1080,"video":"http:\/\/rdfile.oss-cn-hangzhou.aliyuncs.com\/filemanage\/e069b36c568d909f\/templateapi\/16666887379670\/video.mp4?nonce=5960c05586e08629fa9b28fff44dea8b","sort":0,"version":154,"cover2":"","appkey":"init","duration":0,"extra":{},"polyglot":{"en":"Royal sister street shooting"},"category":"0","audit":0,"is_ugc":0,"text_need":0,"picture_need":0,"video_need":4,"type":"templateapi"},{"id":"1016301","ufid":"57728644","name":"Moody \u97f3\u4e50\u5361\u70b9","file":"http:\/\/rdfile.oss-cn-hangzhou.aliyuncs.com\/filemanage\/e069b36c568d909f\/templateapi\/16666822417864\/file.zip?nonce=5960c05586e08629fa9b28fff44dea8b","cover":"http:\/\/rdfile.oss-cn-hangzhou.aliyuncs.com\/filemanage\/e069b36c568d909f\/templateapi\/16666822417864\/cover.webp?nonce=5960c05586e08629fa9b28fff44dea8b","updatetime":"1704185965","height":1920,"width":1080,"video":"http:\/\/rdfile.oss-cn-hangzhou.aliyuncs.com\/filemanage\/e069b36c568d909f\/templateapi\/16666822417864\/video.mp4?nonce=5960c05586e08629fa9b28fff44dea8b","sort":0,"version":154,"cover2":"","appkey":"init","duration":0,"extra":{},"polyglot":{"en":"Right time music Moody"},"category":"0","audit":0,"is_ugc":0,"text_need":0,"picture_need":0,"video_need":4,"type":"templateapi"},{"id":"1016300","ufid":"55734149","name":"Miss you too \u97f3\u4e50\u5361\u70b9","file":"http:\/\/rdfile.oss-cn-hangzhou.aliyuncs.com\/filemanage\/e069b36c568d909f\/templateapi\/16666697316363\/file.zip?nonce=5960c05586e08629fa9b28fff44dea8b","cover":"http:\/\/rdfile.oss-cn-hangzhou.aliyuncs.com\/filemanage\/e069b36c568d909f\/templateapi\/16666697316363\/cover.webp?nonce=5960c05586e08629fa9b28fff44dea8b","updatetime":"1704185965","height":1920,"width":1080,"video":"http:\/\/rdfile.oss-cn-hangzhou.aliyuncs.com\/filemanage\/e069b36c568d909f\/templateapi\/16666697316363\/video.mp4?nonce=5960c05586e08629fa9b28fff44dea8b","sort":0,"version":154,"cover2":"","appkey":"init","duration":0,"extra":{},"polyglot":{"en":"Right time music Miss you too"},"category":"0","audit":0,"is_ugc":0,"text_need":0,"picture_need":0,"video_need":4,"type":"templateapi"}]}}