{"code":0,"msg":"success","data":{"total":173,"per_page":10,"current_page":18,"last_page":18,"data":[{"id":"1011636","ufid":"22131143","name":"\u8bb0\u5f55\u65e5\u5e38","file":"http:\/\/rdfile.oss-cn-hangzhou.aliyuncs.com\/filemanage\/e069b36c568d909f\/templateapi\/16260566042582\/file.zip?nonce=39b71767eb1bf6a1515005f3bb00f217","cover":"http:\/\/rdfile.oss-cn-hangzhou.aliyuncs.com\/filemanage\/e069b36c568d909f\/templateapi\/16260566042582\/cover.png?nonce=39b71767eb1bf6a1515005f3bb00f217&x-oss-process=style\/templateapi","updatetime":"1684914979","height":1080,"width":1080,"video":"http:\/\/rdfile.oss-cn-hangzhou.aliyuncs.com\/filemanage\/e069b36c568d909f\/templateapi\/16260566042582\/video.mp4?nonce=39b71767eb1bf6a1515005f3bb00f217","sort":100,"version":146,"cover2":"","appkey":"init","duration":0,"extra":{},"polyglot":[],"category":"0","audit":0,"is_ugc":0,"text_need":0,"picture_need":0,"video_need":10,"type":"templateapi"},{"id":"1011351","ufid":"61219979","name":"\u751f\u6d3b\u65e5\u8bb0","file":"http:\/\/rdfile.oss-cn-hangzhou.aliyuncs.com\/filemanage\/e069b36c568d909f\/templateapi\/16255578528041\/file.zip?nonce=331114a584f4eb435b8518c554777b0e","cover":"http:\/\/rdfile.oss-cn-hangzhou.aliyuncs.com\/filemanage\/e069b36c568d909f\/templateapi\/16255578528041\/cover.png?nonce=331114a584f4eb435b8518c554777b0e&x-oss-process=style\/templateapi","updatetime":"1684914986","height":1080,"width":1732,"video":"http:\/\/rdfile.oss-cn-hangzhou.aliyuncs.com\/filemanage\/e069b36c568d909f\/templateapi\/16255578528041\/video.mp4?nonce=331114a584f4eb435b8518c554777b0e","sort":100,"version":146,"cover2":"","appkey":"init","duration":0,"extra":{},"polyglot":[],"category":"0","audit":0,"is_ugc":0,"text_need":0,"picture_need":0,"video_need":10,"type":"templateapi"},{"id":"1020818","ufid":"0849ddd4-8009-47be-809f-dd59b807a830","name":"\u8bb0\u5f55\u751f\u6d3b\u5206\u4eab\u559c\u4e50","file":"http:\/\/rdfile.oss-cn-hangzhou.aliyuncs.com\/filemanage\/6ecb39f1c12f1a35\/templateapi\/0849ddd4-8009-47be-809f-dd59b807a830\/file.zip?nonce=3c93cc489cd65532dd1ccfb7dde1e9c2","cover":"http:\/\/rdfile.oss-cn-hangzhou.aliyuncs.com\/filemanage\/6ecb39f1c12f1a35\/templateapi\/0849ddd4-8009-47be-809f-dd59b807a830\/cover.webp?nonce=3c93cc489cd65532dd1ccfb7dde1e9c2","updatetime":"1694422885","height":1259,"width":943,"video":"http:\/\/rdfile.oss-cn-hangzhou.aliyuncs.com\/filemanage\/6ecb39f1c12f1a35\/templateapi\/0849ddd4-8009-47be-809f-dd59b807a830\/video.mp4?nonce=3c93cc489cd65532dd1ccfb7dde1e9c2","sort":0,"version":162,"cover2":"","appkey":"init","duration":0,"extra":{},"polyglot":[],"category":"0","audit":0,"is_ugc":0,"text_need":4,"picture_need":0,"video_need":1,"type":"templateapi"}]}}