{"code":0,"msg":"success","data":{"total":283,"per_page":20,"current_page":7,"last_page":15,"data":[{"id":"1024307","ufid":"93867915","name":"\u54e6\u4e70\u5676\u76f4\u64ad\u5e26\u8d27","file":"http:\/\/rdfile.oss-cn-hangzhou.aliyuncs.com\/filemanage\/init\/audio\/93867915.mp3?nonce=ca6c82b7fd9166577bcb1230637172d8","cover":"","updatetime":"1697698251","height":0,"width":0,"video":"","sort":0,"version":157,"cover2":"","appkey":"init","duration":4,"extra":{},"polyglot":[],"category":"40610022,","audit":0,"is_ugc":0,"type":"audio"},{"id":"1024306","ufid":"98281586","name":"\u54e6\u8c41","file":"http:\/\/rdfile.oss-cn-hangzhou.aliyuncs.com\/filemanage\/init\/audio\/98281586.mp3?nonce=ca6c82b7fd9166577bcb1230637172d8","cover":"","updatetime":"1697698251","height":0,"width":0,"video":"","sort":0,"version":157,"cover2":"","appkey":"init","duration":18,"extra":{},"polyglot":[],"category":"40610022,","audit":0,"is_ugc":0,"type":"audio"},{"id":"1024305","ufid":"35617741","name":"\u60a8\u6709\u65b0\u8ba2\u5355","file":"http:\/\/rdfile.oss-cn-hangzhou.aliyuncs.com\/filemanage\/init\/audio\/35617741.mp3?nonce=ca6c82b7fd9166577bcb1230637172d8","cover":"","updatetime":"1697698251","height":0,"width":0,"video":"","sort":0,"version":157,"cover2":"","appkey":"init","duration":3,"extra":{},"polyglot":[],"category":"40610022,","audit":0,"is_ugc":0,"type":"audio"},{"id":"1024304","ufid":"17277815","name":"\u4f60\u771f\u8be5\u6b7b\u554a","file":"http:\/\/rdfile.oss-cn-hangzhou.aliyuncs.com\/filemanage\/init\/audio\/17277815.mp3?nonce=dfaef45793186b6f1c83723dc340ed0c","cover":"","updatetime":"1697698250","height":0,"width":0,"video":"","sort":0,"version":157,"cover2":"","appkey":"init","duration":4,"extra":{},"polyglot":[],"category":"40610022,","audit":0,"is_ugc":0,"type":"audio"},{"id":"1024303","ufid":"75314928","name":"\u4f60\u600e\u4e48\u7761\u5f97\u7740\u7684","file":"http:\/\/rdfile.oss-cn-hangzhou.aliyuncs.com\/filemanage\/init\/audio\/75314928.mp3?nonce=112c8da0a04116a13a74b31a69524e59","cover":"","updatetime":"1697698299","height":0,"width":0,"video":"","sort":0,"version":157,"cover2":"","appkey":"init","duration":15,"extra":{},"polyglot":[],"category":"40610022,","audit":0,"is_ugc":0,"type":"audio"},{"id":"1024302","ufid":"44130394","name":"\u4f60\u5728\u72d7\u53eb\u4ec0\u4e48","file":"http:\/\/rdfile.oss-cn-hangzhou.aliyuncs.com\/filemanage\/init\/audio\/44130394.mp3?nonce=e0817705c90c52aee34844432444c0b5","cover":"","updatetime":"1697698298","height":0,"width":0,"video":"","sort":0,"version":157,"cover2":"","appkey":"init","duration":9,"extra":{},"polyglot":[],"category":"40610022,","audit":0,"is_ugc":0,"type":"audio"},{"id":"1024301","ufid":"44978446","name":"\u4f60\u50cf\u793c\u7269\u51fa\u73b0\u5728\u6211\u751f\u547d\u91cc","file":"http:\/\/rdfile.oss-cn-hangzhou.aliyuncs.com\/filemanage\/init\/audio\/44978446.mp3?nonce=dfaef45793186b6f1c83723dc340ed0c","cover":"","updatetime":"1697698250","height":0,"width":0,"video":"","sort":0,"version":157,"cover2":"","appkey":"init","duration":7,"extra":{},"polyglot":[],"category":"40610022,","audit":0,"is_ugc":0,"type":"audio"},{"id":"1024300","ufid":"99051215","name":"\u4f60\u60f3\u5e2e\u9f20\u8001\u677f\u5077\u8d70\u7f8e\u5473\u732b","file":"http:\/\/rdfile.oss-cn-hangzhou.aliyuncs.com\/filemanage\/init\/audio\/99051215.mp3?nonce=4494eff4de3211bf827d6520a0e31af2","cover":"","updatetime":"1697698249","height":0,"width":0,"video":"","sort":0,"version":157,"cover2":"","appkey":"init","duration":8,"extra":{},"polyglot":[],"category":"40610022,","audit":0,"is_ugc":0,"type":"audio"},{"id":"1024299","ufid":"32690215","name":"\u4f60\u8bf4\u53d1\u4e86\u5de5\u8d44\u5c31\u8bf7\u6211\u559d\u5976\u8336","file":"http:\/\/rdfile.oss-cn-hangzhou.aliyuncs.com\/filemanage\/init\/audio\/32690215.mp3?nonce=4494eff4de3211bf827d6520a0e31af2","cover":"","updatetime":"1697698249","height":0,"width":0,"video":"","sort":0,"version":157,"cover2":"","appkey":"init","duration":8,"extra":{},"polyglot":[],"category":"40610022,","audit":0,"is_ugc":0,"type":"audio"},{"id":"1024298","ufid":"73928587","name":"\u4f60\u8bf4\u7231\u6211 \u5c0a\u561f\u5047\u561f","file":"http:\/\/rdfile.oss-cn-hangzhou.aliyuncs.com\/filemanage\/init\/audio\/73928587.mp3?nonce=4494eff4de3211bf827d6520a0e31af2","cover":"","updatetime":"1697698249","height":0,"width":0,"video":"","sort":0,"version":157,"cover2":"","appkey":"init","duration":8,"extra":{},"polyglot":[],"category":"40610022,","audit":0,"is_ugc":0,"type":"audio"},{"id":"1024297","ufid":"47279434","name":"\u4f60\u662f\u6211\u60df\u4e00\u7684\u59d0-\u4e01\u6cfd\u4ec1","file":"http:\/\/rdfile.oss-cn-hangzhou.aliyuncs.com\/filemanage\/init\/audio\/47279434.mp3?nonce=e216052dd4f7dd5ae5c74c6225865380","cover":"","updatetime":"1697698248","height":0,"width":0,"video":"","sort":0,"version":157,"cover2":"","appkey":"init","duration":39,"extra":{},"polyglot":[],"category":"40610022,","audit":0,"is_ugc":0,"type":"audio"},{"id":"1024296","ufid":"66763109","name":"\u4f60\u662f\u6211\u7684\u795e","file":"http:\/\/rdfile.oss-cn-hangzhou.aliyuncs.com\/filemanage\/init\/audio\/66763109.mp3?nonce=e216052dd4f7dd5ae5c74c6225865380","cover":"","updatetime":"1697698248","height":0,"width":0,"video":"","sort":0,"version":157,"cover2":"","appkey":"init","duration":31,"extra":{},"polyglot":[],"category":"40610022,","audit":0,"is_ugc":0,"type":"audio"},{"id":"1024295","ufid":"72715905","name":"\u4f60\u662f\u61d2\u60f0\u866b","file":"http:\/\/rdfile.oss-cn-hangzhou.aliyuncs.com\/filemanage\/init\/audio\/72715905.mp3?nonce=e216052dd4f7dd5ae5c74c6225865380","cover":"","updatetime":"1697698248","height":0,"width":0,"video":"","sort":0,"version":157,"cover2":"","appkey":"init","duration":14,"extra":{},"polyglot":[],"category":"40610022,","audit":0,"is_ugc":0,"type":"audio"},{"id":"1024294","ufid":"87555063","name":"\u4f60\u6e05\u9192\u4e00\u70b9 oynn","file":"http:\/\/rdfile.oss-cn-hangzhou.aliyuncs.com\/filemanage\/init\/audio\/87555063.mp3?nonce=e216052dd4f7dd5ae5c74c6225865380","cover":"","updatetime":"1697698248","height":0,"width":0,"video":"","sort":0,"version":157,"cover2":"","appkey":"init","duration":3,"extra":{},"polyglot":[],"category":"40610022,","audit":0,"is_ugc":0,"type":"audio"},{"id":"1024293","ufid":"34318816","name":"\u4f60\u5973\u670b\u53cb\u5f88\u7f8e \u90a3\u5979\u4f1a\u8bf4\u4e2d","file":"http:\/\/rdfile.oss-cn-hangzhou.aliyuncs.com\/filemanage\/init\/audio\/34318816.mp3?nonce=e216052dd4f7dd5ae5c74c6225865380","cover":"","updatetime":"1697698248","height":0,"width":0,"video":"","sort":0,"version":157,"cover2":"","appkey":"init","duration":11,"extra":{},"polyglot":[],"category":"40610022,","audit":0,"is_ugc":0,"type":"audio"},{"id":"1024292","ufid":"36304377","name":"\u4f60\u4e70\u7684\u5976\u8336\u6bd4\u8f83\u751c","file":"http:\/\/rdfile.oss-cn-hangzhou.aliyuncs.com\/filemanage\/init\/audio\/36304377.mp3?nonce=31e7ad0ad138f3ad85565e1d3f4acb14","cover":"","updatetime":"1697698247","height":0,"width":0,"video":"","sort":0,"version":157,"cover2":"","appkey":"init","duration":12,"extra":{},"polyglot":[],"category":"40610022,","audit":0,"is_ugc":0,"type":"audio"},{"id":"1024291","ufid":"15878079","name":"\u4f60\u4eca\u5929\u7d2f\u574f\u4e86\u5c0f\u7ae0\u9c7c","file":"http:\/\/rdfile.oss-cn-hangzhou.aliyuncs.com\/filemanage\/init\/audio\/15878079.mp3?nonce=31e7ad0ad138f3ad85565e1d3f4acb14","cover":"","updatetime":"1697698247","height":0,"width":0,"video":"","sort":0,"version":157,"cover2":"","appkey":"init","duration":14,"extra":{},"polyglot":[],"category":"40610022,","audit":0,"is_ugc":0,"type":"audio"},{"id":"1024290","ufid":"94021023","name":"\u4f60\u6253\u6211\u6492","file":"http:\/\/rdfile.oss-cn-hangzhou.aliyuncs.com\/filemanage\/init\/audio\/94021023.mp3?nonce=31e7ad0ad138f3ad85565e1d3f4acb14","cover":"","updatetime":"1697698247","height":0,"width":0,"video":"","sort":0,"version":157,"cover2":"","appkey":"init","duration":12,"extra":{},"polyglot":[],"category":"40610022,","audit":0,"is_ugc":0,"type":"audio"},{"id":"1024289","ufid":"15385572","name":"\u4f60\u4e0d\u8981\u518d\u5e05\u4e86\u597d\u4e0d\u597d","file":"http:\/\/rdfile.oss-cn-hangzhou.aliyuncs.com\/filemanage\/init\/audio\/15385572.mp3?nonce=31e7ad0ad138f3ad85565e1d3f4acb14","cover":"","updatetime":"1697698247","height":0,"width":0,"video":"","sort":0,"version":157,"cover2":"","appkey":"init","duration":7,"extra":{},"polyglot":[],"category":"40610022,","audit":0,"is_ugc":0,"type":"audio"},{"id":"1024288","ufid":"70894939","name":"\u4f60\u4e0d\u4f1a\u59d0\u4f1a","file":"http:\/\/rdfile.oss-cn-hangzhou.aliyuncs.com\/filemanage\/init\/audio\/70894939.mp3?nonce=31e7ad0ad138f3ad85565e1d3f4acb14","cover":"","updatetime":"1697698247","height":0,"width":0,"video":"","sort":0,"version":157,"cover2":"","appkey":"init","duration":13,"extra":{},"polyglot":[],"category":"40610022,","audit":0,"is_ugc":0,"type":"audio"}]}}