{"code":0,"msg":"success","data":{"total":37,"per_page":20,"current_page":1,"last_page":2,"data":[{"id":"1005340","ufid":"59227955","name":"Zap Dance","file":"http:\/\/rdfile.oss-cn-hangzhou.aliyuncs.com\/filemanage\/init\/cloud_music\/1542012187380\/file.mp3?nonce=33edf1b38877c7d66b7ebd54c348d5fd","cover":"","updatetime":"1701944734","height":0,"width":0,"video":"","sort":100,"version":0,"cover2":"","appkey":"init","duration":31,"extra":{},"polyglot":{"en":"Zap Dance"},"category":"12113105,","audit":0,"is_ugc":0,"type":"cloud_music"},{"id":"1005339","ufid":"36143301","name":"United We Groove","file":"http:\/\/rdfile.oss-cn-hangzhou.aliyuncs.com\/filemanage\/init\/cloud_music\/1542012187910\/file.mp3?nonce=cfcd208495d565ef66e7dff9f98764da","cover":"","updatetime":"0","height":0,"width":0,"video":"","sort":100,"version":0,"cover2":"","appkey":"init","duration":160,"extra":{},"polyglot":{"en":"United We Groove"},"category":"12113105,","audit":0,"is_ugc":0,"type":"cloud_music"},{"id":"1005338","ufid":"66096644","name":"Transition","file":"http:\/\/rdfile.oss-cn-hangzhou.aliyuncs.com\/filemanage\/init\/cloud_music\/1542012187721\/file.mp3?nonce=cfcd208495d565ef66e7dff9f98764da","cover":"","updatetime":"0","height":0,"width":0,"video":"","sort":100,"version":0,"cover2":"","appkey":"init","duration":115,"extra":{},"polyglot":{"en":"Transition"},"category":"12113105,","audit":0,"is_ugc":0,"type":"cloud_music"},{"id":"1005337","ufid":"51316622","name":"Totally Looped","file":"http:\/\/rdfile.oss-cn-hangzhou.aliyuncs.com\/filemanage\/init\/cloud_music\/1542012187715\/file.mp3?nonce=cfcd208495d565ef66e7dff9f98764da","cover":"","updatetime":"0","height":0,"width":0,"video":"","sort":100,"version":0,"cover2":"","appkey":"init","duration":124,"extra":{},"polyglot":{"en":"Totally Looped"},"category":"12113105,","audit":0,"is_ugc":0,"type":"cloud_music"},{"id":"1005336","ufid":"47388177","name":"Thump","file":"http:\/\/rdfile.oss-cn-hangzhou.aliyuncs.com\/filemanage\/init\/cloud_music\/1542012187706\/file.mp3?nonce=cfcd208495d565ef66e7dff9f98764da","cover":"","updatetime":"0","height":0,"width":0,"video":"","sort":100,"version":0,"cover2":"","appkey":"init","duration":115,"extra":{},"polyglot":{"en":"Thump"},"category":"12113105,","audit":0,"is_ugc":0,"type":"cloud_music"},{"id":"1005335","ufid":"27772801","name":"Thought Bot","file":"http:\/\/rdfile.oss-cn-hangzhou.aliyuncs.com\/filemanage\/init\/cloud_music\/1542012187915\/file.mp3?nonce=cfcd208495d565ef66e7dff9f98764da","cover":"","updatetime":"0","height":0,"width":0,"video":"","sort":100,"version":0,"cover2":"","appkey":"init","duration":174,"extra":{},"polyglot":{"en":"Thought Bot"},"category":"12113105,","audit":0,"is_ugc":0,"type":"cloud_music"},{"id":"1005334","ufid":"20255792","name":"Think Tank","file":"http:\/\/rdfile.oss-cn-hangzhou.aliyuncs.com\/filemanage\/init\/cloud_music\/1542012187797\/file.mp3?nonce=cfcd208495d565ef66e7dff9f98764da","cover":"","updatetime":"0","height":0,"width":0,"video":"","sort":100,"version":0,"cover2":"","appkey":"init","duration":166,"extra":{},"polyglot":{"en":"Think Tank"},"category":"12113105,","audit":0,"is_ugc":0,"type":"cloud_music"},{"id":"1005333","ufid":"70422574","name":"There You Go","file":"http:\/\/rdfile.oss-cn-hangzhou.aliyuncs.com\/filemanage\/init\/cloud_music\/1542012187316\/file.mp3?nonce=cfcd208495d565ef66e7dff9f98764da","cover":"","updatetime":"0","height":0,"width":0,"video":"","sort":100,"version":0,"cover2":"","appkey":"init","duration":127,"extra":{},"polyglot":{"en":"There You Go"},"category":"12113105,","audit":0,"is_ugc":0,"type":"cloud_music"},{"id":"1005332","ufid":"19152973","name":"The Big House","file":"http:\/\/rdfile.oss-cn-hangzhou.aliyuncs.com\/filemanage\/init\/cloud_music\/1542012187634\/file.mp3?nonce=cfcd208495d565ef66e7dff9f98764da","cover":"","updatetime":"0","height":0,"width":0,"video":"","sort":100,"version":0,"cover2":"","appkey":"init","duration":189,"extra":{},"polyglot":{"en":"The Big House"},"category":"12113105,","audit":0,"is_ugc":0,"type":"cloud_music"},{"id":"1005331","ufid":"61921917","name":"Tech Talk","file":"http:\/\/rdfile.oss-cn-hangzhou.aliyuncs.com\/filemanage\/init\/cloud_music\/1542012187643\/file.mp3?nonce=cfcd208495d565ef66e7dff9f98764da","cover":"","updatetime":"0","height":0,"width":0,"video":"","sort":100,"version":0,"cover2":"","appkey":"init","duration":91,"extra":{},"polyglot":{"en":"Tech Talk"},"category":"12113105,","audit":0,"is_ugc":0,"type":"cloud_music"},{"id":"1005330","ufid":"47557072","name":"Talking Stain Dance","file":"http:\/\/rdfile.oss-cn-hangzhou.aliyuncs.com\/filemanage\/init\/cloud_music\/1542012187414\/file.mp3?nonce=cfcd208495d565ef66e7dff9f98764da","cover":"","updatetime":"0","height":0,"width":0,"video":"","sort":100,"version":0,"cover2":"","appkey":"init","duration":57,"extra":{},"polyglot":{"en":"Talking Stain Dance"},"category":"12113105,","audit":0,"is_ugc":0,"type":"cloud_music"},{"id":"1005329","ufid":"12434219","name":"Smooth Jazz Night","file":"http:\/\/rdfile.oss-cn-hangzhou.aliyuncs.com\/filemanage\/init\/cloud_music\/1542012187657\/file.mp3?nonce=cfcd208495d565ef66e7dff9f98764da","cover":"","updatetime":"0","height":0,"width":0,"video":"","sort":100,"version":0,"cover2":"","appkey":"init","duration":111,"extra":{},"polyglot":{"en":"Smooth Jazz Night"},"category":"12113105,","audit":0,"is_ugc":0,"type":"cloud_music"},{"id":"1005328","ufid":"92496989","name":"Rhastafarian","file":"http:\/\/rdfile.oss-cn-hangzhou.aliyuncs.com\/filemanage\/init\/cloud_music\/1542012187897\/file.mp3?nonce=cfcd208495d565ef66e7dff9f98764da","cover":"","updatetime":"0","height":0,"width":0,"video":"","sort":100,"version":0,"cover2":"","appkey":"init","duration":233,"extra":{},"polyglot":{"en":"Rhastafarian"},"category":"12113105,","audit":0,"is_ugc":0,"type":"cloud_music"},{"id":"1005327","ufid":"64357899","name":"Pepper's Funk","file":"http:\/\/rdfile.oss-cn-hangzhou.aliyuncs.com\/filemanage\/init\/cloud_music\/1542012187475\/file.mp3?nonce=cfcd208495d565ef66e7dff9f98764da","cover":"","updatetime":"0","height":0,"width":0,"video":"","sort":100,"version":0,"cover2":"","appkey":"init","duration":36,"extra":{},"polyglot":{"en":"Pepper's Funk"},"category":"12113105,","audit":0,"is_ugc":0,"type":"cloud_music"},{"id":"1005326","ufid":"71088422","name":"Ooh Hey","file":"http:\/\/rdfile.oss-cn-hangzhou.aliyuncs.com\/filemanage\/init\/cloud_music\/1542012187663\/file.mp3?nonce=cfcd208495d565ef66e7dff9f98764da","cover":"","updatetime":"0","height":0,"width":0,"video":"","sort":100,"version":0,"cover2":"","appkey":"init","duration":157,"extra":{},"polyglot":{"en":"Ooh Hey"},"category":"12113105,","audit":0,"is_ugc":0,"type":"cloud_music"},{"id":"1005325","ufid":"53409329","name":"Ice Cold","file":"http:\/\/rdfile.oss-cn-hangzhou.aliyuncs.com\/filemanage\/init\/cloud_music\/1542012187470\/file.mp3?nonce=cfcd208495d565ef66e7dff9f98764da","cover":"","updatetime":"0","height":0,"width":0,"video":"","sort":100,"version":0,"cover2":"","appkey":"init","duration":162,"extra":{},"polyglot":{"en":"Ice Cold"},"category":"12113105,","audit":0,"is_ugc":0,"type":"cloud_music"},{"id":"1005324","ufid":"66919277","name":"Hot Mess","file":"http:\/\/rdfile.oss-cn-hangzhou.aliyuncs.com\/filemanage\/init\/cloud_music\/1542012187403\/file.mp3?nonce=cfcd208495d565ef66e7dff9f98764da","cover":"","updatetime":"0","height":0,"width":0,"video":"","sort":100,"version":0,"cover2":"","appkey":"init","duration":178,"extra":{},"polyglot":{"en":"Hot Mess"},"category":"12113105,","audit":0,"is_ugc":0,"type":"cloud_music"},{"id":"1005323","ufid":"25126992","name":"Hope Against Hope","file":"http:\/\/rdfile.oss-cn-hangzhou.aliyuncs.com\/filemanage\/init\/cloud_music\/1542012186197\/file.mp3?nonce=cfcd208495d565ef66e7dff9f98764da","cover":"","updatetime":"0","height":0,"width":0,"video":"","sort":100,"version":0,"cover2":"","appkey":"init","duration":102,"extra":{},"polyglot":{"en":"Hope Against Hope"},"category":"12113105,","audit":0,"is_ugc":0,"type":"cloud_music"},{"id":"1005322","ufid":"28838432","name":"Groovy Baby","file":"http:\/\/rdfile.oss-cn-hangzhou.aliyuncs.com\/filemanage\/init\/cloud_music\/1542012186485\/file.mp3?nonce=cfcd208495d565ef66e7dff9f98764da","cover":"","updatetime":"0","height":0,"width":0,"video":"","sort":100,"version":0,"cover2":"","appkey":"init","duration":148,"extra":{},"polyglot":{"en":"Groovy Baby"},"category":"12113105,","audit":0,"is_ugc":0,"type":"cloud_music"},{"id":"1005321","ufid":"63993330","name":"ForeverBelieve","file":"http:\/\/rdfile.oss-cn-hangzhou.aliyuncs.com\/filemanage\/init\/cloud_music\/1542012186652\/file.mp3?nonce=cfcd208495d565ef66e7dff9f98764da","cover":"","updatetime":"0","height":0,"width":0,"video":"","sort":100,"version":0,"cover2":"","appkey":"init","duration":163,"extra":{},"polyglot":{"en":"ForeverBelieve"},"category":"12113105,","audit":0,"is_ugc":0,"type":"cloud_music"}]}}