{"code":0,"msg":"success","data":{"total":81,"per_page":20,"current_page":1,"last_page":5,"data":[{"id":"1005236","ufid":"34052786","name":"Yeah","file":"http:\/\/rdfile.oss-cn-hangzhou.aliyuncs.com\/filemanage\/init\/cloud_music\/1542012185565\/file.mp3?nonce=cfcd208495d565ef66e7dff9f98764da","cover":"","updatetime":"0","height":0,"width":0,"video":"","sort":100,"version":0,"cover2":"","appkey":"init","duration":93,"extra":{},"polyglot":{"en":"Yeah"},"category":"74711967,","audit":0,"is_ugc":0,"type":"cloud_music"},{"id":"1005235","ufid":"62921770","name":"Yeah Yeah","file":"http:\/\/rdfile.oss-cn-hangzhou.aliyuncs.com\/filemanage\/init\/cloud_music\/1542012185484\/file.mp3?nonce=cfcd208495d565ef66e7dff9f98764da","cover":"","updatetime":"0","height":0,"width":0,"video":"","sort":100,"version":0,"cover2":"","appkey":"init","duration":139,"extra":{},"polyglot":{"en":"Yeah Yeah"},"category":"74711967,","audit":0,"is_ugc":0,"type":"cloud_music"},{"id":"1005234","ufid":"96224509","name":"Whoopsy","file":"http:\/\/rdfile.oss-cn-hangzhou.aliyuncs.com\/filemanage\/init\/cloud_music\/1542012185861\/file.mp3?nonce=cfcd208495d565ef66e7dff9f98764da","cover":"","updatetime":"0","height":0,"width":0,"video":"","sort":100,"version":0,"cover2":"","appkey":"init","duration":68,"extra":{},"polyglot":{"en":"Whoopsy"},"category":"74711967,","audit":0,"is_ugc":0,"type":"cloud_music"},{"id":"1005233","ufid":"16314419","name":"Which Way Is Up","file":"http:\/\/rdfile.oss-cn-hangzhou.aliyuncs.com\/filemanage\/init\/cloud_music\/1542012185219\/file.mp3?nonce=cfcd208495d565ef66e7dff9f98764da","cover":"","updatetime":"0","height":0,"width":0,"video":"","sort":100,"version":0,"cover2":"","appkey":"init","duration":120,"extra":{},"polyglot":{"en":"Which Way Is Up"},"category":"74711967,","audit":0,"is_ugc":0,"type":"cloud_music"},{"id":"1005232","ufid":"23768607","name":"Wheels","file":"http:\/\/rdfile.oss-cn-hangzhou.aliyuncs.com\/filemanage\/init\/cloud_music\/1542012185613\/file.mp3?nonce=cfcd208495d565ef66e7dff9f98764da","cover":"","updatetime":"0","height":0,"width":0,"video":"","sort":100,"version":0,"cover2":"","appkey":"init","duration":212,"extra":{},"polyglot":{"en":"Wheels"},"category":"74711967,","audit":0,"is_ugc":0,"type":"cloud_music"},{"id":"1005231","ufid":"46948713","name":"Whats It To Ya Punk","file":"http:\/\/rdfile.oss-cn-hangzhou.aliyuncs.com\/filemanage\/init\/cloud_music\/1542012185617\/file.mp3?nonce=cfcd208495d565ef66e7dff9f98764da","cover":"","updatetime":"0","height":0,"width":0,"video":"","sort":100,"version":0,"cover2":"","appkey":"init","duration":122,"extra":{},"polyglot":{"en":"Whats It To Ya Punk"},"category":"74711967,","audit":0,"is_ugc":0,"type":"cloud_music"},{"id":"1005230","ufid":"79676543","name":"Whatdafunk","file":"http:\/\/rdfile.oss-cn-hangzhou.aliyuncs.com\/filemanage\/init\/cloud_music\/1542012185830\/file.mp3?nonce=cfcd208495d565ef66e7dff9f98764da","cover":"","updatetime":"0","height":0,"width":0,"video":"","sort":100,"version":0,"cover2":"","appkey":"init","duration":278,"extra":{},"polyglot":{"en":"Whatdafunk"},"category":"74711967,","audit":0,"is_ugc":0,"type":"cloud_music"},{"id":"1005229","ufid":"33678898","name":"What Child Is This","file":"http:\/\/rdfile.oss-cn-hangzhou.aliyuncs.com\/filemanage\/init\/cloud_music\/1542012185255\/file.mp3?nonce=cfcd208495d565ef66e7dff9f98764da","cover":"","updatetime":"0","height":0,"width":0,"video":"","sort":100,"version":0,"cover2":"","appkey":"init","duration":103,"extra":{},"polyglot":{"en":"What Child Is This"},"category":"74711967,","audit":0,"is_ugc":0,"type":"cloud_music"},{"id":"1005228","ufid":"33871437","name":"We Wish You A Merry Xmas","file":"http:\/\/rdfile.oss-cn-hangzhou.aliyuncs.com\/filemanage\/init\/cloud_music\/1542012185442\/file.mp3?nonce=cfcd208495d565ef66e7dff9f98764da","cover":"","updatetime":"0","height":0,"width":0,"video":"","sort":100,"version":0,"cover2":"","appkey":"init","duration":55,"extra":{},"polyglot":{"en":"We Wish You A Merry Xmas"},"category":"74711967,","audit":0,"is_ugc":0,"type":"cloud_music"},{"id":"1005227","ufid":"43972324","name":"Tuba Waddle","file":"http:\/\/rdfile.oss-cn-hangzhou.aliyuncs.com\/filemanage\/init\/cloud_music\/1542012185784\/file.mp3?nonce=cfcd208495d565ef66e7dff9f98764da","cover":"","updatetime":"0","height":0,"width":0,"video":"","sort":100,"version":0,"cover2":"","appkey":"init","duration":58,"extra":{},"polyglot":{"en":"Tuba Waddle"},"category":"74711967,","audit":0,"is_ugc":0,"type":"cloud_music"},{"id":"1005226","ufid":"84442540","name":"Triumphant Return","file":"http:\/\/rdfile.oss-cn-hangzhou.aliyuncs.com\/filemanage\/init\/cloud_music\/1542012185104\/file.mp3?nonce=cfcd208495d565ef66e7dff9f98764da","cover":"","updatetime":"0","height":0,"width":0,"video":"","sort":100,"version":0,"cover2":"","appkey":"init","duration":286,"extra":{},"polyglot":{"en":"Triumphant Return"},"category":"74711967,","audit":0,"is_ugc":0,"type":"cloud_music"},{"id":"1005225","ufid":"58166811","name":"Triangle","file":"http:\/\/rdfile.oss-cn-hangzhou.aliyuncs.com\/filemanage\/init\/cloud_music\/1542012185713\/file.mp3?nonce=cfcd208495d565ef66e7dff9f98764da","cover":"","updatetime":"0","height":0,"width":0,"video":"","sort":100,"version":0,"cover2":"","appkey":"init","duration":221,"extra":{},"polyglot":{"en":"Triangle"},"category":"74711967,","audit":0,"is_ugc":0,"type":"cloud_music"},{"id":"1005224","ufid":"82107577","name":"TravelLight","file":"http:\/\/rdfile.oss-cn-hangzhou.aliyuncs.com\/filemanage\/init\/cloud_music\/1542012185334\/file.mp3?nonce=cfcd208495d565ef66e7dff9f98764da","cover":"","updatetime":"0","height":0,"width":0,"video":"","sort":100,"version":0,"cover2":"","appkey":"init","duration":114,"extra":{},"polyglot":{"en":"TravelLight"},"category":"74711967,","audit":0,"is_ugc":0,"type":"cloud_music"},{"id":"1005223","ufid":"37935253","name":"Ticket To Nowhere Man","file":"http:\/\/rdfile.oss-cn-hangzhou.aliyuncs.com\/filemanage\/init\/cloud_music\/1542012185377\/file.mp3?nonce=cfcd208495d565ef66e7dff9f98764da","cover":"","updatetime":"0","height":0,"width":0,"video":"","sort":100,"version":0,"cover2":"","appkey":"init","duration":80,"extra":{},"polyglot":{"en":"Ticket To Nowhere Man"},"category":"74711967,","audit":0,"is_ugc":0,"type":"cloud_music"},{"id":"1005222","ufid":"29519414","name":"Thingamajig","file":"http:\/\/rdfile.oss-cn-hangzhou.aliyuncs.com\/filemanage\/init\/cloud_music\/1542012185722\/file.mp3?nonce=cfcd208495d565ef66e7dff9f98764da","cover":"","updatetime":"0","height":0,"width":0,"video":"","sort":100,"version":0,"cover2":"","appkey":"init","duration":234,"extra":{},"polyglot":{"en":"Thingamajig"},"category":"74711967,","audit":0,"is_ugc":0,"type":"cloud_music"},{"id":"1005221","ufid":"64941177","name":"Texas Techno","file":"http:\/\/rdfile.oss-cn-hangzhou.aliyuncs.com\/filemanage\/init\/cloud_music\/1542012185797\/file.mp3?nonce=cfcd208495d565ef66e7dff9f98764da","cover":"","updatetime":"0","height":0,"width":0,"video":"","sort":100,"version":0,"cover2":"","appkey":"init","duration":169,"extra":{},"polyglot":{"en":"Texas Techno"},"category":"74711967,","audit":0,"is_ugc":0,"type":"cloud_music"},{"id":"1005220","ufid":"21488896","name":"Tennessee Hayride","file":"http:\/\/rdfile.oss-cn-hangzhou.aliyuncs.com\/filemanage\/init\/cloud_music\/1542012185170\/file.mp3?nonce=cfcd208495d565ef66e7dff9f98764da","cover":"","updatetime":"0","height":0,"width":0,"video":"","sort":100,"version":0,"cover2":"","appkey":"init","duration":154,"extra":{},"polyglot":{"en":"Tennessee Hayride"},"category":"74711967,","audit":0,"is_ugc":0,"type":"cloud_music"},{"id":"1005219","ufid":"38772873","name":"Sunset Strip","file":"http:\/\/rdfile.oss-cn-hangzhou.aliyuncs.com\/filemanage\/init\/cloud_music\/1542012185525\/file.mp3?nonce=cfcd208495d565ef66e7dff9f98764da","cover":"","updatetime":"0","height":0,"width":0,"video":"","sort":100,"version":0,"cover2":"","appkey":"init","duration":44,"extra":{},"polyglot":{"en":"Sunset Strip"},"category":"74711967,","audit":0,"is_ugc":0,"type":"cloud_music"},{"id":"1005218","ufid":"30422015","name":"Sunday Spirit","file":"http:\/\/rdfile.oss-cn-hangzhou.aliyuncs.com\/filemanage\/init\/cloud_music\/1542012185868\/file.mp3?nonce=cfcd208495d565ef66e7dff9f98764da","cover":"","updatetime":"0","height":0,"width":0,"video":"","sort":100,"version":0,"cover2":"","appkey":"init","duration":104,"extra":{},"polyglot":{"en":"Sunday Spirit"},"category":"74711967,","audit":0,"is_ugc":0,"type":"cloud_music"},{"id":"1005217","ufid":"49122918","name":"Summer Sidewalk","file":"http:\/\/rdfile.oss-cn-hangzhou.aliyuncs.com\/filemanage\/init\/cloud_music\/1542012185511\/file.mp3?nonce=cfcd208495d565ef66e7dff9f98764da","cover":"","updatetime":"0","height":0,"width":0,"video":"","sort":100,"version":0,"cover2":"","appkey":"init","duration":149,"extra":{},"polyglot":{"en":"Summer Sidewalk"},"category":"74711967,","audit":0,"is_ugc":0,"type":"cloud_music"}]}}