{"code":0,"msg":"success","data":{"total":58,"per_page":20,"current_page":1,"last_page":3,"data":[{"id":"1005069","ufid":"41717121","name":"The Deadly Year","file":"http:\/\/rdfile.oss-cn-hangzhou.aliyuncs.com\/filemanage\/init\/cloud_music\/1542012183594\/file.mp3?nonce=cfcd208495d565ef66e7dff9f98764da","cover":"","updatetime":"0","height":0,"width":0,"video":"","sort":100,"version":0,"cover2":"","appkey":"init","duration":73,"extra":{},"polyglot":{"en":"The Deadly Year"},"category":"75028754,","audit":0,"is_ugc":0,"type":"cloud_music"},{"id":"1005068","ufid":"90855149","name":"The Contract","file":"http:\/\/rdfile.oss-cn-hangzhou.aliyuncs.com\/filemanage\/init\/cloud_music\/1542012183749\/file.mp3?nonce=cfcd208495d565ef66e7dff9f98764da","cover":"","updatetime":"0","height":0,"width":0,"video":"","sort":100,"version":0,"cover2":"","appkey":"init","duration":36,"extra":{},"polyglot":{"en":"The Contract"},"category":"75028754,","audit":0,"is_ugc":0,"type":"cloud_music"},{"id":"1005067","ufid":"66392287","name":"The Children's Room","file":"http:\/\/rdfile.oss-cn-hangzhou.aliyuncs.com\/filemanage\/init\/cloud_music\/1542012183379\/file.mp3?nonce=cfcd208495d565ef66e7dff9f98764da","cover":"","updatetime":"0","height":0,"width":0,"video":"","sort":100,"version":0,"cover2":"","appkey":"init","duration":136,"extra":{},"polyglot":{"en":"The Children's Room"},"category":"75028754,","audit":0,"is_ugc":0,"type":"cloud_music"},{"id":"1005066","ufid":"79853434","name":"Spots Action","file":"http:\/\/rdfile.oss-cn-hangzhou.aliyuncs.com\/filemanage\/init\/cloud_music\/1542012183463\/file.mp3?nonce=cfcd208495d565ef66e7dff9f98764da","cover":"","updatetime":"0","height":0,"width":0,"video":"","sort":100,"version":0,"cover2":"","appkey":"init","duration":115,"extra":{},"polyglot":{"en":"Spots Action"},"category":"75028754,","audit":0,"is_ugc":0,"type":"cloud_music"},{"id":"1005065","ufid":"30121101","name":"Somber","file":"http:\/\/rdfile.oss-cn-hangzhou.aliyuncs.com\/filemanage\/init\/cloud_music\/1542012183378\/file.mp3?nonce=cfcd208495d565ef66e7dff9f98764da","cover":"","updatetime":"0","height":0,"width":0,"video":"","sort":100,"version":0,"cover2":"","appkey":"init","duration":111,"extra":{},"polyglot":{"en":"Somber"},"category":"75028754,","audit":0,"is_ugc":0,"type":"cloud_music"},{"id":"1005064","ufid":"43574400","name":"SmellsLikeGrunge","file":"http:\/\/rdfile.oss-cn-hangzhou.aliyuncs.com\/filemanage\/init\/cloud_music\/1542012183509\/file.mp3?nonce=cfcd208495d565ef66e7dff9f98764da","cover":"","updatetime":"0","height":0,"width":0,"video":"","sort":100,"version":0,"cover2":"","appkey":"init","duration":220,"extra":{},"polyglot":{"en":"SmellsLikeGrunge"},"category":"75028754,","audit":0,"is_ugc":0,"type":"cloud_music"},{"id":"1005063","ufid":"87311063","name":"Sk8tboard","file":"http:\/\/rdfile.oss-cn-hangzhou.aliyuncs.com\/filemanage\/init\/cloud_music\/1542012183162\/file.mp3?nonce=cfcd208495d565ef66e7dff9f98764da","cover":"","updatetime":"0","height":0,"width":0,"video":"","sort":100,"version":0,"cover2":"","appkey":"init","duration":127,"extra":{},"polyglot":{"en":"Sk8tboard"},"category":"75028754,","audit":0,"is_ugc":0,"type":"cloud_music"},{"id":"1005062","ufid":"37023490","name":"SeductressDubstep","file":"http:\/\/rdfile.oss-cn-hangzhou.aliyuncs.com\/filemanage\/init\/cloud_music\/1542012183160\/file.mp3?nonce=cfcd208495d565ef66e7dff9f98764da","cover":"","updatetime":"0","height":0,"width":0,"video":"","sort":100,"version":0,"cover2":"","appkey":"init","duration":130,"extra":{},"polyglot":{"en":"SeductressDubstep"},"category":"75028754,","audit":0,"is_ugc":0,"type":"cloud_music"},{"id":"1005061","ufid":"63208835","name":"Search And Destory","file":"http:\/\/rdfile.oss-cn-hangzhou.aliyuncs.com\/filemanage\/init\/cloud_music\/1542012183357\/file.mp3?nonce=cfcd208495d565ef66e7dff9f98764da","cover":"","updatetime":"0","height":0,"width":0,"video":"","sort":100,"version":0,"cover2":"","appkey":"init","duration":187,"extra":{},"polyglot":{"en":"Search And Destory"},"category":"75028754,","audit":0,"is_ugc":0,"type":"cloud_music"},{"id":"1005060","ufid":"15402969","name":"Sailors Lament","file":"http:\/\/rdfile.oss-cn-hangzhou.aliyuncs.com\/filemanage\/init\/cloud_music\/1542012183170\/file.mp3?nonce=cfcd208495d565ef66e7dff9f98764da","cover":"","updatetime":"0","height":0,"width":0,"video":"","sort":100,"version":0,"cover2":"","appkey":"init","duration":189,"extra":{},"polyglot":{"en":"Sailors Lament"},"category":"75028754,","audit":0,"is_ugc":0,"type":"cloud_music"},{"id":"1005059","ufid":"65889387","name":"RockIntro3","file":"http:\/\/rdfile.oss-cn-hangzhou.aliyuncs.com\/filemanage\/init\/cloud_music\/1542012183646\/file.mp3?nonce=cfcd208495d565ef66e7dff9f98764da","cover":"","updatetime":"0","height":0,"width":0,"video":"","sort":100,"version":0,"cover2":"","appkey":"init","duration":14,"extra":{},"polyglot":{"en":"RockIntro3"},"category":"75028754,","audit":0,"is_ugc":0,"type":"cloud_music"},{"id":"1005058","ufid":"20216987","name":"Rock Tune","file":"http:\/\/rdfile.oss-cn-hangzhou.aliyuncs.com\/filemanage\/init\/cloud_music\/1542012183714\/file.mp3?nonce=cfcd208495d565ef66e7dff9f98764da","cover":"","updatetime":"0","height":0,"width":0,"video":"","sort":100,"version":0,"cover2":"","appkey":"init","duration":171,"extra":{},"polyglot":{"en":"Rock Tune"},"category":"75028754,","audit":0,"is_ugc":0,"type":"cloud_music"},{"id":"1005057","ufid":"88398564","name":"Rock Energy","file":"http:\/\/rdfile.oss-cn-hangzhou.aliyuncs.com\/filemanage\/init\/cloud_music\/1542012183369\/file.mp3?nonce=cfcd208495d565ef66e7dff9f98764da","cover":"","updatetime":"0","height":0,"width":0,"video":"","sort":100,"version":0,"cover2":"","appkey":"init","duration":116,"extra":{},"polyglot":{"en":"Rock Energy"},"category":"75028754,","audit":0,"is_ugc":0,"type":"cloud_music"},{"id":"1005056","ufid":"49493772","name":"Right On Red","file":"http:\/\/rdfile.oss-cn-hangzhou.aliyuncs.com\/filemanage\/init\/cloud_music\/1542012183651\/file.mp3?nonce=cfcd208495d565ef66e7dff9f98764da","cover":"","updatetime":"0","height":0,"width":0,"video":"","sort":100,"version":0,"cover2":"","appkey":"init","duration":229,"extra":{},"polyglot":{"en":"Right On Red"},"category":"75028754,","audit":0,"is_ugc":0,"type":"cloud_music"},{"id":"1005055","ufid":"22434764","name":"Renaissance","file":"http:\/\/rdfile.oss-cn-hangzhou.aliyuncs.com\/filemanage\/init\/cloud_music\/1542012183312\/file.mp3?nonce=cfcd208495d565ef66e7dff9f98764da","cover":"","updatetime":"0","height":0,"width":0,"video":"","sort":100,"version":0,"cover2":"","appkey":"init","duration":93,"extra":{},"polyglot":{"en":"Renaissance"},"category":"75028754,","audit":0,"is_ugc":0,"type":"cloud_music"},{"id":"1005054","ufid":"80353938","name":"Real Bad Girl","file":"http:\/\/rdfile.oss-cn-hangzhou.aliyuncs.com\/filemanage\/init\/cloud_music\/1542012183933\/file.mp3?nonce=cfcd208495d565ef66e7dff9f98764da","cover":"","updatetime":"0","height":0,"width":0,"video":"","sort":100,"version":0,"cover2":"","appkey":"init","duration":123,"extra":{},"polyglot":{"en":"Real Bad Girl"},"category":"75028754,","audit":0,"is_ugc":0,"type":"cloud_music"},{"id":"1005053","ufid":"85102883","name":"RadioRock","file":"http:\/\/rdfile.oss-cn-hangzhou.aliyuncs.com\/filemanage\/init\/cloud_music\/1542012183876\/file.mp3?nonce=cfcd208495d565ef66e7dff9f98764da","cover":"","updatetime":"0","height":0,"width":0,"video":"","sort":100,"version":0,"cover2":"","appkey":"init","duration":178,"extra":{},"polyglot":{"en":"RadioRock"},"category":"75028754,","audit":0,"is_ugc":0,"type":"cloud_music"},{"id":"1005052","ufid":"43026651","name":"Quirky Jerk","file":"http:\/\/rdfile.oss-cn-hangzhou.aliyuncs.com\/filemanage\/init\/cloud_music\/1542012183792\/file.mp3?nonce=cfcd208495d565ef66e7dff9f98764da","cover":"","updatetime":"0","height":0,"width":0,"video":"","sort":100,"version":0,"cover2":"","appkey":"init","duration":72,"extra":{},"polyglot":{"en":"Quirky Jerk"},"category":"75028754,","audit":0,"is_ugc":0,"type":"cloud_music"},{"id":"1005051","ufid":"14216537","name":"Quiet","file":"http:\/\/rdfile.oss-cn-hangzhou.aliyuncs.com\/filemanage\/init\/cloud_music\/1542012183822\/file.mp3?nonce=cfcd208495d565ef66e7dff9f98764da","cover":"","updatetime":"0","height":0,"width":0,"video":"","sort":100,"version":0,"cover2":"","appkey":"init","duration":95,"extra":{},"polyglot":{"en":"Quiet"},"category":"75028754,","audit":0,"is_ugc":0,"type":"cloud_music"},{"id":"1005050","ufid":"67444584","name":"Pyramids","file":"http:\/\/rdfile.oss-cn-hangzhou.aliyuncs.com\/filemanage\/init\/cloud_music\/1542012183120\/file.mp3?nonce=cfcd208495d565ef66e7dff9f98764da","cover":"","updatetime":"0","height":0,"width":0,"video":"","sort":100,"version":0,"cover2":"","appkey":"init","duration":151,"extra":{},"polyglot":{"en":"Pyramids"},"category":"75028754,","audit":0,"is_ugc":0,"type":"cloud_music"}]}}