{"code":0,"msg":"success","data":{"total":48,"per_page":20,"current_page":1,"last_page":3,"data":[{"id":"1005117","ufid":"30572321","name":"Winter","file":"http:\/\/rdfile.oss-cn-hangzhou.aliyuncs.com\/filemanage\/init\/cloud_music\/1542012184482\/file.mp3?nonce=cfcd208495d565ef66e7dff9f98764da","cover":"","updatetime":"0","height":0,"width":0,"video":"","sort":100,"version":0,"cover2":"","appkey":"init","duration":322,"extra":{},"polyglot":{"en":"Winter"},"category":"84596108,","audit":0,"is_ugc":0,"type":"cloud_music"},{"id":"1005116","ufid":"49816769","name":"Wheel Of Karma","file":"http:\/\/rdfile.oss-cn-hangzhou.aliyuncs.com\/filemanage\/init\/cloud_music\/1542012184468\/file.mp3?nonce=cfcd208495d565ef66e7dff9f98764da","cover":"","updatetime":"0","height":0,"width":0,"video":"","sort":100,"version":0,"cover2":"","appkey":"init","duration":155,"extra":{},"polyglot":{"en":"Wheel Of Karma"},"category":"84596108,","audit":0,"is_ugc":0,"type":"cloud_music"},{"id":"1005115","ufid":"38398324","name":"Turkish Dance","file":"http:\/\/rdfile.oss-cn-hangzhou.aliyuncs.com\/filemanage\/init\/cloud_music\/1542012184691\/file.mp3?nonce=cfcd208495d565ef66e7dff9f98764da","cover":"","updatetime":"0","height":0,"width":0,"video":"","sort":100,"version":0,"cover2":"","appkey":"init","duration":171,"extra":{},"polyglot":{"en":"Turkish Dance"},"category":"84596108,","audit":0,"is_ugc":0,"type":"cloud_music"},{"id":"1005114","ufid":"96712108","name":"Transportation","file":"http:\/\/rdfile.oss-cn-hangzhou.aliyuncs.com\/filemanage\/init\/cloud_music\/1542012184585\/file.mp3?nonce=cfcd208495d565ef66e7dff9f98764da","cover":"","updatetime":"0","height":0,"width":0,"video":"","sort":100,"version":0,"cover2":"","appkey":"init","duration":191,"extra":{},"polyglot":{"en":"Transportation"},"category":"84596108,","audit":0,"is_ugc":0,"type":"cloud_music"},{"id":"1005113","ufid":"18169652","name":"Time Passing By","file":"http:\/\/rdfile.oss-cn-hangzhou.aliyuncs.com\/filemanage\/init\/cloud_music\/1542012184716\/file.mp3?nonce=cfcd208495d565ef66e7dff9f98764da","cover":"","updatetime":"0","height":0,"width":0,"video":"","sort":100,"version":0,"cover2":"","appkey":"init","duration":248,"extra":{},"polyglot":{"en":"Time Passing By"},"category":"84596108,","audit":0,"is_ugc":0,"type":"cloud_music"},{"id":"1005112","ufid":"81212684","name":"The Wrong Time","file":"http:\/\/rdfile.oss-cn-hangzhou.aliyuncs.com\/filemanage\/init\/cloud_music\/1542012184826\/file.mp3?nonce=cfcd208495d565ef66e7dff9f98764da","cover":"","updatetime":"0","height":0,"width":0,"video":"","sort":100,"version":0,"cover2":"","appkey":"init","duration":174,"extra":{},"polyglot":{"en":"The Wrong Time"},"category":"84596108,","audit":0,"is_ugc":0,"type":"cloud_music"},{"id":"1005111","ufid":"21916982","name":"The Voyage","file":"http:\/\/rdfile.oss-cn-hangzhou.aliyuncs.com\/filemanage\/init\/cloud_music\/1542012184554\/file.mp3?nonce=cfcd208495d565ef66e7dff9f98764da","cover":"","updatetime":"0","height":0,"width":0,"video":"","sort":100,"version":0,"cover2":"","appkey":"init","duration":136,"extra":{},"polyglot":{"en":"The Voyage"},"category":"84596108,","audit":0,"is_ugc":0,"type":"cloud_music"},{"id":"1005110","ufid":"95224094","name":"The Visitors","file":"http:\/\/rdfile.oss-cn-hangzhou.aliyuncs.com\/filemanage\/init\/cloud_music\/1542012184333\/file.mp3?nonce=cfcd208495d565ef66e7dff9f98764da","cover":"","updatetime":"0","height":0,"width":0,"video":"","sort":100,"version":0,"cover2":"","appkey":"init","duration":193,"extra":{},"polyglot":{"en":"The Visitors"},"category":"84596108,","audit":0,"is_ugc":0,"type":"cloud_music"},{"id":"1005109","ufid":"99346904","name":"The Master","file":"http:\/\/rdfile.oss-cn-hangzhou.aliyuncs.com\/filemanage\/init\/cloud_music\/1542012184613\/file.mp3?nonce=cfcd208495d565ef66e7dff9f98764da","cover":"","updatetime":"0","height":0,"width":0,"video":"","sort":100,"version":0,"cover2":"","appkey":"init","duration":99,"extra":{},"polyglot":{"en":"The Master"},"category":"84596108,","audit":0,"is_ugc":0,"type":"cloud_music"},{"id":"1005108","ufid":"98386999","name":"The Great Unknown","file":"http:\/\/rdfile.oss-cn-hangzhou.aliyuncs.com\/filemanage\/init\/cloud_music\/1542012184784\/file.mp3?nonce=cfcd208495d565ef66e7dff9f98764da","cover":"","updatetime":"0","height":0,"width":0,"video":"","sort":100,"version":0,"cover2":"","appkey":"init","duration":154,"extra":{},"polyglot":{"en":"The Great Unknown"},"category":"84596108,","audit":0,"is_ugc":0,"type":"cloud_music"},{"id":"1005107","ufid":"64037538","name":"The Chance","file":"http:\/\/rdfile.oss-cn-hangzhou.aliyuncs.com\/filemanage\/init\/cloud_music\/1542012184277\/file.mp3?nonce=cfcd208495d565ef66e7dff9f98764da","cover":"","updatetime":"0","height":0,"width":0,"video":"","sort":100,"version":0,"cover2":"","appkey":"init","duration":55,"extra":{},"polyglot":{"en":"The Chance"},"category":"84596108,","audit":0,"is_ugc":0,"type":"cloud_music"},{"id":"1005106","ufid":"25497592","name":"The Big Decision","file":"http:\/\/rdfile.oss-cn-hangzhou.aliyuncs.com\/filemanage\/init\/cloud_music\/1542012184710\/file.mp3?nonce=cfcd208495d565ef66e7dff9f98764da","cover":"","updatetime":"0","height":0,"width":0,"video":"","sort":100,"version":0,"cover2":"","appkey":"init","duration":45,"extra":{},"polyglot":{"en":"The Big Decision"},"category":"84596108,","audit":0,"is_ugc":0,"type":"cloud_music"},{"id":"1005105","ufid":"14357668","name":"The Angels Weep","file":"http:\/\/rdfile.oss-cn-hangzhou.aliyuncs.com\/filemanage\/init\/cloud_music\/1542012184158\/file.mp3?nonce=cfcd208495d565ef66e7dff9f98764da","cover":"","updatetime":"0","height":0,"width":0,"video":"","sort":100,"version":0,"cover2":"","appkey":"init","duration":141,"extra":{},"polyglot":{"en":"The Angels Weep"},"category":"84596108,","audit":0,"is_ugc":0,"type":"cloud_music"},{"id":"1005104","ufid":"80941477","name":"Tempting Fate","file":"http:\/\/rdfile.oss-cn-hangzhou.aliyuncs.com\/filemanage\/init\/cloud_music\/1542012184860\/file.mp3?nonce=cfcd208495d565ef66e7dff9f98764da","cover":"","updatetime":"0","height":0,"width":0,"video":"","sort":100,"version":0,"cover2":"","appkey":"init","duration":219,"extra":{},"polyglot":{"en":"Tempting Fate"},"category":"84596108,","audit":0,"is_ugc":0,"type":"cloud_music"},{"id":"1005103","ufid":"80001531","name":"Temptation March","file":"http:\/\/rdfile.oss-cn-hangzhou.aliyuncs.com\/filemanage\/init\/cloud_music\/1542012184201\/file.mp3?nonce=cfcd208495d565ef66e7dff9f98764da","cover":"","updatetime":"0","height":0,"width":0,"video":"","sort":100,"version":0,"cover2":"","appkey":"init","duration":192,"extra":{},"polyglot":{"en":"Temptation March"},"category":"84596108,","audit":0,"is_ugc":0,"type":"cloud_music"},{"id":"1005102","ufid":"73395711","name":"Tall Ships","file":"http:\/\/rdfile.oss-cn-hangzhou.aliyuncs.com\/filemanage\/init\/cloud_music\/1542012184597\/file.mp3?nonce=cfcd208495d565ef66e7dff9f98764da","cover":"","updatetime":"0","height":0,"width":0,"video":"","sort":100,"version":0,"cover2":"","appkey":"init","duration":62,"extra":{},"polyglot":{"en":"Tall Ships"},"category":"84596108,","audit":0,"is_ugc":0,"type":"cloud_music"},{"id":"1005101","ufid":"39304732","name":"TV Drama Version 2","file":"http:\/\/rdfile.oss-cn-hangzhou.aliyuncs.com\/filemanage\/init\/cloud_music\/1542012184105\/file.mp3?nonce=cfcd208495d565ef66e7dff9f98764da","cover":"","updatetime":"0","height":0,"width":0,"video":"","sort":100,"version":0,"cover2":"","appkey":"init","duration":63,"extra":{},"polyglot":{"en":"TV Drama Version 2"},"category":"84596108,","audit":0,"is_ugc":0,"type":"cloud_music"},{"id":"1005100","ufid":"86523872","name":"TV Drama Version 1","file":"http:\/\/rdfile.oss-cn-hangzhou.aliyuncs.com\/filemanage\/init\/cloud_music\/1542012184460\/file.mp3?nonce=cfcd208495d565ef66e7dff9f98764da","cover":"","updatetime":"0","height":0,"width":0,"video":"","sort":100,"version":0,"cover2":"","appkey":"init","duration":64,"extra":{},"polyglot":{"en":"TV Drama Version 1"},"category":"84596108,","audit":0,"is_ugc":0,"type":"cloud_music"},{"id":"1005099","ufid":"12924186","name":"Suspense Action","file":"http:\/\/rdfile.oss-cn-hangzhou.aliyuncs.com\/filemanage\/init\/cloud_music\/1542012184988\/file.mp3?nonce=cfcd208495d565ef66e7dff9f98764da","cover":"","updatetime":"0","height":0,"width":0,"video":"","sort":100,"version":0,"cover2":"","appkey":"init","duration":137,"extra":{},"polyglot":{"en":"Suspense Action"},"category":"84596108,","audit":0,"is_ugc":0,"type":"cloud_music"},{"id":"1005098","ufid":"25317987","name":"Sunrise On Mars","file":"http:\/\/rdfile.oss-cn-hangzhou.aliyuncs.com\/filemanage\/init\/cloud_music\/1542012184485\/file.mp3?nonce=cfcd208495d565ef66e7dff9f98764da","cover":"","updatetime":"0","height":0,"width":0,"video":"","sort":100,"version":0,"cover2":"","appkey":"init","duration":130,"extra":{},"polyglot":{"en":"Sunrise On Mars"},"category":"84596108,","audit":0,"is_ugc":0,"type":"cloud_music"}]}}