{"code":0,"msg":"success","data":{"total":81,"per_page":20,"current_page":4,"last_page":5,"data":[{"id":"1005176","ufid":"55075690","name":"Greek Dance","file":"http:\/\/rdfile.oss-cn-hangzhou.aliyuncs.com\/filemanage\/init\/cloud_music\/1542012185514\/file.mp3?nonce=cfcd208495d565ef66e7dff9f98764da","cover":"","updatetime":"0","height":0,"width":0,"video":"","sort":100,"version":0,"cover2":"","appkey":"init","duration":132,"extra":{},"polyglot":{"en":"Greek Dance"},"category":"74711967,","audit":0,"is_ugc":0,"type":"cloud_music"},{"id":"1005175","ufid":"58653976","name":"Feel Good Rock","file":"http:\/\/rdfile.oss-cn-hangzhou.aliyuncs.com\/filemanage\/init\/cloud_music\/1542012185169\/file.mp3?nonce=cfcd208495d565ef66e7dff9f98764da","cover":"","updatetime":"0","height":0,"width":0,"video":"","sort":100,"version":0,"cover2":"","appkey":"init","duration":132,"extra":{},"polyglot":{"en":"Feel Good Rock"},"category":"74711967,","audit":0,"is_ugc":0,"type":"cloud_music"},{"id":"1005174","ufid":"52712170","name":"DoubleBlues","file":"http:\/\/rdfile.oss-cn-hangzhou.aliyuncs.com\/filemanage\/init\/cloud_music\/1542012185343\/file.mp3?nonce=cfcd208495d565ef66e7dff9f98764da","cover":"","updatetime":"0","height":0,"width":0,"video":"","sort":100,"version":0,"cover2":"","appkey":"init","duration":127,"extra":{},"polyglot":{"en":"DoubleBlues"},"category":"74711967,","audit":0,"is_ugc":0,"type":"cloud_music"},{"id":"1005173","ufid":"80686045","name":"Don't Stop","file":"http:\/\/rdfile.oss-cn-hangzhou.aliyuncs.com\/filemanage\/init\/cloud_music\/1542012185306\/file.mp3?nonce=cfcd208495d565ef66e7dff9f98764da","cover":"","updatetime":"0","height":0,"width":0,"video":"","sort":100,"version":0,"cover2":"","appkey":"init","duration":364,"extra":{},"polyglot":{"en":"Don't Stop"},"category":"74711967,","audit":0,"is_ugc":0,"type":"cloud_music"},{"id":"1005172","ufid":"81512831","name":"Dirt Road Traveler","file":"http:\/\/rdfile.oss-cn-hangzhou.aliyuncs.com\/filemanage\/init\/cloud_music\/1542012185546\/file.mp3?nonce=cfcd208495d565ef66e7dff9f98764da","cover":"","updatetime":"0","height":0,"width":0,"video":"","sort":100,"version":0,"cover2":"","appkey":"init","duration":135,"extra":{},"polyglot":{"en":"Dirt Road Traveler"},"category":"74711967,","audit":0,"is_ugc":0,"type":"cloud_music"},{"id":"1005171","ufid":"52296028","name":"Country Cue 1","file":"http:\/\/rdfile.oss-cn-hangzhou.aliyuncs.com\/filemanage\/init\/cloud_music\/1542012185920\/file.mp3?nonce=cfcd208495d565ef66e7dff9f98764da","cover":"","updatetime":"0","height":0,"width":0,"video":"","sort":100,"version":0,"cover2":"","appkey":"init","duration":19,"extra":{},"polyglot":{"en":"Country Cue 1"},"category":"74711967,","audit":0,"is_ugc":0,"type":"cloud_music"},{"id":"1005170","ufid":"55526213","name":"Corporation Motivation","file":"http:\/\/rdfile.oss-cn-hangzhou.aliyuncs.com\/filemanage\/init\/cloud_music\/1542012185480\/file.mp3?nonce=cfcd208495d565ef66e7dff9f98764da","cover":"","updatetime":"0","height":0,"width":0,"video":"","sort":100,"version":0,"cover2":"","appkey":"init","duration":107,"extra":{},"polyglot":{"en":"Corporation Motivation"},"category":"74711967,","audit":0,"is_ugc":0,"type":"cloud_music"},{"id":"1005169","ufid":"40792691","name":"Closer To Jazz","file":"http:\/\/rdfile.oss-cn-hangzhou.aliyuncs.com\/filemanage\/init\/cloud_music\/1542012185392\/file.mp3?nonce=cfcd208495d565ef66e7dff9f98764da","cover":"","updatetime":"0","height":0,"width":0,"video":"","sort":100,"version":0,"cover2":"","appkey":"init","duration":143,"extra":{},"polyglot":{"en":"Closer To Jazz"},"category":"74711967,","audit":0,"is_ugc":0,"type":"cloud_music"},{"id":"1005168","ufid":"15648823","name":"Chasin' It","file":"http:\/\/rdfile.oss-cn-hangzhou.aliyuncs.com\/filemanage\/init\/cloud_music\/1542012185289\/file.mp3?nonce=cfcd208495d565ef66e7dff9f98764da","cover":"","updatetime":"0","height":0,"width":0,"video":"","sort":100,"version":0,"cover2":"","appkey":"init","duration":75,"extra":{},"polyglot":{"en":"Chasin' It"},"category":"74711967,","audit":0,"is_ugc":0,"type":"cloud_music"},{"id":"1005167","ufid":"12172578","name":"CarolOfTheBells","file":"http:\/\/rdfile.oss-cn-hangzhou.aliyuncs.com\/filemanage\/init\/cloud_music\/1542012185239\/file.mp3?nonce=cfcd208495d565ef66e7dff9f98764da","cover":"","updatetime":"0","height":0,"width":0,"video":"","sort":100,"version":0,"cover2":"","appkey":"init","duration":95,"extra":{},"polyglot":{"en":"CarolOfTheBells"},"category":"74711967,","audit":0,"is_ugc":0,"type":"cloud_music"},{"id":"1005166","ufid":"20632291","name":"Brookers Blues","file":"http:\/\/rdfile.oss-cn-hangzhou.aliyuncs.com\/filemanage\/init\/cloud_music\/1542012184855\/file.mp3?nonce=cfcd208495d565ef66e7dff9f98764da","cover":"","updatetime":"0","height":0,"width":0,"video":"","sort":100,"version":0,"cover2":"","appkey":"init","duration":96,"extra":{},"polyglot":{"en":"Brookers Blues"},"category":"74711967,","audit":0,"is_ugc":0,"type":"cloud_music"},{"id":"1005165","ufid":"52491015","name":"BoxcarRag","file":"http:\/\/rdfile.oss-cn-hangzhou.aliyuncs.com\/filemanage\/init\/cloud_music\/1542012184384\/file.mp3?nonce=cfcd208495d565ef66e7dff9f98764da","cover":"","updatetime":"0","height":0,"width":0,"video":"","sort":100,"version":0,"cover2":"","appkey":"init","duration":127,"extra":{},"polyglot":{"en":"BoxcarRag"},"category":"74711967,","audit":0,"is_ugc":0,"type":"cloud_music"},{"id":"1005164","ufid":"83358885","name":"Boogie Woogie Bed","file":"http:\/\/rdfile.oss-cn-hangzhou.aliyuncs.com\/filemanage\/init\/cloud_music\/1542012184453\/file.mp3?nonce=cfcd208495d565ef66e7dff9f98764da","cover":"","updatetime":"0","height":0,"width":0,"video":"","sort":100,"version":0,"cover2":"","appkey":"init","duration":147,"extra":{},"polyglot":{"en":"Boogie Woogie Bed"},"category":"74711967,","audit":0,"is_ugc":0,"type":"cloud_music"},{"id":"1005163","ufid":"78018353","name":"Bird In Hand","file":"http:\/\/rdfile.oss-cn-hangzhou.aliyuncs.com\/filemanage\/init\/cloud_music\/1542012184652\/file.mp3?nonce=cfcd208495d565ef66e7dff9f98764da","cover":"","updatetime":"0","height":0,"width":0,"video":"","sort":100,"version":0,"cover2":"","appkey":"init","duration":170,"extra":{},"polyglot":{"en":"Bird In Hand"},"category":"74711967,","audit":0,"is_ugc":0,"type":"cloud_music"},{"id":"1005162","ufid":"20682889","name":"BigBlues","file":"http:\/\/rdfile.oss-cn-hangzhou.aliyuncs.com\/filemanage\/init\/cloud_music\/1542012184993\/file.mp3?nonce=cfcd208495d565ef66e7dff9f98764da","cover":"","updatetime":"0","height":0,"width":0,"video":"","sort":100,"version":0,"cover2":"","appkey":"init","duration":202,"extra":{},"polyglot":{"en":"BigBlues"},"category":"74711967,","audit":0,"is_ugc":0,"type":"cloud_music"},{"id":"1005161","ufid":"98248235","name":"Big Swing Band","file":"http:\/\/rdfile.oss-cn-hangzhou.aliyuncs.com\/filemanage\/init\/cloud_music\/1542012184403\/file.mp3?nonce=cfcd208495d565ef66e7dff9f98764da","cover":"","updatetime":"0","height":0,"width":0,"video":"","sort":100,"version":0,"cover2":"","appkey":"init","duration":111,"extra":{},"polyglot":{"en":"Big Swing Band"},"category":"74711967,","audit":0,"is_ugc":0,"type":"cloud_music"},{"id":"1005160","ufid":"87044337","name":"Big Blues Bed","file":"http:\/\/rdfile.oss-cn-hangzhou.aliyuncs.com\/filemanage\/init\/cloud_music\/1542012184233\/file.mp3?nonce=cfcd208495d565ef66e7dff9f98764da","cover":"","updatetime":"0","height":0,"width":0,"video":"","sort":100,"version":0,"cover2":"","appkey":"init","duration":195,"extra":{},"polyglot":{"en":"Big Blues Bed"},"category":"74711967,","audit":0,"is_ugc":0,"type":"cloud_music"},{"id":"1005159","ufid":"41029820","name":"Banjo Hop","file":"http:\/\/rdfile.oss-cn-hangzhou.aliyuncs.com\/filemanage\/init\/cloud_music\/1542012184879\/file.mp3?nonce=cfcd208495d565ef66e7dff9f98764da","cover":"","updatetime":"0","height":0,"width":0,"video":"","sort":100,"version":0,"cover2":"","appkey":"init","duration":75,"extra":{},"polyglot":{"en":"Banjo Hop"},"category":"74711967,","audit":0,"is_ugc":0,"type":"cloud_music"},{"id":"1005158","ufid":"78943440","name":"Away In A Manger","file":"http:\/\/rdfile.oss-cn-hangzhou.aliyuncs.com\/filemanage\/init\/cloud_music\/1542012184964\/file.mp3?nonce=cfcd208495d565ef66e7dff9f98764da","cover":"","updatetime":"0","height":0,"width":0,"video":"","sort":100,"version":0,"cover2":"","appkey":"init","duration":189,"extra":{},"polyglot":{"en":"Away In A Manger"},"category":"74711967,","audit":0,"is_ugc":0,"type":"cloud_music"},{"id":"1005157","ufid":"76023039","name":"Antarctica","file":"http:\/\/rdfile.oss-cn-hangzhou.aliyuncs.com\/filemanage\/init\/cloud_music\/1542012184774\/file.mp3?nonce=cfcd208495d565ef66e7dff9f98764da","cover":"","updatetime":"0","height":0,"width":0,"video":"","sort":100,"version":0,"cover2":"","appkey":"init","duration":249,"extra":{},"polyglot":{"en":"Antarctica"},"category":"74711967,","audit":0,"is_ugc":0,"type":"cloud_music"}]}}