{"code":0,"msg":"success","data":{"total":636,"per_page":10,"current_page":45,"last_page":64,"data":[{"id":"1012953","ufid":"57483447","name":"\u624b\u7ed8\u8d34\u7eb8","file":"http:\/\/rdfile.oss-cn-hangzhou.aliyuncs.com\/filemanage\/e069b36c568d909f\/templateapi\/16391312484115\/file.zip?nonce=18acab531336de815998d566befe6f06","cover":"http:\/\/rdfile.oss-cn-hangzhou.aliyuncs.com\/filemanage\/e069b36c568d909f\/templateapi\/16391312484115\/cover.png?nonce=18acab531336de815998d566befe6f06&x-oss-process=style\/templateapi","updatetime":"1704185733","height":1230,"width":692,"video":"http:\/\/rdfile.oss-cn-hangzhou.aliyuncs.com\/filemanage\/e069b36c568d909f\/templateapi\/16391312484115\/video.mp4?nonce=18acab531336de815998d566befe6f06","sort":100,"version":149,"cover2":"","appkey":"init","duration":0,"extra":{},"polyglot":{"en":"Hand drawn sticker notes"},"category":"0","audit":0,"is_ugc":0,"text_need":4,"picture_need":1,"video_need":0,"type":"templateapi"},{"id":"1012951","ufid":"18819035","name":"\u968f\u8bb0","file":"http:\/\/rdfile.oss-cn-hangzhou.aliyuncs.com\/filemanage\/e069b36c568d909f\/templateapi\/16391283221931\/file.zip?nonce=18acab531336de815998d566befe6f06","cover":"http:\/\/rdfile.oss-cn-hangzhou.aliyuncs.com\/filemanage\/e069b36c568d909f\/templateapi\/16391283221931\/cover.png?nonce=18acab531336de815998d566befe6f06&x-oss-process=style\/templateapi","updatetime":"1704185733","height":1230,"width":692,"video":"http:\/\/rdfile.oss-cn-hangzhou.aliyuncs.com\/filemanage\/e069b36c568d909f\/templateapi\/16391283221931\/video.mp4?nonce=18acab531336de815998d566befe6f06","sort":100,"version":149,"cover2":"","appkey":"init","duration":0,"extra":{},"polyglot":{"en":"Notes"},"category":"0","audit":0,"is_ugc":0,"text_need":3,"picture_need":3,"video_need":0,"type":"templateapi"},{"id":"1012948","ufid":"92593968","name":"\u6211\u7684\u5c0f\u53ef\u7231","file":"http:\/\/rdfile.oss-cn-hangzhou.aliyuncs.com\/filemanage\/e069b36c568d909f\/templateapi\/16390436895676\/file.zip?nonce=18acab531336de815998d566befe6f06","cover":"http:\/\/rdfile.oss-cn-hangzhou.aliyuncs.com\/filemanage\/e069b36c568d909f\/templateapi\/16390436895676\/cover.png?nonce=18acab531336de815998d566befe6f06&x-oss-process=style\/templateapi","updatetime":"1704185733","height":1230,"width":692,"video":"http:\/\/rdfile.oss-cn-hangzhou.aliyuncs.com\/filemanage\/e069b36c568d909f\/templateapi\/16390436895676\/video.mp4?nonce=18acab531336de815998d566befe6f06","sort":100,"version":149,"cover2":"","appkey":"init","duration":0,"extra":{},"polyglot":{"en":"My little cutie"},"category":"0","audit":0,"is_ugc":0,"text_need":3,"picture_need":8,"video_need":0,"type":"templateapi"},{"id":"1012938","ufid":"32223564","name":"\u6d3e\u5927\u661f\u5410\u6ce1\u6ce1","file":"http:\/\/rdfile.oss-cn-hangzhou.aliyuncs.com\/filemanage\/e069b36c568d909f\/templateapi\/16389509313760\/file.zip?nonce=fa70a0a7dff2e389874db486e9f1496a","cover":"http:\/\/rdfile.oss-cn-hangzhou.aliyuncs.com\/filemanage\/e069b36c568d909f\/templateapi\/16389509313760\/cover.png?nonce=fa70a0a7dff2e389874db486e9f1496a&x-oss-process=style\/templateapi","updatetime":"1704185732","height":1230,"width":692,"video":"http:\/\/rdfile.oss-cn-hangzhou.aliyuncs.com\/filemanage\/e069b36c568d909f\/templateapi\/16389509313760\/video.mp4?nonce=fa70a0a7dff2e389874db486e9f1496a","sort":100,"version":149,"cover2":"","appkey":"init","duration":0,"extra":{},"polyglot":{"en":"Patrick blows bubbles"},"category":"0","audit":0,"is_ugc":0,"text_need":0,"picture_need":4,"video_need":0,"type":"templateapi"},{"id":"1012934","ufid":"10988268","name":"\u4f60\u7684\u5b9d\u8d1d\u662f\u8c01","file":"http:\/\/rdfile.oss-cn-hangzhou.aliyuncs.com\/filemanage\/e069b36c568d909f\/templateapi\/16388653744693\/file.zip?nonce=7c97d724471921be03d8b4605e42191a","cover":"http:\/\/rdfile.oss-cn-hangzhou.aliyuncs.com\/filemanage\/e069b36c568d909f\/templateapi\/16388653744693\/cover.png?nonce=7c97d724471921be03d8b4605e42191a&x-oss-process=style\/templateapi","updatetime":"1704185731","height":1230,"width":692,"video":"http:\/\/rdfile.oss-cn-hangzhou.aliyuncs.com\/filemanage\/e069b36c568d909f\/templateapi\/16388653744693\/video.mp4?nonce=7c97d724471921be03d8b4605e42191a","sort":100,"version":149,"cover2":"","appkey":"init","duration":0,"extra":{},"polyglot":{"en":"Who is your baby"},"category":"0","audit":0,"is_ugc":0,"text_need":1,"picture_need":1,"video_need":0,"type":"templateapi"},{"id":"1012933","ufid":"79288232","name":"\u7f8e\u597d\u7684\u4e00\u5929\u5440","file":"http:\/\/rdfile.oss-cn-hangzhou.aliyuncs.com\/filemanage\/e069b36c568d909f\/templateapi\/16388484362990\/file.zip?nonce=7c97d724471921be03d8b4605e42191a","cover":"http:\/\/rdfile.oss-cn-hangzhou.aliyuncs.com\/filemanage\/e069b36c568d909f\/templateapi\/16388484362990\/cover.png?nonce=7c97d724471921be03d8b4605e42191a&x-oss-process=style\/templateapi","updatetime":"1704185731","height":1230,"width":692,"video":"http:\/\/rdfile.oss-cn-hangzhou.aliyuncs.com\/filemanage\/e069b36c568d909f\/templateapi\/16388484362990\/video.mp4?nonce=7c97d724471921be03d8b4605e42191a","sort":100,"version":149,"cover2":"","appkey":"init","duration":0,"extra":{},"polyglot":{"en":"What a wonderful day"},"category":"0","audit":0,"is_ugc":0,"text_need":1,"picture_need":8,"video_need":0,"type":"templateapi"},{"id":"1012923","ufid":"36371856","name":"\u7ffb\u5c71\u8d8a\u5cad\u62ab\u8346\u65a9\u68d8","file":"http:\/\/rdfile.oss-cn-hangzhou.aliyuncs.com\/filemanage\/e069b36c568d909f\/templateapi\/16387809971783\/file.zip?nonce=fca1a341e29e48fc2f7eab2536b9f7f0","cover":"http:\/\/rdfile.oss-cn-hangzhou.aliyuncs.com\/filemanage\/e069b36c568d909f\/templateapi\/16387809971783\/cover.png?nonce=fca1a341e29e48fc2f7eab2536b9f7f0&x-oss-process=style\/templateapi","updatetime":"1704185730","height":1080,"width":607,"video":"http:\/\/rdfile.oss-cn-hangzhou.aliyuncs.com\/filemanage\/e069b36c568d909f\/templateapi\/16387809971783\/video.mp4?nonce=fca1a341e29e48fc2f7eab2536b9f7f0","sort":100,"version":149,"cover2":"","appkey":"init","duration":0,"extra":{},"polyglot":{"en":"Overcoming mountains and ridges, overcoming thorns and thorns"},"category":"0","audit":0,"is_ugc":0,"text_need":0,"picture_need":0,"video_need":1,"type":"templateapi"},{"id":"1012918","ufid":"84266417","name":"\u56fe\u7247\u6a21\u677f","file":"http:\/\/rdfile.oss-cn-hangzhou.aliyuncs.com\/filemanage\/e069b36c568d909f\/templateapi\/16385179118707\/file.zip?nonce=f9b0ba84bff4e106de1fdf3c2cdee795","cover":"http:\/\/rdfile.oss-cn-hangzhou.aliyuncs.com\/filemanage\/e069b36c568d909f\/templateapi\/16385179118707\/cover.png?nonce=f9b0ba84bff4e106de1fdf3c2cdee795&x-oss-process=style\/templateapi","updatetime":"1704185729","height":1260,"width":945,"video":"http:\/\/rdfile.oss-cn-hangzhou.aliyuncs.com\/filemanage\/e069b36c568d909f\/templateapi\/16385179118707\/video.mp4?nonce=f9b0ba84bff4e106de1fdf3c2cdee795","sort":100,"version":148,"cover2":"","appkey":"init","duration":0,"extra":{},"polyglot":{"en":"Picture template"},"category":"0","audit":0,"is_ugc":0,"text_need":0,"picture_need":16,"video_need":0,"type":"templateapi"},{"id":"1012917","ufid":"33050786","name":"\u9ad8\u7ea7\u552f\u7f8e\u6ee4\u955c","file":"http:\/\/rdfile.oss-cn-hangzhou.aliyuncs.com\/filemanage\/e069b36c568d909f\/templateapi\/16384390776605\/file.zip?nonce=f9b0ba84bff4e106de1fdf3c2cdee795","cover":"http:\/\/rdfile.oss-cn-hangzhou.aliyuncs.com\/filemanage\/e069b36c568d909f\/templateapi\/16384390776605\/cover.png?nonce=f9b0ba84bff4e106de1fdf3c2cdee795&x-oss-process=style\/templateapi","updatetime":"1704185729","height":1230,"width":692,"video":"http:\/\/rdfile.oss-cn-hangzhou.aliyuncs.com\/filemanage\/e069b36c568d909f\/templateapi\/16384390776605\/video.mp4?nonce=f9b0ba84bff4e106de1fdf3c2cdee795","sort":100,"version":149,"cover2":"","appkey":"init","duration":0,"extra":{},"polyglot":{"en":"Advanced aesthetic filters"},"category":"0","audit":0,"is_ugc":0,"text_need":0,"picture_need":1,"video_need":0,"type":"templateapi"},{"id":"1012916","ufid":"29768126","name":"\u65c5\u884cVlog","file":"http:\/\/rdfile.oss-cn-hangzhou.aliyuncs.com\/filemanage\/e069b36c568d909f\/templateapi\/16384328289338\/file.zip?nonce=f9b0ba84bff4e106de1fdf3c2cdee795","cover":"http:\/\/rdfile.oss-cn-hangzhou.aliyuncs.com\/filemanage\/e069b36c568d909f\/templateapi\/16384328289338\/cover.png?nonce=f9b0ba84bff4e106de1fdf3c2cdee795&x-oss-process=style\/templateapi","updatetime":"1704185729","height":1230,"width":692,"video":"http:\/\/rdfile.oss-cn-hangzhou.aliyuncs.com\/filemanage\/e069b36c568d909f\/templateapi\/16384328289338\/video.mp4?nonce=f9b0ba84bff4e106de1fdf3c2cdee795","sort":100,"version":149,"cover2":"","appkey":"init","duration":0,"extra":{},"polyglot":{"en":"Travel Vlog"},"category":"0","audit":0,"is_ugc":0,"text_need":0,"picture_need":0,"video_need":5,"type":"templateapi"}]}}