{"code":0,"msg":"success","data":{"total":636,"per_page":10,"current_page":37,"last_page":64,"data":[{"id":"1014783","ufid":"75500327","name":"\u843d\u53f6","file":"http:\/\/rdfile.oss-cn-hangzhou.aliyuncs.com\/filemanage\/e069b36c568d909f\/templateapi\/16498324522536\/file.zip?nonce=e4ee10dd1bcd4a5e0a75c5cbd174c03c","cover":"http:\/\/rdfile.oss-cn-hangzhou.aliyuncs.com\/filemanage\/e069b36c568d909f\/templateapi\/16498324522536\/cover.png?nonce=e4ee10dd1bcd4a5e0a75c5cbd174c03c&x-oss-process=style\/templateapi","updatetime":"1704185842","height":633,"width":1125,"video":"http:\/\/rdfile.oss-cn-hangzhou.aliyuncs.com\/filemanage\/e069b36c568d909f\/templateapi\/16498324522536\/video.mp4?nonce=e4ee10dd1bcd4a5e0a75c5cbd174c03c","sort":0,"version":152,"cover2":"","appkey":"init","duration":0,"extra":{},"polyglot":{"en":"Fallen leaves"},"category":"0","audit":0,"is_ugc":0,"text_need":0,"picture_need":1,"video_need":0,"type":"templateapi"},{"id":"1014781","ufid":"10657791","name":"\u7948\u7977\u4e00\u5207\u5e73\u5b89","file":"http:\/\/rdfile.oss-cn-hangzhou.aliyuncs.com\/filemanage\/e069b36c568d909f\/templateapi\/16498234108229\/file.zip?nonce=e4ee10dd1bcd4a5e0a75c5cbd174c03c","cover":"http:\/\/rdfile.oss-cn-hangzhou.aliyuncs.com\/filemanage\/e069b36c568d909f\/templateapi\/16498234108229\/cover.png?nonce=e4ee10dd1bcd4a5e0a75c5cbd174c03c&x-oss-process=style\/templateapi","updatetime":"1704185842","height":633,"width":356,"video":"http:\/\/rdfile.oss-cn-hangzhou.aliyuncs.com\/filemanage\/e069b36c568d909f\/templateapi\/16498234108229\/video.mp4?nonce=e4ee10dd1bcd4a5e0a75c5cbd174c03c","sort":0,"version":152,"cover2":"","appkey":"init","duration":0,"extra":{},"polyglot":{"en":"Pray for everything to be safe"},"category":"0","audit":0,"is_ugc":0,"text_need":0,"picture_need":2,"video_need":0,"type":"templateapi"},{"id":"1014778","ufid":"38167121","name":"\u6ca1\u6709\u5bf9\u8c61\u7684\u4eba","file":"http:\/\/rdfile.oss-cn-hangzhou.aliyuncs.com\/filemanage\/e069b36c568d909f\/templateapi\/16498203468807\/file.zip?nonce=e4ee10dd1bcd4a5e0a75c5cbd174c03c","cover":"http:\/\/rdfile.oss-cn-hangzhou.aliyuncs.com\/filemanage\/e069b36c568d909f\/templateapi\/16498203468807\/cover.png?nonce=e4ee10dd1bcd4a5e0a75c5cbd174c03c&x-oss-process=style\/templateapi","updatetime":"1704185842","height":633,"width":356,"video":"http:\/\/rdfile.oss-cn-hangzhou.aliyuncs.com\/filemanage\/e069b36c568d909f\/templateapi\/16498203468807\/video.mp4?nonce=e4ee10dd1bcd4a5e0a75c5cbd174c03c","sort":0,"version":152,"cover2":"","appkey":"init","duration":0,"extra":{},"polyglot":{"en":"Person without object"},"category":"0","audit":0,"is_ugc":0,"text_need":0,"picture_need":1,"video_need":0,"type":"templateapi"},{"id":"1014774","ufid":"67473047","name":"\u9738\u738b\u522b\u59ec","file":"http:\/\/rdfile.oss-cn-hangzhou.aliyuncs.com\/filemanage\/e069b36c568d909f\/templateapi\/16497572006226\/file.zip?nonce=e4ee10dd1bcd4a5e0a75c5cbd174c03c","cover":"http:\/\/rdfile.oss-cn-hangzhou.aliyuncs.com\/filemanage\/e069b36c568d909f\/templateapi\/16497572006226\/cover.png?nonce=e4ee10dd1bcd4a5e0a75c5cbd174c03c&x-oss-process=style\/templateapi","updatetime":"1704185842","height":632,"width":356,"video":"http:\/\/rdfile.oss-cn-hangzhou.aliyuncs.com\/filemanage\/e069b36c568d909f\/templateapi\/16497572006226\/video.mp4?nonce=e4ee10dd1bcd4a5e0a75c5cbd174c03c","sort":0,"version":152,"cover2":"","appkey":"init","duration":0,"extra":{},"polyglot":{"en":"Farewell My Concubine"},"category":"0","audit":0,"is_ugc":0,"text_need":0,"picture_need":0,"video_need":3,"type":"templateapi"},{"id":"1014767","ufid":"82731061","name":"\u529f\u592b","file":"http:\/\/rdfile.oss-cn-hangzhou.aliyuncs.com\/filemanage\/e069b36c568d909f\/templateapi\/16496698063543\/file.zip?nonce=85476325e032d7a280edfd86d163aea3","cover":"http:\/\/rdfile.oss-cn-hangzhou.aliyuncs.com\/filemanage\/e069b36c568d909f\/templateapi\/16496698063543\/cover.png?nonce=85476325e032d7a280edfd86d163aea3&x-oss-process=style\/templateapi","updatetime":"1704185841","height":632,"width":356,"video":"http:\/\/rdfile.oss-cn-hangzhou.aliyuncs.com\/filemanage\/e069b36c568d909f\/templateapi\/16496698063543\/video.mp4?nonce=85476325e032d7a280edfd86d163aea3","sort":0,"version":152,"cover2":"","appkey":"init","duration":0,"extra":{},"polyglot":{"en":"Kongfu"},"category":"0","audit":0,"is_ugc":0,"text_need":0,"picture_need":0,"video_need":2,"type":"templateapi"},{"id":"1014765","ufid":"13787052","name":"\u751f\u65e5\u5feb\u4e50","file":"http:\/\/rdfile.oss-cn-hangzhou.aliyuncs.com\/filemanage\/e069b36c568d909f\/templateapi\/16496427363247\/file.zip?nonce=85476325e032d7a280edfd86d163aea3","cover":"http:\/\/rdfile.oss-cn-hangzhou.aliyuncs.com\/filemanage\/e069b36c568d909f\/templateapi\/16496427363247\/cover.png?nonce=85476325e032d7a280edfd86d163aea3&x-oss-process=style\/templateapi","updatetime":"1704185841","height":1060,"width":596,"video":"http:\/\/rdfile.oss-cn-hangzhou.aliyuncs.com\/filemanage\/e069b36c568d909f\/templateapi\/16496427363247\/video.mp4?nonce=85476325e032d7a280edfd86d163aea3","sort":0,"version":152,"cover2":"","appkey":"init","duration":0,"extra":{},"polyglot":{"en":"Happy birthday"},"category":"0","audit":0,"is_ugc":0,"text_need":2,"picture_need":6,"video_need":0,"type":"templateapi"},{"id":"1014764","ufid":"91090996","name":"\u6298\u75d5\u98ce\u666f","file":"http:\/\/rdfile.oss-cn-hangzhou.aliyuncs.com\/filemanage\/e069b36c568d909f\/templateapi\/16494125029190\/file.zip?nonce=85476325e032d7a280edfd86d163aea3","cover":"http:\/\/rdfile.oss-cn-hangzhou.aliyuncs.com\/filemanage\/e069b36c568d909f\/templateapi\/16494125029190\/cover.png?nonce=85476325e032d7a280edfd86d163aea3&x-oss-process=style\/templateapi","updatetime":"1704185841","height":633,"width":356,"video":"http:\/\/rdfile.oss-cn-hangzhou.aliyuncs.com\/filemanage\/e069b36c568d909f\/templateapi\/16494125029190\/video.mp4?nonce=85476325e032d7a280edfd86d163aea3","sort":0,"version":151,"cover2":"","appkey":"init","duration":0,"extra":{},"polyglot":{"en":"Crease landscape"},"category":"0","audit":0,"is_ugc":0,"text_need":0,"picture_need":6,"video_need":0,"type":"templateapi"},{"id":"1014762","ufid":"90984992","name":"\u540c\u7b49\u80fd\u91cf\u7684\u4eba","file":"http:\/\/rdfile.oss-cn-hangzhou.aliyuncs.com\/filemanage\/e069b36c568d909f\/templateapi\/16493902658809\/file.zip?nonce=85476325e032d7a280edfd86d163aea3","cover":"http:\/\/rdfile.oss-cn-hangzhou.aliyuncs.com\/filemanage\/e069b36c568d909f\/templateapi\/16493902658809\/cover.png?nonce=85476325e032d7a280edfd86d163aea3&x-oss-process=style\/templateapi","updatetime":"1704185841","height":633,"width":356,"video":"http:\/\/rdfile.oss-cn-hangzhou.aliyuncs.com\/filemanage\/e069b36c568d909f\/templateapi\/16493902658809\/video.mp4?nonce=85476325e032d7a280edfd86d163aea3","sort":0,"version":151,"cover2":"","appkey":"init","duration":0,"extra":{},"polyglot":{"en":"People of equal energy"},"category":"0","audit":0,"is_ugc":0,"text_need":10,"picture_need":1,"video_need":0,"type":"templateapi"},{"id":"1014760","ufid":"80312136","name":"\u5927\u54e5","file":"http:\/\/rdfile.oss-cn-hangzhou.aliyuncs.com\/filemanage\/e069b36c568d909f\/templateapi\/16493862516492\/file.zip?nonce=a807dec622cc1f62148fb9f9b015063b","cover":"http:\/\/rdfile.oss-cn-hangzhou.aliyuncs.com\/filemanage\/e069b36c568d909f\/templateapi\/16493862516492\/cover.png?nonce=a807dec622cc1f62148fb9f9b015063b&x-oss-process=style\/templateapi","updatetime":"1704185840","height":633,"width":356,"video":"http:\/\/rdfile.oss-cn-hangzhou.aliyuncs.com\/filemanage\/e069b36c568d909f\/templateapi\/16493862516492\/video.mp4?nonce=a807dec622cc1f62148fb9f9b015063b","sort":0,"version":151,"cover2":"","appkey":"init","duration":0,"extra":{},"polyglot":{"en":"Big brother"},"category":"0","audit":0,"is_ugc":0,"text_need":0,"picture_need":1,"video_need":0,"type":"templateapi"},{"id":"1014757","ufid":"19424693","name":"3D\u52a8\u6001\u7167\u7247","file":"http:\/\/rdfile.oss-cn-hangzhou.aliyuncs.com\/filemanage\/e069b36c568d909f\/templateapi\/16493849387540\/file.zip?nonce=a807dec622cc1f62148fb9f9b015063b","cover":"http:\/\/rdfile.oss-cn-hangzhou.aliyuncs.com\/filemanage\/e069b36c568d909f\/templateapi\/16493849387540\/cover.png?nonce=a807dec622cc1f62148fb9f9b015063b&x-oss-process=style\/templateapi","updatetime":"1704185840","height":1254,"width":720,"video":"http:\/\/rdfile.oss-cn-hangzhou.aliyuncs.com\/filemanage\/e069b36c568d909f\/templateapi\/16493849387540\/video.mp4?nonce=a807dec622cc1f62148fb9f9b015063b","sort":0,"version":150,"cover2":"","appkey":"init","duration":0,"extra":{},"polyglot":{"en":"3D dynamic photos"},"category":"0","audit":0,"is_ugc":0,"text_need":0,"picture_need":2,"video_need":0,"type":"templateapi"}]}}