{"code":0,"msg":"success","data":{"total":189,"per_page":10,"current_page":7,"last_page":19,"data":[{"id":"1015270","ufid":"43725178","name":"\u6708\u4e2d\u5f71\u5b50\u821e","file":"http:\/\/rdfile.oss-cn-hangzhou.aliyuncs.com\/filemanage\/e069b36c568d909f\/templateapi\/16541577444470\/file.zip?nonce=88f9065166f8d6b66f2f610766e0ef1d","cover":"http:\/\/rdfile.oss-cn-hangzhou.aliyuncs.com\/filemanage\/e069b36c568d909f\/templateapi\/16541577444470\/cover.webp?nonce=88f9065166f8d6b66f2f610766e0ef1d","updatetime":"1684896936","height":1060,"width":596,"video":"http:\/\/rdfile.oss-cn-hangzhou.aliyuncs.com\/filemanage\/e069b36c568d909f\/templateapi\/16541577444470\/video.mp4?nonce=88f9065166f8d6b66f2f610766e0ef1d","sort":0,"version":153,"cover2":"","appkey":"init","duration":0,"extra":{},"polyglot":[],"category":"0","audit":0,"is_ugc":0,"text_need":0,"picture_need":0,"video_need":2,"type":"templateapi"},{"id":"1015249","ufid":"37234046","name":"\u970d\u5143\u7532\u74f6\u4e2d\u821e","file":"http:\/\/rdfile.oss-cn-hangzhou.aliyuncs.com\/filemanage\/e069b36c568d909f\/templateapi\/16539701291577\/file.zip?nonce=c6e82ba25e0498b5d5e522a8c75d71fb","cover":"http:\/\/rdfile.oss-cn-hangzhou.aliyuncs.com\/filemanage\/e069b36c568d909f\/templateapi\/16539701291577\/cover.webp?nonce=c6e82ba25e0498b5d5e522a8c75d71fb","updatetime":"1684912478","height":607,"width":1080,"video":"http:\/\/rdfile.oss-cn-hangzhou.aliyuncs.com\/filemanage\/e069b36c568d909f\/templateapi\/16539701291577\/video.mp4?nonce=c6e82ba25e0498b5d5e522a8c75d71fb","sort":0,"version":153,"cover2":"","appkey":"init","duration":0,"extra":{},"polyglot":[],"category":"0","audit":0,"is_ugc":0,"text_need":0,"picture_need":0,"video_need":1,"type":"templateapi"},{"id":"1015239","ufid":"40609013","name":"\u4ed9\u5251\u4e09\u4eba\u7269\u51fa\u573a\u4ecb\u7ecd","file":"http:\/\/rdfile.oss-cn-hangzhou.aliyuncs.com\/filemanage\/e069b36c568d909f\/templateapi\/16536440286483\/file.zip?nonce=42632d87f28b46aedff9957de1b8f84b","cover":"http:\/\/rdfile.oss-cn-hangzhou.aliyuncs.com\/filemanage\/e069b36c568d909f\/templateapi\/16536440286483\/cover.webp?nonce=42632d87f28b46aedff9957de1b8f84b","updatetime":"1684912497","height":641,"width":1080,"video":"http:\/\/rdfile.oss-cn-hangzhou.aliyuncs.com\/filemanage\/e069b36c568d909f\/templateapi\/16536440286483\/video.mp4?nonce=42632d87f28b46aedff9957de1b8f84b","sort":0,"version":153,"cover2":"","appkey":"init","duration":0,"extra":{},"polyglot":[],"category":"0","audit":0,"is_ugc":0,"text_need":0,"picture_need":0,"video_need":6,"type":"templateapi"},{"id":"1015192","ufid":"71214609","name":"\u9b54\u517d\u4e16\u754c","file":"http:\/\/rdfile.oss-cn-hangzhou.aliyuncs.com\/filemanage\/e069b36c568d909f\/templateapi\/16532719609414\/file.zip?nonce=79d1148f1ea5bb8c578ce02b6157d96b","cover":"http:\/\/rdfile.oss-cn-hangzhou.aliyuncs.com\/filemanage\/e069b36c568d909f\/templateapi\/16532719609414\/cover.webp?nonce=79d1148f1ea5bb8c578ce02b6157d96b","updatetime":"1684911918","height":634,"width":357,"video":"http:\/\/rdfile.oss-cn-hangzhou.aliyuncs.com\/filemanage\/e069b36c568d909f\/templateapi\/16532719609414\/video.mp4?nonce=79d1148f1ea5bb8c578ce02b6157d96b","sort":0,"version":153,"cover2":"","appkey":"init","duration":0,"extra":{},"polyglot":[],"category":"0","audit":0,"is_ugc":0,"text_need":0,"picture_need":1,"video_need":0,"type":"templateapi"},{"id":"1015177","ufid":"33064704","name":"\u5c0f\u9ec4\u4eba","file":"http:\/\/rdfile.oss-cn-hangzhou.aliyuncs.com\/filemanage\/e069b36c568d909f\/templateapi\/16529544291549\/file.zip?nonce=b788c609e9d57da406af39af6a184151","cover":"http:\/\/rdfile.oss-cn-hangzhou.aliyuncs.com\/filemanage\/e069b36c568d909f\/templateapi\/16529544291549\/cover.webp?nonce=b788c609e9d57da406af39af6a184151","updatetime":"1684911932","height":632,"width":356,"video":"http:\/\/rdfile.oss-cn-hangzhou.aliyuncs.com\/filemanage\/e069b36c568d909f\/templateapi\/16529544291549\/video.mp4?nonce=b788c609e9d57da406af39af6a184151","sort":0,"version":153,"cover2":"","appkey":"init","duration":0,"extra":{},"polyglot":[],"category":"0","audit":0,"is_ugc":0,"text_need":0,"picture_need":0,"video_need":1,"type":"templateapi"},{"id":"1015143","ufid":"41632886","name":"\u6c34\u6676\u7403","file":"http:\/\/rdfile.oss-cn-hangzhou.aliyuncs.com\/filemanage\/e069b36c568d909f\/templateapi\/16524356234663\/file.zip?nonce=cfcd208495d565ef66e7dff9f98764da","cover":"http:\/\/rdfile.oss-cn-hangzhou.aliyuncs.com\/filemanage\/e069b36c568d909f\/templateapi\/16524356234663\/cover.webp?nonce=cfcd208495d565ef66e7dff9f98764da","updatetime":"0","height":1152,"width":648,"video":"http:\/\/rdfile.oss-cn-hangzhou.aliyuncs.com\/filemanage\/e069b36c568d909f\/templateapi\/16524356234663\/video.mp4?nonce=cfcd208495d565ef66e7dff9f98764da","sort":0,"version":152,"cover2":"","appkey":"init","duration":0,"extra":{},"polyglot":[],"category":"0","audit":0,"is_ugc":0,"text_need":0,"picture_need":0,"video_need":5,"type":"templateapi"},{"id":"1015112","ufid":"47297217","name":"\u4eba\u7269\u8dd1\u8fdb\u753b\u4e2d","file":"http:\/\/rdfile.oss-cn-hangzhou.aliyuncs.com\/filemanage\/e069b36c568d909f\/templateapi\/16522625337405\/file.zip?nonce=7fae56b1619fe8ebd4835b54e3cb0c60","cover":"http:\/\/rdfile.oss-cn-hangzhou.aliyuncs.com\/filemanage\/e069b36c568d909f\/templateapi\/16522625337405\/cover.jpg?nonce=7fae56b1619fe8ebd4835b54e3cb0c60&x-oss-process=style\/templateapi","updatetime":"1684896651","height":607,"width":1080,"video":"http:\/\/rdfile.oss-cn-hangzhou.aliyuncs.com\/filemanage\/e069b36c568d909f\/templateapi\/16522625337405\/video.mp4?nonce=7fae56b1619fe8ebd4835b54e3cb0c60","sort":0,"version":152,"cover2":"","appkey":"init","duration":0,"extra":{},"polyglot":[],"category":"0","audit":0,"is_ugc":0,"text_need":0,"picture_need":0,"video_need":2,"type":"templateapi"},{"id":"1015023","ufid":"17977677","name":"\u6d41\u52a8\u7167\u7247\u5899","file":"http:\/\/rdfile.oss-cn-hangzhou.aliyuncs.com\/filemanage\/e069b36c568d909f\/templateapi\/16522520128476\/file.zip?nonce=cfcd208495d565ef66e7dff9f98764da","cover":"http:\/\/rdfile.oss-cn-hangzhou.aliyuncs.com\/filemanage\/e069b36c568d909f\/templateapi\/16522520128476\/cover.webp?nonce=cfcd208495d565ef66e7dff9f98764da","updatetime":"0","height":633,"width":1125,"video":"http:\/\/rdfile.oss-cn-hangzhou.aliyuncs.com\/filemanage\/e069b36c568d909f\/templateapi\/16522520128476\/video.mp4?nonce=cfcd208495d565ef66e7dff9f98764da","sort":0,"version":152,"cover2":"","appkey":"init","duration":0,"extra":{},"polyglot":[],"category":"0","audit":0,"is_ugc":0,"text_need":0,"picture_need":12,"video_need":0,"type":"templateapi"},{"id":"1014974","ufid":"65247484","name":"\u56de\u5fc6\u95ea\u73b0","file":"http:\/\/rdfile.oss-cn-hangzhou.aliyuncs.com\/filemanage\/e069b36c568d909f\/templateapi\/16518928688526\/file.zip?nonce=50f29b2425e7cec06de6b87d7e54ab8b","cover":"http:\/\/rdfile.oss-cn-hangzhou.aliyuncs.com\/filemanage\/e069b36c568d909f\/templateapi\/16518928688526\/cover.webp?nonce=50f29b2425e7cec06de6b87d7e54ab8b","updatetime":"1684896631","height":675,"width":1080,"video":"http:\/\/rdfile.oss-cn-hangzhou.aliyuncs.com\/filemanage\/e069b36c568d909f\/templateapi\/16518928688526\/video.mp4?nonce=50f29b2425e7cec06de6b87d7e54ab8b","sort":0,"version":152,"cover2":"","appkey":"init","duration":0,"extra":{},"polyglot":[],"category":"0","audit":0,"is_ugc":0,"text_need":0,"picture_need":0,"video_need":10,"type":"templateapi"},{"id":"1014964","ufid":"27191281","name":"\u70ab\u9177\u79d1\u6280\u611f\u5f00\u573a","file":"http:\/\/rdfile.oss-cn-hangzhou.aliyuncs.com\/filemanage\/e069b36c568d909f\/templateapi\/16517392566446\/file.zip?nonce=32e0be80c094d1672a870215a53653c2","cover":"http:\/\/rdfile.oss-cn-hangzhou.aliyuncs.com\/filemanage\/e069b36c568d909f\/templateapi\/16517392566446\/cover.webp?nonce=32e0be80c094d1672a870215a53653c2","updatetime":"1684896944","height":607,"width":1080,"video":"http:\/\/rdfile.oss-cn-hangzhou.aliyuncs.com\/filemanage\/e069b36c568d909f\/templateapi\/16517392566446\/video.mp4?nonce=32e0be80c094d1672a870215a53653c2","sort":0,"version":152,"cover2":"","appkey":"init","duration":0,"extra":{},"polyglot":[],"category":"0","audit":0,"is_ugc":0,"text_need":0,"picture_need":0,"video_need":1,"type":"templateapi"}]}}