{"code":0,"msg":"success","data":{"total":173,"per_page":10,"current_page":7,"last_page":18,"data":[{"id":"1016316","ufid":"57477286","name":"\u9f20\u6807\u7ffb\u9875\u6548\u679c","file":"http:\/\/rdfile.oss-cn-hangzhou.aliyuncs.com\/filemanage\/e069b36c568d909f\/templateapi\/16668677228530\/file.zip?nonce=e1c10094e0daab06525d00e6e36233ef","cover":"http:\/\/rdfile.oss-cn-hangzhou.aliyuncs.com\/filemanage\/e069b36c568d909f\/templateapi\/16668677228530\/cover.webp?nonce=e1c10094e0daab06525d00e6e36233ef","updatetime":"1684897510","height":1059,"width":1059,"video":"http:\/\/rdfile.oss-cn-hangzhou.aliyuncs.com\/filemanage\/e069b36c568d909f\/templateapi\/16668677228530\/video.mp4?nonce=e1c10094e0daab06525d00e6e36233ef","sort":0,"version":153,"cover2":"","appkey":"init","duration":0,"extra":{},"polyglot":[],"category":"0","audit":0,"is_ugc":0,"text_need":2,"picture_need":7,"video_need":0,"type":"templateapi"},{"id":"1016173","ufid":"65177840","name":"\u6d77\u8fb9\u5c11\u5973","file":"http:\/\/rdfile.oss-cn-hangzhou.aliyuncs.com\/filemanage\/e069b36c568d909f\/templateapi\/16656330611363\/file.zip?nonce=fa365809185d033678ff6b05eaf319aa","cover":"http:\/\/rdfile.oss-cn-hangzhou.aliyuncs.com\/filemanage\/e069b36c568d909f\/templateapi\/16656330611363\/cover.webp?nonce=fa365809185d033678ff6b05eaf319aa","updatetime":"1684910763","height":1280,"width":720,"video":"http:\/\/rdfile.oss-cn-hangzhou.aliyuncs.com\/filemanage\/e069b36c568d909f\/templateapi\/16656330611363\/video.mp4?nonce=fa365809185d033678ff6b05eaf319aa","sort":0,"version":153,"cover2":"","appkey":"init","duration":0,"extra":{},"polyglot":[],"category":"0","audit":0,"is_ugc":0,"text_need":0,"picture_need":0,"video_need":4,"type":"templateapi"},{"id":"1016098","ufid":"18412138","name":"\u821e\u8e48\u53d8\u88c5","file":"http:\/\/rdfile.oss-cn-hangzhou.aliyuncs.com\/filemanage\/e069b36c568d909f\/templateapi\/16652207895771\/file.zip?nonce=6b7001461b3ae45048be5efc310ec52c","cover":"http:\/\/rdfile.oss-cn-hangzhou.aliyuncs.com\/filemanage\/e069b36c568d909f\/templateapi\/16652207895771\/cover.webp?nonce=6b7001461b3ae45048be5efc310ec52c","updatetime":"1684911492","height":1920,"width":1080,"video":"http:\/\/rdfile.oss-cn-hangzhou.aliyuncs.com\/filemanage\/e069b36c568d909f\/templateapi\/16652207895771\/video.mp4?nonce=6b7001461b3ae45048be5efc310ec52c","sort":0,"version":153,"cover2":"","appkey":"init","duration":0,"extra":{},"polyglot":[],"category":"0","audit":0,"is_ugc":0,"text_need":0,"picture_need":0,"video_need":2,"type":"templateapi"},{"id":"1015580","ufid":"76598112","name":"\u97f3\u4e50\u5361\u70b9\u73a9\u6cd5","file":"http:\/\/rdfile.oss-cn-hangzhou.aliyuncs.com\/filemanage\/e069b36c568d909f\/templateapi\/16577912856204\/file.zip?nonce=10d09c36af1d58e403ae58a1dff618bf","cover":"http:\/\/rdfile.oss-cn-hangzhou.aliyuncs.com\/filemanage\/e069b36c568d909f\/templateapi\/16577912856204\/cover.webp?nonce=10d09c36af1d58e403ae58a1dff618bf","updatetime":"1684898161","height":720,"width":720,"video":"http:\/\/rdfile.oss-cn-hangzhou.aliyuncs.com\/filemanage\/e069b36c568d909f\/templateapi\/16577912856204\/video.mp4?nonce=10d09c36af1d58e403ae58a1dff618bf","sort":0,"version":153,"cover2":"","appkey":"init","duration":0,"extra":{},"polyglot":[],"category":"0","audit":0,"is_ugc":0,"text_need":0,"picture_need":0,"video_need":25,"type":"templateapi"},{"id":"1016005","ufid":"54700302","name":"\u79cb\u65e5\u9886\u609f","file":"http:\/\/rdfile.oss-cn-hangzhou.aliyuncs.com\/filemanage\/e069b36c568d909f\/templateapi\/16630604933906\/file.zip?nonce=1df4f3c787db62a097874fabe40d323a","cover":"http:\/\/rdfile.oss-cn-hangzhou.aliyuncs.com\/filemanage\/e069b36c568d909f\/templateapi\/16630604933906\/cover.webp?nonce=1df4f3c787db62a097874fabe40d323a","updatetime":"1684896506","height":1275,"width":718,"video":"http:\/\/rdfile.oss-cn-hangzhou.aliyuncs.com\/filemanage\/e069b36c568d909f\/templateapi\/16630604933906\/video.mp4?nonce=1df4f3c787db62a097874fabe40d323a","sort":0,"version":153,"cover2":"","appkey":"init","duration":0,"extra":{},"polyglot":[],"category":"0","audit":0,"is_ugc":0,"text_need":1,"picture_need":1,"video_need":0,"type":"templateapi"},{"id":"1015911","ufid":"15064434","name":"\u6587\u5b57\u70df\u96fe\u663e\u73b0\u6548\u679c","file":"http:\/\/rdfile.oss-cn-hangzhou.aliyuncs.com\/filemanage\/e069b36c568d909f\/templateapi\/16608983007130\/file.zip?nonce=753a6ba5e1a1037ee21d32216d011438","cover":"http:\/\/rdfile.oss-cn-hangzhou.aliyuncs.com\/filemanage\/e069b36c568d909f\/templateapi\/16608983007130\/cover.webp?nonce=753a6ba5e1a1037ee21d32216d011438","updatetime":"1684912277","height":1060,"width":596,"video":"http:\/\/rdfile.oss-cn-hangzhou.aliyuncs.com\/filemanage\/e069b36c568d909f\/templateapi\/16608983007130\/video.mp4?nonce=753a6ba5e1a1037ee21d32216d011438","sort":0,"version":153,"cover2":"","appkey":"init","duration":0,"extra":{},"polyglot":[],"category":"0","audit":0,"is_ugc":0,"text_need":1,"picture_need":0,"video_need":1,"type":"templateapi"},{"id":"1012986","ufid":"28157183","name":"\u5723\u8bde\u8282\u5feb\u4e50","file":"http:\/\/rdfile.oss-cn-hangzhou.aliyuncs.com\/filemanage\/e069b36c568d909f\/templateapi\/16399934343291\/file.zip?nonce=2589e1d3893416748997453a6d768dc3","cover":"http:\/\/rdfile.oss-cn-hangzhou.aliyuncs.com\/filemanage\/e069b36c568d909f\/templateapi\/16399934343291\/cover.png?nonce=2589e1d3893416748997453a6d768dc3&x-oss-process=style\/templateapi","updatetime":"1684895552","height":1231,"width":693,"video":"http:\/\/rdfile.oss-cn-hangzhou.aliyuncs.com\/filemanage\/e069b36c568d909f\/templateapi\/16399934343291\/video.mp4?nonce=2589e1d3893416748997453a6d768dc3","sort":100,"version":150,"cover2":"","appkey":"init","duration":0,"extra":{},"polyglot":[],"category":"0","audit":0,"is_ugc":0,"text_need":0,"picture_need":2,"video_need":0,"type":"templateapi"},{"id":"1020807","ufid":"9f2b8b8f-5871-46ec-ab39-3302e75024d2","name":"\u6625\u9192 \u4e07\u7269\u751f","file":"http:\/\/rdfile.oss-cn-hangzhou.aliyuncs.com\/filemanage\/6ecb39f1c12f1a35\/templateapi\/9f2b8b8f-5871-46ec-ab39-3302e75024d2\/file.zip?nonce=ec005eb853d2a42d6f783e0b6c03c3d3","cover":"http:\/\/rdfile.oss-cn-hangzhou.aliyuncs.com\/filemanage\/6ecb39f1c12f1a35\/templateapi\/9f2b8b8f-5871-46ec-ab39-3302e75024d2\/cover.webp?nonce=ec005eb853d2a42d6f783e0b6c03c3d3","updatetime":"1694422876","height":1060,"width":596,"video":"http:\/\/rdfile.oss-cn-hangzhou.aliyuncs.com\/filemanage\/6ecb39f1c12f1a35\/templateapi\/9f2b8b8f-5871-46ec-ab39-3302e75024d2\/video.mp4?nonce=ec005eb853d2a42d6f783e0b6c03c3d3","sort":0,"version":162,"cover2":"","appkey":"init","duration":0,"extra":{},"polyglot":[],"category":"0","audit":0,"is_ugc":0,"text_need":0,"picture_need":0,"video_need":4,"type":"templateapi"},{"id":"1016164","ufid":"19503696","name":"\u7f8e\u62cd\u97f3\u4e50\u7c7b\u6a21\u7248","file":"http:\/\/rdfile.oss-cn-hangzhou.aliyuncs.com\/filemanage\/e069b36c568d909f\/templateapi\/16655590213407\/file.zip?nonce=8c194b8098fec1fe6ccbdae2d827ed36","cover":"http:\/\/rdfile.oss-cn-hangzhou.aliyuncs.com\/filemanage\/e069b36c568d909f\/templateapi\/16655590213407\/cover.webp?nonce=8c194b8098fec1fe6ccbdae2d827ed36","updatetime":"1684910792","height":1280,"width":720,"video":"http:\/\/rdfile.oss-cn-hangzhou.aliyuncs.com\/filemanage\/e069b36c568d909f\/templateapi\/16655590213407\/video.mp4?nonce=8c194b8098fec1fe6ccbdae2d827ed36","sort":0,"version":153,"cover2":"","appkey":"init","duration":0,"extra":{},"polyglot":[],"category":"0","audit":0,"is_ugc":0,"text_need":0,"picture_need":0,"video_need":4,"type":"templateapi"},{"id":"1016161","ufid":"64427752","name":"\u7f8e\u62cd\u968f\u526a","file":"http:\/\/rdfile.oss-cn-hangzhou.aliyuncs.com\/filemanage\/e069b36c568d909f\/templateapi\/16655457576387\/file.zip?nonce=b9bbdff46df107587f99dd3a05f2a362","cover":"http:\/\/rdfile.oss-cn-hangzhou.aliyuncs.com\/filemanage\/e069b36c568d909f\/templateapi\/16655457576387\/cover.webp?nonce=b9bbdff46df107587f99dd3a05f2a362","updatetime":"1684895145","height":1280,"width":720,"video":"http:\/\/rdfile.oss-cn-hangzhou.aliyuncs.com\/filemanage\/e069b36c568d909f\/templateapi\/16655457576387\/video.mp4?nonce=b9bbdff46df107587f99dd3a05f2a362","sort":0,"version":153,"cover2":"","appkey":"init","duration":0,"extra":{},"polyglot":[],"category":"0","audit":0,"is_ugc":0,"text_need":0,"picture_need":0,"video_need":4,"type":"templateapi"}]}}