{"code":0,"msg":"success","data":{"total":636,"per_page":10,"current_page":42,"last_page":64,"data":[{"id":"1014268","ufid":"73954500","name":"\u624b\u5fc3\u5171\u4eab\u5730\u56fe","file":"http:\/\/rdfile.oss-cn-hangzhou.aliyuncs.com\/filemanage\/e069b36c568d909f\/templateapi\/16448966031581\/file.zip?nonce=cb35d8927b1c148c9f3515bc1e81cf3c","cover":"http:\/\/rdfile.oss-cn-hangzhou.aliyuncs.com\/filemanage\/e069b36c568d909f\/templateapi\/16448966031581\/cover.png?nonce=cb35d8927b1c148c9f3515bc1e81cf3c&x-oss-process=style\/templateapi","updatetime":"1704185777","height":1080,"width":811,"video":"http:\/\/rdfile.oss-cn-hangzhou.aliyuncs.com\/filemanage\/e069b36c568d909f\/templateapi\/16448966031581\/video.mp4?nonce=cb35d8927b1c148c9f3515bc1e81cf3c","sort":0,"version":150,"cover2":"","appkey":"init","duration":0,"extra":{},"polyglot":{"en":"Sharing map in the palm of your hand"},"category":"0","audit":0,"is_ugc":0,"text_need":0,"picture_need":0,"video_need":2,"type":"templateapi"},{"id":"1014267","ufid":"37914489","name":"\u7231\u5fc3\u62fc\u56fe","file":"http:\/\/rdfile.oss-cn-hangzhou.aliyuncs.com\/filemanage\/e069b36c568d909f\/templateapi\/16448253744255\/file.zip?nonce=cb35d8927b1c148c9f3515bc1e81cf3c","cover":"http:\/\/rdfile.oss-cn-hangzhou.aliyuncs.com\/filemanage\/e069b36c568d909f\/templateapi\/16448253744255\/cover.png?nonce=cb35d8927b1c148c9f3515bc1e81cf3c&x-oss-process=style\/templateapi","updatetime":"1704185777","height":720,"width":720,"video":"http:\/\/rdfile.oss-cn-hangzhou.aliyuncs.com\/filemanage\/e069b36c568d909f\/templateapi\/16448253744255\/video.mp4?nonce=cb35d8927b1c148c9f3515bc1e81cf3c","sort":0,"version":150,"cover2":"","appkey":"init","duration":0,"extra":{},"polyglot":{"en":"Love puzzle"},"category":"0","audit":0,"is_ugc":0,"text_need":0,"picture_need":0,"video_need":6,"type":"templateapi"},{"id":"1014264","ufid":"57110812","name":"\u5200\u5207\u8f6c\u573a","file":"http:\/\/rdfile.oss-cn-hangzhou.aliyuncs.com\/filemanage\/e069b36c568d909f\/templateapi\/16444813501048\/file.zip?nonce=cb35d8927b1c148c9f3515bc1e81cf3c","cover":"http:\/\/rdfile.oss-cn-hangzhou.aliyuncs.com\/filemanage\/e069b36c568d909f\/templateapi\/16444813501048\/cover.png?nonce=cb35d8927b1c148c9f3515bc1e81cf3c&x-oss-process=style\/templateapi","updatetime":"1704185777","height":1080,"width":1920,"video":"http:\/\/rdfile.oss-cn-hangzhou.aliyuncs.com\/filemanage\/e069b36c568d909f\/templateapi\/16444813501048\/video.mp4?nonce=cb35d8927b1c148c9f3515bc1e81cf3c","sort":0,"version":150,"cover2":"","appkey":"init","duration":0,"extra":{},"polyglot":{"en":"Knife transition"},"category":"0","audit":0,"is_ugc":0,"text_need":0,"picture_need":0,"video_need":2,"type":"templateapi"},{"id":"1014155","ufid":"65279566","name":"\u661f\u52a8\u4e4b\u591c\u83b7\u5956\u8005","file":"http:\/\/rdfile.oss-cn-hangzhou.aliyuncs.com\/filemanage\/e069b36c568d909f\/templateapi\/16433400637525\/file.zip?nonce=568f88069edf6787b446eb33e9b9ec1c","cover":"http:\/\/rdfile.oss-cn-hangzhou.aliyuncs.com\/filemanage\/e069b36c568d909f\/templateapi\/16433400637525\/cover.png?nonce=568f88069edf6787b446eb33e9b9ec1c&x-oss-process=style\/templateapi","updatetime":"1704185763","height":1280,"width":720,"video":"http:\/\/rdfile.oss-cn-hangzhou.aliyuncs.com\/filemanage\/e069b36c568d909f\/templateapi\/16433400637525\/video.mp4?nonce=568f88069edf6787b446eb33e9b9ec1c","sort":0,"version":150,"cover2":"","appkey":"init","duration":0,"extra":{},"polyglot":{"en":"Starry Night Winners"},"category":"0","audit":0,"is_ugc":0,"text_need":0,"picture_need":0,"video_need":1,"type":"templateapi"},{"id":"1013208","ufid":"31169325","name":"\u6625\u8282BGM","file":"http:\/\/rdfile.oss-cn-hangzhou.aliyuncs.com\/filemanage\/e069b36c568d909f\/templateapi\/16429971475576\/file.zip?nonce=468bbc25b57f7d77df22fc7e2486cd29","cover":"http:\/\/rdfile.oss-cn-hangzhou.aliyuncs.com\/filemanage\/e069b36c568d909f\/templateapi\/16429971475576\/cover.png?nonce=468bbc25b57f7d77df22fc7e2486cd29&x-oss-process=style\/templateapi","updatetime":"1704185752","height":608,"width":1080,"video":"http:\/\/rdfile.oss-cn-hangzhou.aliyuncs.com\/filemanage\/e069b36c568d909f\/templateapi\/16429971475576\/video.mp4?nonce=468bbc25b57f7d77df22fc7e2486cd29","sort":0,"version":150,"cover2":"","appkey":"init","duration":0,"extra":{},"polyglot":{"en":"Spring festival BGM"},"category":"0","audit":0,"is_ugc":0,"text_need":9,"picture_need":15,"video_need":0,"type":"templateapi"},{"id":"1013207","ufid":"28801211","name":"\u4e91","file":"http:\/\/rdfile.oss-cn-hangzhou.aliyuncs.com\/filemanage\/e069b36c568d909f\/templateapi\/16429361308319\/file.zip?nonce=eb81516eafe1412c0e45ae985576f9bd","cover":"http:\/\/rdfile.oss-cn-hangzhou.aliyuncs.com\/filemanage\/e069b36c568d909f\/templateapi\/16429361308319\/cover.png?nonce=eb81516eafe1412c0e45ae985576f9bd&x-oss-process=style\/templateapi","updatetime":"1704185751","height":1230,"width":692,"video":"http:\/\/rdfile.oss-cn-hangzhou.aliyuncs.com\/filemanage\/e069b36c568d909f\/templateapi\/16429361308319\/video.mp4?nonce=eb81516eafe1412c0e45ae985576f9bd","sort":0,"version":149,"cover2":"","appkey":"init","duration":0,"extra":{},"polyglot":{"en":"Cloud"},"category":"0","audit":0,"is_ugc":0,"text_need":0,"picture_need":0,"video_need":9,"type":"templateapi"},{"id":"1013195","ufid":"64277282","name":"\u56db\u5e74\u53d8\u5316\u5bf9\u6bd4","file":"http:\/\/rdfile.oss-cn-hangzhou.aliyuncs.com\/filemanage\/e069b36c568d909f\/templateapi\/16426659611211\/file.zip?nonce=eb81516eafe1412c0e45ae985576f9bd","cover":"http:\/\/rdfile.oss-cn-hangzhou.aliyuncs.com\/filemanage\/e069b36c568d909f\/templateapi\/16426659611211\/cover.png?nonce=eb81516eafe1412c0e45ae985576f9bd&x-oss-process=style\/templateapi","updatetime":"1704185751","height":1230,"width":692,"video":"http:\/\/rdfile.oss-cn-hangzhou.aliyuncs.com\/filemanage\/e069b36c568d909f\/templateapi\/16426659611211\/video.mp4?nonce=eb81516eafe1412c0e45ae985576f9bd","sort":0,"version":150,"cover2":"","appkey":"init","duration":0,"extra":{},"polyglot":{"en":"Comparison of changes in four years"},"category":"0","audit":0,"is_ugc":0,"text_need":0,"picture_need":0,"video_need":4,"type":"templateapi"},{"id":"1013188","ufid":"66148034","name":"\u952e\u76d8\u5b57\u6bcd\u653e\u5927","file":"http:\/\/rdfile.oss-cn-hangzhou.aliyuncs.com\/filemanage\/e069b36c568d909f\/templateapi\/16424127695920\/file.zip?nonce=eb81516eafe1412c0e45ae985576f9bd","cover":"http:\/\/rdfile.oss-cn-hangzhou.aliyuncs.com\/filemanage\/e069b36c568d909f\/templateapi\/16424127695920\/cover.png?nonce=eb81516eafe1412c0e45ae985576f9bd&x-oss-process=style\/templateapi","updatetime":"1704185751","height":1280,"width":720,"video":"http:\/\/rdfile.oss-cn-hangzhou.aliyuncs.com\/filemanage\/e069b36c568d909f\/templateapi\/16424127695920\/video.mp4?nonce=eb81516eafe1412c0e45ae985576f9bd","sort":0,"version":150,"cover2":"","appkey":"init","duration":0,"extra":{},"polyglot":{"en":"Keyboard letter enlargement"},"category":"0","audit":0,"is_ugc":0,"text_need":0,"picture_need":0,"video_need":2,"type":"templateapi"},{"id":"1013168","ufid":"90513968","name":"\u4e00\u79d2\u51fa\u955c","file":"http:\/\/rdfile.oss-cn-hangzhou.aliyuncs.com\/filemanage\/e069b36c568d909f\/templateapi\/16421551128444\/file.zip?nonce=5ee4674b432b284e8c0a460541baa35f","cover":"http:\/\/rdfile.oss-cn-hangzhou.aliyuncs.com\/filemanage\/e069b36c568d909f\/templateapi\/16421551128444\/cover.png?nonce=5ee4674b432b284e8c0a460541baa35f&x-oss-process=style\/templateapi","updatetime":"1704185747","height":1080,"width":607,"video":"http:\/\/rdfile.oss-cn-hangzhou.aliyuncs.com\/filemanage\/e069b36c568d909f\/templateapi\/16421551128444\/video.mp4?nonce=5ee4674b432b284e8c0a460541baa35f","sort":100,"version":150,"cover2":"","appkey":"init","duration":0,"extra":{},"polyglot":{"en":"Appeared in one second"},"category":"0","audit":0,"is_ugc":0,"text_need":0,"picture_need":0,"video_need":2,"type":"templateapi"},{"id":"1013111","ufid":"35845604","name":"\u65e0\u60c5\u7684\u60c5\u4e66","file":"http:\/\/rdfile.oss-cn-hangzhou.aliyuncs.com\/filemanage\/e069b36c568d909f\/templateapi\/16419765296200\/file.zip?nonce=be2b98126581b832fad8d187409004ed","cover":"http:\/\/rdfile.oss-cn-hangzhou.aliyuncs.com\/filemanage\/e069b36c568d909f\/templateapi\/16419765296200\/cover.png?nonce=be2b98126581b832fad8d187409004ed&x-oss-process=style\/templateapi","updatetime":"1704185746","height":720,"width":1280,"video":"http:\/\/rdfile.oss-cn-hangzhou.aliyuncs.com\/filemanage\/e069b36c568d909f\/templateapi\/16419765296200\/video.mp4?nonce=be2b98126581b832fad8d187409004ed","sort":100,"version":150,"cover2":"","appkey":"init","duration":0,"extra":{},"polyglot":{"en":"Heartless love letter"},"category":"0","audit":0,"is_ugc":0,"text_need":0,"picture_need":0,"video_need":22,"type":"templateapi"}]}}