{"code":0,"msg":"success","data":{"total":84,"per_page":10,"current_page":5,"last_page":9,"data":[{"id":"1016032","ufid":"58994978","name":"\u5e26\u8f68\u9053\u5706\u70b9\u6eda\u52a8\u6548\u679c","file":"http:\/\/rdfile.oss-cn-hangzhou.aliyuncs.com\/filemanage\/e069b36c568d909f\/templateapi\/16637295721804\/file.zip?nonce=edea4c3452fbe5397464718c9f9b7bc4","cover":"http:\/\/rdfile.oss-cn-hangzhou.aliyuncs.com\/filemanage\/e069b36c568d909f\/templateapi\/16637295721804\/cover.webp?nonce=edea4c3452fbe5397464718c9f9b7bc4","updatetime":"1684914312","height":1060,"width":596,"video":"http:\/\/rdfile.oss-cn-hangzhou.aliyuncs.com\/filemanage\/e069b36c568d909f\/templateapi\/16637295721804\/video.mp4?nonce=edea4c3452fbe5397464718c9f9b7bc4","sort":0,"version":153,"cover2":"","appkey":"init","duration":0,"extra":{},"polyglot":[],"category":"0","audit":0,"is_ugc":0,"text_need":3,"picture_need":0,"video_need":2,"type":"templateapi"},{"id":"1016006","ufid":"63524381","name":"\u900f\u660e\u5fae\u4fe1\u5934\u50cf\u58c1\u7eb8","file":"http:\/\/rdfile.oss-cn-hangzhou.aliyuncs.com\/filemanage\/e069b36c568d909f\/templateapi\/16630611008842\/file.zip?nonce=528998a7bb95660b36dd7f38d73f5eb5","cover":"http:\/\/rdfile.oss-cn-hangzhou.aliyuncs.com\/filemanage\/e069b36c568d909f\/templateapi\/16630611008842\/cover.webp?nonce=528998a7bb95660b36dd7f38d73f5eb5","updatetime":"1684912251","height":1060,"width":596,"video":"http:\/\/rdfile.oss-cn-hangzhou.aliyuncs.com\/filemanage\/e069b36c568d909f\/templateapi\/16630611008842\/video.mp4?nonce=528998a7bb95660b36dd7f38d73f5eb5","sort":0,"version":153,"cover2":"","appkey":"init","duration":0,"extra":{},"polyglot":[],"category":"0","audit":0,"is_ugc":0,"text_need":3,"picture_need":5,"video_need":0,"type":"templateapi"},{"id":"1015998","ufid":"37041049","name":"\u7167\u7247\u8fd0\u955c","file":"http:\/\/rdfile.oss-cn-hangzhou.aliyuncs.com\/filemanage\/e069b36c568d909f\/templateapi\/16627136371476\/file.zip?nonce=4d767289e7ddd6c74131cdb8f7971595","cover":"http:\/\/rdfile.oss-cn-hangzhou.aliyuncs.com\/filemanage\/e069b36c568d909f\/templateapi\/16627136371476\/cover.webp?nonce=4d767289e7ddd6c74131cdb8f7971595","updatetime":"1684898048","height":810,"width":1440,"video":"http:\/\/rdfile.oss-cn-hangzhou.aliyuncs.com\/filemanage\/e069b36c568d909f\/templateapi\/16627136371476\/video.mp4?nonce=4d767289e7ddd6c74131cdb8f7971595","sort":0,"version":153,"cover2":"","appkey":"init","duration":0,"extra":{},"polyglot":[],"category":"0","audit":0,"is_ugc":0,"text_need":0,"picture_need":0,"video_need":5,"type":"templateapi"},{"id":"1015907","ufid":"61313814","name":"\u7ffb\u9875\u76f8\u518c","file":"http:\/\/rdfile.oss-cn-hangzhou.aliyuncs.com\/filemanage\/e069b36c568d909f\/templateapi\/16606205818634\/file.zip?nonce=c8ab780a86ee4c6724ab8a4ff89c75e7","cover":"http:\/\/rdfile.oss-cn-hangzhou.aliyuncs.com\/filemanage\/e069b36c568d909f\/templateapi\/16606205818634\/cover.webp?nonce=c8ab780a86ee4c6724ab8a4ff89c75e7","updatetime":"1684914332","height":720,"width":1280,"video":"http:\/\/rdfile.oss-cn-hangzhou.aliyuncs.com\/filemanage\/e069b36c568d909f\/templateapi\/16606205818634\/video.mp4?nonce=c8ab780a86ee4c6724ab8a4ff89c75e7","sort":0,"version":153,"cover2":"","appkey":"init","duration":0,"extra":{},"polyglot":[],"category":"0","audit":0,"is_ugc":0,"text_need":0,"picture_need":0,"video_need":32,"type":"templateapi"},{"id":"1015837","ufid":"98482302","name":"\u7f8e\u4eba\u5982\u753b","file":"http:\/\/rdfile.oss-cn-hangzhou.aliyuncs.com\/filemanage\/e069b36c568d909f\/templateapi\/16602084806896\/file.zip?nonce=faf1d216801db988b08435c44d1e02e6","cover":"http:\/\/rdfile.oss-cn-hangzhou.aliyuncs.com\/filemanage\/e069b36c568d909f\/templateapi\/16602084806896\/cover.webp?nonce=faf1d216801db988b08435c44d1e02e6","updatetime":"1684898037","height":607,"width":1080,"video":"http:\/\/rdfile.oss-cn-hangzhou.aliyuncs.com\/filemanage\/e069b36c568d909f\/templateapi\/16602084806896\/video.mp4?nonce=faf1d216801db988b08435c44d1e02e6","sort":0,"version":153,"cover2":"","appkey":"init","duration":0,"extra":{},"polyglot":[],"category":"0","audit":0,"is_ugc":0,"text_need":2,"picture_need":10,"video_need":0,"type":"templateapi"},{"id":"1015779","ufid":"37189629","name":"\u76f8\u518c\u6ed1\u52a8","file":"http:\/\/rdfile.oss-cn-hangzhou.aliyuncs.com\/filemanage\/e069b36c568d909f\/templateapi\/16596910322866\/file.zip?nonce=d4c6ef239fddf691c259851b5822f4c0","cover":"http:\/\/rdfile.oss-cn-hangzhou.aliyuncs.com\/filemanage\/e069b36c568d909f\/templateapi\/16596910322866\/cover.webp?nonce=d4c6ef239fddf691c259851b5822f4c0","updatetime":"1684898060","height":720,"width":720,"video":"http:\/\/rdfile.oss-cn-hangzhou.aliyuncs.com\/filemanage\/e069b36c568d909f\/templateapi\/16596910322866\/video.mp4?nonce=d4c6ef239fddf691c259851b5822f4c0","sort":0,"version":153,"cover2":"","appkey":"init","duration":0,"extra":{},"polyglot":[],"category":"0","audit":0,"is_ugc":0,"text_need":0,"picture_need":0,"video_need":9,"type":"templateapi"},{"id":"1015547","ufid":"80557616","name":"\u91cd\u53e0\u6c1b\u56f4\u7167\u7247","file":"http:\/\/rdfile.oss-cn-hangzhou.aliyuncs.com\/filemanage\/e069b36c568d909f\/templateapi\/16565561225640\/file.zip?nonce=16555b1d316f6f3043ba675abc480d68","cover":"http:\/\/rdfile.oss-cn-hangzhou.aliyuncs.com\/filemanage\/e069b36c568d909f\/templateapi\/16565561225640\/cover.webp?nonce=16555b1d316f6f3043ba675abc480d68","updatetime":"1684898225","height":1230,"width":692,"video":"http:\/\/rdfile.oss-cn-hangzhou.aliyuncs.com\/filemanage\/e069b36c568d909f\/templateapi\/16565561225640\/video.mp4?nonce=16555b1d316f6f3043ba675abc480d68","sort":0,"version":153,"cover2":"","appkey":"init","duration":0,"extra":{},"polyglot":[],"category":"0","audit":0,"is_ugc":0,"text_need":0,"picture_need":3,"video_need":0,"type":"templateapi"},{"id":"1015543","ufid":"63009176","name":"\u6e29\u67d4\u7684\u7167\u7247\u914d\u7099\u70ed\u7684\u6b4c","file":"http:\/\/rdfile.oss-cn-hangzhou.aliyuncs.com\/filemanage\/e069b36c568d909f\/templateapi\/16564948051134\/file.zip?nonce=2086336dcd9b938221db600772e17b76","cover":"http:\/\/rdfile.oss-cn-hangzhou.aliyuncs.com\/filemanage\/e069b36c568d909f\/templateapi\/16564948051134\/cover.webp?nonce=2086336dcd9b938221db600772e17b76","updatetime":"1684912200","height":1060,"width":596,"video":"http:\/\/rdfile.oss-cn-hangzhou.aliyuncs.com\/filemanage\/e069b36c568d909f\/templateapi\/16564948051134\/video.mp4?nonce=2086336dcd9b938221db600772e17b76","sort":0,"version":153,"cover2":"","appkey":"init","duration":0,"extra":{},"polyglot":[],"category":"0","audit":0,"is_ugc":0,"text_need":0,"picture_need":0,"video_need":1,"type":"templateapi"},{"id":"1015365","ufid":"65274212","name":"\u670b\u53cb\u5708\u4e5d\u5bab\u683c","file":"http:\/\/rdfile.oss-cn-hangzhou.aliyuncs.com\/filemanage\/e069b36c568d909f\/templateapi\/16552813726302\/file.zip?nonce=4d8164623fa437e1588d9d02cbd26edd","cover":"http:\/\/rdfile.oss-cn-hangzhou.aliyuncs.com\/filemanage\/e069b36c568d909f\/templateapi\/16552813726302\/cover.webp?nonce=4d8164623fa437e1588d9d02cbd26edd","updatetime":"1684898074","height":1058,"width":508,"video":"http:\/\/rdfile.oss-cn-hangzhou.aliyuncs.com\/filemanage\/e069b36c568d909f\/templateapi\/16552813726302\/video.mp4?nonce=4d8164623fa437e1588d9d02cbd26edd","sort":0,"version":153,"cover2":"","appkey":"init","duration":0,"extra":{},"polyglot":[],"category":"0","audit":0,"is_ugc":0,"text_need":0,"picture_need":20,"video_need":14,"type":"templateapi"},{"id":"1015360","ufid":"41107466","name":"3D\u81ea\u52a8\u8f6e\u64ad\u76f8\u518c","file":"http:\/\/rdfile.oss-cn-hangzhou.aliyuncs.com\/filemanage\/e069b36c568d909f\/templateapi\/16552783835513\/file.zip?nonce=e7242af52cb5ed9b2ec4eac5b5bcfd6a","cover":"http:\/\/rdfile.oss-cn-hangzhou.aliyuncs.com\/filemanage\/e069b36c568d909f\/templateapi\/16552783835513\/cover.webp?nonce=e7242af52cb5ed9b2ec4eac5b5bcfd6a","updatetime":"1684898119","height":612,"width":1080,"video":"http:\/\/rdfile.oss-cn-hangzhou.aliyuncs.com\/filemanage\/e069b36c568d909f\/templateapi\/16552783835513\/video.mp4?nonce=e7242af52cb5ed9b2ec4eac5b5bcfd6a","sort":0,"version":153,"cover2":"","appkey":"init","duration":0,"extra":{},"polyglot":[],"category":"0","audit":0,"is_ugc":0,"text_need":0,"picture_need":0,"video_need":12,"type":"templateapi"}]}}