{"code":0,"msg":"success","data":{"total":189,"per_page":10,"current_page":5,"last_page":19,"data":[{"id":"1015913","ufid":"97113180","name":"\u76d7\u68a6\u7a7a\u95f4","file":"http:\/\/rdfile.oss-cn-hangzhou.aliyuncs.com\/filemanage\/e069b36c568d909f\/templateapi\/16612266446637\/file.zip?nonce=2466826dc4d004838f02cbe1505a1515","cover":"http:\/\/rdfile.oss-cn-hangzhou.aliyuncs.com\/filemanage\/e069b36c568d909f\/templateapi\/16612266446637\/cover.webp?nonce=2466826dc4d004838f02cbe1505a1515","updatetime":"1684896918","height":608,"width":1080,"video":"http:\/\/rdfile.oss-cn-hangzhou.aliyuncs.com\/filemanage\/e069b36c568d909f\/templateapi\/16612266446637\/video.mp4?nonce=2466826dc4d004838f02cbe1505a1515","sort":0,"version":153,"cover2":"","appkey":"init","duration":0,"extra":{},"polyglot":[],"category":"0","audit":0,"is_ugc":0,"text_need":0,"picture_need":0,"video_need":2,"type":"templateapi"},{"id":"1015813","ufid":"56327776","name":"\u6469\u6258\u7f57\u62c9\u64ad\u653e\u5668","file":"http:\/\/rdfile.oss-cn-hangzhou.aliyuncs.com\/filemanage\/e069b36c568d909f\/templateapi\/16600368114963\/file.zip?nonce=7aa12b5e299d4703a99c84e159904cd0","cover":"http:\/\/rdfile.oss-cn-hangzhou.aliyuncs.com\/filemanage\/e069b36c568d909f\/templateapi\/16600368114963\/cover.webp?nonce=7aa12b5e299d4703a99c84e159904cd0","updatetime":"1684912290","height":1179,"width":663,"video":"http:\/\/rdfile.oss-cn-hangzhou.aliyuncs.com\/filemanage\/e069b36c568d909f\/templateapi\/16600368114963\/video.mp4?nonce=7aa12b5e299d4703a99c84e159904cd0","sort":0,"version":153,"cover2":"","appkey":"init","duration":0,"extra":{},"polyglot":[],"category":"0","audit":0,"is_ugc":0,"text_need":0,"picture_need":0,"video_need":1,"type":"templateapi"},{"id":"1015727","ufid":"74820887","name":"\u4e5d\u5bab\u683c\u622a\u56fe\u6311\u6218","file":"http:\/\/rdfile.oss-cn-hangzhou.aliyuncs.com\/filemanage\/e069b36c568d909f\/templateapi\/16593422181667\/file.zip?nonce=8532ccd9c280d034d7fd89ec9f95ac23","cover":"http:\/\/rdfile.oss-cn-hangzhou.aliyuncs.com\/filemanage\/e069b36c568d909f\/templateapi\/16593422181667\/cover.webp?nonce=8532ccd9c280d034d7fd89ec9f95ac23","updatetime":"1684912148","height":1060,"width":596,"video":"http:\/\/rdfile.oss-cn-hangzhou.aliyuncs.com\/filemanage\/e069b36c568d909f\/templateapi\/16593422181667\/video.mp4?nonce=8532ccd9c280d034d7fd89ec9f95ac23","sort":0,"version":153,"cover2":"","appkey":"init","duration":0,"extra":{},"polyglot":[],"category":"0","audit":0,"is_ugc":0,"text_need":2,"picture_need":8,"video_need":0,"type":"templateapi"},{"id":"1015601","ufid":"67214681","name":"\u897f\u85cf\u4e00\u65e5\u6e38","file":"http:\/\/rdfile.oss-cn-hangzhou.aliyuncs.com\/filemanage\/e069b36c568d909f\/templateapi\/16587419384591\/file.zip?nonce=7e42ab2487793b64ece738a2deda5f51","cover":"http:\/\/rdfile.oss-cn-hangzhou.aliyuncs.com\/filemanage\/e069b36c568d909f\/templateapi\/16587419384591\/cover.webp?nonce=7e42ab2487793b64ece738a2deda5f51","updatetime":"1684912327","height":1059,"width":849,"video":"http:\/\/rdfile.oss-cn-hangzhou.aliyuncs.com\/filemanage\/e069b36c568d909f\/templateapi\/16587419384591\/video.mp4?nonce=7e42ab2487793b64ece738a2deda5f51","sort":0,"version":153,"cover2":"","appkey":"init","duration":0,"extra":{},"polyglot":[],"category":"0","audit":0,"is_ugc":0,"text_need":0,"picture_need":0,"video_need":5,"type":"templateapi"},{"id":"1015593","ufid":"25006913","name":"\u6211\u5728\u60f3\u4f60\u8def\u724c\u6539\u5b57\u73a9\u6cd5","file":"http:\/\/rdfile.oss-cn-hangzhou.aliyuncs.com\/filemanage\/e069b36c568d909f\/templateapi\/16583110059412\/file.zip?nonce=cfcd208495d565ef66e7dff9f98764da","cover":"http:\/\/rdfile.oss-cn-hangzhou.aliyuncs.com\/filemanage\/e069b36c568d909f\/templateapi\/16583110059412\/cover.webp?nonce=cfcd208495d565ef66e7dff9f98764da","updatetime":"0","height":960,"width":720,"video":"http:\/\/rdfile.oss-cn-hangzhou.aliyuncs.com\/filemanage\/e069b36c568d909f\/templateapi\/16583110059412\/video.mp4?nonce=cfcd208495d565ef66e7dff9f98764da","sort":0,"version":153,"cover2":"","appkey":"init","duration":0,"extra":{},"polyglot":[],"category":"0","audit":0,"is_ugc":0,"text_need":0,"picture_need":0,"video_need":1,"type":"templateapi"},{"id":"1015562","ufid":"61732644","name":"\u89c6\u9891\u901a\u8bdd","file":"http:\/\/rdfile.oss-cn-hangzhou.aliyuncs.com\/filemanage\/e069b36c568d909f\/templateapi\/16576147184025\/file.zip?nonce=c804a970b07ef6f0a2def34177448255","cover":"http:\/\/rdfile.oss-cn-hangzhou.aliyuncs.com\/filemanage\/e069b36c568d909f\/templateapi\/16576147184025\/cover.webp?nonce=c804a970b07ef6f0a2def34177448255","updatetime":"1684912192","height":1058,"width":595,"video":"http:\/\/rdfile.oss-cn-hangzhou.aliyuncs.com\/filemanage\/e069b36c568d909f\/templateapi\/16576147184025\/video.mp4?nonce=c804a970b07ef6f0a2def34177448255","sort":0,"version":153,"cover2":"","appkey":"init","duration":0,"extra":{},"polyglot":[],"category":"0","audit":0,"is_ugc":0,"text_need":1,"picture_need":1,"video_need":2,"type":"templateapi"},{"id":"1015556","ufid":"84783979","name":"\u6253\u5370\u673a\u7167\u7247","file":"http:\/\/rdfile.oss-cn-hangzhou.aliyuncs.com\/filemanage\/e069b36c568d909f\/templateapi\/16570897605500\/file.zip?nonce=cfcd208495d565ef66e7dff9f98764da","cover":"http:\/\/rdfile.oss-cn-hangzhou.aliyuncs.com\/filemanage\/e069b36c568d909f\/templateapi\/16570897605500\/cover.webp?nonce=cfcd208495d565ef66e7dff9f98764da","updatetime":"0","height":1059,"width":794,"video":"http:\/\/rdfile.oss-cn-hangzhou.aliyuncs.com\/filemanage\/e069b36c568d909f\/templateapi\/16570897605500\/video.mp4?nonce=cfcd208495d565ef66e7dff9f98764da","sort":0,"version":153,"cover2":"","appkey":"init","duration":0,"extra":{},"polyglot":[],"category":"0","audit":0,"is_ugc":0,"text_need":2,"picture_need":0,"video_need":1,"type":"templateapi"},{"id":"1015552","ufid":"48837193","name":"\u59d3\u6c0f\u80cc\u666f\u56fe","file":"http:\/\/rdfile.oss-cn-hangzhou.aliyuncs.com\/filemanage\/e069b36c568d909f\/templateapi\/16570088463076\/file.zip?nonce=cfcd208495d565ef66e7dff9f98764da","cover":"http:\/\/rdfile.oss-cn-hangzhou.aliyuncs.com\/filemanage\/e069b36c568d909f\/templateapi\/16570088463076\/cover.webp?nonce=cfcd208495d565ef66e7dff9f98764da","updatetime":"0","height":720,"width":960,"video":"http:\/\/rdfile.oss-cn-hangzhou.aliyuncs.com\/filemanage\/e069b36c568d909f\/templateapi\/16570088463076\/video.mp4?nonce=cfcd208495d565ef66e7dff9f98764da","sort":0,"version":153,"cover2":"","appkey":"init","duration":0,"extra":{},"polyglot":[],"category":"0","audit":0,"is_ugc":0,"text_need":0,"picture_need":0,"video_need":1,"type":"templateapi"},{"id":"1015538","ufid":"58307451","name":"\u5965\u7279\u66fc\u6765\u63a5\u6211\u4e86","file":"http:\/\/rdfile.oss-cn-hangzhou.aliyuncs.com\/filemanage\/e069b36c568d909f\/templateapi\/16563221119595\/file.zip?nonce=4365a6e062543d79f97c23780933b4e5","cover":"http:\/\/rdfile.oss-cn-hangzhou.aliyuncs.com\/filemanage\/e069b36c568d909f\/templateapi\/16563221119595\/cover.webp?nonce=4365a6e062543d79f97c23780933b4e5","updatetime":"1684911885","height":1058,"width":595,"video":"http:\/\/rdfile.oss-cn-hangzhou.aliyuncs.com\/filemanage\/e069b36c568d909f\/templateapi\/16563221119595\/video.mp4?nonce=4365a6e062543d79f97c23780933b4e5","sort":0,"version":153,"cover2":"","appkey":"init","duration":0,"extra":{},"polyglot":[],"category":"0","audit":0,"is_ugc":0,"text_need":1,"picture_need":0,"video_need":1,"type":"templateapi"},{"id":"1015460","ufid":"68469405","name":"\u526a\u8f91\u6846\u62a0\u50cf\u73a9\u6cd5","file":"http:\/\/rdfile.oss-cn-hangzhou.aliyuncs.com\/filemanage\/e069b36c568d909f\/templateapi\/16563012944839\/file.zip?nonce=cfcd208495d565ef66e7dff9f98764da","cover":"http:\/\/rdfile.oss-cn-hangzhou.aliyuncs.com\/filemanage\/e069b36c568d909f\/templateapi\/16563012944839\/cover.webp?nonce=cfcd208495d565ef66e7dff9f98764da","updatetime":"0","height":1230,"width":692,"video":"http:\/\/rdfile.oss-cn-hangzhou.aliyuncs.com\/filemanage\/e069b36c568d909f\/templateapi\/16563012944839\/video.mp4?nonce=cfcd208495d565ef66e7dff9f98764da","sort":0,"version":153,"cover2":"","appkey":"init","duration":0,"extra":{},"polyglot":[],"category":"0","audit":0,"is_ugc":0,"text_need":0,"picture_need":0,"video_need":2,"type":"templateapi"}]}}