{"code":0,"msg":"success","data":{"total":45,"per_page":20,"current_page":3,"last_page":3,"data":[{"id":"1005632","ufid":"20781942","name":"Numerical Code5","file":"http:\/\/rdfile.oss-cn-hangzhou.aliyuncs.com\/filemanage\/init\/audio\/61\/0d6971e13f5945ba17b3a62f87a2ee8a\/cf1cd78e764288eb5821a6dc2bd97d8a.mp3?nonce=cfcd208495d565ef66e7dff9f98764da","cover":"","updatetime":"0","height":0,"width":0,"video":"","sort":100,"version":0,"cover2":"","appkey":"init","duration":1,"extra":{},"polyglot":{"en":"Numerical Code5"},"category":"18667485,","audit":0,"is_ugc":0,"type":"audio"},{"id":"1005631","ufid":"84043889","name":"Numerical Code4","file":"http:\/\/rdfile.oss-cn-hangzhou.aliyuncs.com\/filemanage\/init\/audio\/61\/6f11034134026455063f9a22c3b07b0c\/5266bb78e886a87291e5316514d13fac.mp3?nonce=cfcd208495d565ef66e7dff9f98764da","cover":"","updatetime":"0","height":0,"width":0,"video":"","sort":100,"version":0,"cover2":"","appkey":"init","duration":1,"extra":{},"polyglot":{"en":"Numerical Code4"},"category":"18667485,","audit":0,"is_ugc":0,"type":"audio"},{"id":"1005630","ufid":"72007832","name":"Numerical Code3","file":"http:\/\/rdfile.oss-cn-hangzhou.aliyuncs.com\/filemanage\/init\/audio\/61\/fbc58b5804ab09179a412b8248e43882\/26316eeeb1514fe5f028836857f2770f.mp3?nonce=cfcd208495d565ef66e7dff9f98764da","cover":"","updatetime":"0","height":0,"width":0,"video":"","sort":100,"version":0,"cover2":"","appkey":"init","duration":2,"extra":{},"polyglot":{"en":"Numerical Code3"},"category":"18667485,","audit":0,"is_ugc":0,"type":"audio"},{"id":"1005629","ufid":"36351822","name":"Numerical Code2","file":"http:\/\/rdfile.oss-cn-hangzhou.aliyuncs.com\/filemanage\/init\/audio\/61\/15253f923cf9d2e2cc21f858e742e79e\/abe69a67d0da609556bea6f852709bc6.mp3?nonce=cfcd208495d565ef66e7dff9f98764da","cover":"","updatetime":"0","height":0,"width":0,"video":"","sort":100,"version":0,"cover2":"","appkey":"init","duration":1,"extra":{},"polyglot":{"en":"Numerical Code2"},"category":"18667485,","audit":0,"is_ugc":0,"type":"audio"},{"id":"1005628","ufid":"39071384","name":"Numerical Code1","file":"http:\/\/rdfile.oss-cn-hangzhou.aliyuncs.com\/filemanage\/init\/audio\/61\/7b856c52d00ab0b60b1b0a076ce1dd8a\/61a71dc8bd8a158e6dbdc99a9699d22a.mp3?nonce=cfcd208495d565ef66e7dff9f98764da","cover":"","updatetime":"0","height":0,"width":0,"video":"","sort":100,"version":0,"cover2":"","appkey":"init","duration":1,"extra":{},"polyglot":{"en":"Numerical Code1"},"category":"18667485,","audit":0,"is_ugc":0,"type":"audio"}]}}