{"code":0,"msg":"success","data":{"total":42,"per_page":20,"current_page":3,"last_page":3,"data":[{"id":"1019689","ufid":"68764452","name":"\u8be1\u5f02\u7684\u5916\u661f\u4eba\u97f3\u6548","file":"http:\/\/rdfile.oss-cn-hangzhou.aliyuncs.com\/filemanage\/init\/audio\/68764452.mp3?nonce=cfcd208495d565ef66e7dff9f98764da","cover":"http:\/\/rdfile.oss-cn-hangzhou.aliyuncs.com\/filemanage\/init\/audio\/68764452.jpeg?nonce=cfcd208495d565ef66e7dff9f98764da","updatetime":"0","height":0,"width":0,"video":"","sort":0,"version":0,"cover2":"","appkey":"init","duration":15,"extra":{},"polyglot":[],"category":"0","audit":0,"is_ugc":0,"type":"audio"},{"id":"1019688","ufid":"15239973","name":"\u6124\u6012\u7684\u673a\u5668\u4eba","file":"http:\/\/rdfile.oss-cn-hangzhou.aliyuncs.com\/filemanage\/init\/audio\/15239973.mp3?nonce=cfcd208495d565ef66e7dff9f98764da","cover":"http:\/\/rdfile.oss-cn-hangzhou.aliyuncs.com\/filemanage\/init\/audio\/15239973.jpeg?nonce=cfcd208495d565ef66e7dff9f98764da","updatetime":"0","height":0,"width":0,"video":"","sort":0,"version":0,"cover2":"","appkey":"init","duration":5,"extra":{},"polyglot":[],"category":"0","audit":0,"is_ugc":0,"type":"audio"}]}}