{"code":0,"msg":"success","data":{"total":143,"per_page":20,"current_page":3,"last_page":8,"data":[{"id":"1024499","ufid":"24141376","name":"\u5371\u9669\u8b66\u544a","file":"http:\/\/rdfile.oss-cn-hangzhou.aliyuncs.com\/filemanage\/init\/audio\/24141376.mp3?nonce=0cbba6e2a6c6d8e3f312a84af1bf51ab","cover":"","updatetime":"1697698305","height":0,"width":0,"video":"","sort":0,"version":157,"cover2":"","appkey":"init","duration":3,"extra":{},"polyglot":[],"category":"27108401,","audit":0,"is_ugc":0,"type":"audio"},{"id":"1024498","ufid":"64000491","name":"\u54c7\u54e6 wow","file":"http:\/\/rdfile.oss-cn-hangzhou.aliyuncs.com\/filemanage\/init\/audio\/64000491.mp3?nonce=0cbba6e2a6c6d8e3f312a84af1bf51ab","cover":"","updatetime":"1697698305","height":0,"width":0,"video":"","sort":0,"version":157,"cover2":"","appkey":"init","duration":4,"extra":{},"polyglot":[],"category":"27108401,","audit":0,"is_ugc":0,"type":"audio"},{"id":"1024497","ufid":"46981101","name":"\u54c7 \u91d1\u8272\u4f20\u8bf4","file":"http:\/\/rdfile.oss-cn-hangzhou.aliyuncs.com\/filemanage\/init\/audio\/46981101.mp3?nonce=24110fee718dc0c3f40d3cf9526d0ef2","cover":"","updatetime":"1697698304","height":0,"width":0,"video":"","sort":0,"version":157,"cover2":"","appkey":"init","duration":4,"extra":{},"polyglot":[],"category":"27108401,","audit":0,"is_ugc":0,"type":"audio"},{"id":"1024496","ufid":"73006620","name":"\u571f\u62e8\u9f20\u554a\u5927\u53eb\u58f0","file":"http:\/\/rdfile.oss-cn-hangzhou.aliyuncs.com\/filemanage\/init\/audio\/73006620.mp3?nonce=24110fee718dc0c3f40d3cf9526d0ef2","cover":"","updatetime":"1697698304","height":0,"width":0,"video":"","sort":0,"version":157,"cover2":"","appkey":"init","duration":2,"extra":{},"polyglot":[],"category":"27108401,","audit":0,"is_ugc":0,"type":"audio"},{"id":"1024495","ufid":"87688388","name":"\u7a81\u7136\u7126\u8651 \u60ca\u5413","file":"http:\/\/rdfile.oss-cn-hangzhou.aliyuncs.com\/filemanage\/init\/audio\/87688388.mp3?nonce=24110fee718dc0c3f40d3cf9526d0ef2","cover":"","updatetime":"1697698304","height":0,"width":0,"video":"","sort":0,"version":157,"cover2":"","appkey":"init","duration":3,"extra":{},"polyglot":[],"category":"27108401,","audit":0,"is_ugc":0,"type":"audio"},{"id":"1024494","ufid":"10960200","name":"\u7a81\u7136\u51fa\u73b0","file":"http:\/\/rdfile.oss-cn-hangzhou.aliyuncs.com\/filemanage\/init\/audio\/10960200.mp3?nonce=24110fee718dc0c3f40d3cf9526d0ef2","cover":"","updatetime":"1697698304","height":0,"width":0,"video":"","sort":0,"version":157,"cover2":"","appkey":"init","duration":1,"extra":{},"polyglot":[],"category":"27108401,","audit":0,"is_ugc":0,"type":"audio"},{"id":"1024493","ufid":"66253706","name":"\u7a81\u7136","file":"http:\/\/rdfile.oss-cn-hangzhou.aliyuncs.com\/filemanage\/init\/audio\/66253706.mp3?nonce=24110fee718dc0c3f40d3cf9526d0ef2","cover":"","updatetime":"1697698304","height":0,"width":0,"video":"","sort":0,"version":157,"cover2":"","appkey":"init","duration":1,"extra":{},"polyglot":[],"category":"27108401,","audit":0,"is_ugc":0,"type":"audio"},{"id":"1024492","ufid":"66870120","name":"\u6295\u5e01\u4e09\u8fde","file":"http:\/\/rdfile.oss-cn-hangzhou.aliyuncs.com\/filemanage\/init\/audio\/66870120.mp3?nonce=e1f28ffb8626bac7f868561aa5f5ba47","cover":"","updatetime":"1697698303","height":0,"width":0,"video":"","sort":0,"version":157,"cover2":"","appkey":"init","duration":8,"extra":{},"polyglot":[],"category":"27108401,","audit":0,"is_ugc":0,"type":"audio"},{"id":"1024491","ufid":"53974675","name":"\u8df3\u821e\u718a\u732b","file":"http:\/\/rdfile.oss-cn-hangzhou.aliyuncs.com\/filemanage\/init\/audio\/53974675.mp3?nonce=e1f28ffb8626bac7f868561aa5f5ba47","cover":"","updatetime":"1697698303","height":0,"width":0,"video":"","sort":0,"version":157,"cover2":"","appkey":"init","duration":8,"extra":{},"polyglot":[],"category":"27108401,","audit":0,"is_ugc":0,"type":"audio"},{"id":"1024490","ufid":"40758492","name":"\u63d0\u793a \u5f39\u5e55 \u9f13\u70b9 \u5654\u5654","file":"http:\/\/rdfile.oss-cn-hangzhou.aliyuncs.com\/filemanage\/init\/audio\/40758492.mp3?nonce=e1f28ffb8626bac7f868561aa5f5ba47","cover":"","updatetime":"1697698303","height":0,"width":0,"video":"","sort":0,"version":157,"cover2":"","appkey":"init","duration":1,"extra":{},"polyglot":[],"category":"27108401,","audit":0,"is_ugc":0,"type":"audio"},{"id":"1024489","ufid":"69553894","name":"\u63d0\u793a \u5f39\u5e55 \u53ee\u94c3","file":"http:\/\/rdfile.oss-cn-hangzhou.aliyuncs.com\/filemanage\/init\/audio\/69553894.mp3?nonce=9a76b0730186d5d358c466b36a608ca4","cover":"","updatetime":"1697698324","height":0,"width":0,"video":"","sort":0,"version":157,"cover2":"","appkey":"init","duration":1,"extra":{},"polyglot":[],"category":"27108401,","audit":0,"is_ugc":0,"type":"audio"},{"id":"1024488","ufid":"42583005","name":"\u9003\u8dd1\u5566-JOJO","file":"http:\/\/rdfile.oss-cn-hangzhou.aliyuncs.com\/filemanage\/init\/audio\/42583005.mp3?nonce=d4a599dbbae76181141a4696964e76ec","cover":"","updatetime":"1697698302","height":0,"width":0,"video":"","sort":0,"version":157,"cover2":"","appkey":"init","duration":3,"extra":{},"polyglot":[],"category":"27108401,","audit":0,"is_ugc":0,"type":"audio"},{"id":"1024487","ufid":"93199355","name":"\u56db\u6740","file":"http:\/\/rdfile.oss-cn-hangzhou.aliyuncs.com\/filemanage\/init\/audio\/93199355.mp3?nonce=d4a599dbbae76181141a4696964e76ec","cover":"","updatetime":"1697698302","height":0,"width":0,"video":"","sort":0,"version":157,"cover2":"","appkey":"init","duration":2,"extra":{},"polyglot":[],"category":"27108401,","audit":0,"is_ugc":0,"type":"audio"},{"id":"1024486","ufid":"53385978","name":"\u624b\u81c2\u55d6","file":"http:\/\/rdfile.oss-cn-hangzhou.aliyuncs.com\/filemanage\/init\/audio\/53385978.mp3?nonce=b75dfa481fa24dfe635d8a306ed7b9d1","cover":"","updatetime":"1697698301","height":0,"width":0,"video":"","sort":0,"version":157,"cover2":"","appkey":"init","duration":1,"extra":{},"polyglot":[],"category":"27108401,","audit":0,"is_ugc":0,"type":"audio"},{"id":"1024485","ufid":"56682266","name":"\u6536\u5230\u4fe1\u606f","file":"http:\/\/rdfile.oss-cn-hangzhou.aliyuncs.com\/filemanage\/init\/audio\/56682266.mp3?nonce=8b1ed126441a6a0c2d5330c34fd1ed0d","cover":"","updatetime":"1697698323","height":0,"width":0,"video":"","sort":0,"version":157,"cover2":"","appkey":"init","duration":2,"extra":{},"polyglot":[],"category":"27108401,","audit":0,"is_ugc":0,"type":"audio"},{"id":"1024484","ufid":"93134283","name":"\u715e","file":"http:\/\/rdfile.oss-cn-hangzhou.aliyuncs.com\/filemanage\/init\/audio\/93134283.mp3?nonce=049cd9b15e01587680a1a0af972d4a2e","cover":"","updatetime":"1697698300","height":0,"width":0,"video":"","sort":0,"version":157,"cover2":"","appkey":"init","duration":2,"extra":{},"polyglot":[],"category":"27108401,","audit":0,"is_ugc":0,"type":"audio"},{"id":"1024483","ufid":"37143429","name":"\u4e09\u8fde\u97f3\u6548","file":"http:\/\/rdfile.oss-cn-hangzhou.aliyuncs.com\/filemanage\/init\/audio\/37143429.mp3?nonce=049cd9b15e01587680a1a0af972d4a2e","cover":"","updatetime":"1697698300","height":0,"width":0,"video":"","sort":0,"version":157,"cover2":"","appkey":"init","duration":5,"extra":{},"polyglot":[],"category":"27108401,","audit":0,"is_ugc":0,"type":"audio"},{"id":"1024482","ufid":"60940838","name":"\u62f3\u7687","file":"http:\/\/rdfile.oss-cn-hangzhou.aliyuncs.com\/filemanage\/init\/audio\/60940838.mp3?nonce=049cd9b15e01587680a1a0af972d4a2e","cover":"","updatetime":"1697698300","height":0,"width":0,"video":"","sort":0,"version":157,"cover2":"","appkey":"init","duration":2,"extra":{},"polyglot":[],"category":"27108401,","audit":0,"is_ugc":0,"type":"audio"},{"id":"1024481","ufid":"36660932","name":"\u62f3\u6253","file":"http:\/\/rdfile.oss-cn-hangzhou.aliyuncs.com\/filemanage\/init\/audio\/36660932.mp3?nonce=049cd9b15e01587680a1a0af972d4a2e","cover":"","updatetime":"1697698300","height":0,"width":0,"video":"","sort":0,"version":157,"cover2":"","appkey":"init","duration":1,"extra":{},"polyglot":[],"category":"27108401,","audit":0,"is_ugc":0,"type":"audio"},{"id":"1024480","ufid":"57624844","name":"\u5c41\u58f0","file":"http:\/\/rdfile.oss-cn-hangzhou.aliyuncs.com\/filemanage\/init\/audio\/57624844.mp3?nonce=112c8da0a04116a13a74b31a69524e59","cover":"","updatetime":"1697698299","height":0,"width":0,"video":"","sort":0,"version":157,"cover2":"","appkey":"init","duration":2,"extra":{},"polyglot":[],"category":"27108401,","audit":0,"is_ugc":0,"type":"audio"}]}}