{"code":0,"msg":"success","data":{"total":41,"per_page":20,"current_page":3,"last_page":3,"data":[{"id":"1023966","ufid":"53304900","name":"\u963f\u745f\u8bf7\u5750","file":"http:\/\/rdfile.oss-cn-hangzhou.aliyuncs.com\/filemanage\/init\/audio\/53304900.mp3?nonce=11a933796f504bd3d04fe3b8cce7c280","cover":"","updatetime":"1697698173","height":0,"width":0,"video":"","sort":0,"version":157,"cover2":"","appkey":"init","duration":17,"extra":{},"polyglot":[],"category":"31129794,","audit":0,"is_ugc":0,"type":"audio"}]}}