{"code":0,"msg":"success","data":{"total":55,"per_page":20,"current_page":3,"last_page":3,"data":[{"id":"1019622","ufid":"81565689","name":"\u8ba2\u4e66\u673a2","file":"http:\/\/rdfile.oss-cn-hangzhou.aliyuncs.com\/filemanage\/init\/audio\/81565689.mp3?nonce=cfcd208495d565ef66e7dff9f98764da","cover":"http:\/\/rdfile.oss-cn-hangzhou.aliyuncs.com\/filemanage\/init\/audio\/81565689.jpeg?nonce=cfcd208495d565ef66e7dff9f98764da","updatetime":"0","height":0,"width":0,"video":"","sort":0,"version":0,"cover2":"","appkey":"init","duration":1,"extra":{},"polyglot":[],"category":"0","audit":0,"is_ugc":0,"type":"audio"},{"id":"1019621","ufid":"44412453","name":"\u8ba2\u4e66\u673a1","file":"http:\/\/rdfile.oss-cn-hangzhou.aliyuncs.com\/filemanage\/init\/audio\/44412453.mp3?nonce=cfcd208495d565ef66e7dff9f98764da","cover":"http:\/\/rdfile.oss-cn-hangzhou.aliyuncs.com\/filemanage\/init\/audio\/44412453.jpeg?nonce=cfcd208495d565ef66e7dff9f98764da","updatetime":"0","height":0,"width":0,"video":"","sort":0,"version":0,"cover2":"","appkey":"init","duration":19,"extra":{},"polyglot":[],"category":"0","audit":0,"is_ugc":0,"type":"audio"},{"id":"1019620","ufid":"37801566","name":"\u53ee\u549a\u95e8\u94c3\u58f0","file":"http:\/\/rdfile.oss-cn-hangzhou.aliyuncs.com\/filemanage\/init\/audio\/37801566.mp3?nonce=cfcd208495d565ef66e7dff9f98764da","cover":"http:\/\/rdfile.oss-cn-hangzhou.aliyuncs.com\/filemanage\/init\/audio\/37801566.jpeg?nonce=cfcd208495d565ef66e7dff9f98764da","updatetime":"0","height":0,"width":0,"video":"","sort":0,"version":0,"cover2":"","appkey":"init","duration":2,"extra":{},"polyglot":[],"category":"0","audit":0,"is_ugc":0,"type":"audio"},{"id":"1019619","ufid":"83166349","name":"\u7535\u5b50\u97f3\u4e50\u56de\u8def","file":"http:\/\/rdfile.oss-cn-hangzhou.aliyuncs.com\/filemanage\/init\/audio\/83166349.mp3?nonce=cfcd208495d565ef66e7dff9f98764da","cover":"http:\/\/rdfile.oss-cn-hangzhou.aliyuncs.com\/filemanage\/init\/audio\/83166349.jpeg?nonce=cfcd208495d565ef66e7dff9f98764da","updatetime":"0","height":0,"width":0,"video":"","sort":0,"version":0,"cover2":"","appkey":"init","duration":31,"extra":{},"polyglot":[],"category":"0","audit":0,"is_ugc":0,"type":"audio"},{"id":"1019618","ufid":"24317016","name":"\u7535\u5b50\u95f9\u949f","file":"http:\/\/rdfile.oss-cn-hangzhou.aliyuncs.com\/filemanage\/init\/audio\/24317016.mp3?nonce=cfcd208495d565ef66e7dff9f98764da","cover":"http:\/\/rdfile.oss-cn-hangzhou.aliyuncs.com\/filemanage\/init\/audio\/24317016.jpeg?nonce=cfcd208495d565ef66e7dff9f98764da","updatetime":"0","height":0,"width":0,"video":"","sort":0,"version":0,"cover2":"","appkey":"init","duration":5,"extra":{},"polyglot":[],"category":"0","audit":0,"is_ugc":0,"type":"audio"},{"id":"1019617","ufid":"73999908","name":"\u7535\u89c6\u5e72\u6270","file":"http:\/\/rdfile.oss-cn-hangzhou.aliyuncs.com\/filemanage\/init\/audio\/73999908.mp3?nonce=cfcd208495d565ef66e7dff9f98764da","cover":"http:\/\/rdfile.oss-cn-hangzhou.aliyuncs.com\/filemanage\/init\/audio\/73999908.jpeg?nonce=cfcd208495d565ef66e7dff9f98764da","updatetime":"0","height":0,"width":0,"video":"","sort":0,"version":0,"cover2":"","appkey":"init","duration":5,"extra":{},"polyglot":[],"category":"0","audit":0,"is_ugc":0,"type":"audio"},{"id":"1019616","ufid":"62113149","name":"\u7535\u8bdd\u6309\u94ae\u566a\u58f0","file":"http:\/\/rdfile.oss-cn-hangzhou.aliyuncs.com\/filemanage\/init\/audio\/62113149.mp3?nonce=cfcd208495d565ef66e7dff9f98764da","cover":"http:\/\/rdfile.oss-cn-hangzhou.aliyuncs.com\/filemanage\/init\/audio\/62113149.jpeg?nonce=cfcd208495d565ef66e7dff9f98764da","updatetime":"0","height":0,"width":0,"video":"","sort":0,"version":0,"cover2":"","appkey":"init","duration":3,"extra":{},"polyglot":[],"category":"0","audit":0,"is_ugc":0,"type":"audio"},{"id":"1019615","ufid":"14012041","name":"\u7535\u8bdd","file":"http:\/\/rdfile.oss-cn-hangzhou.aliyuncs.com\/filemanage\/init\/audio\/14012041.mp3?nonce=cfcd208495d565ef66e7dff9f98764da","cover":"http:\/\/rdfile.oss-cn-hangzhou.aliyuncs.com\/filemanage\/init\/audio\/14012041.jpeg?nonce=cfcd208495d565ef66e7dff9f98764da","updatetime":"0","height":0,"width":0,"video":"","sort":0,"version":0,"cover2":"","appkey":"init","duration":1,"extra":{},"polyglot":[],"category":"0","audit":0,"is_ugc":0,"type":"audio"},{"id":"1019614","ufid":"41009836","name":"\u5927\u949f","file":"http:\/\/rdfile.oss-cn-hangzhou.aliyuncs.com\/filemanage\/init\/audio\/41009836.mp3?nonce=cfcd208495d565ef66e7dff9f98764da","cover":"http:\/\/rdfile.oss-cn-hangzhou.aliyuncs.com\/filemanage\/init\/audio\/41009836.jpeg?nonce=cfcd208495d565ef66e7dff9f98764da","updatetime":"0","height":0,"width":0,"video":"","sort":0,"version":0,"cover2":"","appkey":"init","duration":18,"extra":{},"polyglot":[],"category":"0","audit":0,"is_ugc":0,"type":"audio"},{"id":"1019613","ufid":"96315747","name":"\u6253\u5b57\u673a\u6253\u5b57\u58f0\uff08\u77ed\uff09","file":"http:\/\/rdfile.oss-cn-hangzhou.aliyuncs.com\/filemanage\/init\/audio\/96315747.mp3?nonce=cfcd208495d565ef66e7dff9f98764da","cover":"http:\/\/rdfile.oss-cn-hangzhou.aliyuncs.com\/filemanage\/init\/audio\/96315747.jpeg?nonce=cfcd208495d565ef66e7dff9f98764da","updatetime":"0","height":0,"width":0,"video":"","sort":0,"version":0,"cover2":"","appkey":"init","duration":0,"extra":{},"polyglot":[],"category":"0","audit":0,"is_ugc":0,"type":"audio"},{"id":"1019612","ufid":"71264107","name":"\u6253\u5b57\u673a\u6253\u5b57\u58f0\uff08\u957f\uff09","file":"http:\/\/rdfile.oss-cn-hangzhou.aliyuncs.com\/filemanage\/init\/audio\/71264107.mp3?nonce=cfcd208495d565ef66e7dff9f98764da","cover":"http:\/\/rdfile.oss-cn-hangzhou.aliyuncs.com\/filemanage\/init\/audio\/71264107.jpeg?nonce=cfcd208495d565ef66e7dff9f98764da","updatetime":"0","height":0,"width":0,"video":"","sort":0,"version":0,"cover2":"","appkey":"init","duration":7,"extra":{},"polyglot":[],"category":"0","audit":0,"is_ugc":0,"type":"audio"},{"id":"1019611","ufid":"39898127","name":"\u6253\u5b57","file":"http:\/\/rdfile.oss-cn-hangzhou.aliyuncs.com\/filemanage\/init\/audio\/39898127.mp3?nonce=cfcd208495d565ef66e7dff9f98764da","cover":"http:\/\/rdfile.oss-cn-hangzhou.aliyuncs.com\/filemanage\/init\/audio\/39898127.jpeg?nonce=cfcd208495d565ef66e7dff9f98764da","updatetime":"0","height":0,"width":0,"video":"","sort":0,"version":0,"cover2":"","appkey":"init","duration":16,"extra":{},"polyglot":[],"category":"0","audit":0,"is_ugc":0,"type":"audio"},{"id":"1019610","ufid":"62629040","name":"\u6253\u5370\u673a","file":"http:\/\/rdfile.oss-cn-hangzhou.aliyuncs.com\/filemanage\/init\/audio\/62629040.mp3?nonce=cfcd208495d565ef66e7dff9f98764da","cover":"http:\/\/rdfile.oss-cn-hangzhou.aliyuncs.com\/filemanage\/init\/audio\/62629040.jpeg?nonce=cfcd208495d565ef66e7dff9f98764da","updatetime":"0","height":0,"width":0,"video":"","sort":0,"version":0,"cover2":"","appkey":"init","duration":8,"extra":{},"polyglot":[],"category":"0","audit":0,"is_ugc":0,"type":"audio"},{"id":"1019609","ufid":"13660070","name":"\u5b9d\u4e3d\u6765\u62cd\u7167\u58f0","file":"http:\/\/rdfile.oss-cn-hangzhou.aliyuncs.com\/filemanage\/init\/audio\/13660070.mp3?nonce=cfcd208495d565ef66e7dff9f98764da","cover":"http:\/\/rdfile.oss-cn-hangzhou.aliyuncs.com\/filemanage\/init\/audio\/13660070.jpeg?nonce=cfcd208495d565ef66e7dff9f98764da","updatetime":"0","height":0,"width":0,"video":"","sort":0,"version":0,"cover2":"","appkey":"init","duration":8,"extra":{},"polyglot":[],"category":"0","audit":0,"is_ugc":0,"type":"audio"},{"id":"1019608","ufid":"84254458","name":"\u6446\u949f","file":"http:\/\/rdfile.oss-cn-hangzhou.aliyuncs.com\/filemanage\/init\/audio\/84254458.mp3?nonce=cfcd208495d565ef66e7dff9f98764da","cover":"http:\/\/rdfile.oss-cn-hangzhou.aliyuncs.com\/filemanage\/init\/audio\/84254458.jpeg?nonce=cfcd208495d565ef66e7dff9f98764da","updatetime":"0","height":0,"width":0,"video":"","sort":0,"version":0,"cover2":"","appkey":"init","duration":348,"extra":{},"polyglot":[],"category":"0","audit":0,"is_ugc":0,"type":"audio"}]}}