{"code":0,"msg":"success","data":{"total":53,"per_page":20,"current_page":3,"last_page":3,"data":[{"id":"1024037","ufid":"98633613","name":"\u4e8c\u8425\u957f\uff0c\u4f60\u7684\u610f\u5927\u5229\u70ae\u5462","file":"http:\/\/rdfile.oss-cn-hangzhou.aliyuncs.com\/filemanage\/init\/audio\/98633613.mp3?nonce=c1e1a1615459d4a26c6d03d281469675","cover":"","updatetime":"1697698189","height":0,"width":0,"video":"","sort":0,"version":157,"cover2":"","appkey":"init","duration":6,"extra":{},"polyglot":[],"category":"39477096,","audit":0,"is_ugc":0,"type":"audio"},{"id":"1024036","ufid":"28598227","name":"\u9053\u8def\u5343\u4e07\u6761\u5b89\u5168\u7b2c\u4e00\u6761","file":"http:\/\/rdfile.oss-cn-hangzhou.aliyuncs.com\/filemanage\/init\/audio\/28598227.mp3?nonce=c1e1a1615459d4a26c6d03d281469675","cover":"","updatetime":"1697698189","height":0,"width":0,"video":"","sort":0,"version":157,"cover2":"","appkey":"init","duration":8,"extra":{},"polyglot":[],"category":"39477096,","audit":0,"is_ugc":0,"type":"audio"},{"id":"1024035","ufid":"13235247","name":"\u5927\u5a01\u5929\u9f99","file":"http:\/\/rdfile.oss-cn-hangzhou.aliyuncs.com\/filemanage\/init\/audio\/13235247.mp3?nonce=c1e1a1615459d4a26c6d03d281469675","cover":"","updatetime":"1697698189","height":0,"width":0,"video":"","sort":0,"version":157,"cover2":"","appkey":"init","duration":20,"extra":{},"polyglot":[],"category":"39477096,","audit":0,"is_ugc":0,"type":"audio"},{"id":"1024034","ufid":"95765785","name":"\u5927\u80a0\u5305\u5c0f\u80a0","file":"http:\/\/rdfile.oss-cn-hangzhou.aliyuncs.com\/filemanage\/init\/audio\/95765785.mp3?nonce=a69d2155e3ca46a336e2d06dfbc2befb","cover":"","updatetime":"1697698188","height":0,"width":0,"video":"","sort":0,"version":157,"cover2":"","appkey":"init","duration":6,"extra":{},"polyglot":[],"category":"39477096,","audit":0,"is_ugc":0,"type":"audio"},{"id":"1024033","ufid":"18300273","name":"\u6253\u6b7b\u6211\u4e5f\u4e0d\u8bf4","file":"http:\/\/rdfile.oss-cn-hangzhou.aliyuncs.com\/filemanage\/init\/audio\/18300273.mp3?nonce=a69d2155e3ca46a336e2d06dfbc2befb","cover":"","updatetime":"1697698188","height":0,"width":0,"video":"","sort":0,"version":157,"cover2":"","appkey":"init","duration":4,"extra":{},"polyglot":[],"category":"39477096,","audit":0,"is_ugc":0,"type":"audio"},{"id":"1024032","ufid":"63494845","name":"\u6253\u96f7\u4e86\u4e0b\u96e8\u6536\u8863\u670d\u554a","file":"http:\/\/rdfile.oss-cn-hangzhou.aliyuncs.com\/filemanage\/init\/audio\/63494845.mp3?nonce=a69d2155e3ca46a336e2d06dfbc2befb","cover":"","updatetime":"1697698188","height":0,"width":0,"video":"","sort":0,"version":157,"cover2":"","appkey":"init","duration":8,"extra":{},"polyglot":[],"category":"39477096,","audit":0,"is_ugc":0,"type":"audio"},{"id":"1024031","ufid":"82159712","name":"\u5403\u5403\u5403\u4f60\u5c31\u77e5\u9053\u5403","file":"http:\/\/rdfile.oss-cn-hangzhou.aliyuncs.com\/filemanage\/init\/audio\/82159712.mp3?nonce=a69d2155e3ca46a336e2d06dfbc2befb","cover":"","updatetime":"1697698188","height":0,"width":0,"video":"","sort":0,"version":157,"cover2":"","appkey":"init","duration":5,"extra":{},"polyglot":[],"category":"39477096,","audit":0,"is_ugc":0,"type":"audio"},{"id":"1024030","ufid":"19707317","name":"\u81e3\u59be\u505a\u4e0d\u5230","file":"http:\/\/rdfile.oss-cn-hangzhou.aliyuncs.com\/filemanage\/init\/audio\/19707317.mp3?nonce=fb24cc9298d5cda3ab7fc29426dca58e","cover":"","updatetime":"1697698187","height":0,"width":0,"video":"","sort":0,"version":157,"cover2":"","appkey":"init","duration":3,"extra":{},"polyglot":[],"category":"39477096,","audit":0,"is_ugc":0,"type":"audio"},{"id":"1024029","ufid":"56572773","name":"\u4e0d\u53ef\u80fd\uff0c\u7edd\u5bf9\u4e0d\u53ef\u80fd","file":"http:\/\/rdfile.oss-cn-hangzhou.aliyuncs.com\/filemanage\/init\/audio\/56572773.mp3?nonce=fb24cc9298d5cda3ab7fc29426dca58e","cover":"","updatetime":"1697698187","height":0,"width":0,"video":"","sort":0,"version":157,"cover2":"","appkey":"init","duration":4,"extra":{},"polyglot":[],"category":"39477096,","audit":0,"is_ugc":0,"type":"audio"},{"id":"1024028","ufid":"46684301","name":"\u6ce2\u82e5\u6ce2\u7f57\u871c","file":"http:\/\/rdfile.oss-cn-hangzhou.aliyuncs.com\/filemanage\/init\/audio\/46684301.mp3?nonce=fb24cc9298d5cda3ab7fc29426dca58e","cover":"","updatetime":"1697698187","height":0,"width":0,"video":"","sort":0,"version":157,"cover2":"","appkey":"init","duration":4,"extra":{},"polyglot":[],"category":"39477096,","audit":0,"is_ugc":0,"type":"audio"},{"id":"1024027","ufid":"90467236","name":"\u5b89\u6392","file":"http:\/\/rdfile.oss-cn-hangzhou.aliyuncs.com\/filemanage\/init\/audio\/90467236.mp3?nonce=fb24cc9298d5cda3ab7fc29426dca58e","cover":"","updatetime":"1697698187","height":0,"width":0,"video":"","sort":0,"version":157,"cover2":"","appkey":"init","duration":4,"extra":{},"polyglot":[],"category":"39477096,","audit":0,"is_ugc":0,"type":"audio"},{"id":"1024026","ufid":"52134798","name":"\u5b89\u6392 \u8d75\u672c\u5c71","file":"http:\/\/rdfile.oss-cn-hangzhou.aliyuncs.com\/filemanage\/init\/audio\/52134798.mp3?nonce=fb24cc9298d5cda3ab7fc29426dca58e","cover":"","updatetime":"1697698187","height":0,"width":0,"video":"","sort":0,"version":157,"cover2":"","appkey":"init","duration":3,"extra":{},"polyglot":[],"category":"39477096,","audit":0,"is_ugc":0,"type":"audio"},{"id":"1024025","ufid":"34027101","name":"\u54ce\u5440 \u9632\u4e0d\u80dc\u9632\u554a","file":"http:\/\/rdfile.oss-cn-hangzhou.aliyuncs.com\/filemanage\/init\/audio\/34027101.mp3?nonce=3409ab1558d178ec17f574f0bcf210bd","cover":"","updatetime":"1697698186","height":0,"width":0,"video":"","sort":0,"version":157,"cover2":"","appkey":"init","duration":5,"extra":{},"polyglot":[],"category":"39477096,","audit":0,"is_ugc":0,"type":"audio"}]}}