{"code":0,"msg":"success","data":{"total":283,"per_page":20,"current_page":3,"last_page":15,"data":[{"id":"1024387","ufid":"61050749","name":"\u6821\u5185\u4e11\u5173\u6211\u6821\u5916\u4ec0\u4e48\u4e8b\u554a","file":"http:\/\/rdfile.oss-cn-hangzhou.aliyuncs.com\/filemanage\/init\/audio\/61050749.mp3?nonce=d89b69acdbca79881000fbf38f2b0426","cover":"","updatetime":"1697698269","height":0,"width":0,"video":"","sort":0,"version":157,"cover2":"","appkey":"init","duration":10,"extra":{},"polyglot":[],"category":"40610022,","audit":0,"is_ugc":0,"type":"audio"},{"id":"1024386","ufid":"37081480","name":"\u5c0f\u9ed1\u5b50\u5f00\u56e2\u97f3","file":"http:\/\/rdfile.oss-cn-hangzhou.aliyuncs.com\/filemanage\/init\/audio\/37081480.mp3?nonce=a0c5ff7cd9c7bde127ade3d29f98ba6a","cover":"","updatetime":"1697698307","height":0,"width":0,"video":"","sort":0,"version":157,"cover2":"","appkey":"init","duration":50,"extra":{},"polyglot":[],"category":"40610022,","audit":0,"is_ugc":0,"type":"audio"},{"id":"1024385","ufid":"26923707","name":"\u5c0f\u5b69\u8fd9\u5e99\u7075\u4e0d\u7075","file":"http:\/\/rdfile.oss-cn-hangzhou.aliyuncs.com\/filemanage\/init\/audio\/26923707.mp3?nonce=a5cf468ba6883b98d9e3f42dfbd292d1","cover":"","updatetime":"1697698268","height":0,"width":0,"video":"","sort":0,"version":157,"cover2":"","appkey":"init","duration":22,"extra":{},"polyglot":[],"category":"40610022,","audit":0,"is_ugc":0,"type":"audio"},{"id":"1024384","ufid":"68209932","name":"\u5c0f\u72d7\u9047\u5230\u4f24\u5fc3\u4e8b\u600e\u4e48\u529e","file":"http:\/\/rdfile.oss-cn-hangzhou.aliyuncs.com\/filemanage\/init\/audio\/68209932.mp3?nonce=a5cf468ba6883b98d9e3f42dfbd292d1","cover":"","updatetime":"1697698268","height":0,"width":0,"video":"","sort":0,"version":157,"cover2":"","appkey":"init","duration":12,"extra":{},"polyglot":[],"category":"40610022,","audit":0,"is_ugc":0,"type":"audio"},{"id":"1024383","ufid":"88952107","name":"\u5c0f\u8c03\u76aeBGM","file":"http:\/\/rdfile.oss-cn-hangzhou.aliyuncs.com\/filemanage\/init\/audio\/88952107.mp3?nonce=a5cf468ba6883b98d9e3f42dfbd292d1","cover":"","updatetime":"1697698268","height":0,"width":0,"video":"","sort":0,"version":157,"cover2":"","appkey":"init","duration":34,"extra":{},"polyglot":[],"category":"40610022,","audit":0,"is_ugc":0,"type":"audio"},{"id":"1024382","ufid":"28485734","name":"\u5411\u65e5\u8475\u7684\u82b1\u8bed","file":"http:\/\/rdfile.oss-cn-hangzhou.aliyuncs.com\/filemanage\/init\/audio\/28485734.mp3?nonce=a5cf468ba6883b98d9e3f42dfbd292d1","cover":"","updatetime":"1697698268","height":0,"width":0,"video":"","sort":0,"version":157,"cover2":"","appkey":"init","duration":11,"extra":{},"polyglot":[],"category":"40610022,","audit":0,"is_ugc":0,"type":"audio"},{"id":"1024381","ufid":"80839957","name":"\u50cf\u6211\u8fd9\u6837\u7684\u4eba\u600e\u4e48\u80fd\u653e\u5047\u5462","file":"http:\/\/rdfile.oss-cn-hangzhou.aliyuncs.com\/filemanage\/init\/audio\/80839957.mp3?nonce=3dbeacf48778f833553f9de02fd9bce2","cover":"","updatetime":"1697698267","height":0,"width":0,"video":"","sort":0,"version":157,"cover2":"","appkey":"init","duration":14,"extra":{},"polyglot":[],"category":"40610022,","audit":0,"is_ugc":0,"type":"audio"},{"id":"1024380","ufid":"96528987","name":"\u50cf\u4f60\u8fd9\u6837\u7684\u5927\u5e08\uff0c\u4e00\u5b9a\u5f88","file":"http:\/\/rdfile.oss-cn-hangzhou.aliyuncs.com\/filemanage\/init\/audio\/96528987.mp3?nonce=3dbeacf48778f833553f9de02fd9bce2","cover":"","updatetime":"1697698267","height":0,"width":0,"video":"","sort":0,"version":157,"cover2":"","appkey":"init","duration":83,"extra":{},"polyglot":[],"category":"40610022,","audit":0,"is_ugc":0,"type":"audio"},{"id":"1024379","ufid":"90783958","name":"\u9999\u8549meme\u54ed\u6ce3","file":"http:\/\/rdfile.oss-cn-hangzhou.aliyuncs.com\/filemanage\/init\/audio\/90783958.mp3?nonce=3dbeacf48778f833553f9de02fd9bce2","cover":"","updatetime":"1697698267","height":0,"width":0,"video":"","sort":0,"version":157,"cover2":"","appkey":"init","duration":12,"extra":{},"polyglot":[],"category":"40610022,","audit":0,"is_ugc":0,"type":"audio"},{"id":"1024378","ufid":"93628471","name":"\u73b0\u5728\u6211\u5929\u5929\u9a82\u4eba\u5e78\u798f\u591a\u4e86","file":"http:\/\/rdfile.oss-cn-hangzhou.aliyuncs.com\/filemanage\/init\/audio\/93628471.mp3?nonce=3dbeacf48778f833553f9de02fd9bce2","cover":"","updatetime":"1697698267","height":0,"width":0,"video":"","sort":0,"version":157,"cover2":"","appkey":"init","duration":6,"extra":{},"polyglot":[],"category":"40610022,","audit":0,"is_ugc":0,"type":"audio"},{"id":"1024377","ufid":"38585490","name":"\u5148\u5b9a\u4e00\u4e2a\u5c0f\u76ee\u6807\uff0c\u6323\u5b83\u4e00\u4e2a\u4ebf","file":"http:\/\/rdfile.oss-cn-hangzhou.aliyuncs.com\/filemanage\/init\/audio\/38585490.mp3?nonce=4f333c1211099ffcd17b7526dd833a3f","cover":"","updatetime":"1697698266","height":0,"width":0,"video":"","sort":0,"version":157,"cover2":"","appkey":"init","duration":6,"extra":{},"polyglot":[],"category":"40610022,","audit":0,"is_ugc":0,"type":"audio"},{"id":"1024376","ufid":"28785217","name":"\u4e0b\u86cb\u516c\u9e21\u516c\u9e21\u4e2d\u5f97\u6218\u6597\u673a","file":"http:\/\/rdfile.oss-cn-hangzhou.aliyuncs.com\/filemanage\/init\/audio\/28785217.mp3?nonce=4f333c1211099ffcd17b7526dd833a3f","cover":"","updatetime":"1697698266","height":0,"width":0,"video":"","sort":0,"version":157,"cover2":"","appkey":"init","duration":4,"extra":{},"polyglot":[],"category":"40610022,","audit":0,"is_ugc":0,"type":"audio"},{"id":"1024375","ufid":"85453183","name":"\u65e0\u6cd5\u9003\u8131\u7684\u5bbf\u547d\u611f--\u82cd\u5170\u8bc0","file":"http:\/\/rdfile.oss-cn-hangzhou.aliyuncs.com\/filemanage\/init\/audio\/85453183.mp3?nonce=4f333c1211099ffcd17b7526dd833a3f","cover":"","updatetime":"1697698266","height":0,"width":0,"video":"","sort":0,"version":157,"cover2":"","appkey":"init","duration":15,"extra":{},"polyglot":[],"category":"40610022,","audit":0,"is_ugc":0,"type":"audio"},{"id":"1024374","ufid":"61800403","name":"\u6211\u53ea\u4f1a\u5fc3\u75bc\u54e5\u54e5","file":"http:\/\/rdfile.oss-cn-hangzhou.aliyuncs.com\/filemanage\/init\/audio\/61800403.mp3?nonce=4f333c1211099ffcd17b7526dd833a3f","cover":"","updatetime":"1697698266","height":0,"width":0,"video":"","sort":0,"version":157,"cover2":"","appkey":"init","duration":33,"extra":{},"polyglot":[],"category":"40610022,","audit":0,"is_ugc":0,"type":"audio"},{"id":"1024373","ufid":"70279317","name":"\u6211\u8fd9\u4e00\u4e2a\u67083800\u5757\u5de5\u8d44 \u6211","file":"http:\/\/rdfile.oss-cn-hangzhou.aliyuncs.com\/filemanage\/init\/audio\/70279317.mp3?nonce=4f333c1211099ffcd17b7526dd833a3f","cover":"","updatetime":"1697698266","height":0,"width":0,"video":"","sort":0,"version":157,"cover2":"","appkey":"init","duration":12,"extra":{},"polyglot":[],"category":"40610022,","audit":0,"is_ugc":0,"type":"audio"},{"id":"1024372","ufid":"33882940","name":"\u6211\u8981\u6b7b\u4e86\uff0c\u6211\u53c8\u6d3b\u4e86","file":"http:\/\/rdfile.oss-cn-hangzhou.aliyuncs.com\/filemanage\/init\/audio\/33882940.mp3?nonce=f66f8000efd49268bddaec0b9d674d27","cover":"","updatetime":"1697698265","height":0,"width":0,"video":"","sort":0,"version":157,"cover2":"","appkey":"init","duration":8,"extra":{},"polyglot":[],"category":"40610022,","audit":0,"is_ugc":0,"type":"audio"},{"id":"1024371","ufid":"73962702","name":"\u6211\u59d3\u5f20 \u4f60\u522b\u56a3\u5f20","file":"http:\/\/rdfile.oss-cn-hangzhou.aliyuncs.com\/filemanage\/init\/audio\/73962702.mp3?nonce=f66f8000efd49268bddaec0b9d674d27","cover":"","updatetime":"1697698265","height":0,"width":0,"video":"","sort":0,"version":157,"cover2":"","appkey":"init","duration":23,"extra":{},"polyglot":[],"category":"40610022,","audit":0,"is_ugc":0,"type":"audio"},{"id":"1024370","ufid":"23821827","name":"\u6211\u59d3\u77f3","file":"http:\/\/rdfile.oss-cn-hangzhou.aliyuncs.com\/filemanage\/init\/audio\/23821827.mp3?nonce=f66f8000efd49268bddaec0b9d674d27","cover":"","updatetime":"1697698265","height":0,"width":0,"video":"","sort":0,"version":157,"cover2":"","appkey":"init","duration":13,"extra":{},"polyglot":[],"category":"40610022,","audit":0,"is_ugc":0,"type":"audio"},{"id":"1024369","ufid":"95702538","name":"\u6211\u4fe1\u4f60\u4e2a\u9b3c","file":"http:\/\/rdfile.oss-cn-hangzhou.aliyuncs.com\/filemanage\/init\/audio\/95702538.mp3?nonce=f66f8000efd49268bddaec0b9d674d27","cover":"","updatetime":"1697698265","height":0,"width":0,"video":"","sort":0,"version":157,"cover2":"","appkey":"init","duration":4,"extra":{},"polyglot":[],"category":"40610022,","audit":0,"is_ugc":0,"type":"audio"},{"id":"1024368","ufid":"32827056","name":"\u6211\u60f3\u56de\u5bb6","file":"http:\/\/rdfile.oss-cn-hangzhou.aliyuncs.com\/filemanage\/init\/audio\/32827056.mp3?nonce=7bdf6e5e56fa8e379ebd4fdd6915ca8e","cover":"","updatetime":"1697698264","height":0,"width":0,"video":"","sort":0,"version":157,"cover2":"","appkey":"init","duration":8,"extra":{},"polyglot":[],"category":"40610022,","audit":0,"is_ugc":0,"type":"audio"}]}}