{"code":0,"msg":"success","data":{"total":62,"per_page":20,"current_page":3,"last_page":4,"data":[{"id":"1023925","ufid":"43594124","name":"\u5361\u901a \u5f39\u7c27\u97f3 2","file":"http:\/\/rdfile.oss-cn-hangzhou.aliyuncs.com\/filemanage\/init\/audio\/43594124.mp3?nonce=0c706f14aebfab3203ae711a8b5a2938","cover":"","updatetime":"1697698164","height":0,"width":0,"video":"","sort":0,"version":157,"cover2":"","appkey":"init","duration":2,"extra":{},"polyglot":[],"category":"53914448,","audit":0,"is_ugc":0,"type":"audio"},{"id":"1023924","ufid":"25176899","name":"\u91d1\u95ea\u95ea-\u6742\u4fee","file":"http:\/\/rdfile.oss-cn-hangzhou.aliyuncs.com\/filemanage\/init\/audio\/25176899.mp3?nonce=1afed1c2fcea1dfa6bc55c72bed0e51b","cover":"","updatetime":"1697698163","height":0,"width":0,"video":"","sort":0,"version":157,"cover2":"","appkey":"init","duration":4,"extra":{},"polyglot":[],"category":"53914448,","audit":0,"is_ugc":0,"type":"audio"},{"id":"1023923","ufid":"71328970","name":"\u83b7\u5f97\u5b9d\u53ef\u68a6\u4e86","file":"http:\/\/rdfile.oss-cn-hangzhou.aliyuncs.com\/filemanage\/init\/audio\/71328970.mp3?nonce=1afed1c2fcea1dfa6bc55c72bed0e51b","cover":"","updatetime":"1697698163","height":0,"width":0,"video":"","sort":0,"version":157,"cover2":"","appkey":"init","duration":2,"extra":{},"polyglot":[],"category":"53914448,","audit":0,"is_ugc":0,"type":"audio"},{"id":"1023922","ufid":"35464670","name":"\u706b\u5f71\u5fcd\u8005-\u4f60\u4e5f\u60f3\u8d77\u821e\u5417","file":"http:\/\/rdfile.oss-cn-hangzhou.aliyuncs.com\/filemanage\/init\/audio\/35464670.mp3?nonce=1afed1c2fcea1dfa6bc55c72bed0e51b","cover":"","updatetime":"1697698163","height":0,"width":0,"video":"","sort":0,"version":157,"cover2":"","appkey":"init","duration":2,"extra":{},"polyglot":[],"category":"53914448,","audit":0,"is_ugc":0,"type":"audio"},{"id":"1023921","ufid":"98726239","name":"\u706b\u7bad\u961f-\u795e\u5947\u5b9d\u8d1d","file":"http:\/\/rdfile.oss-cn-hangzhou.aliyuncs.com\/filemanage\/init\/audio\/98726239.mp3?nonce=1afed1c2fcea1dfa6bc55c72bed0e51b","cover":"","updatetime":"1697698163","height":0,"width":0,"video":"","sort":0,"version":157,"cover2":"","appkey":"init","duration":28,"extra":{},"polyglot":[],"category":"53914448,","audit":0,"is_ugc":0,"type":"audio"},{"id":"1023920","ufid":"24427962","name":"\u8fd8\u6709\u4e00\u4ef6\u4e8b-\u6210\u9f99\u5386\u9669\u8bb0","file":"http:\/\/rdfile.oss-cn-hangzhou.aliyuncs.com\/filemanage\/init\/audio\/24427962.mp3?nonce=1afed1c2fcea1dfa6bc55c72bed0e51b","cover":"","updatetime":"1697698163","height":0,"width":0,"video":"","sort":0,"version":157,"cover2":"","appkey":"init","duration":2,"extra":{},"polyglot":[],"category":"53914448,","audit":0,"is_ugc":0,"type":"audio"},{"id":"1023919","ufid":"95798000","name":"\u8fd8\u5dee\u5f97\u8fdc\u5462","file":"http:\/\/rdfile.oss-cn-hangzhou.aliyuncs.com\/filemanage\/init\/audio\/95798000.mp3?nonce=dda0c97af38d9920aa9cc78e6b981a7f","cover":"","updatetime":"1697698162","height":0,"width":0,"video":"","sort":0,"version":157,"cover2":"","appkey":"init","duration":1,"extra":{},"polyglot":[],"category":"53914448,","audit":0,"is_ugc":0,"type":"audio"},{"id":"1023918","ufid":"84062767","name":"\u540e\u8857\u5973\u5b69","file":"http:\/\/rdfile.oss-cn-hangzhou.aliyuncs.com\/filemanage\/init\/audio\/84062767.mp3?nonce=dda0c97af38d9920aa9cc78e6b981a7f","cover":"","updatetime":"1697698162","height":0,"width":0,"video":"","sort":0,"version":157,"cover2":"","appkey":"init","duration":2,"extra":{},"polyglot":[],"category":"53914448,","audit":0,"is_ugc":0,"type":"audio"},{"id":"1023917","ufid":"82343274","name":"\u597d\u5389\u5bb3","file":"http:\/\/rdfile.oss-cn-hangzhou.aliyuncs.com\/filemanage\/init\/audio\/82343274.mp3?nonce=dda0c97af38d9920aa9cc78e6b981a7f","cover":"","updatetime":"1697698162","height":0,"width":0,"video":"","sort":0,"version":157,"cover2":"","appkey":"init","duration":3,"extra":{},"polyglot":[],"category":"53914448,","audit":0,"is_ugc":0,"type":"audio"},{"id":"1023916","ufid":"43161973","name":"\u8c6a\u706b\u7403\u4e4b\u672f","file":"http:\/\/rdfile.oss-cn-hangzhou.aliyuncs.com\/filemanage\/init\/audio\/43161973.mp3?nonce=dda0c97af38d9920aa9cc78e6b981a7f","cover":"","updatetime":"1697698162","height":0,"width":0,"video":"","sort":0,"version":157,"cover2":"","appkey":"init","duration":3,"extra":{},"polyglot":[],"category":"53914448,","audit":0,"is_ugc":0,"type":"audio"},{"id":"1023915","ufid":"68651969","name":"\u6d77\u8d3c\u738b","file":"http:\/\/rdfile.oss-cn-hangzhou.aliyuncs.com\/filemanage\/init\/audio\/68651969.mp3?nonce=12683356b8e5ebb73f56cd84707a5822","cover":"","updatetime":"1697698161","height":0,"width":0,"video":"","sort":0,"version":157,"cover2":"","appkey":"init","duration":11,"extra":{},"polyglot":[],"category":"53914448,","audit":0,"is_ugc":0,"type":"audio"},{"id":"1023914","ufid":"81944682","name":"\u9f9f\u6d3e\u6c14\u529f-\u4e03\u9f99\u73e0","file":"http:\/\/rdfile.oss-cn-hangzhou.aliyuncs.com\/filemanage\/init\/audio\/81944682.mp3?nonce=12683356b8e5ebb73f56cd84707a5822","cover":"","updatetime":"1697698161","height":0,"width":0,"video":"","sort":0,"version":157,"cover2":"","appkey":"init","duration":8,"extra":{},"polyglot":[],"category":"53914448,","audit":0,"is_ugc":0,"type":"audio"},{"id":"1023913","ufid":"24343167","name":"\u989d\u5475\u5475","file":"http:\/\/rdfile.oss-cn-hangzhou.aliyuncs.com\/filemanage\/init\/audio\/24343167.mp3?nonce=12683356b8e5ebb73f56cd84707a5822","cover":"","updatetime":"1697698161","height":0,"width":0,"video":"","sort":0,"version":157,"cover2":"","appkey":"init","duration":2,"extra":{},"polyglot":[],"category":"53914448,","audit":0,"is_ugc":0,"type":"audio"},{"id":"1023912","ufid":"10280714","name":"\u52a8\u6f2b\u5c0f\u5b69\u7b11","file":"http:\/\/rdfile.oss-cn-hangzhou.aliyuncs.com\/filemanage\/init\/audio\/10280714.mp3?nonce=12683356b8e5ebb73f56cd84707a5822","cover":"","updatetime":"1697698161","height":0,"width":0,"video":"","sort":0,"version":157,"cover2":"","appkey":"init","duration":1,"extra":{},"polyglot":[],"category":"53914448,","audit":0,"is_ugc":0,"type":"audio"},{"id":"1023911","ufid":"60708766","name":"\u8fea\u8fe6\u5965\u7279\u66fc\u51fa\u573a","file":"http:\/\/rdfile.oss-cn-hangzhou.aliyuncs.com\/filemanage\/init\/audio\/60708766.mp3?nonce=e0398beace901be16054b905b3c42566","cover":"","updatetime":"1697698285","height":0,"width":0,"video":"","sort":0,"version":157,"cover2":"","appkey":"init","duration":12,"extra":{},"polyglot":[],"category":"53914448,","audit":0,"is_ugc":0,"type":"audio"},{"id":"1023910","ufid":"28219447","name":"\u8fea\u8fe6\u5965\u7279\u66fc\u53d8\u8eab\u97f3\u6548","file":"http:\/\/rdfile.oss-cn-hangzhou.aliyuncs.com\/filemanage\/init\/audio\/28219447.mp3?nonce=30a9a1618c1161ae789e3cab16b8da4d","cover":"","updatetime":"1697698160","height":0,"width":0,"video":"","sort":0,"version":157,"cover2":"","appkey":"init","duration":6,"extra":{},"polyglot":[],"category":"53914448,","audit":0,"is_ugc":0,"type":"audio"},{"id":"1023909","ufid":"86737988","name":"\u4ee3\u8868\u6708\u4eae\u6d88\u706d\u4f60","file":"http:\/\/rdfile.oss-cn-hangzhou.aliyuncs.com\/filemanage\/init\/audio\/86737988.mp3?nonce=30a9a1618c1161ae789e3cab16b8da4d","cover":"","updatetime":"1697698160","height":0,"width":0,"video":"","sort":0,"version":157,"cover2":"","appkey":"init","duration":3,"extra":{},"polyglot":[],"category":"53914448,","audit":0,"is_ugc":0,"type":"audio"},{"id":"1023908","ufid":"16702593","name":"\u5927\u7011\u5e03\u4e4b\u672f","file":"http:\/\/rdfile.oss-cn-hangzhou.aliyuncs.com\/filemanage\/init\/audio\/16702593.mp3?nonce=30a9a1618c1161ae789e3cab16b8da4d","cover":"","updatetime":"1697698160","height":0,"width":0,"video":"","sort":0,"version":157,"cover2":"","appkey":"init","duration":3,"extra":{},"polyglot":[],"category":"53914448,","audit":0,"is_ugc":0,"type":"audio"},{"id":"1023907","ufid":"91339402","name":"\u5145\u80fd","file":"http:\/\/rdfile.oss-cn-hangzhou.aliyuncs.com\/filemanage\/init\/audio\/91339402.mp3?nonce=30a9a1618c1161ae789e3cab16b8da4d","cover":"","updatetime":"1697698160","height":0,"width":0,"video":"","sort":0,"version":157,"cover2":"","appkey":"init","duration":3,"extra":{},"polyglot":[],"category":"53914448,","audit":0,"is_ugc":0,"type":"audio"},{"id":"1023906","ufid":"83869040","name":"\u5bdf\u89c92","file":"http:\/\/rdfile.oss-cn-hangzhou.aliyuncs.com\/filemanage\/init\/audio\/83869040.mp3?nonce=4e9bf96ef070aabbb4c12d926632f43c","cover":"","updatetime":"1697698159","height":0,"width":0,"video":"","sort":0,"version":157,"cover2":"","appkey":"init","duration":2,"extra":{},"polyglot":[],"category":"53914448,","audit":0,"is_ugc":0,"type":"audio"}]}}