{"code":0,"msg":"success","data":{"total":89,"per_page":20,"current_page":3,"last_page":5,"data":[{"id":"1024635","ufid":"82153195","name":"\u63a7\u5236\u4e0d\u4f4f\u7684\u7b11","file":"http:\/\/rdfile.oss-cn-hangzhou.aliyuncs.com\/filemanage\/init\/audio\/82153195.mp3?nonce=2f40a46217516642f7d8853e6294c1b8","cover":"","updatetime":"1697698339","height":0,"width":0,"video":"","sort":0,"version":157,"cover2":"","appkey":"init","duration":4,"extra":{},"polyglot":[],"category":"61294791,","audit":0,"is_ugc":0,"type":"audio"},{"id":"1024634","ufid":"95198528","name":"\u54af\u54af\u54af\u7b11","file":"http:\/\/rdfile.oss-cn-hangzhou.aliyuncs.com\/filemanage\/init\/audio\/95198528.mp3?nonce=2f40a46217516642f7d8853e6294c1b8","cover":"","updatetime":"1697698339","height":0,"width":0,"video":"","sort":0,"version":157,"cover2":"","appkey":"init","duration":1,"extra":{},"polyglot":[],"category":"61294791,","audit":0,"is_ugc":0,"type":"audio"},{"id":"1024633","ufid":"30054637","name":"\u5361\u901a\u90aa\u6076\u7b11","file":"http:\/\/rdfile.oss-cn-hangzhou.aliyuncs.com\/filemanage\/init\/audio\/30054637.mp3?nonce=2f40a46217516642f7d8853e6294c1b8","cover":"","updatetime":"1697698339","height":0,"width":0,"video":"","sort":0,"version":157,"cover2":"","appkey":"init","duration":5,"extra":{},"polyglot":[],"category":"61294791,","audit":0,"is_ugc":0,"type":"audio"},{"id":"1024632","ufid":"20255463","name":"\u5361\u901a\u7b11\u58f0","file":"http:\/\/rdfile.oss-cn-hangzhou.aliyuncs.com\/filemanage\/init\/audio\/20255463.mp3?nonce=2f40a46217516642f7d8853e6294c1b8","cover":"","updatetime":"1697698339","height":0,"width":0,"video":"","sort":0,"version":157,"cover2":"","appkey":"init","duration":4,"extra":{},"polyglot":[],"category":"61294791,","audit":0,"is_ugc":0,"type":"audio"},{"id":"1024631","ufid":"87822320","name":"\u5361\u901a\u4eba\u7269\u5978\u7b11","file":"http:\/\/rdfile.oss-cn-hangzhou.aliyuncs.com\/filemanage\/init\/audio\/87822320.mp3?nonce=ee98e061eef7aae9063146e04a418d6d","cover":"","updatetime":"1697698338","height":0,"width":0,"video":"","sort":0,"version":157,"cover2":"","appkey":"init","duration":3,"extra":{},"polyglot":[],"category":"61294791,","audit":0,"is_ugc":0,"type":"audio"},{"id":"1024630","ufid":"63279659","name":"\u5361\u901a\u4eba\u7c7b\u7537\u6027\u7b11","file":"http:\/\/rdfile.oss-cn-hangzhou.aliyuncs.com\/filemanage\/init\/audio\/63279659.mp3?nonce=ee98e061eef7aae9063146e04a418d6d","cover":"","updatetime":"1697698338","height":0,"width":0,"video":"","sort":0,"version":157,"cover2":"","appkey":"init","duration":1,"extra":{},"polyglot":[],"category":"61294791,","audit":0,"is_ugc":0,"type":"audio"},{"id":"1024629","ufid":"62648464","name":"\u91d1\u9986\u957f\u7ecf\u5178\u7b11\u58f0","file":"http:\/\/rdfile.oss-cn-hangzhou.aliyuncs.com\/filemanage\/init\/audio\/62648464.mp3?nonce=ee98e061eef7aae9063146e04a418d6d","cover":"","updatetime":"1697698338","height":0,"width":0,"video":"","sort":0,"version":157,"cover2":"","appkey":"init","duration":3,"extra":{},"polyglot":[],"category":"61294791,","audit":0,"is_ugc":0,"type":"audio"},{"id":"1024628","ufid":"35251186","name":"\u7334\u7b11","file":"http:\/\/rdfile.oss-cn-hangzhou.aliyuncs.com\/filemanage\/init\/audio\/35251186.mp3?nonce=ee98e061eef7aae9063146e04a418d6d","cover":"","updatetime":"1697698338","height":0,"width":0,"video":"","sort":0,"version":157,"cover2":"","appkey":"init","duration":14,"extra":{},"polyglot":[],"category":"61294791,","audit":0,"is_ugc":0,"type":"audio"},{"id":"1024627","ufid":"65421949","name":"\u6d77\u8c5a\u5632\u7b11","file":"http:\/\/rdfile.oss-cn-hangzhou.aliyuncs.com\/filemanage\/init\/audio\/65421949.mp3?nonce=0a1ff45870d1f40acd6ce30ae5a0864e","cover":"","updatetime":"1697698337","height":0,"width":0,"video":"","sort":0,"version":157,"cover2":"","appkey":"init","duration":2,"extra":{},"polyglot":[],"category":"61294791,","audit":0,"is_ugc":0,"type":"audio"},{"id":"1024626","ufid":"25290064","name":"\u6d77\u9e25\u72c2\u7b11","file":"http:\/\/rdfile.oss-cn-hangzhou.aliyuncs.com\/filemanage\/init\/audio\/25290064.mp3?nonce=0a1ff45870d1f40acd6ce30ae5a0864e","cover":"","updatetime":"1697698337","height":0,"width":0,"video":"","sort":0,"version":157,"cover2":"","appkey":"init","duration":12,"extra":{},"polyglot":[],"category":"61294791,","audit":0,"is_ugc":0,"type":"audio"},{"id":"1024625","ufid":"97171775","name":"\u6d77\u76d7\u7b11","file":"http:\/\/rdfile.oss-cn-hangzhou.aliyuncs.com\/filemanage\/init\/audio\/97171775.mp3?nonce=0a1ff45870d1f40acd6ce30ae5a0864e","cover":"","updatetime":"1697698337","height":0,"width":0,"video":"","sort":0,"version":157,"cover2":"","appkey":"init","duration":2,"extra":{},"polyglot":[],"category":"61294791,","audit":0,"is_ugc":0,"type":"audio"},{"id":"1024624","ufid":"34296293","name":"\u513f\u7ae5\u6e38\u620f\u5ba4\u7b11","file":"http:\/\/rdfile.oss-cn-hangzhou.aliyuncs.com\/filemanage\/init\/audio\/34296293.mp3?nonce=0a1ff45870d1f40acd6ce30ae5a0864e","cover":"","updatetime":"1697698337","height":0,"width":0,"video":"","sort":0,"version":157,"cover2":"","appkey":"init","duration":3,"extra":{},"polyglot":[],"category":"61294791,","audit":0,"is_ugc":0,"type":"audio"},{"id":"1024623","ufid":"48878952","name":"\u6076\u9b54\u5927\u7b11","file":"http:\/\/rdfile.oss-cn-hangzhou.aliyuncs.com\/filemanage\/init\/audio\/48878952.mp3?nonce=0a1ff45870d1f40acd6ce30ae5a0864e","cover":"","updatetime":"1697698337","height":0,"width":0,"video":"","sort":0,"version":157,"cover2":"","appkey":"init","duration":9,"extra":{},"polyglot":[],"category":"61294791,","audit":0,"is_ugc":0,"type":"audio"},{"id":"1024622","ufid":"51149873","name":"\u75f4\u6c49\u5475\u5475\u50bb\u7b11","file":"http:\/\/rdfile.oss-cn-hangzhou.aliyuncs.com\/filemanage\/init\/audio\/51149873.mp3?nonce=046029dc630a0c3815f44f6c6c555bb2","cover":"","updatetime":"1697698336","height":0,"width":0,"video":"","sort":0,"version":157,"cover2":"","appkey":"init","duration":10,"extra":{},"polyglot":[],"category":"61294791,","audit":0,"is_ugc":0,"type":"audio"},{"id":"1024621","ufid":"17532379","name":"\u50b2\u6162\u7684\u56fd\u738b\u7b11","file":"http:\/\/rdfile.oss-cn-hangzhou.aliyuncs.com\/filemanage\/init\/audio\/17532379.mp3?nonce=046029dc630a0c3815f44f6c6c555bb2","cover":"","updatetime":"1697698336","height":0,"width":0,"video":"","sort":0,"version":157,"cover2":"","appkey":"init","duration":7,"extra":{},"polyglot":[],"category":"61294791,","audit":0,"is_ugc":0,"type":"audio"},{"id":"1024620","ufid":"17060794","name":"\u54ce\u5440\u6211\u6ef4\u5988","file":"http:\/\/rdfile.oss-cn-hangzhou.aliyuncs.com\/filemanage\/init\/audio\/17060794.mp3?nonce=046029dc630a0c3815f44f6c6c555bb2","cover":"","updatetime":"1697698336","height":0,"width":0,"video":"","sort":0,"version":157,"cover2":"","appkey":"init","duration":10,"extra":{},"polyglot":[],"category":"61294791,","audit":0,"is_ugc":0,"type":"audio"},{"id":"1020025","ufid":"14743785","name":"\u72d2\u72d2\u7b11","file":"http:\/\/rdfile.oss-cn-hangzhou.aliyuncs.com\/filemanage\/init\/audio\/14743785.mp3?nonce=cfcd208495d565ef66e7dff9f98764da","cover":"http:\/\/rdfile.oss-cn-hangzhou.aliyuncs.com\/filemanage\/init\/audio\/14743785.jpeg?nonce=cfcd208495d565ef66e7dff9f98764da","updatetime":"0","height":0,"width":0,"video":"","sort":0,"version":0,"cover2":"","appkey":"init","duration":3,"extra":{},"polyglot":[],"category":"0","audit":0,"is_ugc":0,"type":"audio"},{"id":"1020024","ufid":"56282684","name":"\u5a74\u513f\u7b11\u58f02","file":"http:\/\/rdfile.oss-cn-hangzhou.aliyuncs.com\/filemanage\/init\/audio\/56282684.mp3?nonce=cfcd208495d565ef66e7dff9f98764da","cover":"http:\/\/rdfile.oss-cn-hangzhou.aliyuncs.com\/filemanage\/init\/audio\/56282684.jpeg?nonce=cfcd208495d565ef66e7dff9f98764da","updatetime":"0","height":0,"width":0,"video":"","sort":0,"version":0,"cover2":"","appkey":"init","duration":4,"extra":{},"polyglot":[],"category":"0","audit":0,"is_ugc":0,"type":"audio"},{"id":"1020023","ufid":"88620956","name":"\u4e00\u4f1a\u6ef4\uff5e\u54c8\u54c8\u54c8","file":"http:\/\/rdfile.oss-cn-hangzhou.aliyuncs.com\/filemanage\/init\/audio\/88620956.mp3?nonce=cfcd208495d565ef66e7dff9f98764da","cover":"http:\/\/rdfile.oss-cn-hangzhou.aliyuncs.com\/filemanage\/init\/audio\/88620956.jpeg?nonce=cfcd208495d565ef66e7dff9f98764da","updatetime":"0","height":0,"width":0,"video":"","sort":0,"version":0,"cover2":"","appkey":"init","duration":14,"extra":{},"polyglot":[],"category":"0","audit":0,"is_ugc":0,"type":"audio"},{"id":"1020022","ufid":"62960804","name":"\u90aa\u6076\u75af\u72c2\u7684\u7b11\u58f0","file":"http:\/\/rdfile.oss-cn-hangzhou.aliyuncs.com\/filemanage\/init\/audio\/62960804.mp3?nonce=cfcd208495d565ef66e7dff9f98764da","cover":"http:\/\/rdfile.oss-cn-hangzhou.aliyuncs.com\/filemanage\/init\/audio\/62960804.jpeg?nonce=cfcd208495d565ef66e7dff9f98764da","updatetime":"0","height":0,"width":0,"video":"","sort":0,"version":0,"cover2":"","appkey":"init","duration":10,"extra":{},"polyglot":[],"category":"0","audit":0,"is_ugc":0,"type":"audio"}]}}