{"code":0,"msg":"success","data":{"total":102,"per_page":20,"current_page":3,"last_page":6,"data":[{"id":"1005485","ufid":"29682024","name":"Thunderbolt","file":"http:\/\/rdfile.oss-cn-hangzhou.aliyuncs.com\/filemanage\/init\/audio\/54\/2f805f2744585c9ed38a4d073c225a82\/2f57b3ebeabb961e7c821876a1087644.mp3?nonce=915ee8b64826eb52121e9c363a024819","cover":"","updatetime":"1697698022","height":0,"width":0,"video":"","sort":100,"version":0,"cover2":"","appkey":"init","duration":9,"extra":{},"polyglot":{"en":"Thunderbolt"},"category":"79079757,","audit":0,"is_ugc":0,"type":"audio"},{"id":"1005484","ufid":"13626059","name":"Cymbals","file":"http:\/\/rdfile.oss-cn-hangzhou.aliyuncs.com\/filemanage\/init\/audio\/54\/32923a778911ffb5112d01e0a0587ea8\/2d770f4241c29254ecb222797a706040.mp3?nonce=6fd4ebf9bf8de63e099a55e5ea6c0764","cover":"","updatetime":"1697698035","height":0,"width":0,"video":"","sort":100,"version":0,"cover2":"","appkey":"init","duration":4,"extra":{},"polyglot":{"en":"Cymbals"},"category":"79079757,","audit":0,"is_ugc":0,"type":"audio"},{"id":"1005483","ufid":"32847432","name":"Result Announcement","file":"http:\/\/rdfile.oss-cn-hangzhou.aliyuncs.com\/filemanage\/init\/audio\/54\/11ee0bd41a3229e4c24af7fc854c86de\/ad854dc3634fd58626510ad929955470.mp3?nonce=cfcd208495d565ef66e7dff9f98764da","cover":"","updatetime":"0","height":0,"width":0,"video":"","sort":100,"version":0,"cover2":"","appkey":"init","duration":7,"extra":{},"polyglot":{"en":"Result Announcement"},"category":"79079757,","audit":0,"is_ugc":0,"type":"audio"},{"id":"1005482","ufid":"78741730","name":"Applaud And Cheer","file":"http:\/\/rdfile.oss-cn-hangzhou.aliyuncs.com\/filemanage\/init\/audio\/54\/41d932cd4e5465f08e9ce7e1d44846b0\/54c5f09e5ef5caade84713ba9d1d7c1e.mp3?nonce=73254864837550a70eaec6aed528fea2","cover":"","updatetime":"1697698016","height":0,"width":0,"video":"","sort":100,"version":0,"cover2":"","appkey":"init","duration":4,"extra":{},"polyglot":{"en":"Applaud And Cheer"},"category":"79079757,","audit":0,"is_ugc":0,"type":"audio"},{"id":"1005481","ufid":"15757314","name":"Temple Bells ","file":"http:\/\/rdfile.oss-cn-hangzhou.aliyuncs.com\/filemanage\/init\/audio\/54\/54c9d8c78b7456b6f2b470132872afff\/ace4ae2b2914960d0b2fb0befceee926.mp3?nonce=d8723003b7c0d8729ce79a6ca1ad0f46","cover":"","updatetime":"1697698026","height":0,"width":0,"video":"","sort":100,"version":0,"cover2":"","appkey":"init","duration":9,"extra":{},"polyglot":{"en":"Temple Bells "},"category":"79079757,","audit":0,"is_ugc":0,"type":"audio"},{"id":"1005480","ufid":"90414646","name":"School Bell","file":"http:\/\/rdfile.oss-cn-hangzhou.aliyuncs.com\/filemanage\/init\/audio\/54\/2de8a581e39a2d5728024ef45a615047\/8951315480839d99318ff9aa21206dcd.mp3?nonce=553e26bf6f6425c4b6b589755d5dadad","cover":"","updatetime":"1697698030","height":0,"width":0,"video":"","sort":100,"version":0,"cover2":"","appkey":"init","duration":19,"extra":{},"polyglot":{"en":"School Bell"},"category":"79079757,","audit":0,"is_ugc":0,"type":"audio"},{"id":"1005479","ufid":"35592307","name":"Film Projector","file":"http:\/\/rdfile.oss-cn-hangzhou.aliyuncs.com\/filemanage\/init\/audio\/54\/3efa22b052ddd6ebd8c42d45b1f9cf4a\/123bc049cdb3cc50c2f17002dd90b0e0.mp3?nonce=acdd54b12c64fca423391dfbb080afa6","cover":"","updatetime":"1697698019","height":0,"width":0,"video":"","sort":100,"version":0,"cover2":"","appkey":"init","duration":19,"extra":{},"polyglot":{"en":"Film Projector"},"category":"79079757,","audit":0,"is_ugc":0,"type":"audio"},{"id":"1005478","ufid":"98621745","name":"Wooden Fish","file":"http:\/\/rdfile.oss-cn-hangzhou.aliyuncs.com\/filemanage\/init\/audio\/54\/cabb44a6dfa3b6d0f25fd3c496fc5016\/d71825b6b180c3799bf2ab8b98c21dd6.mp3?nonce=447cb58b02e638e2865477a16ab4fd25","cover":"","updatetime":"1697698203","height":0,"width":0,"video":"","sort":100,"version":0,"cover2":"","appkey":"init","duration":1,"extra":{},"polyglot":{"en":"Wooden Fish"},"category":"79079757,","audit":0,"is_ugc":0,"type":"audio"},{"id":"1005477","ufid":"65445252","name":"Chirp","file":"http:\/\/rdfile.oss-cn-hangzhou.aliyuncs.com\/filemanage\/init\/audio\/54\/fca1b83219fe2cdcf3cd84a710823506\/38eebdd1c224548a9bd17e42ed4f09e2.mp3?nonce=cfcd208495d565ef66e7dff9f98764da","cover":"","updatetime":"0","height":0,"width":0,"video":"","sort":100,"version":0,"cover2":"","appkey":"init","duration":26,"extra":{},"polyglot":{"en":"Chirp"},"category":"79079757,","audit":0,"is_ugc":0,"type":"audio"},{"id":"1005476","ufid":"85391070","name":"Hands Of A Clock Or Watch","file":"http:\/\/rdfile.oss-cn-hangzhou.aliyuncs.com\/filemanage\/init\/audio\/54\/1ef78f3b707632eaeb42d8820faad565\/4ab531db3e536a80b57506fad77bf337.mp3?nonce=ef65bcb332fe240fcc340dbebbc181c8","cover":"","updatetime":"1697698025","height":0,"width":0,"video":"","sort":100,"version":0,"cover2":"","appkey":"init","duration":30,"extra":{},"polyglot":{"en":"Hands Of A Clock Or Watch"},"category":"79079757,","audit":0,"is_ugc":0,"type":"audio"},{"id":"1005475","ufid":"47897430","name":"Busy Shopping Centre","file":"http:\/\/rdfile.oss-cn-hangzhou.aliyuncs.com\/filemanage\/init\/audio\/54\/c6e99b7c9ae1a57f53424a8186085490\/db7a43b9eeda5c4b3de87a3ffc6e05c2.mp3?nonce=0bf392df9290419c3266ab3675509f52","cover":"","updatetime":"1697698042","height":0,"width":0,"video":"","sort":100,"version":0,"cover2":"","appkey":"init","duration":20,"extra":{},"polyglot":{"en":"Busy Shopping Centre"},"category":"79079757,","audit":0,"is_ugc":0,"type":"audio"},{"id":"1005474","ufid":"26948746","name":"Autumn Insect Singing","file":"http:\/\/rdfile.oss-cn-hangzhou.aliyuncs.com\/filemanage\/init\/audio\/54\/7b9f3172a3ec1e4d796f79aaa0508cfc\/ebebcee06de2e4198b442aba2a007945.mp3?nonce=0ea0b286233a49f9525094f7c4504ae4","cover":"","updatetime":"1697698023","height":0,"width":0,"video":"","sort":100,"version":0,"cover2":"","appkey":"init","duration":25,"extra":{},"polyglot":{"en":"Autumn Insect Singing"},"category":"79079757,","audit":0,"is_ugc":0,"type":"audio"},{"id":"1005473","ufid":"92302655","name":"Cicada","file":"http:\/\/rdfile.oss-cn-hangzhou.aliyuncs.com\/filemanage\/init\/audio\/54\/794094979b82cf617571745b7a31a8d5\/7b3ed72e9e6bc6e30be03326ca04209c.mp3?nonce=8180ac7948668ebe700872eedd98e6eb","cover":"","updatetime":"1697698012","height":0,"width":0,"video":"","sort":100,"version":0,"cover2":"","appkey":"init","duration":30,"extra":{},"polyglot":{"en":"Cicada"},"category":"79079757,","audit":0,"is_ugc":0,"type":"audio"},{"id":"1005472","ufid":"99713905","name":"Punch","file":"http:\/\/rdfile.oss-cn-hangzhou.aliyuncs.com\/filemanage\/init\/audio\/54\/1c85c29b9f076ea11cf6b9b120faef3a\/245d7b0935722ffc1fcc01d4ac314843.mp3?nonce=8ce3bb5edad3aa053bd4d1eedc39a8e1","cover":"","updatetime":"1697698013","height":0,"width":0,"video":"","sort":100,"version":0,"cover2":"","appkey":"init","duration":1,"extra":{},"polyglot":{"en":"Punch"},"category":"79079757,","audit":0,"is_ugc":0,"type":"audio"},{"id":"1005471","ufid":"60743624","name":"Jamming Of Cartridge Or Shell Case","file":"http:\/\/rdfile.oss-cn-hangzhou.aliyuncs.com\/filemanage\/init\/audio\/54\/8422a7b0e34704de652dcabd8e941ef6\/9ab378e54d7fdcb4bf5a43cff24f67c0.mp3?nonce=acdd54b12c64fca423391dfbb080afa6","cover":"","updatetime":"1697698019","height":0,"width":0,"video":"","sort":100,"version":0,"cover2":"","appkey":"init","duration":1,"extra":{},"polyglot":{"en":"Jamming Of Cartridge Or Shell Case"},"category":"79079757,","audit":0,"is_ugc":0,"type":"audio"},{"id":"1005470","ufid":"16622791","name":"Shock","file":"http:\/\/rdfile.oss-cn-hangzhou.aliyuncs.com\/filemanage\/init\/audio\/54\/d9d3b4b15f8bc4b6e5da462788d220d4\/cf01c23df65e0ce1ef63a0ced3d615f0.mp3?nonce=553e26bf6f6425c4b6b589755d5dadad","cover":"","updatetime":"1697698030","height":0,"width":0,"video":"","sort":100,"version":0,"cover2":"","appkey":"init","duration":2,"extra":{},"polyglot":{"en":"Shock"},"category":"79079757,","audit":0,"is_ugc":0,"type":"audio"},{"id":"1005469","ufid":"37755535","name":"Pop ","file":"http:\/\/rdfile.oss-cn-hangzhou.aliyuncs.com\/filemanage\/init\/audio\/54\/85fb8cdb46ce52b233b3b7a23c6c4bc9\/31317938c92aa95f120fe4fdf5c5666f.mp3?nonce=928c44f4e3c839903db63fa9de5b1a2b","cover":"","updatetime":"1697698014","height":0,"width":0,"video":"","sort":100,"version":0,"cover2":"","appkey":"init","duration":1,"extra":{},"polyglot":{"en":"Pop "},"category":"79079757,","audit":0,"is_ugc":0,"type":"audio"},{"id":"1005468","ufid":"95589631","name":"Beep","file":"http:\/\/rdfile.oss-cn-hangzhou.aliyuncs.com\/filemanage\/init\/audio\/54\/a3ecee397498a8b79599c15d736b6375\/83f16e68ec4ebfe7c29c3572904e9fed.mp3?nonce=113bc2a573f17024aef7247127b216c9","cover":"","updatetime":"1697698070","height":0,"width":0,"video":"","sort":100,"version":0,"cover2":"","appkey":"init","duration":1,"extra":{},"polyglot":{"en":"Beep"},"category":"79079757,","audit":0,"is_ugc":0,"type":"audio"},{"id":"1005467","ufid":"11555969","name":"Feeding ","file":"http:\/\/rdfile.oss-cn-hangzhou.aliyuncs.com\/filemanage\/init\/audio\/54\/2240b4089aadf14bc817151dc4b01669\/f3dcf92fb32e449354cc7d695f830c74.mp3?nonce=02c6421af32c2e341b99ba5f39cf9ad1","cover":"","updatetime":"1697698027","height":0,"width":0,"video":"","sort":100,"version":0,"cover2":"","appkey":"init","duration":1,"extra":{},"polyglot":{"en":"Feeding "},"category":"79079757,","audit":0,"is_ugc":0,"type":"audio"},{"id":"1005466","ufid":"82734227","name":"Set A Theme ","file":"http:\/\/rdfile.oss-cn-hangzhou.aliyuncs.com\/filemanage\/init\/audio\/54\/c3dcf7eabdb3f2a40586ed6c0b47309f\/134679a6b40d42fa94a76ddaa51e24fd.mp3?nonce=8ce3bb5edad3aa053bd4d1eedc39a8e1","cover":"","updatetime":"1697698013","height":0,"width":0,"video":"","sort":100,"version":0,"cover2":"","appkey":"init","duration":2,"extra":{},"polyglot":{"en":"Set A Theme "},"category":"79079757,","audit":0,"is_ugc":0,"type":"audio"}]}}