{"code":0,"msg":"success","data":{"total":46,"per_page":20,"current_page":3,"last_page":3,"data":[{"id":"1024579","ufid":"82335109","name":"\u53f8\u9a6c\u61ff-\u6050\u60e7\u548c\u6e34\u671b","file":"http:\/\/rdfile.oss-cn-hangzhou.aliyuncs.com\/filemanage\/init\/audio\/82335109.mp3?nonce=1f1dd6318e0b1d198356a3a47774685b","cover":"","updatetime":"1697698326","height":0,"width":0,"video":"","sort":0,"version":157,"cover2":"","appkey":"init","duration":7,"extra":{},"polyglot":[],"category":"94922262,","audit":0,"is_ugc":0,"type":"audio"},{"id":"1024578","ufid":"94810396","name":"\u53f8\u9a6c\u61ff-\u5c3d\u60c5\u547c\u5524\u5427","file":"http:\/\/rdfile.oss-cn-hangzhou.aliyuncs.com\/filemanage\/init\/audio\/94810396.mp3?nonce=1f1dd6318e0b1d198356a3a47774685b","cover":"","updatetime":"1697698326","height":0,"width":0,"video":"","sort":0,"version":157,"cover2":"","appkey":"init","duration":7,"extra":{},"polyglot":[],"category":"94922262,","audit":0,"is_ugc":0,"type":"audio"},{"id":"1024577","ufid":"47307167","name":"\u53f8\u9a6c\u61ff-\u9ed1\u9b54\u6cd5","file":"http:\/\/rdfile.oss-cn-hangzhou.aliyuncs.com\/filemanage\/init\/audio\/47307167.mp3?nonce=1f1dd6318e0b1d198356a3a47774685b","cover":"","updatetime":"1697698326","height":0,"width":0,"video":"","sort":0,"version":157,"cover2":"","appkey":"init","duration":4,"extra":{},"polyglot":[],"category":"94922262,","audit":0,"is_ugc":0,"type":"audio"},{"id":"1024576","ufid":"35039847","name":"\u53f8\u9a6c\u61ff-\u711a\u70e7\u6b86\u5c3d","file":"http:\/\/rdfile.oss-cn-hangzhou.aliyuncs.com\/filemanage\/init\/audio\/35039847.mp3?nonce=d593750afc301006a789590befb4ef99","cover":"","updatetime":"1697698325","height":0,"width":0,"video":"","sort":0,"version":157,"cover2":"","appkey":"init","duration":2,"extra":{},"polyglot":[],"category":"94922262,","audit":0,"is_ugc":0,"type":"audio"},{"id":"1024575","ufid":"10227567","name":"\u53f8\u9a6c\u61ff-\u79f0\u4e4b\u4e3a\u5bbf\u547d","file":"http:\/\/rdfile.oss-cn-hangzhou.aliyuncs.com\/filemanage\/init\/audio\/10227567.mp3?nonce=d593750afc301006a789590befb4ef99","cover":"","updatetime":"1697698325","height":0,"width":0,"video":"","sort":0,"version":157,"cover2":"","appkey":"init","duration":5,"extra":{},"polyglot":[],"category":"94922262,","audit":0,"is_ugc":0,"type":"audio"},{"id":"1024574","ufid":"85215649","name":"\u9648\u54ac\u91d1-\u6211\u771f\u68d2","file":"http:\/\/rdfile.oss-cn-hangzhou.aliyuncs.com\/filemanage\/init\/audio\/85215649.mp3?nonce=d593750afc301006a789590befb4ef99","cover":"","updatetime":"1697698325","height":0,"width":0,"video":"","sort":0,"version":157,"cover2":"","appkey":"init","duration":8,"extra":{},"polyglot":[],"category":"94922262,","audit":0,"is_ugc":0,"type":"audio"}]}}