{"code":0,"msg":"success","data":{"total":636,"per_page":10,"current_page":20,"last_page":64,"data":[{"id":"1016233","ufid":"10810894","name":"Slow down \u97f3\u4e50\u5361\u70b9","file":"http:\/\/rdfile.oss-cn-hangzhou.aliyuncs.com\/filemanage\/e069b36c568d909f\/templateapi\/16662461861410\/file.zip?nonce=684e4ee9a759d4757a522b1e364b4385","cover":"http:\/\/rdfile.oss-cn-hangzhou.aliyuncs.com\/filemanage\/e069b36c568d909f\/templateapi\/16662461861410\/cover.webp?nonce=684e4ee9a759d4757a522b1e364b4385","updatetime":"1704185958","height":1920,"width":1080,"video":"http:\/\/rdfile.oss-cn-hangzhou.aliyuncs.com\/filemanage\/e069b36c568d909f\/templateapi\/16662461861410\/video.mp4?nonce=684e4ee9a759d4757a522b1e364b4385","sort":0,"version":153,"cover2":"","appkey":"init","duration":0,"extra":{},"polyglot":{"en":"Right time music Slow down"},"category":"0","audit":0,"is_ugc":0,"text_need":0,"picture_need":0,"video_need":5,"type":"templateapi"},{"id":"1016232","ufid":"61543492","name":"\u795e\u9b42\u98a0\u5012\u821e\u8e48","file":"http:\/\/rdfile.oss-cn-hangzhou.aliyuncs.com\/filemanage\/e069b36c568d909f\/templateapi\/16662368169331\/file.zip?nonce=8b66141f4c86f2c84da68fed97df13bd","cover":"http:\/\/rdfile.oss-cn-hangzhou.aliyuncs.com\/filemanage\/e069b36c568d909f\/templateapi\/16662368169331\/cover.webp?nonce=8b66141f4c86f2c84da68fed97df13bd","updatetime":"1704185957","height":1920,"width":1080,"video":"http:\/\/rdfile.oss-cn-hangzhou.aliyuncs.com\/filemanage\/e069b36c568d909f\/templateapi\/16662368169331\/video.mp4?nonce=8b66141f4c86f2c84da68fed97df13bd","sort":0,"version":153,"cover2":"","appkey":"6ecb39f1c12f1a35","duration":0,"extra":{},"polyglot":{"en":"Ecstatic dance"},"category":"0","audit":0,"is_ugc":0,"text_need":0,"picture_need":0,"video_need":1,"type":"templateapi"},{"id":"1016230","ufid":"18177123","name":"\u795e\u9b42\u98a0\u5012\u821e\u8e48","file":"http:\/\/rdfile.oss-cn-hangzhou.aliyuncs.com\/filemanage\/e069b36c568d909f\/templateapi\/16662360136301\/file.zip?nonce=8b66141f4c86f2c84da68fed97df13bd","cover":"http:\/\/rdfile.oss-cn-hangzhou.aliyuncs.com\/filemanage\/e069b36c568d909f\/templateapi\/16662360136301\/cover.webp?nonce=8b66141f4c86f2c84da68fed97df13bd","updatetime":"1704185957","height":1920,"width":1080,"video":"http:\/\/rdfile.oss-cn-hangzhou.aliyuncs.com\/filemanage\/e069b36c568d909f\/templateapi\/16662360136301\/video.mp4?nonce=8b66141f4c86f2c84da68fed97df13bd","sort":0,"version":153,"cover2":"","appkey":"6ecb39f1c12f1a35","duration":0,"extra":{},"polyglot":{"en":"Ecstatic dance"},"category":"0","audit":0,"is_ugc":0,"text_need":0,"picture_need":0,"video_need":1,"type":"templateapi"},{"id":"1016227","ufid":"84015494","name":"\u6446\u624b\u97f3\u4e50\u5361\u70b9","file":"http:\/\/rdfile.oss-cn-hangzhou.aliyuncs.com\/filemanage\/e069b36c568d909f\/templateapi\/16661728365703\/file.zip?nonce=8b66141f4c86f2c84da68fed97df13bd","cover":"http:\/\/rdfile.oss-cn-hangzhou.aliyuncs.com\/filemanage\/e069b36c568d909f\/templateapi\/16661728365703\/cover.webp?nonce=8b66141f4c86f2c84da68fed97df13bd","updatetime":"1704185957","height":1920,"width":1080,"video":"http:\/\/rdfile.oss-cn-hangzhou.aliyuncs.com\/filemanage\/e069b36c568d909f\/templateapi\/16661728365703\/video.mp4?nonce=8b66141f4c86f2c84da68fed97df13bd","sort":0,"version":153,"cover2":"","appkey":"init","duration":0,"extra":{},"polyglot":{"en":"Right time music wave hand"},"category":"0","audit":0,"is_ugc":0,"text_need":0,"picture_need":0,"video_need":4,"type":"templateapi"},{"id":"1016226","ufid":"21427037","name":"Wannabe \u97f3\u4e50\u5361\u70b9","file":"http:\/\/rdfile.oss-cn-hangzhou.aliyuncs.com\/filemanage\/e069b36c568d909f\/templateapi\/16661685855105\/file.zip?nonce=8b66141f4c86f2c84da68fed97df13bd","cover":"http:\/\/rdfile.oss-cn-hangzhou.aliyuncs.com\/filemanage\/e069b36c568d909f\/templateapi\/16661685855105\/cover.webp?nonce=8b66141f4c86f2c84da68fed97df13bd","updatetime":"1704185957","height":1920,"width":1080,"video":"http:\/\/rdfile.oss-cn-hangzhou.aliyuncs.com\/filemanage\/e069b36c568d909f\/templateapi\/16661685855105\/video.mp4?nonce=8b66141f4c86f2c84da68fed97df13bd","sort":0,"version":153,"cover2":"","appkey":"init","duration":0,"extra":{},"polyglot":{"en":"Right time music Wannabe"},"category":"0","audit":0,"is_ugc":0,"text_need":0,"picture_need":0,"video_need":7,"type":"templateapi"},{"id":"1016225","ufid":"29885271","name":"Wannabe \u97f3\u4e50\u5361\u70b9","file":"http:\/\/rdfile.oss-cn-hangzhou.aliyuncs.com\/filemanage\/e069b36c568d909f\/templateapi\/16661684407848\/file.zip?nonce=06ffad2b3fc4ecde5083a4e07db6d14d","cover":"http:\/\/rdfile.oss-cn-hangzhou.aliyuncs.com\/filemanage\/e069b36c568d909f\/templateapi\/16661684407848\/cover.webp?nonce=06ffad2b3fc4ecde5083a4e07db6d14d","updatetime":"1704185956","height":1920,"width":1080,"video":"http:\/\/rdfile.oss-cn-hangzhou.aliyuncs.com\/filemanage\/e069b36c568d909f\/templateapi\/16661684407848\/video.mp4?nonce=06ffad2b3fc4ecde5083a4e07db6d14d","sort":0,"version":153,"cover2":"","appkey":"init","duration":0,"extra":{},"polyglot":{"en":"Right time music Wannabe"},"category":"0","audit":0,"is_ugc":0,"text_need":0,"picture_need":0,"video_need":7,"type":"templateapi"},{"id":"1016223","ufid":"38075218","name":"\u8e22\u978b\u53d8\u88c5","file":"http:\/\/rdfile.oss-cn-hangzhou.aliyuncs.com\/filemanage\/e069b36c568d909f\/templateapi\/16661637518987\/file.zip?nonce=06ffad2b3fc4ecde5083a4e07db6d14d","cover":"http:\/\/rdfile.oss-cn-hangzhou.aliyuncs.com\/filemanage\/e069b36c568d909f\/templateapi\/16661637518987\/cover.webp?nonce=06ffad2b3fc4ecde5083a4e07db6d14d","updatetime":"1704185956","height":1920,"width":1080,"video":"http:\/\/rdfile.oss-cn-hangzhou.aliyuncs.com\/filemanage\/e069b36c568d909f\/templateapi\/16661637518987\/video.mp4?nonce=06ffad2b3fc4ecde5083a4e07db6d14d","sort":0,"version":153,"cover2":"","appkey":"6ecb39f1c12f1a35","duration":0,"extra":{},"polyglot":{"en":"Kick shoes and crossdress"},"category":"0","audit":0,"is_ugc":0,"text_need":0,"picture_need":0,"video_need":2,"type":"templateapi"},{"id":"1016222","ufid":"61645020","name":"\u8bfb\u7269","file":"http:\/\/rdfile.oss-cn-hangzhou.aliyuncs.com\/filemanage\/e069b36c568d909f\/templateapi\/16661622968783\/file.zip?nonce=06ffad2b3fc4ecde5083a4e07db6d14d","cover":"http:\/\/rdfile.oss-cn-hangzhou.aliyuncs.com\/filemanage\/e069b36c568d909f\/templateapi\/16661622968783\/cover.webp?nonce=06ffad2b3fc4ecde5083a4e07db6d14d","updatetime":"1704185956","height":1216,"width":912,"video":"http:\/\/rdfile.oss-cn-hangzhou.aliyuncs.com\/filemanage\/e069b36c568d909f\/templateapi\/16661622968783\/video.mp4?nonce=06ffad2b3fc4ecde5083a4e07db6d14d","sort":0,"version":153,"cover2":"","appkey":"init","duration":0,"extra":{},"polyglot":{"en":"Readings"},"category":"0","audit":0,"is_ugc":0,"text_need":2,"picture_need":3,"video_need":0,"type":"templateapi"},{"id":"1016220","ufid":"16457760","name":"\u6211\u4eec\u610f\u5ff5\u5408\u4e00","file":"http:\/\/rdfile.oss-cn-hangzhou.aliyuncs.com\/filemanage\/e069b36c568d909f\/templateapi\/16661516779668\/file.zip?nonce=3d6d69a49119ebd2c2145bad189a359c","cover":"http:\/\/rdfile.oss-cn-hangzhou.aliyuncs.com\/filemanage\/e069b36c568d909f\/templateapi\/16661516779668\/cover.webp?nonce=3d6d69a49119ebd2c2145bad189a359c","updatetime":"1704185955","height":1920,"width":1080,"video":"http:\/\/rdfile.oss-cn-hangzhou.aliyuncs.com\/filemanage\/e069b36c568d909f\/templateapi\/16661516779668\/video.mp4?nonce=3d6d69a49119ebd2c2145bad189a359c","sort":0,"version":153,"cover2":"","appkey":"init","duration":0,"extra":{},"polyglot":{"en":"We are united"},"category":"0","audit":0,"is_ugc":0,"text_need":0,"picture_need":0,"video_need":1,"type":"templateapi"},{"id":"1016218","ufid":"76470432","name":"kiss me more \u97f3\u4e50\u5361\u70b9","file":"http:\/\/rdfile.oss-cn-hangzhou.aliyuncs.com\/filemanage\/e069b36c568d909f\/templateapi\/16661488877847\/file.zip?nonce=3d6d69a49119ebd2c2145bad189a359c","cover":"http:\/\/rdfile.oss-cn-hangzhou.aliyuncs.com\/filemanage\/e069b36c568d909f\/templateapi\/16661488877847\/cover.webp?nonce=3d6d69a49119ebd2c2145bad189a359c","updatetime":"1704185955","height":1626,"width":1080,"video":"http:\/\/rdfile.oss-cn-hangzhou.aliyuncs.com\/filemanage\/e069b36c568d909f\/templateapi\/16661488877847\/video.mp4?nonce=3d6d69a49119ebd2c2145bad189a359c","sort":0,"version":153,"cover2":"","appkey":"init","duration":0,"extra":{},"polyglot":{"en":"Right time music kiss me more"},"category":"0","audit":0,"is_ugc":0,"text_need":0,"picture_need":0,"video_need":4,"type":"templateapi"}]}}