{"code":0,"msg":"success","data":{"total":173,"per_page":10,"current_page":16,"last_page":18,"data":[{"id":"1015993","ufid":"34182248","name":"\u91d1\u79cb\u4e5d\u6708","file":"http:\/\/rdfile.oss-cn-hangzhou.aliyuncs.com\/filemanage\/e069b36c568d909f\/templateapi\/16623718148571\/file.zip?nonce=896ebbad577fa164446124c4f7d7340c","cover":"http:\/\/rdfile.oss-cn-hangzhou.aliyuncs.com\/filemanage\/e069b36c568d909f\/templateapi\/16623718148571\/cover.webp?nonce=896ebbad577fa164446124c4f7d7340c","updatetime":"1684915185","height":1060,"width":596,"video":"http:\/\/rdfile.oss-cn-hangzhou.aliyuncs.com\/filemanage\/e069b36c568d909f\/templateapi\/16623718148571\/video.mp4?nonce=896ebbad577fa164446124c4f7d7340c","sort":0,"version":153,"cover2":"","appkey":"init","duration":0,"extra":{},"polyglot":[],"category":"0","audit":0,"is_ugc":0,"text_need":2,"picture_need":0,"video_need":2,"type":"templateapi"},{"id":"1015548","ufid":"34244045","name":"\u516d\u6708\u518d\u89c1\uff0c\u4e03\u6708\u4f60\u597d","file":"http:\/\/rdfile.oss-cn-hangzhou.aliyuncs.com\/filemanage\/e069b36c568d909f\/templateapi\/16565870651560\/file.zip?nonce=760bf180da0624ca81762e52769e1bab","cover":"http:\/\/rdfile.oss-cn-hangzhou.aliyuncs.com\/filemanage\/e069b36c568d909f\/templateapi\/16565870651560\/cover.webp?nonce=760bf180da0624ca81762e52769e1bab","updatetime":"1684914897","height":1280,"width":720,"video":"http:\/\/rdfile.oss-cn-hangzhou.aliyuncs.com\/filemanage\/e069b36c568d909f\/templateapi\/16565870651560\/video.mp4?nonce=760bf180da0624ca81762e52769e1bab","sort":0,"version":153,"cover2":"","appkey":"init","duration":0,"extra":{},"polyglot":[],"category":"0","audit":0,"is_ugc":0,"text_need":0,"picture_need":0,"video_need":3,"type":"templateapi"},{"id":"1011680","ufid":"58657020","name":"\u6211\u4eec\u7684\u5a5a\u793c","file":"http:\/\/rdfile.oss-cn-hangzhou.aliyuncs.com\/filemanage\/e069b36c568d909f\/templateapi\/16261739725300\/file.zip?nonce=4d121465fbb6b400481f99f300082031","cover":"http:\/\/rdfile.oss-cn-hangzhou.aliyuncs.com\/filemanage\/e069b36c568d909f\/templateapi\/16261739725300\/cover.png?nonce=4d121465fbb6b400481f99f300082031&x-oss-process=style\/templateapi","updatetime":"1684912848","height":1080,"width":607,"video":"http:\/\/rdfile.oss-cn-hangzhou.aliyuncs.com\/filemanage\/e069b36c568d909f\/templateapi\/16261739725300\/video.mp4?nonce=4d121465fbb6b400481f99f300082031","sort":100,"version":146,"cover2":"","appkey":"init","duration":0,"extra":{},"polyglot":[],"category":"0","audit":0,"is_ugc":0,"text_need":0,"picture_need":0,"video_need":7,"type":"templateapi"},{"id":"1011430","ufid":"31442326","name":"\u9713\u8679\u5199\u771f","file":"http:\/\/rdfile.oss-cn-hangzhou.aliyuncs.com\/filemanage\/e069b36c568d909f\/templateapi\/16258129779127\/file.zip?nonce=8de4a3b4ac8735b0ce788ef4be659f13","cover":"http:\/\/rdfile.oss-cn-hangzhou.aliyuncs.com\/filemanage\/e069b36c568d909f\/templateapi\/16258129779127\/cover.png?nonce=8de4a3b4ac8735b0ce788ef4be659f13&x-oss-process=style\/templateapi","updatetime":"1684914455","height":1080,"width":1920,"video":"http:\/\/rdfile.oss-cn-hangzhou.aliyuncs.com\/filemanage\/e069b36c568d909f\/templateapi\/16258129779127\/video.mp4?nonce=8de4a3b4ac8735b0ce788ef4be659f13","sort":100,"version":146,"cover2":"","appkey":"init","duration":0,"extra":{},"polyglot":[],"category":"0","audit":0,"is_ugc":0,"text_need":0,"picture_need":0,"video_need":10,"type":"templateapi"},{"id":"1014867","ufid":"62902427","name":"\u8bb0\u5f55\u751f\u6d3b\u788e\u7247","file":"http:\/\/rdfile.oss-cn-hangzhou.aliyuncs.com\/filemanage\/e069b36c568d909f\/templateapi\/16504505903377\/file.zip?nonce=931eee0eaaf07fd7867f2a385e32993b","cover":"http:\/\/rdfile.oss-cn-hangzhou.aliyuncs.com\/filemanage\/e069b36c568d909f\/templateapi\/16504505903377\/cover.png?nonce=931eee0eaaf07fd7867f2a385e32993b&x-oss-process=style\/templateapi","updatetime":"1684914903","height":1170,"width":720,"video":"http:\/\/rdfile.oss-cn-hangzhou.aliyuncs.com\/filemanage\/e069b36c568d909f\/templateapi\/16504505903377\/video.mp4?nonce=931eee0eaaf07fd7867f2a385e32993b","sort":0,"version":152,"cover2":"","appkey":"init","duration":0,"extra":{},"polyglot":[],"category":"0","audit":0,"is_ugc":0,"text_need":0,"picture_need":0,"video_need":7,"type":"templateapi"},{"id":"1014805","ufid":"62541391","name":"\u6eda\u52a8\u76f8\u518c","file":"http:\/\/rdfile.oss-cn-hangzhou.aliyuncs.com\/filemanage\/e069b36c568d909f\/templateapi\/16499236912686\/file.zip?nonce=b753668c7f9e6b9381d21e0cd4740e68","cover":"http:\/\/rdfile.oss-cn-hangzhou.aliyuncs.com\/filemanage\/e069b36c568d909f\/templateapi\/16499236912686\/cover.png?nonce=b753668c7f9e6b9381d21e0cd4740e68&x-oss-process=style\/templateapi","updatetime":"1684914910","height":720,"width":1280,"video":"http:\/\/rdfile.oss-cn-hangzhou.aliyuncs.com\/filemanage\/e069b36c568d909f\/templateapi\/16499236912686\/video.mp4?nonce=b753668c7f9e6b9381d21e0cd4740e68","sort":0,"version":152,"cover2":"","appkey":"init","duration":0,"extra":{},"polyglot":[],"category":"0","audit":0,"is_ugc":0,"text_need":0,"picture_need":0,"video_need":9,"type":"templateapi"},{"id":"1011350","ufid":"21984256","name":"\u6c38\u4e0d\u6b62\u6b65","file":"http:\/\/rdfile.oss-cn-hangzhou.aliyuncs.com\/filemanage\/e069b36c568d909f\/templateapi\/16255552605910\/file.zip?nonce=d789c5c474767cc8c2862ef19b96a8c6","cover":"http:\/\/rdfile.oss-cn-hangzhou.aliyuncs.com\/filemanage\/e069b36c568d909f\/templateapi\/16255552605910\/cover.png?nonce=d789c5c474767cc8c2862ef19b96a8c6&x-oss-process=style\/templateapi","updatetime":"1684913157","height":1080,"width":1732,"video":"http:\/\/rdfile.oss-cn-hangzhou.aliyuncs.com\/filemanage\/e069b36c568d909f\/templateapi\/16255552605910\/video.mp4?nonce=d789c5c474767cc8c2862ef19b96a8c6","sort":100,"version":146,"cover2":"","appkey":"init","duration":0,"extra":{},"polyglot":[],"category":"0","audit":0,"is_ugc":0,"text_need":0,"picture_need":0,"video_need":10,"type":"templateapi"},{"id":"1011349","ufid":"50465035","name":"\u6237\u5916\u8fd0\u52a8","file":"http:\/\/rdfile.oss-cn-hangzhou.aliyuncs.com\/filemanage\/e069b36c568d909f\/templateapi\/16255451733201\/file.zip?nonce=8f2786db546033aa3eaa6558fcd022e1","cover":"http:\/\/rdfile.oss-cn-hangzhou.aliyuncs.com\/filemanage\/e069b36c568d909f\/templateapi\/16255451733201\/cover.png?nonce=8f2786db546033aa3eaa6558fcd022e1&x-oss-process=style\/templateapi","updatetime":"1684913145","height":1080,"width":1920,"video":"http:\/\/rdfile.oss-cn-hangzhou.aliyuncs.com\/filemanage\/e069b36c568d909f\/templateapi\/16255451733201\/video.mp4?nonce=8f2786db546033aa3eaa6558fcd022e1","sort":100,"version":146,"cover2":"","appkey":"init","duration":0,"extra":{},"polyglot":[],"category":"0","audit":0,"is_ugc":0,"text_need":0,"picture_need":0,"video_need":10,"type":"templateapi"},{"id":"1014744","ufid":"23845867","name":"\u6cbb\u6108\u8857\u666f","file":"http:\/\/rdfile.oss-cn-hangzhou.aliyuncs.com\/filemanage\/e069b36c568d909f\/templateapi\/16492295055649\/file.zip?nonce=9df18d2985ba645927ed68d5d1c34d1f","cover":"http:\/\/rdfile.oss-cn-hangzhou.aliyuncs.com\/filemanage\/e069b36c568d909f\/templateapi\/16492295055649\/cover.png?nonce=9df18d2985ba645927ed68d5d1c34d1f&x-oss-process=style\/templateapi","updatetime":"1684914916","height":1280,"width":720,"video":"http:\/\/rdfile.oss-cn-hangzhou.aliyuncs.com\/filemanage\/e069b36c568d909f\/templateapi\/16492295055649\/video.mp4?nonce=9df18d2985ba645927ed68d5d1c34d1f","sort":0,"version":150,"cover2":"","appkey":"init","duration":0,"extra":{},"polyglot":[],"category":"0","audit":0,"is_ugc":0,"text_need":0,"picture_need":9,"video_need":0,"type":"templateapi"},{"id":"1012933","ufid":"79288232","name":"\u7f8e\u597d\u7684\u4e00\u5929\u5440","file":"http:\/\/rdfile.oss-cn-hangzhou.aliyuncs.com\/filemanage\/e069b36c568d909f\/templateapi\/16388484362990\/file.zip?nonce=c64b20b10ad617f7e214c2409355b754","cover":"http:\/\/rdfile.oss-cn-hangzhou.aliyuncs.com\/filemanage\/e069b36c568d909f\/templateapi\/16388484362990\/cover.png?nonce=c64b20b10ad617f7e214c2409355b754&x-oss-process=style\/templateapi","updatetime":"1684914922","height":1230,"width":692,"video":"http:\/\/rdfile.oss-cn-hangzhou.aliyuncs.com\/filemanage\/e069b36c568d909f\/templateapi\/16388484362990\/video.mp4?nonce=c64b20b10ad617f7e214c2409355b754","sort":100,"version":149,"cover2":"","appkey":"init","duration":0,"extra":{},"polyglot":[],"category":"0","audit":0,"is_ugc":0,"text_need":1,"picture_need":8,"video_need":0,"type":"templateapi"}]}}