{"code":0,"msg":"success","data":{"total":84,"per_page":10,"current_page":7,"last_page":9,"data":[{"id":"1012901","ufid":"86547442","name":"\u8fc8\u963f\u5bc6\u7684\u9633\u5149","file":"http:\/\/rdfile.oss-cn-hangzhou.aliyuncs.com\/filemanage\/e069b36c568d909f\/templateapi\/16378350655702\/file.zip?nonce=6cd08a3959d3dd30c60ff0972a525ed8","cover":"http:\/\/rdfile.oss-cn-hangzhou.aliyuncs.com\/filemanage\/e069b36c568d909f\/templateapi\/16378350655702\/cover.png?nonce=6cd08a3959d3dd30c60ff0972a525ed8&x-oss-process=style\/templateapi","updatetime":"1684913885","height":1080,"width":1918,"video":"http:\/\/rdfile.oss-cn-hangzhou.aliyuncs.com\/filemanage\/e069b36c568d909f\/templateapi\/16378350655702\/video.mp4?nonce=6cd08a3959d3dd30c60ff0972a525ed8","sort":100,"version":148,"cover2":"","appkey":"init","duration":0,"extra":{},"polyglot":[],"category":"0","audit":0,"is_ugc":0,"text_need":0,"picture_need":0,"video_need":4,"type":"templateapi"},{"id":"1012351","ufid":"86775041","name":"beautiful","file":"http:\/\/rdfile.oss-cn-hangzhou.aliyuncs.com\/filemanage\/e069b36c568d909f\/templateapi\/16305742002174\/file.zip?nonce=8701151211821b043c6af9b62fa5fc72","cover":"http:\/\/rdfile.oss-cn-hangzhou.aliyuncs.com\/filemanage\/e069b36c568d909f\/templateapi\/16305742002174\/cover.png?nonce=8701151211821b043c6af9b62fa5fc72&x-oss-process=style\/templateapi","updatetime":"1684913933","height":1080,"width":606,"video":"http:\/\/rdfile.oss-cn-hangzhou.aliyuncs.com\/filemanage\/e069b36c568d909f\/templateapi\/16305742002174\/video.mp4?nonce=8701151211821b043c6af9b62fa5fc72","sort":100,"version":147,"cover2":"","appkey":"init","duration":0,"extra":{},"polyglot":[],"category":"0","audit":0,"is_ugc":0,"text_need":0,"picture_need":1,"video_need":0,"type":"templateapi"},{"id":"1012333","ufid":"41618277","name":"\u5f53\u4f60\u770b\u7740\u6211","file":"http:\/\/rdfile.oss-cn-hangzhou.aliyuncs.com\/filemanage\/e069b36c568d909f\/templateapi\/16304851117783\/file.zip?nonce=6115d929970e9219283df7f1b264ab20","cover":"http:\/\/rdfile.oss-cn-hangzhou.aliyuncs.com\/filemanage\/e069b36c568d909f\/templateapi\/16304851117783\/cover.png?nonce=6115d929970e9219283df7f1b264ab20&x-oss-process=style\/templateapi","updatetime":"1684914028","height":1080,"width":607,"video":"http:\/\/rdfile.oss-cn-hangzhou.aliyuncs.com\/filemanage\/e069b36c568d909f\/templateapi\/16304851117783\/video.mp4?nonce=6115d929970e9219283df7f1b264ab20","sort":100,"version":147,"cover2":"","appkey":"init","duration":0,"extra":{},"polyglot":[],"category":"0","audit":0,"is_ugc":0,"text_need":0,"picture_need":0,"video_need":3,"type":"templateapi"},{"id":"1012304","ufid":"49419426","name":"\u5c71\u6942\u68a8","file":"http:\/\/rdfile.oss-cn-hangzhou.aliyuncs.com\/filemanage\/e069b36c568d909f\/templateapi\/16304689748722\/file.zip?nonce=a4cfc8bad59af7848e5084a500b03b9a","cover":"http:\/\/rdfile.oss-cn-hangzhou.aliyuncs.com\/filemanage\/e069b36c568d909f\/templateapi\/16304689748722\/cover.png?nonce=a4cfc8bad59af7848e5084a500b03b9a&x-oss-process=style\/templateapi","updatetime":"1684914423","height":1080,"width":607,"video":"http:\/\/rdfile.oss-cn-hangzhou.aliyuncs.com\/filemanage\/e069b36c568d909f\/templateapi\/16304689748722\/video.mp4?nonce=a4cfc8bad59af7848e5084a500b03b9a","sort":100,"version":147,"cover2":"","appkey":"init","duration":0,"extra":{},"polyglot":[],"category":"0","audit":0,"is_ugc":0,"text_need":0,"picture_need":0,"video_need":8,"type":"templateapi"},{"id":"1012297","ufid":"99512395","name":"\u725b\u76ae\u7eb8\u62cd\u7acb\u5f97","file":"http:\/\/rdfile.oss-cn-hangzhou.aliyuncs.com\/filemanage\/e069b36c568d909f\/templateapi\/16303927866844\/file.zip?nonce=aaa4bda1eac6978ab98a56ec155e429f","cover":"http:\/\/rdfile.oss-cn-hangzhou.aliyuncs.com\/filemanage\/e069b36c568d909f\/templateapi\/16303927866844\/cover.png?nonce=aaa4bda1eac6978ab98a56ec155e429f&x-oss-process=style\/templateapi","updatetime":"1684898133","height":720,"width":404,"video":"http:\/\/rdfile.oss-cn-hangzhou.aliyuncs.com\/filemanage\/e069b36c568d909f\/templateapi\/16303927866844\/video.mp4?nonce=aaa4bda1eac6978ab98a56ec155e429f","sort":100,"version":147,"cover2":"","appkey":"init","duration":0,"extra":{},"polyglot":[],"category":"0","audit":0,"is_ugc":0,"text_need":0,"picture_need":0,"video_need":11,"type":"templateapi"},{"id":"1012276","ufid":"36596234","name":"\u5730\u6807","file":"http:\/\/rdfile.oss-cn-hangzhou.aliyuncs.com\/filemanage\/e069b36c568d909f\/templateapi\/16303762983118\/file.zip?nonce=e9840aad76a5376a7cea114a0929150b","cover":"http:\/\/rdfile.oss-cn-hangzhou.aliyuncs.com\/filemanage\/e069b36c568d909f\/templateapi\/16303762983118\/cover.png?nonce=e9840aad76a5376a7cea114a0929150b&x-oss-process=style\/templateapi","updatetime":"1684913234","height":718,"width":1280,"video":"http:\/\/rdfile.oss-cn-hangzhou.aliyuncs.com\/filemanage\/e069b36c568d909f\/templateapi\/16303762983118\/video.mp4?nonce=e9840aad76a5376a7cea114a0929150b","sort":100,"version":147,"cover2":"","appkey":"init","duration":0,"extra":{},"polyglot":[],"category":"0","audit":0,"is_ugc":0,"text_need":0,"picture_need":5,"video_need":9,"type":"templateapi"},{"id":"1012274","ufid":"34171457","name":"MY VLOG","file":"http:\/\/rdfile.oss-cn-hangzhou.aliyuncs.com\/filemanage\/e069b36c568d909f\/templateapi\/16303052144415\/file.zip?nonce=cff6ec015890c774d6b60abbfe1bccd2","cover":"http:\/\/rdfile.oss-cn-hangzhou.aliyuncs.com\/filemanage\/e069b36c568d909f\/templateapi\/16303052144415\/cover.png?nonce=cff6ec015890c774d6b60abbfe1bccd2&x-oss-process=style\/templateapi","updatetime":"1684912975","height":720,"width":1280,"video":"http:\/\/rdfile.oss-cn-hangzhou.aliyuncs.com\/filemanage\/e069b36c568d909f\/templateapi\/16303052144415\/video.mp4?nonce=cff6ec015890c774d6b60abbfe1bccd2","sort":100,"version":147,"cover2":"","appkey":"init","duration":0,"extra":{},"polyglot":[],"category":"0","audit":0,"is_ugc":0,"text_need":0,"picture_need":0,"video_need":5,"type":"templateapi"},{"id":"1012224","ufid":"68637153","name":"\u53e4\u98ce\u7fbd\u6bdb","file":"http:\/\/rdfile.oss-cn-hangzhou.aliyuncs.com\/filemanage\/e069b36c568d909f\/templateapi\/16291834208358\/file.zip?nonce=c1741e1ca346890669504c7136567afc","cover":"http:\/\/rdfile.oss-cn-hangzhou.aliyuncs.com\/filemanage\/e069b36c568d909f\/templateapi\/16291834208358\/cover.png?nonce=c1741e1ca346890669504c7136567afc&x-oss-process=style\/templateapi","updatetime":"1684914432","height":1280,"width":720,"video":"http:\/\/rdfile.oss-cn-hangzhou.aliyuncs.com\/filemanage\/e069b36c568d909f\/templateapi\/16291834208358\/video.mp4?nonce=c1741e1ca346890669504c7136567afc","sort":100,"version":147,"cover2":"","appkey":"init","duration":0,"extra":{},"polyglot":[],"category":"0","audit":0,"is_ugc":0,"text_need":0,"picture_need":0,"video_need":5,"type":"templateapi"},{"id":"1012051","ufid":"27060041","name":"Marry me","file":"http:\/\/rdfile.oss-cn-hangzhou.aliyuncs.com\/filemanage\/e069b36c568d909f\/templateapi\/16280482352115\/file.zip?nonce=c2e1faef1b41ab99089ddd2b16f44a73","cover":"http:\/\/rdfile.oss-cn-hangzhou.aliyuncs.com\/filemanage\/e069b36c568d909f\/templateapi\/16280482352115\/cover.png?nonce=c2e1faef1b41ab99089ddd2b16f44a73&x-oss-process=style\/templateapi","updatetime":"1684914134","height":1280,"width":720,"video":"http:\/\/rdfile.oss-cn-hangzhou.aliyuncs.com\/filemanage\/e069b36c568d909f\/templateapi\/16280482352115\/video.mp4?nonce=c2e1faef1b41ab99089ddd2b16f44a73","sort":100,"version":147,"cover2":"","appkey":"init","duration":0,"extra":{},"polyglot":[],"category":"0","audit":0,"is_ugc":0,"text_need":10,"picture_need":0,"video_need":10,"type":"templateapi"},{"id":"1012014","ufid":"30622913","name":"\u751f\u6d3b\u65e5\u8bb0","file":"http:\/\/rdfile.oss-cn-hangzhou.aliyuncs.com\/filemanage\/e069b36c568d909f\/templateapi\/16276295496561\/file.zip?nonce=9c3e3f3ceefc4357328b226b141facae","cover":"http:\/\/rdfile.oss-cn-hangzhou.aliyuncs.com\/filemanage\/e069b36c568d909f\/templateapi\/16276295496561\/cover.png?nonce=9c3e3f3ceefc4357328b226b141facae&x-oss-process=style\/templateapi","updatetime":"1684914160","height":720,"width":1280,"video":"http:\/\/rdfile.oss-cn-hangzhou.aliyuncs.com\/filemanage\/e069b36c568d909f\/templateapi\/16276295496561\/video.mp4?nonce=9c3e3f3ceefc4357328b226b141facae","sort":100,"version":147,"cover2":"","appkey":"init","duration":0,"extra":{},"polyglot":[],"category":"0","audit":0,"is_ugc":0,"text_need":5,"picture_need":0,"video_need":2,"type":"templateapi"}]}}