{"code":0,"msg":"success","data":{"total":636,"per_page":10,"current_page":7,"last_page":64,"data":[{"id":"1016695","ufid":"49431818","name":"Alone\u52a8\u611f\u6162\u52a8\u4f5c","file":"http:\/\/rdfile.oss-cn-hangzhou.aliyuncs.com\/filemanage\/e069b36c568d909f\/templateapi\/16708358329975\/file.zip?nonce=23d485e3442f519f8feb12eb61ee95b5","cover":"http:\/\/rdfile.oss-cn-hangzhou.aliyuncs.com\/filemanage\/e069b36c568d909f\/templateapi\/16708358329975\/cover.webp?nonce=23d485e3442f519f8feb12eb61ee95b5","updatetime":"1704186003","height":1920,"width":1080,"video":"http:\/\/rdfile.oss-cn-hangzhou.aliyuncs.com\/filemanage\/e069b36c568d909f\/templateapi\/16708358329975\/video.mp4?nonce=23d485e3442f519f8feb12eb61ee95b5","sort":0,"version":157,"cover2":"","appkey":"init","duration":0,"extra":{},"polyglot":{"en":"Alone dynamic slow motion"},"category":"0","audit":0,"is_ugc":0,"text_need":0,"picture_need":0,"video_need":1,"type":"templateapi"},{"id":"1016684","ufid":"68322159","name":"\u90a3\u5e74\u6211\u53cc\u624b\u63d2\u515c","file":"http:\/\/rdfile.oss-cn-hangzhou.aliyuncs.com\/filemanage\/e069b36c568d909f\/templateapi\/16704066609904\/file.zip?nonce=fa4c3bbfe6b38d394cc142e266be590b","cover":"http:\/\/rdfile.oss-cn-hangzhou.aliyuncs.com\/filemanage\/e069b36c568d909f\/templateapi\/16704066609904\/cover.webp?nonce=fa4c3bbfe6b38d394cc142e266be590b","updatetime":"1704186002","height":1920,"width":1080,"video":"http:\/\/rdfile.oss-cn-hangzhou.aliyuncs.com\/filemanage\/e069b36c568d909f\/templateapi\/16704066609904\/video.mp4?nonce=fa4c3bbfe6b38d394cc142e266be590b","sort":0,"version":156,"cover2":"","appkey":"init","duration":0,"extra":{},"polyglot":{"en":"That year I put my hands in my pockets"},"category":"0","audit":0,"is_ugc":0,"text_need":0,"picture_need":0,"video_need":1,"type":"templateapi"},{"id":"1016679","ufid":"55743594","name":"\u5982\u679c\u624d\u5341\u516b \u70ed\u70b9\u97f3\u4e50","file":"http:\/\/rdfile.oss-cn-hangzhou.aliyuncs.com\/filemanage\/e069b36c568d909f\/templateapi\/16703209116512\/file.zip?nonce=fa4c3bbfe6b38d394cc142e266be590b","cover":"http:\/\/rdfile.oss-cn-hangzhou.aliyuncs.com\/filemanage\/e069b36c568d909f\/templateapi\/16703209116512\/cover.webp?nonce=fa4c3bbfe6b38d394cc142e266be590b","updatetime":"1704186002","height":1280,"width":720,"video":"http:\/\/rdfile.oss-cn-hangzhou.aliyuncs.com\/filemanage\/e069b36c568d909f\/templateapi\/16703209116512\/video.mp4?nonce=fa4c3bbfe6b38d394cc142e266be590b","sort":0,"version":156,"cover2":"","appkey":"init","duration":0,"extra":{},"polyglot":{"en":"If Only Eighteen Hot Music"},"category":"0","audit":0,"is_ugc":0,"text_need":0,"picture_need":0,"video_need":1,"type":"templateapi"},{"id":"1016675","ufid":"39520664","name":"2022\u5e74\u5ea6\u603b\u7ed3","file":"http:\/\/rdfile.oss-cn-hangzhou.aliyuncs.com\/filemanage\/e069b36c568d909f\/templateapi\/16702347837748\/file.zip?nonce=03d31e88a650f26768d3d04ba4fe3ddd","cover":"http:\/\/rdfile.oss-cn-hangzhou.aliyuncs.com\/filemanage\/e069b36c568d909f\/templateapi\/16702347837748\/cover.webp?nonce=03d31e88a650f26768d3d04ba4fe3ddd","updatetime":"1704186001","height":1080,"width":1920,"video":"http:\/\/rdfile.oss-cn-hangzhou.aliyuncs.com\/filemanage\/e069b36c568d909f\/templateapi\/16702347837748\/video.mp4?nonce=03d31e88a650f26768d3d04ba4fe3ddd","sort":0,"version":156,"cover2":"","appkey":"init","duration":0,"extra":{},"polyglot":{"en":"2022 annual summary"},"category":"0","audit":0,"is_ugc":0,"text_need":0,"picture_need":0,"video_need":17,"type":"templateapi"},{"id":"1016673","ufid":"80880844","name":"\u5929\u7a7a\u7279\u6548","file":"http:\/\/rdfile.oss-cn-hangzhou.aliyuncs.com\/filemanage\/e069b36c568d909f\/templateapi\/16702332388767\/file.zip?nonce=03d31e88a650f26768d3d04ba4fe3ddd","cover":"http:\/\/rdfile.oss-cn-hangzhou.aliyuncs.com\/filemanage\/e069b36c568d909f\/templateapi\/16702332388767\/cover.webp?nonce=03d31e88a650f26768d3d04ba4fe3ddd","updatetime":"1704186001","height":1059,"width":596,"video":"http:\/\/rdfile.oss-cn-hangzhou.aliyuncs.com\/filemanage\/e069b36c568d909f\/templateapi\/16702332388767\/video.mp4?nonce=03d31e88a650f26768d3d04ba4fe3ddd","sort":0,"version":155,"cover2":"","appkey":"init","duration":0,"extra":{},"polyglot":{"en":"Sky effect"},"category":"0","audit":0,"is_ugc":0,"text_need":0,"picture_need":0,"video_need":1,"type":"templateapi"},{"id":"1016666","ufid":"56427868","name":"\u5199\u7ed9\u751f\u6d3b\u7cfb\u4e00\u5c01\u4fe1","file":"http:\/\/rdfile.oss-cn-hangzhou.aliyuncs.com\/filemanage\/e069b36c568d909f\/templateapi\/16699736736823\/file.zip?nonce=03d31e88a650f26768d3d04ba4fe3ddd","cover":"http:\/\/rdfile.oss-cn-hangzhou.aliyuncs.com\/filemanage\/e069b36c568d909f\/templateapi\/16699736736823\/cover.webp?nonce=03d31e88a650f26768d3d04ba4fe3ddd","updatetime":"1704186001","height":608,"width":1080,"video":"http:\/\/rdfile.oss-cn-hangzhou.aliyuncs.com\/filemanage\/e069b36c568d909f\/templateapi\/16699736736823\/video.mp4?nonce=03d31e88a650f26768d3d04ba4fe3ddd","sort":0,"version":155,"cover2":"","appkey":"init","duration":0,"extra":{},"polyglot":{"en":"Write a letter to the Department of Life"},"category":"0","audit":0,"is_ugc":0,"text_need":3,"picture_need":0,"video_need":5,"type":"templateapi"},{"id":"1016665","ufid":"71939716","name":"Nobody \u821e\u8e48","file":"http:\/\/rdfile.oss-cn-hangzhou.aliyuncs.com\/filemanage\/e069b36c568d909f\/templateapi\/16699719784788\/file.zip?nonce=03d31e88a650f26768d3d04ba4fe3ddd","cover":"http:\/\/rdfile.oss-cn-hangzhou.aliyuncs.com\/filemanage\/e069b36c568d909f\/templateapi\/16699719784788\/cover.webp?nonce=03d31e88a650f26768d3d04ba4fe3ddd","updatetime":"1704186001","height":1920,"width":1080,"video":"http:\/\/rdfile.oss-cn-hangzhou.aliyuncs.com\/filemanage\/e069b36c568d909f\/templateapi\/16699719784788\/video.mp4?nonce=03d31e88a650f26768d3d04ba4fe3ddd","sort":0,"version":156,"cover2":"","appkey":"6ecb39f1c12f1a35","duration":0,"extra":{},"polyglot":{"en":"Nobody Dance"},"category":"0","audit":0,"is_ugc":0,"text_need":0,"picture_need":0,"video_need":1,"type":"templateapi"},{"id":"1016662","ufid":"98404881","name":"\u70ed\u604b\u51b0\u6dc7\u6dcb \u70ed\u70b9\u97f3\u4e50\u7f8e\u62cd","file":"http:\/\/rdfile.oss-cn-hangzhou.aliyuncs.com\/filemanage\/e069b36c568d909f\/templateapi\/16699692196419\/file.zip?nonce=0b2bd4ff0563e3143b5c5bfc3ef75b3e","cover":"http:\/\/rdfile.oss-cn-hangzhou.aliyuncs.com\/filemanage\/e069b36c568d909f\/templateapi\/16699692196419\/cover.webp?nonce=0b2bd4ff0563e3143b5c5bfc3ef75b3e","updatetime":"1704186000","height":1920,"width":1080,"video":"http:\/\/rdfile.oss-cn-hangzhou.aliyuncs.com\/filemanage\/e069b36c568d909f\/templateapi\/16699692196419\/video.mp4?nonce=0b2bd4ff0563e3143b5c5bfc3ef75b3e","sort":0,"version":156,"cover2":"","appkey":"init","duration":0,"extra":{},"polyglot":{"en":"Love Ice Cream Hot Music Photos"},"category":"0","audit":0,"is_ugc":0,"text_need":0,"picture_need":0,"video_need":6,"type":"templateapi"},{"id":"1016659","ufid":"93356507","name":"\u5176\u5b9e\u6ca1\u4ec0\u4e48\u611f\u89c9","file":"http:\/\/rdfile.oss-cn-hangzhou.aliyuncs.com\/filemanage\/e069b36c568d909f\/templateapi\/16699631947605\/file.zip?nonce=0b2bd4ff0563e3143b5c5bfc3ef75b3e","cover":"http:\/\/rdfile.oss-cn-hangzhou.aliyuncs.com\/filemanage\/e069b36c568d909f\/templateapi\/16699631947605\/cover.webp?nonce=0b2bd4ff0563e3143b5c5bfc3ef75b3e","updatetime":"1704186000","height":1080,"width":1920,"video":"http:\/\/rdfile.oss-cn-hangzhou.aliyuncs.com\/filemanage\/e069b36c568d909f\/templateapi\/16699631947605\/video.mp4?nonce=0b2bd4ff0563e3143b5c5bfc3ef75b3e","sort":0,"version":156,"cover2":"","appkey":"init","duration":0,"extra":{},"polyglot":{"en":"Actually I feel nothing"},"category":"0","audit":0,"is_ugc":0,"text_need":0,"picture_need":0,"video_need":10,"type":"templateapi"},{"id":"1016658","ufid":"75479055","name":"bangbang\u5361\u70b9\u53d8\u88c5","file":"http:\/\/rdfile.oss-cn-hangzhou.aliyuncs.com\/filemanage\/e069b36c568d909f\/templateapi\/16699522629577\/file.zip?nonce=0b2bd4ff0563e3143b5c5bfc3ef75b3e","cover":"http:\/\/rdfile.oss-cn-hangzhou.aliyuncs.com\/filemanage\/e069b36c568d909f\/templateapi\/16699522629577\/cover.webp?nonce=0b2bd4ff0563e3143b5c5bfc3ef75b3e","updatetime":"1704186000","height":1920,"width":1080,"video":"http:\/\/rdfile.oss-cn-hangzhou.aliyuncs.com\/filemanage\/e069b36c568d909f\/templateapi\/16699522629577\/video.mp4?nonce=0b2bd4ff0563e3143b5c5bfc3ef75b3e","sort":0,"version":156,"cover2":"","appkey":"6ecb39f1c12f1a35","duration":0,"extra":{},"polyglot":{"en":"Bangbang right time crossdressing"},"category":"0","audit":0,"is_ugc":0,"text_need":0,"picture_need":0,"video_need":3,"type":"templateapi"}]}}