{"code":0,"msg":"success","data":{"total":173,"per_page":10,"current_page":7,"last_page":18,"data":[{"id":"1016316","ufid":"57477286","name":"\u9f20\u6807\u7ffb\u9875\u6548\u679c","file":"http:\/\/rdfile.oss-cn-hangzhou.aliyuncs.com\/filemanage\/e069b36c568d909f\/templateapi\/16668677228530\/file.zip?nonce=f38793210fd58869df209c5368cc0e0e","cover":"http:\/\/rdfile.oss-cn-hangzhou.aliyuncs.com\/filemanage\/e069b36c568d909f\/templateapi\/16668677228530\/cover.webp?nonce=f38793210fd58869df209c5368cc0e0e","updatetime":"1704185967","height":1059,"width":1059,"video":"http:\/\/rdfile.oss-cn-hangzhou.aliyuncs.com\/filemanage\/e069b36c568d909f\/templateapi\/16668677228530\/video.mp4?nonce=f38793210fd58869df209c5368cc0e0e","sort":0,"version":153,"cover2":"","appkey":"init","duration":0,"extra":{},"polyglot":{"en":"Mouse page turning effect"},"category":"0","audit":0,"is_ugc":0,"text_need":2,"picture_need":7,"video_need":0,"type":"templateapi"},{"id":"1016173","ufid":"65177840","name":"\u6d77\u8fb9\u5c11\u5973","file":"http:\/\/rdfile.oss-cn-hangzhou.aliyuncs.com\/filemanage\/e069b36c568d909f\/templateapi\/16656330611363\/file.zip?nonce=72858b905312ee8c9cc3e273470c4371","cover":"http:\/\/rdfile.oss-cn-hangzhou.aliyuncs.com\/filemanage\/e069b36c568d909f\/templateapi\/16656330611363\/cover.webp?nonce=72858b905312ee8c9cc3e273470c4371","updatetime":"1704185949","height":1280,"width":720,"video":"http:\/\/rdfile.oss-cn-hangzhou.aliyuncs.com\/filemanage\/e069b36c568d909f\/templateapi\/16656330611363\/video.mp4?nonce=72858b905312ee8c9cc3e273470c4371","sort":0,"version":153,"cover2":"","appkey":"init","duration":0,"extra":{},"polyglot":{"en":"Seaside girl"},"category":"0","audit":0,"is_ugc":0,"text_need":0,"picture_need":0,"video_need":4,"type":"templateapi"},{"id":"1016098","ufid":"18412138","name":"\u821e\u8e48\u53d8\u88c5","file":"http:\/\/rdfile.oss-cn-hangzhou.aliyuncs.com\/filemanage\/e069b36c568d909f\/templateapi\/16652207895771\/file.zip?nonce=30549805d637b2a65eac621b3119e0ec","cover":"http:\/\/rdfile.oss-cn-hangzhou.aliyuncs.com\/filemanage\/e069b36c568d909f\/templateapi\/16652207895771\/cover.webp?nonce=30549805d637b2a65eac621b3119e0ec","updatetime":"1704185943","height":1920,"width":1080,"video":"http:\/\/rdfile.oss-cn-hangzhou.aliyuncs.com\/filemanage\/e069b36c568d909f\/templateapi\/16652207895771\/video.mp4?nonce=30549805d637b2a65eac621b3119e0ec","sort":0,"version":153,"cover2":"","appkey":"init","duration":0,"extra":{},"polyglot":{"en":"Dance drag"},"category":"0","audit":0,"is_ugc":0,"text_need":0,"picture_need":0,"video_need":2,"type":"templateapi"},{"id":"1015580","ufid":"76598112","name":"\u97f3\u4e50\u5361\u70b9\u73a9\u6cd5","file":"http:\/\/rdfile.oss-cn-hangzhou.aliyuncs.com\/filemanage\/e069b36c568d909f\/templateapi\/16577912856204\/file.zip?nonce=f9fd7fed3baf47c9a258a0d7a6d02628","cover":"http:\/\/rdfile.oss-cn-hangzhou.aliyuncs.com\/filemanage\/e069b36c568d909f\/templateapi\/16577912856204\/cover.webp?nonce=f9fd7fed3baf47c9a258a0d7a6d02628","updatetime":"1704185885","height":720,"width":720,"video":"http:\/\/rdfile.oss-cn-hangzhou.aliyuncs.com\/filemanage\/e069b36c568d909f\/templateapi\/16577912856204\/video.mp4?nonce=f9fd7fed3baf47c9a258a0d7a6d02628","sort":0,"version":153,"cover2":"","appkey":"init","duration":0,"extra":{},"polyglot":{"en":"Right time Music gameplay"},"category":"0","audit":0,"is_ugc":0,"text_need":0,"picture_need":0,"video_need":25,"type":"templateapi"},{"id":"1016005","ufid":"54700302","name":"\u79cb\u65e5\u9886\u609f","file":"http:\/\/rdfile.oss-cn-hangzhou.aliyuncs.com\/filemanage\/e069b36c568d909f\/templateapi\/16630604933906\/file.zip?nonce=dc78b83cfe948a457221adb80db0c2e1","cover":"http:\/\/rdfile.oss-cn-hangzhou.aliyuncs.com\/filemanage\/e069b36c568d909f\/templateapi\/16630604933906\/cover.webp?nonce=dc78b83cfe948a457221adb80db0c2e1","updatetime":"1704185930","height":1275,"width":718,"video":"http:\/\/rdfile.oss-cn-hangzhou.aliyuncs.com\/filemanage\/e069b36c568d909f\/templateapi\/16630604933906\/video.mp4?nonce=dc78b83cfe948a457221adb80db0c2e1","sort":0,"version":153,"cover2":"","appkey":"init","duration":0,"extra":{},"polyglot":{"en":"Autumn realization"},"category":"0","audit":0,"is_ugc":0,"text_need":1,"picture_need":1,"video_need":0,"type":"templateapi"},{"id":"1015911","ufid":"15064434","name":"\u6587\u5b57\u70df\u96fe\u663e\u73b0\u6548\u679c","file":"http:\/\/rdfile.oss-cn-hangzhou.aliyuncs.com\/filemanage\/e069b36c568d909f\/templateapi\/16608983007130\/file.zip?nonce=5a945aeb8480fd6bcbb5f6040f289d45","cover":"http:\/\/rdfile.oss-cn-hangzhou.aliyuncs.com\/filemanage\/e069b36c568d909f\/templateapi\/16608983007130\/cover.webp?nonce=5a945aeb8480fd6bcbb5f6040f289d45","updatetime":"1704185917","height":1060,"width":596,"video":"http:\/\/rdfile.oss-cn-hangzhou.aliyuncs.com\/filemanage\/e069b36c568d909f\/templateapi\/16608983007130\/video.mp4?nonce=5a945aeb8480fd6bcbb5f6040f289d45","sort":0,"version":153,"cover2":"","appkey":"init","duration":0,"extra":{},"polyglot":{"en":"Text smoke effect"},"category":"0","audit":0,"is_ugc":0,"text_need":1,"picture_need":0,"video_need":1,"type":"templateapi"},{"id":"1012986","ufid":"28157183","name":"\u5723\u8bde\u8282\u5feb\u4e50","file":"http:\/\/rdfile.oss-cn-hangzhou.aliyuncs.com\/filemanage\/e069b36c568d909f\/templateapi\/16399934343291\/file.zip?nonce=7671257744611edb367223815d97d86d","cover":"http:\/\/rdfile.oss-cn-hangzhou.aliyuncs.com\/filemanage\/e069b36c568d909f\/templateapi\/16399934343291\/cover.png?nonce=7671257744611edb367223815d97d86d&x-oss-process=style\/templateapi","updatetime":"1704185736","height":1231,"width":693,"video":"http:\/\/rdfile.oss-cn-hangzhou.aliyuncs.com\/filemanage\/e069b36c568d909f\/templateapi\/16399934343291\/video.mp4?nonce=7671257744611edb367223815d97d86d","sort":100,"version":150,"cover2":"","appkey":"init","duration":0,"extra":{},"polyglot":{"en":"Merry Christmas"},"category":"0","audit":0,"is_ugc":0,"text_need":0,"picture_need":2,"video_need":0,"type":"templateapi"},{"id":"1020807","ufid":"9f2b8b8f-5871-46ec-ab39-3302e75024d2","name":"\u6625\u9192 \u4e07\u7269\u751f","file":"http:\/\/rdfile.oss-cn-hangzhou.aliyuncs.com\/filemanage\/6ecb39f1c12f1a35\/templateapi\/9f2b8b8f-5871-46ec-ab39-3302e75024d2\/file.zip?nonce=51e7fa621ed7eed3a7083ce3548677cb","cover":"http:\/\/rdfile.oss-cn-hangzhou.aliyuncs.com\/filemanage\/6ecb39f1c12f1a35\/templateapi\/9f2b8b8f-5871-46ec-ab39-3302e75024d2\/cover.webp?nonce=51e7fa621ed7eed3a7083ce3548677cb","updatetime":"1704186643","height":1060,"width":596,"video":"http:\/\/rdfile.oss-cn-hangzhou.aliyuncs.com\/filemanage\/6ecb39f1c12f1a35\/templateapi\/9f2b8b8f-5871-46ec-ab39-3302e75024d2\/video.mp4?nonce=51e7fa621ed7eed3a7083ce3548677cb","sort":0,"version":162,"cover2":"","appkey":"init","duration":0,"extra":{},"polyglot":{"en":"Spring wakes up and everything comes alive"},"category":"0","audit":0,"is_ugc":0,"text_need":0,"picture_need":0,"video_need":4,"type":"templateapi"},{"id":"1016164","ufid":"19503696","name":"\u7f8e\u62cd\u97f3\u4e50\u7c7b\u6a21\u7248","file":"http:\/\/rdfile.oss-cn-hangzhou.aliyuncs.com\/filemanage\/e069b36c568d909f\/templateapi\/16655590213407\/file.zip?nonce=72858b905312ee8c9cc3e273470c4371","cover":"http:\/\/rdfile.oss-cn-hangzhou.aliyuncs.com\/filemanage\/e069b36c568d909f\/templateapi\/16655590213407\/cover.webp?nonce=72858b905312ee8c9cc3e273470c4371","updatetime":"1704185949","height":1280,"width":720,"video":"http:\/\/rdfile.oss-cn-hangzhou.aliyuncs.com\/filemanage\/e069b36c568d909f\/templateapi\/16655590213407\/video.mp4?nonce=72858b905312ee8c9cc3e273470c4371","sort":0,"version":153,"cover2":"","appkey":"init","duration":0,"extra":{},"polyglot":{"en":"Meipai music template"},"category":"0","audit":0,"is_ugc":0,"text_need":0,"picture_need":0,"video_need":4,"type":"templateapi"},{"id":"1016161","ufid":"64427752","name":"\u7f8e\u62cd\u968f\u526a","file":"http:\/\/rdfile.oss-cn-hangzhou.aliyuncs.com\/filemanage\/e069b36c568d909f\/templateapi\/16655457576387\/file.zip?nonce=a83936797a6ff246061570c1c2cb4efc","cover":"http:\/\/rdfile.oss-cn-hangzhou.aliyuncs.com\/filemanage\/e069b36c568d909f\/templateapi\/16655457576387\/cover.webp?nonce=a83936797a6ff246061570c1c2cb4efc","updatetime":"1704185948","height":1280,"width":720,"video":"http:\/\/rdfile.oss-cn-hangzhou.aliyuncs.com\/filemanage\/e069b36c568d909f\/templateapi\/16655457576387\/video.mp4?nonce=a83936797a6ff246061570c1c2cb4efc","sort":0,"version":153,"cover2":"","appkey":"init","duration":0,"extra":{},"polyglot":{"en":"Beautiful photos and cuts"},"category":"0","audit":0,"is_ugc":0,"text_need":0,"picture_need":0,"video_need":4,"type":"templateapi"}]}}