{"code":0,"msg":"success","data":{"total":173,"per_page":10,"current_page":13,"last_page":18,"data":[{"id":"1012901","ufid":"86547442","name":"\u8fc8\u963f\u5bc6\u7684\u9633\u5149","file":"http:\/\/rdfile.oss-cn-hangzhou.aliyuncs.com\/filemanage\/e069b36c568d909f\/templateapi\/16378350655702\/file.zip?nonce=6cd08a3959d3dd30c60ff0972a525ed8","cover":"http:\/\/rdfile.oss-cn-hangzhou.aliyuncs.com\/filemanage\/e069b36c568d909f\/templateapi\/16378350655702\/cover.png?nonce=6cd08a3959d3dd30c60ff0972a525ed8&x-oss-process=style\/templateapi","updatetime":"1684913885","height":1080,"width":1918,"video":"http:\/\/rdfile.oss-cn-hangzhou.aliyuncs.com\/filemanage\/e069b36c568d909f\/templateapi\/16378350655702\/video.mp4?nonce=6cd08a3959d3dd30c60ff0972a525ed8","sort":100,"version":148,"cover2":"","appkey":"init","duration":0,"extra":{},"polyglot":[],"category":"0","audit":0,"is_ugc":0,"text_need":0,"picture_need":0,"video_need":4,"type":"templateapi"},{"id":"1012351","ufid":"86775041","name":"beautiful","file":"http:\/\/rdfile.oss-cn-hangzhou.aliyuncs.com\/filemanage\/e069b36c568d909f\/templateapi\/16305742002174\/file.zip?nonce=8701151211821b043c6af9b62fa5fc72","cover":"http:\/\/rdfile.oss-cn-hangzhou.aliyuncs.com\/filemanage\/e069b36c568d909f\/templateapi\/16305742002174\/cover.png?nonce=8701151211821b043c6af9b62fa5fc72&x-oss-process=style\/templateapi","updatetime":"1684913933","height":1080,"width":606,"video":"http:\/\/rdfile.oss-cn-hangzhou.aliyuncs.com\/filemanage\/e069b36c568d909f\/templateapi\/16305742002174\/video.mp4?nonce=8701151211821b043c6af9b62fa5fc72","sort":100,"version":147,"cover2":"","appkey":"init","duration":0,"extra":{},"polyglot":[],"category":"0","audit":0,"is_ugc":0,"text_need":0,"picture_need":1,"video_need":0,"type":"templateapi"},{"id":"1021215","ufid":"097c6dac-919c-4185-abd9-be6210324f4e","name":"\u611f\u6069\u6bcd\u4eb2 \u4e3a\u7231\u653e\u4ef7","file":"http:\/\/rdfile.oss-cn-hangzhou.aliyuncs.com\/filemanage\/6ecb39f1c12f1a35\/templateapi\/097c6dac-919c-4185-abd9-be6210324f4e\/file.zip?nonce=a37dc82ac1e7e9110a2faf04cc2a41ab","cover":"http:\/\/rdfile.oss-cn-hangzhou.aliyuncs.com\/filemanage\/6ecb39f1c12f1a35\/templateapi\/097c6dac-919c-4185-abd9-be6210324f4e\/cover.webp?nonce=a37dc82ac1e7e9110a2faf04cc2a41ab","updatetime":"1699610222","height":1060,"width":597,"video":"http:\/\/rdfile.oss-cn-hangzhou.aliyuncs.com\/filemanage\/6ecb39f1c12f1a35\/templateapi\/097c6dac-919c-4185-abd9-be6210324f4e\/video.mp4?nonce=a37dc82ac1e7e9110a2faf04cc2a41ab","sort":0,"version":162,"cover2":"","appkey":"6ecb39f1c12f1a35","duration":0,"extra":{},"polyglot":[],"category":"0","audit":0,"is_ugc":0,"text_need":13,"picture_need":7,"video_need":0,"type":"templateapi"},{"id":"1012333","ufid":"41618277","name":"\u5f53\u4f60\u770b\u7740\u6211","file":"http:\/\/rdfile.oss-cn-hangzhou.aliyuncs.com\/filemanage\/e069b36c568d909f\/templateapi\/16304851117783\/file.zip?nonce=6115d929970e9219283df7f1b264ab20","cover":"http:\/\/rdfile.oss-cn-hangzhou.aliyuncs.com\/filemanage\/e069b36c568d909f\/templateapi\/16304851117783\/cover.png?nonce=6115d929970e9219283df7f1b264ab20&x-oss-process=style\/templateapi","updatetime":"1684914028","height":1080,"width":607,"video":"http:\/\/rdfile.oss-cn-hangzhou.aliyuncs.com\/filemanage\/e069b36c568d909f\/templateapi\/16304851117783\/video.mp4?nonce=6115d929970e9219283df7f1b264ab20","sort":100,"version":147,"cover2":"","appkey":"init","duration":0,"extra":{},"polyglot":[],"category":"0","audit":0,"is_ugc":0,"text_need":0,"picture_need":0,"video_need":3,"type":"templateapi"},{"id":"1012304","ufid":"49419426","name":"\u5c71\u6942\u68a8","file":"http:\/\/rdfile.oss-cn-hangzhou.aliyuncs.com\/filemanage\/e069b36c568d909f\/templateapi\/16304689748722\/file.zip?nonce=a4cfc8bad59af7848e5084a500b03b9a","cover":"http:\/\/rdfile.oss-cn-hangzhou.aliyuncs.com\/filemanage\/e069b36c568d909f\/templateapi\/16304689748722\/cover.png?nonce=a4cfc8bad59af7848e5084a500b03b9a&x-oss-process=style\/templateapi","updatetime":"1684914423","height":1080,"width":607,"video":"http:\/\/rdfile.oss-cn-hangzhou.aliyuncs.com\/filemanage\/e069b36c568d909f\/templateapi\/16304689748722\/video.mp4?nonce=a4cfc8bad59af7848e5084a500b03b9a","sort":100,"version":147,"cover2":"","appkey":"init","duration":0,"extra":{},"polyglot":[],"category":"0","audit":0,"is_ugc":0,"text_need":0,"picture_need":0,"video_need":8,"type":"templateapi"},{"id":"1021208","ufid":"bfd5d2e3-5955-488a-8f65-cbc463532d48","name":"\u6bcd\u4eb2\u8282\u7684\u4e00\u5c01\u4fe1","file":"http:\/\/rdfile.oss-cn-hangzhou.aliyuncs.com\/filemanage\/6ecb39f1c12f1a35\/templateapi\/bfd5d2e3-5955-488a-8f65-cbc463532d48\/file.zip?nonce=43ca7cb4ac0622aa097a04678a5137ae","cover":"http:\/\/rdfile.oss-cn-hangzhou.aliyuncs.com\/filemanage\/6ecb39f1c12f1a35\/templateapi\/bfd5d2e3-5955-488a-8f65-cbc463532d48\/cover.webp?nonce=43ca7cb4ac0622aa097a04678a5137ae","updatetime":"1694422948","height":607,"width":1080,"video":"http:\/\/rdfile.oss-cn-hangzhou.aliyuncs.com\/filemanage\/6ecb39f1c12f1a35\/templateapi\/bfd5d2e3-5955-488a-8f65-cbc463532d48\/video.mp4?nonce=43ca7cb4ac0622aa097a04678a5137ae","sort":0,"version":162,"cover2":"","appkey":"6ecb39f1c12f1a35","duration":0,"extra":{},"polyglot":[],"category":"0","audit":0,"is_ugc":0,"text_need":4,"picture_need":0,"video_need":0,"type":"templateapi"},{"id":"1020864","ufid":"89634ecc-79c1-4f25-ba1d-80f7e057b84d","name":"\u7acb\u590f","file":"http:\/\/rdfile.oss-cn-hangzhou.aliyuncs.com\/filemanage\/6ecb39f1c12f1a35\/templateapi\/89634ecc-79c1-4f25-ba1d-80f7e057b84d\/file.zip?nonce=43ca7cb4ac0622aa097a04678a5137ae","cover":"http:\/\/rdfile.oss-cn-hangzhou.aliyuncs.com\/filemanage\/6ecb39f1c12f1a35\/templateapi\/89634ecc-79c1-4f25-ba1d-80f7e057b84d\/cover.webp?nonce=43ca7cb4ac0622aa097a04678a5137ae","updatetime":"1694422948","height":1059,"width":794,"video":"http:\/\/rdfile.oss-cn-hangzhou.aliyuncs.com\/filemanage\/6ecb39f1c12f1a35\/templateapi\/89634ecc-79c1-4f25-ba1d-80f7e057b84d\/video.mp4?nonce=43ca7cb4ac0622aa097a04678a5137ae","sort":0,"version":162,"cover2":"","appkey":"6ecb39f1c12f1a35","duration":0,"extra":{},"polyglot":[],"category":"0","audit":0,"is_ugc":0,"text_need":1,"picture_need":2,"video_need":0,"type":"templateapi"},{"id":"1012297","ufid":"99512395","name":"\u725b\u76ae\u7eb8\u62cd\u7acb\u5f97","file":"http:\/\/rdfile.oss-cn-hangzhou.aliyuncs.com\/filemanage\/e069b36c568d909f\/templateapi\/16303927866844\/file.zip?nonce=aaa4bda1eac6978ab98a56ec155e429f","cover":"http:\/\/rdfile.oss-cn-hangzhou.aliyuncs.com\/filemanage\/e069b36c568d909f\/templateapi\/16303927866844\/cover.png?nonce=aaa4bda1eac6978ab98a56ec155e429f&x-oss-process=style\/templateapi","updatetime":"1684898133","height":720,"width":404,"video":"http:\/\/rdfile.oss-cn-hangzhou.aliyuncs.com\/filemanage\/e069b36c568d909f\/templateapi\/16303927866844\/video.mp4?nonce=aaa4bda1eac6978ab98a56ec155e429f","sort":100,"version":147,"cover2":"","appkey":"init","duration":0,"extra":{},"polyglot":[],"category":"0","audit":0,"is_ugc":0,"text_need":0,"picture_need":0,"video_need":11,"type":"templateapi"},{"id":"1012276","ufid":"36596234","name":"\u5730\u6807","file":"http:\/\/rdfile.oss-cn-hangzhou.aliyuncs.com\/filemanage\/e069b36c568d909f\/templateapi\/16303762983118\/file.zip?nonce=e9840aad76a5376a7cea114a0929150b","cover":"http:\/\/rdfile.oss-cn-hangzhou.aliyuncs.com\/filemanage\/e069b36c568d909f\/templateapi\/16303762983118\/cover.png?nonce=e9840aad76a5376a7cea114a0929150b&x-oss-process=style\/templateapi","updatetime":"1684913234","height":718,"width":1280,"video":"http:\/\/rdfile.oss-cn-hangzhou.aliyuncs.com\/filemanage\/e069b36c568d909f\/templateapi\/16303762983118\/video.mp4?nonce=e9840aad76a5376a7cea114a0929150b","sort":100,"version":147,"cover2":"","appkey":"init","duration":0,"extra":{},"polyglot":[],"category":"0","audit":0,"is_ugc":0,"text_need":0,"picture_need":5,"video_need":9,"type":"templateapi"},{"id":"1020860","ufid":"9b59b615-2960-4f98-8bb3-50f00f8967e8","name":"\u4e94\u56db\u9752\u5e74\u8282","file":"http:\/\/rdfile.oss-cn-hangzhou.aliyuncs.com\/filemanage\/6ecb39f1c12f1a35\/templateapi\/9b59b615-2960-4f98-8bb3-50f00f8967e8\/file.zip?nonce=43ca7cb4ac0622aa097a04678a5137ae","cover":"http:\/\/rdfile.oss-cn-hangzhou.aliyuncs.com\/filemanage\/6ecb39f1c12f1a35\/templateapi\/9b59b615-2960-4f98-8bb3-50f00f8967e8\/cover.webp?nonce=43ca7cb4ac0622aa097a04678a5137ae","updatetime":"1694422948","height":1060,"width":596,"video":"http:\/\/rdfile.oss-cn-hangzhou.aliyuncs.com\/filemanage\/6ecb39f1c12f1a35\/templateapi\/9b59b615-2960-4f98-8bb3-50f00f8967e8\/video.mp4?nonce=43ca7cb4ac0622aa097a04678a5137ae","sort":0,"version":162,"cover2":"","appkey":"6ecb39f1c12f1a35","duration":0,"extra":{},"polyglot":[],"category":"0","audit":0,"is_ugc":0,"text_need":6,"picture_need":0,"video_need":1,"type":"templateapi"}]}}