{"code":0,"msg":"success","data":{"total":636,"per_page":10,"current_page":27,"last_page":64,"data":[{"id":"1015779","ufid":"37189629","name":"\u76f8\u518c\u6ed1\u52a8","file":"http:\/\/rdfile.oss-cn-hangzhou.aliyuncs.com\/filemanage\/e069b36c568d909f\/templateapi\/16596910322866\/file.zip?nonce=d4c6ef239fddf691c259851b5822f4c0","cover":"http:\/\/rdfile.oss-cn-hangzhou.aliyuncs.com\/filemanage\/e069b36c568d909f\/templateapi\/16596910322866\/cover.webp?nonce=d4c6ef239fddf691c259851b5822f4c0","updatetime":"1684898060","height":720,"width":720,"video":"http:\/\/rdfile.oss-cn-hangzhou.aliyuncs.com\/filemanage\/e069b36c568d909f\/templateapi\/16596910322866\/video.mp4?nonce=d4c6ef239fddf691c259851b5822f4c0","sort":0,"version":153,"cover2":"","appkey":"init","duration":0,"extra":{},"polyglot":[],"category":"0","audit":0,"is_ugc":0,"text_need":0,"picture_need":0,"video_need":9,"type":"templateapi"},{"id":"1015727","ufid":"74820887","name":"\u4e5d\u5bab\u683c\u622a\u56fe\u6311\u6218","file":"http:\/\/rdfile.oss-cn-hangzhou.aliyuncs.com\/filemanage\/e069b36c568d909f\/templateapi\/16593422181667\/file.zip?nonce=8532ccd9c280d034d7fd89ec9f95ac23","cover":"http:\/\/rdfile.oss-cn-hangzhou.aliyuncs.com\/filemanage\/e069b36c568d909f\/templateapi\/16593422181667\/cover.webp?nonce=8532ccd9c280d034d7fd89ec9f95ac23","updatetime":"1684912148","height":1060,"width":596,"video":"http:\/\/rdfile.oss-cn-hangzhou.aliyuncs.com\/filemanage\/e069b36c568d909f\/templateapi\/16593422181667\/video.mp4?nonce=8532ccd9c280d034d7fd89ec9f95ac23","sort":0,"version":153,"cover2":"","appkey":"init","duration":0,"extra":{},"polyglot":[],"category":"0","audit":0,"is_ugc":0,"text_need":2,"picture_need":8,"video_need":0,"type":"templateapi"},{"id":"1015601","ufid":"67214681","name":"\u897f\u85cf\u4e00\u65e5\u6e38","file":"http:\/\/rdfile.oss-cn-hangzhou.aliyuncs.com\/filemanage\/e069b36c568d909f\/templateapi\/16587419384591\/file.zip?nonce=7e42ab2487793b64ece738a2deda5f51","cover":"http:\/\/rdfile.oss-cn-hangzhou.aliyuncs.com\/filemanage\/e069b36c568d909f\/templateapi\/16587419384591\/cover.webp?nonce=7e42ab2487793b64ece738a2deda5f51","updatetime":"1684912327","height":1059,"width":849,"video":"http:\/\/rdfile.oss-cn-hangzhou.aliyuncs.com\/filemanage\/e069b36c568d909f\/templateapi\/16587419384591\/video.mp4?nonce=7e42ab2487793b64ece738a2deda5f51","sort":0,"version":153,"cover2":"","appkey":"init","duration":0,"extra":{},"polyglot":[],"category":"0","audit":0,"is_ugc":0,"text_need":0,"picture_need":0,"video_need":5,"type":"templateapi"},{"id":"1015593","ufid":"25006913","name":"\u6211\u5728\u60f3\u4f60\u8def\u724c\u6539\u5b57\u73a9\u6cd5","file":"http:\/\/rdfile.oss-cn-hangzhou.aliyuncs.com\/filemanage\/e069b36c568d909f\/templateapi\/16583110059412\/file.zip?nonce=cfcd208495d565ef66e7dff9f98764da","cover":"http:\/\/rdfile.oss-cn-hangzhou.aliyuncs.com\/filemanage\/e069b36c568d909f\/templateapi\/16583110059412\/cover.webp?nonce=cfcd208495d565ef66e7dff9f98764da","updatetime":"0","height":960,"width":720,"video":"http:\/\/rdfile.oss-cn-hangzhou.aliyuncs.com\/filemanage\/e069b36c568d909f\/templateapi\/16583110059412\/video.mp4?nonce=cfcd208495d565ef66e7dff9f98764da","sort":0,"version":153,"cover2":"","appkey":"init","duration":0,"extra":{},"polyglot":[],"category":"0","audit":0,"is_ugc":0,"text_need":0,"picture_need":0,"video_need":1,"type":"templateapi"},{"id":"1015580","ufid":"76598112","name":"\u97f3\u4e50\u5361\u70b9\u73a9\u6cd5","file":"http:\/\/rdfile.oss-cn-hangzhou.aliyuncs.com\/filemanage\/e069b36c568d909f\/templateapi\/16577912856204\/file.zip?nonce=10d09c36af1d58e403ae58a1dff618bf","cover":"http:\/\/rdfile.oss-cn-hangzhou.aliyuncs.com\/filemanage\/e069b36c568d909f\/templateapi\/16577912856204\/cover.webp?nonce=10d09c36af1d58e403ae58a1dff618bf","updatetime":"1684898161","height":720,"width":720,"video":"http:\/\/rdfile.oss-cn-hangzhou.aliyuncs.com\/filemanage\/e069b36c568d909f\/templateapi\/16577912856204\/video.mp4?nonce=10d09c36af1d58e403ae58a1dff618bf","sort":0,"version":153,"cover2":"","appkey":"init","duration":0,"extra":{},"polyglot":[],"category":"0","audit":0,"is_ugc":0,"text_need":0,"picture_need":0,"video_need":25,"type":"templateapi"},{"id":"1015564","ufid":"89946769","name":"\u6b4c\u8bcd\u64ad\u653e\u5668","file":"http:\/\/rdfile.oss-cn-hangzhou.aliyuncs.com\/filemanage\/e069b36c568d909f\/templateapi\/16576224161917\/file.zip?nonce=1898dcad0d3a797857925420fcace030","cover":"http:\/\/rdfile.oss-cn-hangzhou.aliyuncs.com\/filemanage\/e069b36c568d909f\/templateapi\/16576224161917\/cover.webp?nonce=1898dcad0d3a797857925420fcace030","updatetime":"1684914350","height":1280,"width":720,"video":"http:\/\/rdfile.oss-cn-hangzhou.aliyuncs.com\/filemanage\/e069b36c568d909f\/templateapi\/16576224161917\/video.mp4?nonce=1898dcad0d3a797857925420fcace030","sort":0,"version":153,"cover2":"","appkey":"init","duration":0,"extra":{},"polyglot":[],"category":"0","audit":0,"is_ugc":0,"text_need":0,"picture_need":0,"video_need":2,"type":"templateapi"},{"id":"1015562","ufid":"61732644","name":"\u89c6\u9891\u901a\u8bdd","file":"http:\/\/rdfile.oss-cn-hangzhou.aliyuncs.com\/filemanage\/e069b36c568d909f\/templateapi\/16576147184025\/file.zip?nonce=c804a970b07ef6f0a2def34177448255","cover":"http:\/\/rdfile.oss-cn-hangzhou.aliyuncs.com\/filemanage\/e069b36c568d909f\/templateapi\/16576147184025\/cover.webp?nonce=c804a970b07ef6f0a2def34177448255","updatetime":"1684912192","height":1058,"width":595,"video":"http:\/\/rdfile.oss-cn-hangzhou.aliyuncs.com\/filemanage\/e069b36c568d909f\/templateapi\/16576147184025\/video.mp4?nonce=c804a970b07ef6f0a2def34177448255","sort":0,"version":153,"cover2":"","appkey":"init","duration":0,"extra":{},"polyglot":[],"category":"0","audit":0,"is_ugc":0,"text_need":1,"picture_need":1,"video_need":2,"type":"templateapi"},{"id":"1015556","ufid":"84783979","name":"\u6253\u5370\u673a\u7167\u7247","file":"http:\/\/rdfile.oss-cn-hangzhou.aliyuncs.com\/filemanage\/e069b36c568d909f\/templateapi\/16570897605500\/file.zip?nonce=cfcd208495d565ef66e7dff9f98764da","cover":"http:\/\/rdfile.oss-cn-hangzhou.aliyuncs.com\/filemanage\/e069b36c568d909f\/templateapi\/16570897605500\/cover.webp?nonce=cfcd208495d565ef66e7dff9f98764da","updatetime":"0","height":1059,"width":794,"video":"http:\/\/rdfile.oss-cn-hangzhou.aliyuncs.com\/filemanage\/e069b36c568d909f\/templateapi\/16570897605500\/video.mp4?nonce=cfcd208495d565ef66e7dff9f98764da","sort":0,"version":153,"cover2":"","appkey":"init","duration":0,"extra":{},"polyglot":[],"category":"0","audit":0,"is_ugc":0,"text_need":2,"picture_need":0,"video_need":1,"type":"templateapi"},{"id":"1015552","ufid":"48837193","name":"\u59d3\u6c0f\u80cc\u666f\u56fe","file":"http:\/\/rdfile.oss-cn-hangzhou.aliyuncs.com\/filemanage\/e069b36c568d909f\/templateapi\/16570088463076\/file.zip?nonce=cfcd208495d565ef66e7dff9f98764da","cover":"http:\/\/rdfile.oss-cn-hangzhou.aliyuncs.com\/filemanage\/e069b36c568d909f\/templateapi\/16570088463076\/cover.webp?nonce=cfcd208495d565ef66e7dff9f98764da","updatetime":"0","height":720,"width":960,"video":"http:\/\/rdfile.oss-cn-hangzhou.aliyuncs.com\/filemanage\/e069b36c568d909f\/templateapi\/16570088463076\/video.mp4?nonce=cfcd208495d565ef66e7dff9f98764da","sort":0,"version":153,"cover2":"","appkey":"init","duration":0,"extra":{},"polyglot":[],"category":"0","audit":0,"is_ugc":0,"text_need":0,"picture_need":0,"video_need":1,"type":"templateapi"},{"id":"1015550","ufid":"83194534","name":"\u4e03\u4e00\u5efa\u515a\u8282","file":"http:\/\/rdfile.oss-cn-hangzhou.aliyuncs.com\/filemanage\/e069b36c568d909f\/templateapi\/16566422037146\/file.zip?nonce=cfcd208495d565ef66e7dff9f98764da","cover":"http:\/\/rdfile.oss-cn-hangzhou.aliyuncs.com\/filemanage\/e069b36c568d909f\/templateapi\/16566422037146\/cover.webp?nonce=cfcd208495d565ef66e7dff9f98764da","updatetime":"0","height":1280,"width":720,"video":"http:\/\/rdfile.oss-cn-hangzhou.aliyuncs.com\/filemanage\/e069b36c568d909f\/templateapi\/16566422037146\/video.mp4?nonce=cfcd208495d565ef66e7dff9f98764da","sort":0,"version":153,"cover2":"","appkey":"init","duration":0,"extra":{},"polyglot":[],"category":"0","audit":0,"is_ugc":0,"text_need":0,"picture_need":0,"video_need":1,"type":"templateapi"}]}}