{"code":0,"msg":"success","data":{"total":31,"per_page":20,"current_page":1,"last_page":2,"data":[{"id":"1024144","ufid":"93122570","name":"\u55b5\u55b5\u6559","file":"http:\/\/rdfile.oss-cn-hangzhou.aliyuncs.com\/filemanage\/init\/audio\/93122570.mp3?nonce=007feb8f426317fe38b9350ee2a11c8e","cover":"","updatetime":"1697698215","height":0,"width":0,"video":"","sort":0,"version":157,"cover2":"","appkey":"init","duration":7,"extra":{},"polyglot":[],"category":"14054586,","audit":0,"is_ugc":0,"type":"audio"},{"id":"1024143","ufid":"49037451","name":"\u55b5\u6851 \u4f60\u5728\u5e72\u4ec0\u4e48\u55b5\u6851","file":"http:\/\/rdfile.oss-cn-hangzhou.aliyuncs.com\/filemanage\/init\/audio\/49037451.mp3?nonce=ba0a721b96267957164c34a1dad9470a","cover":"","updatetime":"1697698214","height":0,"width":0,"video":"","sort":0,"version":157,"cover2":"","appkey":"init","duration":13,"extra":{},"polyglot":[],"category":"14054586,","audit":0,"is_ugc":0,"type":"audio"},{"id":"1024142","ufid":"85631605","name":"\u6628\u5929\u5403\u7684\u732b\u7cae","file":"http:\/\/rdfile.oss-cn-hangzhou.aliyuncs.com\/filemanage\/init\/audio\/85631605.mp3?nonce=ba0a721b96267957164c34a1dad9470a","cover":"","updatetime":"1697698214","height":0,"width":0,"video":"","sort":0,"version":157,"cover2":"","appkey":"init","duration":23,"extra":{},"polyglot":[],"category":"14054586,","audit":0,"is_ugc":0,"type":"audio"},{"id":"1024140","ufid":"39107639","name":"\u5c0f\u732a\u5c0f\u732a\u8f6f\u4e4e\u4e4e","file":"http:\/\/rdfile.oss-cn-hangzhou.aliyuncs.com\/filemanage\/init\/audio\/39107639.mp3?nonce=ba0a721b96267957164c34a1dad9470a","cover":"","updatetime":"1697698214","height":0,"width":0,"video":"","sort":0,"version":157,"cover2":"","appkey":"init","duration":8,"extra":{},"polyglot":[],"category":"14054586,","audit":0,"is_ugc":0,"type":"audio"},{"id":"1024139","ufid":"32374402","name":"\u5c0f\u732b\u54aa\u80fd\u7ed9\u4f60\u4ec0\u4e48\u5462","file":"http:\/\/rdfile.oss-cn-hangzhou.aliyuncs.com\/filemanage\/init\/audio\/32374402.mp3?nonce=ba0a721b96267957164c34a1dad9470a","cover":"","updatetime":"1697698214","height":0,"width":0,"video":"","sort":0,"version":157,"cover2":"","appkey":"init","duration":10,"extra":{},"polyglot":[],"category":"14054586,","audit":0,"is_ugc":0,"type":"audio"},{"id":"1024138","ufid":"23434893","name":"\u5c0f\u732b\u62b1\u5934\u5c16\u53eb","file":"http:\/\/rdfile.oss-cn-hangzhou.aliyuncs.com\/filemanage\/init\/audio\/23434893.mp3?nonce=ba0a721b96267957164c34a1dad9470a","cover":"","updatetime":"1697698214","height":0,"width":0,"video":"","sort":0,"version":157,"cover2":"","appkey":"init","duration":4,"extra":{},"polyglot":[],"category":"14054586,","audit":0,"is_ugc":0,"type":"audio"},{"id":"1024137","ufid":"43611145","name":"\u5c0f\u72d7\u80fd\u7ed9\u4f60\u4ec0\u4e48\u5462","file":"http:\/\/rdfile.oss-cn-hangzhou.aliyuncs.com\/filemanage\/init\/audio\/43611145.mp3?nonce=8a898ac06e1ab5be1aff887db94a378e","cover":"","updatetime":"1697698213","height":0,"width":0,"video":"","sort":0,"version":157,"cover2":"","appkey":"init","duration":8,"extra":{},"polyglot":[],"category":"14054586,","audit":0,"is_ugc":0,"type":"audio"},{"id":"1024136","ufid":"96235579","name":"\u5c0f\u72d7\u624d\u4e0d\u662f\u8d2c\u4e49\u8bcd","file":"http:\/\/rdfile.oss-cn-hangzhou.aliyuncs.com\/filemanage\/init\/audio\/96235579.mp3?nonce=8a898ac06e1ab5be1aff887db94a378e","cover":"","updatetime":"1697698213","height":0,"width":0,"video":"","sort":0,"version":157,"cover2":"","appkey":"init","duration":13,"extra":{},"polyglot":[],"category":"14054586,","audit":0,"is_ugc":0,"type":"audio"},{"id":"1024135","ufid":"34521209","name":"\u5438\u5f15\u732b\u732b\u7684\u51e0\u79cd\u58f0\u97f3","file":"http:\/\/rdfile.oss-cn-hangzhou.aliyuncs.com\/filemanage\/init\/audio\/34521209.mp3?nonce=8a898ac06e1ab5be1aff887db94a378e","cover":"","updatetime":"1697698213","height":0,"width":0,"video":"","sort":0,"version":157,"cover2":"","appkey":"init","duration":29,"extra":{},"polyglot":[],"category":"14054586,","audit":0,"is_ugc":0,"type":"audio"},{"id":"1024134","ufid":"59600668","name":"\u5438\u5f15\u72d7\u72d7\u7684\u58f0\u97f3","file":"http:\/\/rdfile.oss-cn-hangzhou.aliyuncs.com\/filemanage\/init\/audio\/59600668.mp3?nonce=8a898ac06e1ab5be1aff887db94a378e","cover":"","updatetime":"1697698213","height":0,"width":0,"video":"","sort":0,"version":157,"cover2":"","appkey":"init","duration":74,"extra":{},"polyglot":[],"category":"14054586,","audit":0,"is_ugc":0,"type":"audio"},{"id":"1024133","ufid":"14005966","name":"\u6211\u5988\u5e73\u65f6\u90fd\u4e0d\u7ed9\u6211\u5403\u7684","file":"http:\/\/rdfile.oss-cn-hangzhou.aliyuncs.com\/filemanage\/init\/audio\/14005966.mp3?nonce=8a898ac06e1ab5be1aff887db94a378e","cover":"","updatetime":"1697698213","height":0,"width":0,"video":"","sort":0,"version":157,"cover2":"","appkey":"init","duration":9,"extra":{},"polyglot":[],"category":"14054586,","audit":0,"is_ugc":0,"type":"audio"},{"id":"1024132","ufid":"92748258","name":"\u6211\u7684\u5c0f\u732b\u592a\u592a\u592a\u592a\u53ef\u7231\u4e86","file":"http:\/\/rdfile.oss-cn-hangzhou.aliyuncs.com\/filemanage\/init\/audio\/92748258.mp3?nonce=d40ab452e048ceb496616fb09bd91c89","cover":"","updatetime":"1697698212","height":0,"width":0,"video":"","sort":0,"version":157,"cover2":"","appkey":"init","duration":6,"extra":{},"polyglot":[],"category":"14054586,","audit":0,"is_ugc":0,"type":"audio"},{"id":"1024131","ufid":"65052946","name":"\u6211\u4e0d\u592a\u61c2\u554a\u522b\u4eba\u5bb6\u7684\u732b\u662f\u600e\u4e48\u7761\u89c9\u7684","file":"http:\/\/rdfile.oss-cn-hangzhou.aliyuncs.com\/filemanage\/init\/audio\/65052946.mp3?nonce=d40ab452e048ceb496616fb09bd91c89","cover":"","updatetime":"1697698212","height":0,"width":0,"video":"","sort":0,"version":157,"cover2":"","appkey":"init","duration":10,"extra":{},"polyglot":[],"category":"14054586,","audit":0,"is_ugc":0,"type":"audio"},{"id":"1024130","ufid":"35369351","name":"\u4e3a\u4ec0\u4e48\u8981\u517b\u72d7","file":"http:\/\/rdfile.oss-cn-hangzhou.aliyuncs.com\/filemanage\/init\/audio\/35369351.mp3?nonce=d40ab452e048ceb496616fb09bd91c89","cover":"","updatetime":"1697698212","height":0,"width":0,"video":"","sort":0,"version":157,"cover2":"","appkey":"init","duration":15,"extra":{},"polyglot":[],"category":"14054586,","audit":0,"is_ugc":0,"type":"audio"},{"id":"1024129","ufid":"14782527","name":"\u505c\u7559\u4e24\u79d2 \u8ba9\u6b63\u4e49\u5c0f\u732b\u8e6c\u8d70\u4f60\u80cc\u540e\u7684\u5c0f\u4eba","file":"http:\/\/rdfile.oss-cn-hangzhou.aliyuncs.com\/filemanage\/init\/audio\/14782527.mp3?nonce=d40ab452e048ceb496616fb09bd91c89","cover":"","updatetime":"1697698212","height":0,"width":0,"video":"","sort":0,"version":157,"cover2":"","appkey":"init","duration":12,"extra":{},"polyglot":[],"category":"14054586,","audit":0,"is_ugc":0,"type":"audio"},{"id":"1024128","ufid":"47544876","name":"\u6b7b\u9b3c \u8fd9\u6b21\u53c8\u60f3\u73a9\u4ec0\u4e48","file":"http:\/\/rdfile.oss-cn-hangzhou.aliyuncs.com\/filemanage\/init\/audio\/47544876.mp3?nonce=332aa87e196587b8007d3fece314bd82","cover":"","updatetime":"1697698211","height":0,"width":0,"video":"","sort":0,"version":157,"cover2":"","appkey":"init","duration":8,"extra":{},"polyglot":[],"category":"14054586,","audit":0,"is_ugc":0,"type":"audio"},{"id":"1024127","ufid":"44076520","name":"\u4e0a\u732b\u5496\u6253\u5de5","file":"http:\/\/rdfile.oss-cn-hangzhou.aliyuncs.com\/filemanage\/init\/audio\/44076520.mp3?nonce=332aa87e196587b8007d3fece314bd82","cover":"","updatetime":"1697698211","height":0,"width":0,"video":"","sort":0,"version":157,"cover2":"","appkey":"init","duration":15,"extra":{},"polyglot":[],"category":"14054586,","audit":0,"is_ugc":0,"type":"audio"},{"id":"1024126","ufid":"49302893","name":"\u5176\u4ed6\u4eba\u63a5\u8fd1\u4f60\u90fd\u662f\u60f3","file":"http:\/\/rdfile.oss-cn-hangzhou.aliyuncs.com\/filemanage\/init\/audio\/49302893.mp3?nonce=332aa87e196587b8007d3fece314bd82","cover":"","updatetime":"1697698211","height":0,"width":0,"video":"","sort":0,"version":157,"cover2":"","appkey":"init","duration":10,"extra":{},"polyglot":[],"category":"14054586,","audit":0,"is_ugc":0,"type":"audio"},{"id":"1024125","ufid":"53844026","name":"\u5e73\u65f6\u5acc\u6211\u6ec2\u81ed","file":"http:\/\/rdfile.oss-cn-hangzhou.aliyuncs.com\/filemanage\/init\/audio\/53844026.mp3?nonce=332aa87e196587b8007d3fece314bd82","cover":"","updatetime":"1697698211","height":0,"width":0,"video":"","sort":0,"version":157,"cover2":"","appkey":"init","duration":9,"extra":{},"polyglot":[],"category":"14054586,","audit":0,"is_ugc":0,"type":"audio"},{"id":"1024124","ufid":"20734322","name":"\u4f60\u8fd9\u4e2a\u4e94\u5b98\u5230\u5e95\u662f\u8c01\u8bbe\u8ba1\u7684","file":"http:\/\/rdfile.oss-cn-hangzhou.aliyuncs.com\/filemanage\/init\/audio\/20734322.mp3?nonce=332aa87e196587b8007d3fece314bd82","cover":"","updatetime":"1697698211","height":0,"width":0,"video":"","sort":0,"version":157,"cover2":"","appkey":"init","duration":9,"extra":{},"polyglot":[],"category":"14054586,","audit":0,"is_ugc":0,"type":"audio"}]}}