{"code":0,"msg":"success","data":{"total":45,"per_page":20,"current_page":1,"last_page":3,"data":[{"id":"1005672","ufid":"73871322","name":"Digital45","file":"http:\/\/rdfile.oss-cn-hangzhou.aliyuncs.com\/filemanage\/init\/audio\/61\/b6e7178340ea7fbccc5f3293c81ecce3\/a1a6006d5065394fbeac483a264e8e0e.mp3?nonce=cfcd208495d565ef66e7dff9f98764da","cover":"","updatetime":"0","height":0,"width":0,"video":"","sort":100,"version":0,"cover2":"","appkey":"init","duration":2,"extra":{},"polyglot":{"en":"Digital45"},"category":"18667485,","audit":0,"is_ugc":0,"type":"audio"},{"id":"1005671","ufid":"23159743","name":"Digital44","file":"http:\/\/rdfile.oss-cn-hangzhou.aliyuncs.com\/filemanage\/init\/audio\/61\/6b48c780544edfa0e2641e04eb2e0a65\/ef5a7a8a69a8b95bb72e214ad98aebb6.mp3?nonce=cfcd208495d565ef66e7dff9f98764da","cover":"","updatetime":"0","height":0,"width":0,"video":"","sort":100,"version":0,"cover2":"","appkey":"init","duration":2,"extra":{},"polyglot":{"en":"Digital44"},"category":"18667485,","audit":0,"is_ugc":0,"type":"audio"},{"id":"1005670","ufid":"88448899","name":"Digital43","file":"http:\/\/rdfile.oss-cn-hangzhou.aliyuncs.com\/filemanage\/init\/audio\/61\/831b89653d452fa293e87241b8654194\/3cabbed8e4bdce7ed9482f0669bf0579.mp3?nonce=cfcd208495d565ef66e7dff9f98764da","cover":"","updatetime":"0","height":0,"width":0,"video":"","sort":100,"version":0,"cover2":"","appkey":"init","duration":2,"extra":{},"polyglot":{"en":"Digital43"},"category":"18667485,","audit":0,"is_ugc":0,"type":"audio"},{"id":"1005669","ufid":"53594797","name":"Digital42","file":"http:\/\/rdfile.oss-cn-hangzhou.aliyuncs.com\/filemanage\/init\/audio\/61\/0d4588b73d943b5d4c7ffab41bd1640e\/a0363b33cfef03492be52c9a1ea75e7e.mp3?nonce=cfcd208495d565ef66e7dff9f98764da","cover":"","updatetime":"0","height":0,"width":0,"video":"","sort":100,"version":0,"cover2":"","appkey":"init","duration":2,"extra":{},"polyglot":{"en":"Digital42"},"category":"18667485,","audit":0,"is_ugc":0,"type":"audio"},{"id":"1005668","ufid":"73705651","name":"Digital41","file":"http:\/\/rdfile.oss-cn-hangzhou.aliyuncs.com\/filemanage\/init\/audio\/61\/226713039d36b34dab0eb680f72fe8b9\/4bb816da2894beb6d58c0224d06005ee.mp3?nonce=cfcd208495d565ef66e7dff9f98764da","cover":"","updatetime":"0","height":0,"width":0,"video":"","sort":100,"version":0,"cover2":"","appkey":"init","duration":1,"extra":{},"polyglot":{"en":"Digital41"},"category":"18667485,","audit":0,"is_ugc":0,"type":"audio"},{"id":"1005667","ufid":"38096931","name":"Digital40","file":"http:\/\/rdfile.oss-cn-hangzhou.aliyuncs.com\/filemanage\/init\/audio\/61\/945fde45c59970e2f1df3579b7a59418\/18bc1c223be076744939988e8e1592ca.mp3?nonce=cfcd208495d565ef66e7dff9f98764da","cover":"","updatetime":"0","height":0,"width":0,"video":"","sort":100,"version":0,"cover2":"","appkey":"init","duration":1,"extra":{},"polyglot":{"en":"Digital40"},"category":"18667485,","audit":0,"is_ugc":0,"type":"audio"},{"id":"1005666","ufid":"87833556","name":"Digital39","file":"http:\/\/rdfile.oss-cn-hangzhou.aliyuncs.com\/filemanage\/init\/audio\/61\/d6d6232ba7e6d96be84454ab609be6d9\/38489f2c9fd9ab5c729ae529cf2635e0.mp3?nonce=cfcd208495d565ef66e7dff9f98764da","cover":"","updatetime":"0","height":0,"width":0,"video":"","sort":100,"version":0,"cover2":"","appkey":"init","duration":1,"extra":{},"polyglot":{"en":"Digital39"},"category":"18667485,","audit":0,"is_ugc":0,"type":"audio"},{"id":"1005665","ufid":"41697459","name":"Digital38","file":"http:\/\/rdfile.oss-cn-hangzhou.aliyuncs.com\/filemanage\/init\/audio\/61\/e2b739871ce3b92d826f26889c170bbf\/4324620263c3b9a88a58489175de7ab9.mp3?nonce=cfcd208495d565ef66e7dff9f98764da","cover":"","updatetime":"0","height":0,"width":0,"video":"","sort":100,"version":0,"cover2":"","appkey":"init","duration":1,"extra":{},"polyglot":{"en":"Digital38"},"category":"18667485,","audit":0,"is_ugc":0,"type":"audio"},{"id":"1005664","ufid":"76706202","name":"Digital37","file":"http:\/\/rdfile.oss-cn-hangzhou.aliyuncs.com\/filemanage\/init\/audio\/61\/26e1fa3163784fc1e67b9cd75296b0c7\/f363000f32bd5efb2c650dd923ae7836.mp3?nonce=cfcd208495d565ef66e7dff9f98764da","cover":"","updatetime":"0","height":0,"width":0,"video":"","sort":100,"version":0,"cover2":"","appkey":"init","duration":1,"extra":{},"polyglot":{"en":"Digital37"},"category":"18667485,","audit":0,"is_ugc":0,"type":"audio"},{"id":"1005663","ufid":"19473549","name":"Digital36","file":"http:\/\/rdfile.oss-cn-hangzhou.aliyuncs.com\/filemanage\/init\/audio\/61\/63c875d4ae899c9157d4a1b2336178ea\/f967a094ff0ad70dceb42b8b026155a3.mp3?nonce=cfcd208495d565ef66e7dff9f98764da","cover":"","updatetime":"0","height":0,"width":0,"video":"","sort":100,"version":0,"cover2":"","appkey":"init","duration":1,"extra":{},"polyglot":{"en":"Digital36"},"category":"18667485,","audit":0,"is_ugc":0,"type":"audio"},{"id":"1005662","ufid":"97121103","name":"Digital35","file":"http:\/\/rdfile.oss-cn-hangzhou.aliyuncs.com\/filemanage\/init\/audio\/61\/fc18c2812f16191c01a23338d968d50b\/a8d0565ec4c0ca4be77bbec6f12ea906.mp3?nonce=cfcd208495d565ef66e7dff9f98764da","cover":"","updatetime":"0","height":0,"width":0,"video":"","sort":100,"version":0,"cover2":"","appkey":"init","duration":1,"extra":{},"polyglot":{"en":"Digital35"},"category":"18667485,","audit":0,"is_ugc":0,"type":"audio"},{"id":"1005661","ufid":"43367828","name":"Digital34","file":"http:\/\/rdfile.oss-cn-hangzhou.aliyuncs.com\/filemanage\/init\/audio\/61\/103ce5963fd4fd26d2be68d8d0762797\/ef63cf9d4303d296179efe38a8c6bb8e.mp3?nonce=cfcd208495d565ef66e7dff9f98764da","cover":"","updatetime":"0","height":0,"width":0,"video":"","sort":100,"version":0,"cover2":"","appkey":"init","duration":1,"extra":{},"polyglot":{"en":"Digital34"},"category":"18667485,","audit":0,"is_ugc":0,"type":"audio"},{"id":"1005660","ufid":"57887816","name":"Digital33","file":"http:\/\/rdfile.oss-cn-hangzhou.aliyuncs.com\/filemanage\/init\/audio\/61\/693164068a1bac6fcbf0d14926c58ae3\/463b4e922cf720e7897e83e2763d8b58.mp3?nonce=cfcd208495d565ef66e7dff9f98764da","cover":"","updatetime":"0","height":0,"width":0,"video":"","sort":100,"version":0,"cover2":"","appkey":"init","duration":1,"extra":{},"polyglot":{"en":"Digital33"},"category":"18667485,","audit":0,"is_ugc":0,"type":"audio"},{"id":"1005659","ufid":"43261458","name":"Digital32","file":"http:\/\/rdfile.oss-cn-hangzhou.aliyuncs.com\/filemanage\/init\/audio\/61\/39c40807b511b3434e92b4b4904ce06c\/231ecc44d9fb56bf21355c00fadd6eaa.mp3?nonce=cfcd208495d565ef66e7dff9f98764da","cover":"","updatetime":"0","height":0,"width":0,"video":"","sort":100,"version":0,"cover2":"","appkey":"init","duration":1,"extra":{},"polyglot":{"en":"Digital32"},"category":"18667485,","audit":0,"is_ugc":0,"type":"audio"},{"id":"1005658","ufid":"47801579","name":"Digital31","file":"http:\/\/rdfile.oss-cn-hangzhou.aliyuncs.com\/filemanage\/init\/audio\/61\/2ad621840318dfab93694d2d1e35123e\/05b1e6ea4b657f8ef536f44954f13797.mp3?nonce=cfcd208495d565ef66e7dff9f98764da","cover":"","updatetime":"0","height":0,"width":0,"video":"","sort":100,"version":0,"cover2":"","appkey":"init","duration":1,"extra":{},"polyglot":{"en":"Digital31"},"category":"18667485,","audit":0,"is_ugc":0,"type":"audio"},{"id":"1005657","ufid":"90061658","name":"Digital30","file":"http:\/\/rdfile.oss-cn-hangzhou.aliyuncs.com\/filemanage\/init\/audio\/61\/afede2924beeb046f9c368384d5dbfd6\/213172f43e4c75f024e502e585f100cd.mp3?nonce=cfcd208495d565ef66e7dff9f98764da","cover":"","updatetime":"0","height":0,"width":0,"video":"","sort":100,"version":0,"cover2":"","appkey":"init","duration":2,"extra":{},"polyglot":{"en":"Digital30"},"category":"18667485,","audit":0,"is_ugc":0,"type":"audio"},{"id":"1005656","ufid":"18988487","name":"Digital29","file":"http:\/\/rdfile.oss-cn-hangzhou.aliyuncs.com\/filemanage\/init\/audio\/61\/cb4c007dd6a25610e8ff7b7fed9ec0e8\/bdb391ed076e554075c1ce9a84d99e6f.mp3?nonce=cfcd208495d565ef66e7dff9f98764da","cover":"","updatetime":"0","height":0,"width":0,"video":"","sort":100,"version":0,"cover2":"","appkey":"init","duration":1,"extra":{},"polyglot":{"en":"Digital29"},"category":"18667485,","audit":0,"is_ugc":0,"type":"audio"},{"id":"1005655","ufid":"45407518","name":"Digital28","file":"http:\/\/rdfile.oss-cn-hangzhou.aliyuncs.com\/filemanage\/init\/audio\/61\/297eef4d2dfc1d867614f473149e81ab\/004b6a3719ce10277bb5c7c3de874e47.mp3?nonce=cfcd208495d565ef66e7dff9f98764da","cover":"","updatetime":"0","height":0,"width":0,"video":"","sort":100,"version":0,"cover2":"","appkey":"init","duration":1,"extra":{},"polyglot":{"en":"Digital28"},"category":"18667485,","audit":0,"is_ugc":0,"type":"audio"},{"id":"1005654","ufid":"74264193","name":"Digital27","file":"http:\/\/rdfile.oss-cn-hangzhou.aliyuncs.com\/filemanage\/init\/audio\/61\/b58e059ee14d4bd8699fcb7c7886caf3\/e51a62b995e26bc31a509ef6900f746f.mp3?nonce=cfcd208495d565ef66e7dff9f98764da","cover":"","updatetime":"0","height":0,"width":0,"video":"","sort":100,"version":0,"cover2":"","appkey":"init","duration":1,"extra":{},"polyglot":{"en":"Digital27"},"category":"18667485,","audit":0,"is_ugc":0,"type":"audio"},{"id":"1005653","ufid":"28418427","name":"Digital26","file":"http:\/\/rdfile.oss-cn-hangzhou.aliyuncs.com\/filemanage\/init\/audio\/61\/f6a65fc0b2dede6ac57166102875027e\/7d31bf090906a147b2e4e537a9aa44b2.mp3?nonce=cfcd208495d565ef66e7dff9f98764da","cover":"","updatetime":"0","height":0,"width":0,"video":"","sort":100,"version":0,"cover2":"","appkey":"init","duration":1,"extra":{},"polyglot":{"en":"Digital26"},"category":"18667485,","audit":0,"is_ugc":0,"type":"audio"}]}}