{"code":0,"msg":"success","data":{"total":37,"per_page":20,"current_page":1,"last_page":2,"data":[{"id":"1005562","ufid":"86955604","name":"Drink Water","file":"http:\/\/rdfile.oss-cn-hangzhou.aliyuncs.com\/filemanage\/init\/audio\/57\/c2893e059fb7a88eaddc0be383f6d5df\/c613f30c202fdbecb71576eb12281ece.mp3?nonce=898fde9dfc7114733fb070a656803f1e","cover":"","updatetime":"1697698040","height":0,"width":0,"video":"","sort":100,"version":0,"cover2":"","appkey":"init","duration":1,"extra":{},"polyglot":{"en":"Drink Water"},"category":"19658557,","audit":0,"is_ugc":0,"type":"audio"},{"id":"1005561","ufid":"66299378","name":"Noise","file":"http:\/\/rdfile.oss-cn-hangzhou.aliyuncs.com\/filemanage\/init\/audio\/57\/6a63a797e13291b34aca08f82f0da96d\/9c164b052551a2d066246fc1e1372bfa.mp3?nonce=5cd1daa1c3d62c96046262783c9bdab6","cover":"","updatetime":"1697698045","height":0,"width":0,"video":"","sort":100,"version":0,"cover2":"","appkey":"init","duration":4,"extra":{},"polyglot":{"en":"Noise"},"category":"19658557,","audit":0,"is_ugc":0,"type":"audio"},{"id":"1005560","ufid":"11742927","name":"Telephone3","file":"http:\/\/rdfile.oss-cn-hangzhou.aliyuncs.com\/filemanage\/init\/audio\/57\/74c6a44826c17edbbe882a74f410db43\/3fd395faf2ef854b06e720910bcb4b27.mp3?nonce=64917309dfa683b97b03d47d7437058e","cover":"","updatetime":"1697698039","height":0,"width":0,"video":"","sort":100,"version":0,"cover2":"","appkey":"init","duration":1,"extra":{},"polyglot":{"en":"Telephone3"},"category":"19658557,","audit":0,"is_ugc":0,"type":"audio"},{"id":"1005559","ufid":"10257194","name":"Telephone2","file":"http:\/\/rdfile.oss-cn-hangzhou.aliyuncs.com\/filemanage\/init\/audio\/57\/ca14a3da4bd1852f3e07ddf5b22918b4\/63612951bfbcc7052b83d5df925b9e4e.mp3?nonce=64917309dfa683b97b03d47d7437058e","cover":"","updatetime":"1697698039","height":0,"width":0,"video":"","sort":100,"version":0,"cover2":"","appkey":"init","duration":1,"extra":{},"polyglot":{"en":"Telephone2"},"category":"19658557,","audit":0,"is_ugc":0,"type":"audio"},{"id":"1005558","ufid":"14335152","name":"Telephone1","file":"http:\/\/rdfile.oss-cn-hangzhou.aliyuncs.com\/filemanage\/init\/audio\/57\/802e4b21f1eeaf4b14c0c11916d02a13\/63d7c64362b06a069ca0be9d71f7cd5d.mp3?nonce=64917309dfa683b97b03d47d7437058e","cover":"","updatetime":"1697698039","height":0,"width":0,"video":"","sort":100,"version":0,"cover2":"","appkey":"init","duration":1,"extra":{},"polyglot":{"en":"Telephone1"},"category":"19658557,","audit":0,"is_ugc":0,"type":"audio"},{"id":"1005557","ufid":"27043203","name":"Walk2","file":"http:\/\/rdfile.oss-cn-hangzhou.aliyuncs.com\/filemanage\/init\/audio\/57\/c8f3d4277451faca5682d62a250dc637\/c215044289d2e05dc6b5d8c2194c9f4d.mp3?nonce=76441b7b6a915a63cefed24928d6e30c","cover":"","updatetime":"1697698037","height":0,"width":0,"video":"","sort":100,"version":0,"cover2":"","appkey":"init","duration":1,"extra":{},"polyglot":{"en":"Walk2"},"category":"19658557,","audit":0,"is_ugc":0,"type":"audio"},{"id":"1005556","ufid":"17419377","name":"Walk1","file":"http:\/\/rdfile.oss-cn-hangzhou.aliyuncs.com\/filemanage\/init\/audio\/57\/5d367df81bba55118dbd74385e0a9406\/964a74db4dd42ca38312e4676e8e4ac4.mp3?nonce=76441b7b6a915a63cefed24928d6e30c","cover":"","updatetime":"1697698037","height":0,"width":0,"video":"","sort":100,"version":0,"cover2":"","appkey":"init","duration":1,"extra":{},"polyglot":{"en":"Walk1"},"category":"19658557,","audit":0,"is_ugc":0,"type":"audio"},{"id":"1005555","ufid":"29888398","name":"Water-drop2","file":"http:\/\/rdfile.oss-cn-hangzhou.aliyuncs.com\/filemanage\/init\/audio\/57\/d419fc54dfc3e6b1cc6d39d554dc29c3\/4efadf89d5c76d5a56b0b5813fad9c95.mp3?nonce=a68d08c6afa80a698118a96630c73e03","cover":"","updatetime":"1697698044","height":0,"width":0,"video":"","sort":100,"version":0,"cover2":"","appkey":"init","duration":2,"extra":{},"polyglot":{"en":"Water-drop2"},"category":"19658557,","audit":0,"is_ugc":0,"type":"audio"},{"id":"1005554","ufid":"66182922","name":"Water-drop1","file":"http:\/\/rdfile.oss-cn-hangzhou.aliyuncs.com\/filemanage\/init\/audio\/57\/3e1a35cbec4dfc9eab9e3b4f2c22a136\/905c90f2dc0ef97b10e49a11ce6753e5.mp3?nonce=a68d08c6afa80a698118a96630c73e03","cover":"","updatetime":"1697698044","height":0,"width":0,"video":"","sort":100,"version":0,"cover2":"","appkey":"init","duration":1,"extra":{},"polyglot":{"en":"Water-drop1"},"category":"19658557,","audit":0,"is_ugc":0,"type":"audio"},{"id":"1005553","ufid":"67537725","name":"Door6","file":"http:\/\/rdfile.oss-cn-hangzhou.aliyuncs.com\/filemanage\/init\/audio\/57\/ab2b1cd48aca79b957050ad17a286416\/c58570e4f4553f871cc93d8cc588bb5e.mp3?nonce=0bf392df9290419c3266ab3675509f52","cover":"","updatetime":"1697698042","height":0,"width":0,"video":"","sort":100,"version":0,"cover2":"","appkey":"init","duration":1,"extra":{},"polyglot":{"en":"Door6"},"category":"19658557,","audit":0,"is_ugc":0,"type":"audio"},{"id":"1005552","ufid":"56704833","name":"Door5","file":"http:\/\/rdfile.oss-cn-hangzhou.aliyuncs.com\/filemanage\/init\/audio\/57\/7fae67548b19614fe7f75f7640b580fd\/d4f0e0d6c6f34fb9f333e96cd8c36e9c.mp3?nonce=786f4684b4b57252ef0499c2da5063ca","cover":"","updatetime":"1697698041","height":0,"width":0,"video":"","sort":100,"version":0,"cover2":"","appkey":"init","duration":1,"extra":{},"polyglot":{"en":"Door5"},"category":"19658557,","audit":0,"is_ugc":0,"type":"audio"},{"id":"1005551","ufid":"60179643","name":"Door4","file":"http:\/\/rdfile.oss-cn-hangzhou.aliyuncs.com\/filemanage\/init\/audio\/57\/bd7a936d0c84f20471f3b84f54e85932\/3d4fa87358cc64f2cd3f2bd686efe90c.mp3?nonce=786f4684b4b57252ef0499c2da5063ca","cover":"","updatetime":"1697698041","height":0,"width":0,"video":"","sort":100,"version":0,"cover2":"","appkey":"init","duration":1,"extra":{},"polyglot":{"en":"Door4"},"category":"19658557,","audit":0,"is_ugc":0,"type":"audio"},{"id":"1005550","ufid":"53693883","name":"Door3","file":"http:\/\/rdfile.oss-cn-hangzhou.aliyuncs.com\/filemanage\/init\/audio\/57\/18a48fd14c7787d03563d3bb5b36b5a8\/765a9f8fcf5835c9b5ed61429fa64e7e.mp3?nonce=786f4684b4b57252ef0499c2da5063ca","cover":"","updatetime":"1697698041","height":0,"width":0,"video":"","sort":100,"version":0,"cover2":"","appkey":"init","duration":1,"extra":{},"polyglot":{"en":"Door3"},"category":"19658557,","audit":0,"is_ugc":0,"type":"audio"},{"id":"1005549","ufid":"48437346","name":"Door2","file":"http:\/\/rdfile.oss-cn-hangzhou.aliyuncs.com\/filemanage\/init\/audio\/57\/2d9aab6a975049be9693c4b76dfd8ead\/f76c496ddb9beb49eac82bacd135f06c.mp3?nonce=786f4684b4b57252ef0499c2da5063ca","cover":"","updatetime":"1697698041","height":0,"width":0,"video":"","sort":100,"version":0,"cover2":"","appkey":"init","duration":1,"extra":{},"polyglot":{"en":"Door2"},"category":"19658557,","audit":0,"is_ugc":0,"type":"audio"},{"id":"1005548","ufid":"93362323","name":"Door1","file":"http:\/\/rdfile.oss-cn-hangzhou.aliyuncs.com\/filemanage\/init\/audio\/57\/c69edfd65ca42b2d730820ee270cda2c\/1ba4f79e97f961988f3f4a39aed6a2b8.mp3?nonce=786f4684b4b57252ef0499c2da5063ca","cover":"","updatetime":"1697698041","height":0,"width":0,"video":"","sort":100,"version":0,"cover2":"","appkey":"init","duration":1,"extra":{},"polyglot":{"en":"Door1"},"category":"19658557,","audit":0,"is_ugc":0,"type":"audio"},{"id":"1005547","ufid":"89752193","name":"Page Turning 2","file":"http:\/\/rdfile.oss-cn-hangzhou.aliyuncs.com\/filemanage\/init\/audio\/57\/89d05118cf1800c7c4d786275cc9a7f8\/5a547d95ce9a637a08cafedd9dbb8dfd.mp3?nonce=898fde9dfc7114733fb070a656803f1e","cover":"","updatetime":"1697698040","height":0,"width":0,"video":"","sort":100,"version":0,"cover2":"","appkey":"init","duration":1,"extra":{},"polyglot":{"en":"Page Turning 2"},"category":"19658557,","audit":0,"is_ugc":0,"type":"audio"},{"id":"1005546","ufid":"92036767","name":"Page Turning 1","file":"http:\/\/rdfile.oss-cn-hangzhou.aliyuncs.com\/filemanage\/init\/audio\/57\/304408de0cde3698863c097594cdbf5f\/c9bb8a03d85894119bd1c6307026f3ee.mp3?nonce=898fde9dfc7114733fb070a656803f1e","cover":"","updatetime":"1697698040","height":0,"width":0,"video":"","sort":100,"version":0,"cover2":"","appkey":"init","duration":3,"extra":{},"polyglot":{"en":"Page Turning 1"},"category":"19658557,","audit":0,"is_ugc":0,"type":"audio"},{"id":"1005545","ufid":"29019434","name":"PC2","file":"http:\/\/rdfile.oss-cn-hangzhou.aliyuncs.com\/filemanage\/init\/audio\/57\/c6f083a78dbe53d58101eb8c7676ba3b\/e7b0230dbe1c75491b0350a466a7b5a7.mp3?nonce=6fd4ebf9bf8de63e099a55e5ea6c0764","cover":"","updatetime":"1697698035","height":0,"width":0,"video":"","sort":100,"version":0,"cover2":"","appkey":"init","duration":1,"extra":{},"polyglot":{"en":"PC2"},"category":"19658557,","audit":0,"is_ugc":0,"type":"audio"},{"id":"1005544","ufid":"67606022","name":"PC1","file":"http:\/\/rdfile.oss-cn-hangzhou.aliyuncs.com\/filemanage\/init\/audio\/57\/7831fa3913731d563b2175118ca9604d\/90694bdcd4fc19d4af4349915bd81402.mp3?nonce=6fd4ebf9bf8de63e099a55e5ea6c0764","cover":"","updatetime":"1697698035","height":0,"width":0,"video":"","sort":100,"version":0,"cover2":"","appkey":"init","duration":1,"extra":{},"polyglot":{"en":"PC1"},"category":"19658557,","audit":0,"is_ugc":0,"type":"audio"},{"id":"1005543","ufid":"34487821","name":"Explode6","file":"http:\/\/rdfile.oss-cn-hangzhou.aliyuncs.com\/filemanage\/init\/audio\/57\/877896a15b87fe710a19e2e7c082ad18\/e448a6d22aa89a3cfd7430a2563914f8.mp3?nonce=76441b7b6a915a63cefed24928d6e30c","cover":"","updatetime":"1697698037","height":0,"width":0,"video":"","sort":100,"version":0,"cover2":"","appkey":"init","duration":4,"extra":{},"polyglot":{"en":"Explode6"},"category":"19658557,","audit":0,"is_ugc":0,"type":"audio"}]}}