{"code":0,"msg":"success","data":{"total":23,"per_page":20,"current_page":1,"last_page":2,"data":[{"id":"1024712","ufid":"53731986","name":"\u52a9\u8dd1","file":"http:\/\/rdfile.oss-cn-hangzhou.aliyuncs.com\/filemanage\/init\/audio\/53731986.mp3?nonce=113bc2a573f17024aef7247127b216c9","cover":"","updatetime":"1697698070","height":0,"width":0,"video":"","sort":0,"version":157,"cover2":"","appkey":"init","duration":1,"extra":{},"polyglot":[],"category":"24597384,","audit":0,"is_ugc":0,"type":"audio"},{"id":"1024711","ufid":"11214471","name":"\u732a\u516b\u6212\u6253\u9f3e\u58f0","file":"http:\/\/rdfile.oss-cn-hangzhou.aliyuncs.com\/filemanage\/init\/audio\/11214471.mp3?nonce=113bc2a573f17024aef7247127b216c9","cover":"","updatetime":"1697698070","height":0,"width":0,"video":"","sort":0,"version":157,"cover2":"","appkey":"init","duration":2,"extra":{},"polyglot":[],"category":"24597384,","audit":0,"is_ugc":0,"type":"audio"},{"id":"1024710","ufid":"88554789","name":"\u4e2d\u7bad","file":"http:\/\/rdfile.oss-cn-hangzhou.aliyuncs.com\/filemanage\/init\/audio\/88554789.mp3?nonce=28562b5cef0e860d81baab41b0434bd4","cover":"","updatetime":"1697698069","height":0,"width":0,"video":"","sort":0,"version":157,"cover2":"","appkey":"init","duration":1,"extra":{},"polyglot":[],"category":"24597384,","audit":0,"is_ugc":0,"type":"audio"},{"id":"1024709","ufid":"15863814","name":"\u70b8\u5f39\u6295\u63b7","file":"http:\/\/rdfile.oss-cn-hangzhou.aliyuncs.com\/filemanage\/init\/audio\/15863814.mp3?nonce=28562b5cef0e860d81baab41b0434bd4","cover":"","updatetime":"1697698069","height":0,"width":0,"video":"","sort":0,"version":157,"cover2":"","appkey":"init","duration":4,"extra":{},"polyglot":[],"category":"24597384,","audit":0,"is_ugc":0,"type":"audio"},{"id":"1024708","ufid":"26273217","name":"\u5c0f\u7f8e\u4eba\u4f60\u957f\u7684\u771f\u597d\u770b\u732a\u516b\u6212","file":"http:\/\/rdfile.oss-cn-hangzhou.aliyuncs.com\/filemanage\/init\/audio\/26273217.mp3?nonce=28562b5cef0e860d81baab41b0434bd4","cover":"","updatetime":"1697698069","height":0,"width":0,"video":"","sort":0,"version":157,"cover2":"","appkey":"init","duration":7,"extra":{},"polyglot":[],"category":"24597384,","audit":0,"is_ugc":0,"type":"audio"},{"id":"1024707","ufid":"31118992","name":"\u6a61\u76ae\u9e2d\u5b50","file":"http:\/\/rdfile.oss-cn-hangzhou.aliyuncs.com\/filemanage\/init\/audio\/31118992.mp3?nonce=28562b5cef0e860d81baab41b0434bd4","cover":"","updatetime":"1697698069","height":0,"width":0,"video":"","sort":0,"version":157,"cover2":"","appkey":"init","duration":1,"extra":{},"polyglot":[],"category":"24597384,","audit":0,"is_ugc":0,"type":"audio"},{"id":"1024706","ufid":"65899470","name":"\u6a61\u76ae\u7403","file":"http:\/\/rdfile.oss-cn-hangzhou.aliyuncs.com\/filemanage\/init\/audio\/65899470.mp3?nonce=44cd23b4a177978ec29ec6a6fcf4f223","cover":"","updatetime":"1697698068","height":0,"width":0,"video":"","sort":0,"version":157,"cover2":"","appkey":"init","duration":1,"extra":{},"polyglot":[],"category":"24597384,","audit":0,"is_ugc":0,"type":"audio"},{"id":"1024705","ufid":"50458894","name":"\u9003\u8dd1","file":"http:\/\/rdfile.oss-cn-hangzhou.aliyuncs.com\/filemanage\/init\/audio\/50458894.mp3?nonce=44cd23b4a177978ec29ec6a6fcf4f223","cover":"","updatetime":"1697698068","height":0,"width":0,"video":"","sort":0,"version":157,"cover2":"","appkey":"init","duration":1,"extra":{},"polyglot":[],"category":"24597384,","audit":0,"is_ugc":0,"type":"audio"},{"id":"1024704","ufid":"37210377","name":"\u6c7d\u6c34\u74f6","file":"http:\/\/rdfile.oss-cn-hangzhou.aliyuncs.com\/filemanage\/init\/audio\/37210377.mp3?nonce=44cd23b4a177978ec29ec6a6fcf4f223","cover":"","updatetime":"1697698068","height":0,"width":0,"video":"","sort":0,"version":157,"cover2":"","appkey":"init","duration":1,"extra":{},"polyglot":[],"category":"24597384,","audit":0,"is_ugc":0,"type":"audio"},{"id":"1024703","ufid":"90495332","name":"\u6c14\u6ce1","file":"http:\/\/rdfile.oss-cn-hangzhou.aliyuncs.com\/filemanage\/init\/audio\/90495332.mp3?nonce=44cd23b4a177978ec29ec6a6fcf4f223","cover":"","updatetime":"1697698068","height":0,"width":0,"video":"","sort":0,"version":157,"cover2":"","appkey":"init","duration":1,"extra":{},"polyglot":[],"category":"24597384,","audit":0,"is_ugc":0,"type":"audio"},{"id":"1024702","ufid":"91437000","name":"\u5e73\u5e95\u9505","file":"http:\/\/rdfile.oss-cn-hangzhou.aliyuncs.com\/filemanage\/init\/audio\/91437000.mp3?nonce=d9cc0d2ec4371917bfd2b5be2e42ab1a","cover":"","updatetime":"1697698067","height":0,"width":0,"video":"","sort":0,"version":157,"cover2":"","appkey":"init","duration":1,"extra":{},"polyglot":[],"category":"24597384,","audit":0,"is_ugc":0,"type":"audio"},{"id":"1024701","ufid":"43338614","name":"\u5a18\u5b50\u4f60\u771f\u597d\u770b\u732a\u516b\u6212","file":"http:\/\/rdfile.oss-cn-hangzhou.aliyuncs.com\/filemanage\/init\/audio\/43338614.mp3?nonce=d9cc0d2ec4371917bfd2b5be2e42ab1a","cover":"","updatetime":"1697698067","height":0,"width":0,"video":"","sort":0,"version":157,"cover2":"","appkey":"init","duration":2,"extra":{},"polyglot":[],"category":"24597384,","audit":0,"is_ugc":0,"type":"audio"},{"id":"1024700","ufid":"67540476","name":"\u7075\u611f","file":"http:\/\/rdfile.oss-cn-hangzhou.aliyuncs.com\/filemanage\/init\/audio\/67540476.mp3?nonce=d9cc0d2ec4371917bfd2b5be2e42ab1a","cover":"","updatetime":"1697698067","height":0,"width":0,"video":"","sort":0,"version":157,"cover2":"","appkey":"init","duration":1,"extra":{},"polyglot":[],"category":"24597384,","audit":0,"is_ugc":0,"type":"audio"},{"id":"1024699","ufid":"97166620","name":"\u72c2\u7b11\u4e0d\u6b62","file":"http:\/\/rdfile.oss-cn-hangzhou.aliyuncs.com\/filemanage\/init\/audio\/97166620.mp3?nonce=d9cc0d2ec4371917bfd2b5be2e42ab1a","cover":"","updatetime":"1697698067","height":0,"width":0,"video":"","sort":0,"version":157,"cover2":"","appkey":"init","duration":10,"extra":{},"polyglot":[],"category":"24597384,","audit":0,"is_ugc":0,"type":"audio"},{"id":"1024698","ufid":"56449578","name":"\u811a\u8e22","file":"http:\/\/rdfile.oss-cn-hangzhou.aliyuncs.com\/filemanage\/init\/audio\/56449578.mp3?nonce=d9cc0d2ec4371917bfd2b5be2e42ab1a","cover":"","updatetime":"1697698067","height":0,"width":0,"video":"","sort":0,"version":157,"cover2":"","appkey":"init","duration":1,"extra":{},"polyglot":[],"category":"24597384,","audit":0,"is_ugc":0,"type":"audio"},{"id":"1024697","ufid":"64700361","name":"\u6ed1\u7a3d\u51b7\u573a","file":"http:\/\/rdfile.oss-cn-hangzhou.aliyuncs.com\/filemanage\/init\/audio\/64700361.mp3?nonce=a0e64dcdbcd8e5e22f00dea9d111e4fa","cover":"","updatetime":"1697698066","height":0,"width":0,"video":"","sort":0,"version":157,"cover2":"","appkey":"init","duration":2,"extra":{},"polyglot":[],"category":"24597384,","audit":0,"is_ugc":0,"type":"audio"},{"id":"1024696","ufid":"56154314","name":"\u54c8\u54c8\u5927\u7b11","file":"http:\/\/rdfile.oss-cn-hangzhou.aliyuncs.com\/filemanage\/init\/audio\/56154314.mp3?nonce=a0e64dcdbcd8e5e22f00dea9d111e4fa","cover":"","updatetime":"1697698066","height":0,"width":0,"video":"","sort":0,"version":157,"cover2":"","appkey":"init","duration":7,"extra":{},"polyglot":[],"category":"24597384,","audit":0,"is_ugc":0,"type":"audio"},{"id":"1024695","ufid":"43121747","name":"\u996d\u6765\u4e86\u5403\u996d\u5427\u732a\u516b\u6212","file":"http:\/\/rdfile.oss-cn-hangzhou.aliyuncs.com\/filemanage\/init\/audio\/43121747.mp3?nonce=a0e64dcdbcd8e5e22f00dea9d111e4fa","cover":"","updatetime":"1697698066","height":0,"width":0,"video":"","sort":0,"version":157,"cover2":"","appkey":"init","duration":2,"extra":{},"polyglot":[],"category":"24597384,","audit":0,"is_ugc":0,"type":"audio"},{"id":"1024694","ufid":"59854885","name":"\u5f39\u7c27","file":"http:\/\/rdfile.oss-cn-hangzhou.aliyuncs.com\/filemanage\/init\/audio\/59854885.mp3?nonce=fd2be3b1b3a0c173dbb14fb45c252995","cover":"","updatetime":"1697698065","height":0,"width":0,"video":"","sort":0,"version":157,"cover2":"","appkey":"init","duration":1,"extra":{},"polyglot":[],"category":"24597384,","audit":0,"is_ugc":0,"type":"audio"},{"id":"1024693","ufid":"25457868","name":"\u5403\u5403\u5403\u4f60\u5c31\u77e5\u9053\u5403\u5b59\u609f\u7a7a","file":"http:\/\/rdfile.oss-cn-hangzhou.aliyuncs.com\/filemanage\/init\/audio\/25457868.mp3?nonce=fd2be3b1b3a0c173dbb14fb45c252995","cover":"","updatetime":"1697698065","height":0,"width":0,"video":"","sort":0,"version":157,"cover2":"","appkey":"init","duration":2,"extra":{},"polyglot":[],"category":"24597384,","audit":0,"is_ugc":0,"type":"audio"}]}}