{"code":0,"msg":"success","data":{"total":143,"per_page":20,"current_page":1,"last_page":8,"data":[{"id":"1024833","ufid":"66489285","name":"\u54d4 \u77ed\u97f3","file":"http:\/\/rdfile.oss-cn-hangzhou.aliyuncs.com\/filemanage\/init\/audio\/66489285.mp3?nonce=18045c29ea595fc7f87febc89688bd87","cover":"","updatetime":"1697698034","height":0,"width":0,"video":"","sort":0,"version":157,"cover2":"","appkey":"init","duration":1,"extra":{},"polyglot":[],"category":"27108401,","audit":0,"is_ugc":0,"type":"audio"},{"id":"1024832","ufid":"34574900","name":"\u54d4 \u957f\u97f3","file":"http:\/\/rdfile.oss-cn-hangzhou.aliyuncs.com\/filemanage\/init\/audio\/34574900.mp3?nonce=f9adb6270c2ee4832e32b788b6cc3b59","cover":"","updatetime":"1697698033","height":0,"width":0,"video":"","sort":0,"version":157,"cover2":"","appkey":"init","duration":5,"extra":{},"polyglot":[],"category":"27108401,","audit":0,"is_ugc":0,"type":"audio"},{"id":"1024831","ufid":"49079224","name":"\u53fd\u53fd\u55b3\u55b3","file":"http:\/\/rdfile.oss-cn-hangzhou.aliyuncs.com\/filemanage\/init\/audio\/49079224.mp3?nonce=f9adb6270c2ee4832e32b788b6cc3b59","cover":"","updatetime":"1697698033","height":0,"width":0,"video":"","sort":0,"version":157,"cover2":"","appkey":"init","duration":25,"extra":{},"polyglot":[],"category":"27108401,","audit":0,"is_ugc":0,"type":"audio"},{"id":"1024830","ufid":"57406650","name":"\u6b63\u5728\u7ef4\u62a4\u4e2d(\u65e5\u8bed)","file":"http:\/\/rdfile.oss-cn-hangzhou.aliyuncs.com\/filemanage\/init\/audio\/57406650.mp3?nonce=2789a9752e5860b75abc043d73493970","cover":"","updatetime":"1697698032","height":0,"width":0,"video":"","sort":0,"version":157,"cover2":"","appkey":"init","duration":2,"extra":{},"polyglot":[],"category":"27108401,","audit":0,"is_ugc":0,"type":"audio"},{"id":"1024829","ufid":"67788220","name":"\u5c0f\u5973\u5b50\u4e0d\u624d","file":"http:\/\/rdfile.oss-cn-hangzhou.aliyuncs.com\/filemanage\/init\/audio\/67788220.mp3?nonce=2ede21bc40e72b4e1aa6caa502842a5f","cover":"","updatetime":"1697698029","height":0,"width":0,"video":"","sort":0,"version":157,"cover2":"","appkey":"init","duration":22,"extra":{},"polyglot":[],"category":"27108401,","audit":0,"is_ugc":0,"type":"audio"},{"id":"1024828","ufid":"14347357","name":"\u7f51\u7ea2\u5976\u5976\u5e7f\u573a\u821e\u97f3\u6548","file":"http:\/\/rdfile.oss-cn-hangzhou.aliyuncs.com\/filemanage\/init\/audio\/14347357.mp3?nonce=02c6421af32c2e341b99ba5f39cf9ad1","cover":"","updatetime":"1697698027","height":0,"width":0,"video":"","sort":0,"version":157,"cover2":"","appkey":"init","duration":11,"extra":{},"polyglot":[],"category":"27108401,","audit":0,"is_ugc":0,"type":"audio"},{"id":"1024827","ufid":"10515173","name":"\u592a\u9f13","file":"http:\/\/rdfile.oss-cn-hangzhou.aliyuncs.com\/filemanage\/init\/audio\/10515173.mp3?nonce=d8723003b7c0d8729ce79a6ca1ad0f46","cover":"","updatetime":"1697698026","height":0,"width":0,"video":"","sort":0,"version":157,"cover2":"","appkey":"init","duration":3,"extra":{},"polyglot":[],"category":"27108401,","audit":0,"is_ugc":0,"type":"audio"},{"id":"1024826","ufid":"96416011","name":"\u7ed3\u675f\u516c\u544a","file":"http:\/\/rdfile.oss-cn-hangzhou.aliyuncs.com\/filemanage\/init\/audio\/96416011.mp3?nonce=acdd54b12c64fca423391dfbb080afa6","cover":"","updatetime":"1697698019","height":0,"width":0,"video":"","sort":0,"version":157,"cover2":"","appkey":"init","duration":6,"extra":{},"polyglot":[],"category":"27108401,","audit":0,"is_ugc":0,"type":"audio"},{"id":"1024825","ufid":"97461093","name":"\u51fb\u638c\u6b22\u547c","file":"http:\/\/rdfile.oss-cn-hangzhou.aliyuncs.com\/filemanage\/init\/audio\/97461093.mp3?nonce=488502bbd0e9a42bd68d12406ec41d28","cover":"","updatetime":"1697698018","height":0,"width":0,"video":"","sort":0,"version":157,"cover2":"","appkey":"init","duration":3,"extra":{},"polyglot":[],"category":"27108401,","audit":0,"is_ugc":0,"type":"audio"},{"id":"1024824","ufid":"23603633","name":"\u597d\u55e8\u54e6\uff0c\u4eba\u751f\u8fbe\u5230\u4e86\u9ad8\u6f6e","file":"http:\/\/rdfile.oss-cn-hangzhou.aliyuncs.com\/filemanage\/init\/audio\/23603633.mp3?nonce=b56233606a4f397cd4961695c0e6700b","cover":"","updatetime":"1697698017","height":0,"width":0,"video":"","sort":0,"version":157,"cover2":"","appkey":"init","duration":12,"extra":{},"polyglot":[],"category":"27108401,","audit":0,"is_ugc":0,"type":"audio"},{"id":"1024823","ufid":"18345961","name":"\u90fd\u8981what\u97f3\u6548","file":"http:\/\/rdfile.oss-cn-hangzhou.aliyuncs.com\/filemanage\/init\/audio\/18345961.mp3?nonce=e702a2fef81cff894141da8966ca3b53","cover":"","updatetime":"1697698015","height":0,"width":0,"video":"","sort":0,"version":157,"cover2":"","appkey":"init","duration":1,"extra":{},"polyglot":[],"category":"27108401,","audit":0,"is_ugc":0,"type":"audio"},{"id":"1024822","ufid":"85819211","name":"\u6296\u97f3\u70eb\u5634\u6b4c","file":"http:\/\/rdfile.oss-cn-hangzhou.aliyuncs.com\/filemanage\/init\/audio\/85819211.mp3?nonce=e702a2fef81cff894141da8966ca3b53","cover":"","updatetime":"1697698015","height":0,"width":0,"video":"","sort":0,"version":157,"cover2":"","appkey":"init","duration":17,"extra":{},"polyglot":[],"category":"27108401,","audit":0,"is_ugc":0,"type":"audio"},{"id":"1024821","ufid":"65447706","name":"\u8d85\u77ed\u7c27","file":"http:\/\/rdfile.oss-cn-hangzhou.aliyuncs.com\/filemanage\/init\/audio\/65447706.mp3?nonce=8180ac7948668ebe700872eedd98e6eb","cover":"","updatetime":"1697698012","height":0,"width":0,"video":"","sort":0,"version":157,"cover2":"","appkey":"init","duration":1,"extra":{},"polyglot":[],"category":"27108401,","audit":0,"is_ugc":0,"type":"audio"},{"id":"1024820","ufid":"71243857","name":"\u54ce\uff01\uff1f","file":"http:\/\/rdfile.oss-cn-hangzhou.aliyuncs.com\/filemanage\/init\/audio\/71243857.mp3?nonce=8178bcf60e138b3645bc38e4edc12aee","cover":"","updatetime":"1697698011","height":0,"width":0,"video":"","sort":0,"version":157,"cover2":"","appkey":"init","duration":1,"extra":{},"polyglot":[],"category":"27108401,","audit":0,"is_ugc":0,"type":"audio"},{"id":"1024819","ufid":"56568598","name":"98k\u67aa\u58f0\u7279\u6548","file":"http:\/\/rdfile.oss-cn-hangzhou.aliyuncs.com\/filemanage\/init\/audio\/56568598.mp3?nonce=8178bcf60e138b3645bc38e4edc12aee","cover":"","updatetime":"1697698011","height":0,"width":0,"video":"","sort":0,"version":157,"cover2":"","appkey":"init","duration":4,"extra":{},"polyglot":[],"category":"27108401,","audit":0,"is_ugc":0,"type":"audio"},{"id":"1024524","ufid":"39645891","name":"\u6654\u58f0","file":"http:\/\/rdfile.oss-cn-hangzhou.aliyuncs.com\/filemanage\/init\/audio\/39645891.mp3?nonce=c3f730d20afe5819bb6f6b3eb294339a","cover":"","updatetime":"1697698312","height":0,"width":0,"video":"","sort":0,"version":157,"cover2":"","appkey":"init","duration":1,"extra":{},"polyglot":[],"category":"27108401,","audit":0,"is_ugc":0,"type":"audio"},{"id":"1024523","ufid":"48962568","name":"\u7eef\u7ea2\u4e4b\u738b","file":"http:\/\/rdfile.oss-cn-hangzhou.aliyuncs.com\/filemanage\/init\/audio\/48962568.mp3?nonce=c3f730d20afe5819bb6f6b3eb294339a","cover":"","updatetime":"1697698312","height":0,"width":0,"video":"","sort":0,"version":157,"cover2":"","appkey":"init","duration":3,"extra":{},"polyglot":[],"category":"27108401,","audit":0,"is_ugc":0,"type":"audio"},{"id":"1024522","ufid":"58078508","name":"\u5623\u7684\u4e00\u58f0\u5f00\u74f6\u74f6\u585e","file":"http:\/\/rdfile.oss-cn-hangzhou.aliyuncs.com\/filemanage\/init\/audio\/58078508.mp3?nonce=c3f730d20afe5819bb6f6b3eb294339a","cover":"","updatetime":"1697698312","height":0,"width":0,"video":"","sort":0,"version":157,"cover2":"","appkey":"init","duration":1,"extra":{},"polyglot":[],"category":"27108401,","audit":0,"is_ugc":0,"type":"audio"},{"id":"1024521","ufid":"99096233","name":"\u55ef \u7591\u60d1","file":"http:\/\/rdfile.oss-cn-hangzhou.aliyuncs.com\/filemanage\/init\/audio\/99096233.mp3?nonce=c3f730d20afe5819bb6f6b3eb294339a","cover":"","updatetime":"1697698312","height":0,"width":0,"video":"","sort":0,"version":157,"cover2":"","appkey":"init","duration":1,"extra":{},"polyglot":[],"category":"27108401,","audit":0,"is_ugc":0,"type":"audio"},{"id":"1024520","ufid":"95358675","name":"\u5575","file":"http:\/\/rdfile.oss-cn-hangzhou.aliyuncs.com\/filemanage\/init\/audio\/95358675.mp3?nonce=36643e594e28ec006508859e4e5aa143","cover":"","updatetime":"1697698311","height":0,"width":0,"video":"","sort":0,"version":157,"cover2":"","appkey":"init","duration":2,"extra":{},"polyglot":[],"category":"27108401,","audit":0,"is_ugc":0,"type":"audio"}]}}