{"code":0,"msg":"success","data":{"total":41,"per_page":20,"current_page":1,"last_page":3,"data":[{"id":"1024006","ufid":"57804923","name":"\u55e8\uff01\u4f60\u597d \u59ff\u6001\u8001\u9f20\u914d\u97f3","file":"http:\/\/rdfile.oss-cn-hangzhou.aliyuncs.com\/filemanage\/init\/audio\/57804923.mp3?nonce=be0adc7e940c10d6847e31e8330dfe60","cover":"","updatetime":"1697698182","height":0,"width":0,"video":"","sort":0,"version":157,"cover2":"","appkey":"init","duration":3,"extra":{},"polyglot":[],"category":"31129794,","audit":0,"is_ugc":0,"type":"audio"},{"id":"1024005","ufid":"92109132","name":"\u6700\u4f1f\u5927\u7684\u9e21kk","file":"http:\/\/rdfile.oss-cn-hangzhou.aliyuncs.com\/filemanage\/init\/audio\/92109132.mp3?nonce=be0adc7e940c10d6847e31e8330dfe60","cover":"","updatetime":"1697698182","height":0,"width":0,"video":"","sort":0,"version":157,"cover2":"","appkey":"init","duration":100,"extra":{},"polyglot":[],"category":"31129794,","audit":0,"is_ugc":0,"type":"audio"},{"id":"1024004","ufid":"90852524","name":"\u8ffd\u730e\u9b54\u6014\u4eba\u8fdb\u884c\u66f2","file":"http:\/\/rdfile.oss-cn-hangzhou.aliyuncs.com\/filemanage\/init\/audio\/90852524.mp3?nonce=be0adc7e940c10d6847e31e8330dfe60","cover":"","updatetime":"1697698182","height":0,"width":0,"video":"","sort":0,"version":157,"cover2":"","appkey":"init","duration":22,"extra":{},"polyglot":[],"category":"31129794,","audit":0,"is_ugc":0,"type":"audio"},{"id":"1024003","ufid":"52266201","name":"\u53ea\u56e0\u4f60\u592a\u7f8e","file":"http:\/\/rdfile.oss-cn-hangzhou.aliyuncs.com\/filemanage\/init\/audio\/52266201.mp3?nonce=ccff5727d009dcd4da5c3f64beff12e7","cover":"","updatetime":"1697698310","height":0,"width":0,"video":"","sort":0,"version":157,"cover2":"","appkey":"init","duration":17,"extra":{},"polyglot":[],"category":"31129794,","audit":0,"is_ugc":0,"type":"audio"},{"id":"1024002","ufid":"22563626","name":"\u53ea\u56e0\u4f60\u592a\u7f8e-8bit\u7248","file":"http:\/\/rdfile.oss-cn-hangzhou.aliyuncs.com\/filemanage\/init\/audio\/22563626.mp3?nonce=396cbcf0f72036f7e58c1e187173b00b","cover":"","updatetime":"1697698181","height":0,"width":0,"video":"","sort":0,"version":157,"cover2":"","appkey":"init","duration":21,"extra":{},"polyglot":[],"category":"31129794,","audit":0,"is_ugc":0,"type":"audio"},{"id":"1024001","ufid":"12986892","name":"\u8fd9\u4e2a\u5f6c\u5f6c\u5c31\u662f\u900a\u5566","file":"http:\/\/rdfile.oss-cn-hangzhou.aliyuncs.com\/filemanage\/init\/audio\/12986892.mp3?nonce=396cbcf0f72036f7e58c1e187173b00b","cover":"","updatetime":"1697698181","height":0,"width":0,"video":"","sort":0,"version":157,"cover2":"","appkey":"init","duration":2,"extra":{},"polyglot":[],"category":"31129794,","audit":0,"is_ugc":0,"type":"audio"},{"id":"1024000","ufid":"34758131","name":"\u5fc3\u52a8\u9e21kk","file":"http:\/\/rdfile.oss-cn-hangzhou.aliyuncs.com\/filemanage\/init\/audio\/34758131.mp3?nonce=396cbcf0f72036f7e58c1e187173b00b","cover":"","updatetime":"1697698181","height":0,"width":0,"video":"","sort":0,"version":157,"cover2":"","appkey":"init","duration":29,"extra":{},"polyglot":[],"category":"31129794,","audit":0,"is_ugc":0,"type":"audio"},{"id":"1023999","ufid":"32180886","name":"\u65b0\u767d\u9e21\u5a18\u5b50kk","file":"http:\/\/rdfile.oss-cn-hangzhou.aliyuncs.com\/filemanage\/init\/audio\/32180886.mp3?nonce=a64a3e78853a327b74e98b6374fd31f2","cover":"","updatetime":"1697698180","height":0,"width":0,"video":"","sort":0,"version":157,"cover2":"","appkey":"init","duration":80,"extra":{},"polyglot":[],"category":"31129794,","audit":0,"is_ugc":0,"type":"audio"},{"id":"1023998","ufid":"36506168","name":"\u6211\u662f\u4e91\u5357\u7684","file":"http:\/\/rdfile.oss-cn-hangzhou.aliyuncs.com\/filemanage\/init\/audio\/36506168.mp3?nonce=a64a3e78853a327b74e98b6374fd31f2","cover":"","updatetime":"1697698180","height":0,"width":0,"video":"","sort":0,"version":157,"cover2":"","appkey":"init","duration":35,"extra":{},"polyglot":[],"category":"31129794,","audit":0,"is_ugc":0,"type":"audio"},{"id":"1023997","ufid":"41058381","name":"\u8c01\u7684\u5927\u817f\u5916\u4fa7\u7f8e","file":"http:\/\/rdfile.oss-cn-hangzhou.aliyuncs.com\/filemanage\/init\/audio\/41058381.mp3?nonce=a64a3e78853a327b74e98b6374fd31f2","cover":"","updatetime":"1697698180","height":0,"width":0,"video":"","sort":0,"version":157,"cover2":"","appkey":"init","duration":18,"extra":{},"polyglot":[],"category":"31129794,","audit":0,"is_ugc":0,"type":"audio"},{"id":"1023996","ufid":"18938698","name":"\u5982\u679c\u6211\u662fd\u9e21","file":"http:\/\/rdfile.oss-cn-hangzhou.aliyuncs.com\/filemanage\/init\/audio\/18938698.mp3?nonce=a64a3e78853a327b74e98b6374fd31f2","cover":"","updatetime":"1697698180","height":0,"width":0,"video":"","sort":0,"version":157,"cover2":"","appkey":"init","duration":44,"extra":{},"polyglot":[],"category":"31129794,","audit":0,"is_ugc":0,"type":"audio"},{"id":"1023995","ufid":"40598209","name":"\u5168\u4e16\u754c\u90fd\u5728\u8bf4\u9e21\u8bddkk","file":"http:\/\/rdfile.oss-cn-hangzhou.aliyuncs.com\/filemanage\/init\/audio\/40598209.mp3?nonce=a64a3e78853a327b74e98b6374fd31f2","cover":"","updatetime":"1697698180","height":0,"width":0,"video":"","sort":0,"version":157,"cover2":"","appkey":"init","duration":94,"extra":{},"polyglot":[],"category":"31129794,","audit":0,"is_ugc":0,"type":"audio"},{"id":"1023994","ufid":"79933539","name":"\u7a77\u54c8","file":"http:\/\/rdfile.oss-cn-hangzhou.aliyuncs.com\/filemanage\/init\/audio\/79933539.mp3?nonce=de989da2de17e7aad0e6a4c1a8f09c80","cover":"","updatetime":"1697698179","height":0,"width":0,"video":"","sort":0,"version":157,"cover2":"","appkey":"init","duration":38,"extra":{},"polyglot":[],"category":"31129794,","audit":0,"is_ugc":0,"type":"audio"},{"id":"1023993","ufid":"38503729","name":"\u4f60\u5e72\u561b\uff0c\u4f46\u662f\u5170\u4ead\u5e8f","file":"http:\/\/rdfile.oss-cn-hangzhou.aliyuncs.com\/filemanage\/init\/audio\/38503729.mp3?nonce=e0817705c90c52aee34844432444c0b5","cover":"","updatetime":"1697698298","height":0,"width":0,"video":"","sort":0,"version":157,"cover2":"","appkey":"init","duration":28,"extra":{},"polyglot":[],"category":"31129794,","audit":0,"is_ugc":0,"type":"audio"},{"id":"1023992","ufid":"30511983","name":"\u4f60\u5e72\u561b","file":"http:\/\/rdfile.oss-cn-hangzhou.aliyuncs.com\/filemanage\/init\/audio\/30511983.mp3?nonce=e0817705c90c52aee34844432444c0b5","cover":"","updatetime":"1697698298","height":0,"width":0,"video":"","sort":0,"version":157,"cover2":"","appkey":"init","duration":6,"extra":{},"polyglot":[],"category":"31129794,","audit":0,"is_ugc":0,"type":"audio"},{"id":"1023991","ufid":"97180652","name":"\u4f60\u5e72\u561b \u5c0f\u7c73\u95f9\u949f\u58f0","file":"http:\/\/rdfile.oss-cn-hangzhou.aliyuncs.com\/filemanage\/init\/audio\/97180652.mp3?nonce=de989da2de17e7aad0e6a4c1a8f09c80","cover":"","updatetime":"1697698179","height":0,"width":0,"video":"","sort":0,"version":157,"cover2":"","appkey":"init","duration":17,"extra":{},"polyglot":[],"category":"31129794,","audit":0,"is_ugc":0,"type":"audio"},{"id":"1023990","ufid":"61753849","name":"\u4f60\u5e72\u561b \u5c0f\u7c73\u6765\u7535\u94c3\u58f0","file":"http:\/\/rdfile.oss-cn-hangzhou.aliyuncs.com\/filemanage\/init\/audio\/61753849.mp3?nonce=de989da2de17e7aad0e6a4c1a8f09c80","cover":"","updatetime":"1697698179","height":0,"width":0,"video":"","sort":0,"version":157,"cover2":"","appkey":"init","duration":20,"extra":{},"polyglot":[],"category":"31129794,","audit":0,"is_ugc":0,"type":"audio"},{"id":"1023989","ufid":"44442996","name":"\u4f60\u5e72\u561b \u8bfa\u57fa\u4e9a\u94c3\u58f0","file":"http:\/\/rdfile.oss-cn-hangzhou.aliyuncs.com\/filemanage\/init\/audio\/44442996.mp3?nonce=3b52684479be1c34b53e3a7b00139a53","cover":"","updatetime":"1697698178","height":0,"width":0,"video":"","sort":0,"version":157,"cover2":"","appkey":"init","duration":9,"extra":{},"polyglot":[],"category":"31129794,","audit":0,"is_ugc":0,"type":"audio"},{"id":"1023988","ufid":"71578217","name":"\u4f60\u5e72\u561b iPhone\u95f9\u949f\u94c3\u58f0","file":"http:\/\/rdfile.oss-cn-hangzhou.aliyuncs.com\/filemanage\/init\/audio\/71578217.mp3?nonce=3b52684479be1c34b53e3a7b00139a53","cover":"","updatetime":"1697698178","height":0,"width":0,"video":"","sort":0,"version":157,"cover2":"","appkey":"init","duration":7,"extra":{},"polyglot":[],"category":"31129794,","audit":0,"is_ugc":0,"type":"audio"},{"id":"1023987","ufid":"82276843","name":"\u4f60\u5e72\u561b iPhone\u6765\u7535\u94c3\u58f0","file":"http:\/\/rdfile.oss-cn-hangzhou.aliyuncs.com\/filemanage\/init\/audio\/82276843.mp3?nonce=3b52684479be1c34b53e3a7b00139a53","cover":"","updatetime":"1697698178","height":0,"width":0,"video":"","sort":0,"version":157,"cover2":"","appkey":"init","duration":12,"extra":{},"polyglot":[],"category":"31129794,","audit":0,"is_ugc":0,"type":"audio"}]}}