{"code":0,"msg":"success","data":{"total":55,"per_page":20,"current_page":1,"last_page":3,"data":[{"id":"1024738","ufid":"68495459","name":"\u6708\u4eae\u53d8\u8eab","file":"http:\/\/rdfile.oss-cn-hangzhou.aliyuncs.com\/filemanage\/init\/audio\/68495459.mp3?nonce=aa603cde13c2fafec08e812cff8a12e9","cover":"","updatetime":"1697698077","height":0,"width":0,"video":"","sort":0,"version":157,"cover2":"","appkey":"init","duration":4,"extra":{},"polyglot":[],"category":"38522596,","audit":0,"is_ugc":0,"type":"audio"},{"id":"1024737","ufid":"34308169","name":"\u70df\u96fe\u8b66\u62a5","file":"http:\/\/rdfile.oss-cn-hangzhou.aliyuncs.com\/filemanage\/init\/audio\/34308169.mp3?nonce=aa603cde13c2fafec08e812cff8a12e9","cover":"","updatetime":"1697698077","height":0,"width":0,"video":"","sort":0,"version":157,"cover2":"","appkey":"init","duration":10,"extra":{},"polyglot":[],"category":"38522596,","audit":0,"is_ugc":0,"type":"audio"},{"id":"1024736","ufid":"41181816","name":"\u4fe1\u53f7\u5e72\u6270","file":"http:\/\/rdfile.oss-cn-hangzhou.aliyuncs.com\/filemanage\/init\/audio\/41181816.mp3?nonce=aa603cde13c2fafec08e812cff8a12e9","cover":"","updatetime":"1697698077","height":0,"width":0,"video":"","sort":0,"version":157,"cover2":"","appkey":"init","duration":1,"extra":{},"polyglot":[],"category":"38522596,","audit":0,"is_ugc":0,"type":"audio"},{"id":"1024735","ufid":"31274612","name":"\u76f8\u673a\u5feb\u95e8","file":"http:\/\/rdfile.oss-cn-hangzhou.aliyuncs.com\/filemanage\/init\/audio\/31274612.mp3?nonce=b28631641ea8342d7606f8f62ff97bb0","cover":"","updatetime":"1697698076","height":0,"width":0,"video":"","sort":0,"version":157,"cover2":"","appkey":"init","duration":1,"extra":{},"polyglot":[],"category":"38522596,","audit":0,"is_ugc":0,"type":"audio"},{"id":"1024734","ufid":"36772808","name":"\u76f8\u673a\u5bf9\u7126","file":"http:\/\/rdfile.oss-cn-hangzhou.aliyuncs.com\/filemanage\/init\/audio\/36772808.mp3?nonce=b28631641ea8342d7606f8f62ff97bb0","cover":"","updatetime":"1697698076","height":0,"width":0,"video":"","sort":0,"version":157,"cover2":"","appkey":"init","duration":1,"extra":{},"polyglot":[],"category":"38522596,","audit":0,"is_ugc":0,"type":"audio"},{"id":"1024733","ufid":"50936799","name":"\u62e7\u53d1\u6761","file":"http:\/\/rdfile.oss-cn-hangzhou.aliyuncs.com\/filemanage\/init\/audio\/50936799.mp3?nonce=b28631641ea8342d7606f8f62ff97bb0","cover":"","updatetime":"1697698076","height":0,"width":0,"video":"","sort":0,"version":157,"cover2":"","appkey":"init","duration":11,"extra":{},"polyglot":[],"category":"38522596,","audit":0,"is_ugc":0,"type":"audio"},{"id":"1024732","ufid":"34160625","name":"\u8001\u5f0f\u6309\u94ae","file":"http:\/\/rdfile.oss-cn-hangzhou.aliyuncs.com\/filemanage\/init\/audio\/34160625.mp3?nonce=30bcad480bf5d13dd391d517c8a279a9","cover":"","updatetime":"1697698075","height":0,"width":0,"video":"","sort":0,"version":157,"cover2":"","appkey":"init","duration":1,"extra":{},"polyglot":[],"category":"38522596,","audit":0,"is_ugc":0,"type":"audio"},{"id":"1024731","ufid":"71594611","name":"\u7f1d\u7eab\u673a","file":"http:\/\/rdfile.oss-cn-hangzhou.aliyuncs.com\/filemanage\/init\/audio\/71594611.mp3?nonce=30bcad480bf5d13dd391d517c8a279a9","cover":"","updatetime":"1697698075","height":0,"width":0,"video":"","sort":0,"version":157,"cover2":"","appkey":"init","duration":10,"extra":{},"polyglot":[],"category":"38522596,","audit":0,"is_ugc":0,"type":"audio"},{"id":"1024730","ufid":"33353187","name":"\u8ba2\u4e66\u5668","file":"http:\/\/rdfile.oss-cn-hangzhou.aliyuncs.com\/filemanage\/init\/audio\/33353187.mp3?nonce=30bcad480bf5d13dd391d517c8a279a9","cover":"","updatetime":"1697698075","height":0,"width":0,"video":"","sort":0,"version":157,"cover2":"","appkey":"init","duration":1,"extra":{},"polyglot":[],"category":"38522596,","audit":0,"is_ugc":0,"type":"audio"},{"id":"1024729","ufid":"14958267","name":"\u7535\u94bb","file":"http:\/\/rdfile.oss-cn-hangzhou.aliyuncs.com\/filemanage\/init\/audio\/14958267.mp3?nonce=30bcad480bf5d13dd391d517c8a279a9","cover":"","updatetime":"1697698075","height":0,"width":0,"video":"","sort":0,"version":157,"cover2":"","appkey":"init","duration":1,"extra":{},"polyglot":[],"category":"38522596,","audit":0,"is_ugc":0,"type":"audio"},{"id":"1024728","ufid":"45433383","name":"\u7535\u89c6\u673a\u767d\u566a\u58f0","file":"http:\/\/rdfile.oss-cn-hangzhou.aliyuncs.com\/filemanage\/init\/audio\/45433383.mp3?nonce=ad87751e6b4f163b2744366d2aeeb044","cover":"","updatetime":"1697698074","height":0,"width":0,"video":"","sort":0,"version":157,"cover2":"","appkey":"init","duration":8,"extra":{},"polyglot":[],"category":"38522596,","audit":0,"is_ugc":0,"type":"audio"},{"id":"1024727","ufid":"50208558","name":"\u7535\u8111\u952e\u76d8","file":"http:\/\/rdfile.oss-cn-hangzhou.aliyuncs.com\/filemanage\/init\/audio\/50208558.mp3?nonce=ad87751e6b4f163b2744366d2aeeb044","cover":"","updatetime":"1697698074","height":0,"width":0,"video":"","sort":0,"version":157,"cover2":"","appkey":"init","duration":30,"extra":{},"polyglot":[],"category":"38522596,","audit":0,"is_ugc":0,"type":"audio"},{"id":"1024726","ufid":"70408214","name":"\u7535\u952f","file":"http:\/\/rdfile.oss-cn-hangzhou.aliyuncs.com\/filemanage\/init\/audio\/70408214.mp3?nonce=ad87751e6b4f163b2744366d2aeeb044","cover":"","updatetime":"1697698074","height":0,"width":0,"video":"","sort":0,"version":157,"cover2":"","appkey":"init","duration":17,"extra":{},"polyglot":[],"category":"38522596,","audit":0,"is_ugc":0,"type":"audio"},{"id":"1024725","ufid":"17354574","name":"\u6253\u5b57\u673a","file":"http:\/\/rdfile.oss-cn-hangzhou.aliyuncs.com\/filemanage\/init\/audio\/17354574.mp3?nonce=ad87751e6b4f163b2744366d2aeeb044","cover":"","updatetime":"1697698074","height":0,"width":0,"video":"","sort":0,"version":157,"cover2":"","appkey":"init","duration":3,"extra":{},"polyglot":[],"category":"38522596,","audit":0,"is_ugc":0,"type":"audio"},{"id":"1019648","ufid":"62590217","name":"\u5728\u5b89\u5168\u95e8\u4e2d\u8f93\u5165\u5bc6\u7801","file":"http:\/\/rdfile.oss-cn-hangzhou.aliyuncs.com\/filemanage\/init\/audio\/62590217.mp3?nonce=cfcd208495d565ef66e7dff9f98764da","cover":"http:\/\/rdfile.oss-cn-hangzhou.aliyuncs.com\/filemanage\/init\/audio\/62590217.jpeg?nonce=cfcd208495d565ef66e7dff9f98764da","updatetime":"0","height":0,"width":0,"video":"","sort":0,"version":0,"cover2":"","appkey":"init","duration":7,"extra":{},"polyglot":[],"category":"0","audit":0,"is_ugc":0,"type":"audio"},{"id":"1019647","ufid":"44395332","name":"\u5b66\u6821\u7684\u949f\u58f0","file":"http:\/\/rdfile.oss-cn-hangzhou.aliyuncs.com\/filemanage\/init\/audio\/44395332.mp3?nonce=cfcd208495d565ef66e7dff9f98764da","cover":"http:\/\/rdfile.oss-cn-hangzhou.aliyuncs.com\/filemanage\/init\/audio\/44395332.jpeg?nonce=cfcd208495d565ef66e7dff9f98764da","updatetime":"0","height":0,"width":0,"video":"","sort":0,"version":0,"cover2":"","appkey":"init","duration":5,"extra":{},"polyglot":[],"category":"0","audit":0,"is_ugc":0,"type":"audio"},{"id":"1019646","ufid":"56741886","name":"\u76f8\u673a\u5feb\u95e8\u58f0","file":"http:\/\/rdfile.oss-cn-hangzhou.aliyuncs.com\/filemanage\/init\/audio\/56741886.mp3?nonce=cfcd208495d565ef66e7dff9f98764da","cover":"http:\/\/rdfile.oss-cn-hangzhou.aliyuncs.com\/filemanage\/init\/audio\/56741886.jpeg?nonce=cfcd208495d565ef66e7dff9f98764da","updatetime":"0","height":0,"width":0,"video":"","sort":0,"version":0,"cover2":"","appkey":"init","duration":5,"extra":{},"polyglot":[],"category":"0","audit":0,"is_ugc":0,"type":"audio"},{"id":"1019645","ufid":"30963010","name":"\u9f20\u6807\u70b9\u51fb\u58f0","file":"http:\/\/rdfile.oss-cn-hangzhou.aliyuncs.com\/filemanage\/init\/audio\/30963010.mp3?nonce=cfcd208495d565ef66e7dff9f98764da","cover":"http:\/\/rdfile.oss-cn-hangzhou.aliyuncs.com\/filemanage\/init\/audio\/30963010.jpeg?nonce=cfcd208495d565ef66e7dff9f98764da","updatetime":"0","height":0,"width":0,"video":"","sort":0,"version":0,"cover2":"","appkey":"init","duration":0,"extra":{},"polyglot":[],"category":"0","audit":0,"is_ugc":0,"type":"audio"},{"id":"1019644","ufid":"80172038","name":"\u624b\u8868\u6ef4\u7b54\u58f0","file":"http:\/\/rdfile.oss-cn-hangzhou.aliyuncs.com\/filemanage\/init\/audio\/80172038.mp3?nonce=cfcd208495d565ef66e7dff9f98764da","cover":"http:\/\/rdfile.oss-cn-hangzhou.aliyuncs.com\/filemanage\/init\/audio\/80172038.jpeg?nonce=cfcd208495d565ef66e7dff9f98764da","updatetime":"0","height":0,"width":0,"video":"","sort":0,"version":0,"cover2":"","appkey":"init","duration":19,"extra":{},"polyglot":[],"category":"0","audit":0,"is_ugc":0,"type":"audio"},{"id":"1019643","ufid":"74892853","name":"\u65f6\u949f\u6ef4\u7b542","file":"http:\/\/rdfile.oss-cn-hangzhou.aliyuncs.com\/filemanage\/init\/audio\/74892853.mp3?nonce=cfcd208495d565ef66e7dff9f98764da","cover":"http:\/\/rdfile.oss-cn-hangzhou.aliyuncs.com\/filemanage\/init\/audio\/74892853.jpeg?nonce=cfcd208495d565ef66e7dff9f98764da","updatetime":"0","height":0,"width":0,"video":"","sort":0,"version":0,"cover2":"","appkey":"init","duration":4,"extra":{},"polyglot":[],"category":"0","audit":0,"is_ugc":0,"type":"audio"}]}}