{"code":0,"msg":"success","data":{"total":53,"per_page":20,"current_page":1,"last_page":3,"data":[{"id":"1024077","ufid":"90663499","name":"\u4f4f\u624b \u4f60\u4eec\u4e0d\u8981\u518d\u6253\u4e86","file":"http:\/\/rdfile.oss-cn-hangzhou.aliyuncs.com\/filemanage\/init\/audio\/90663499.mp3?nonce=91aa836eb1fce8424f33f8219f1eaa6f","cover":"","updatetime":"1697698198","height":0,"width":0,"video":"","sort":0,"version":157,"cover2":"","appkey":"init","duration":11,"extra":{},"polyglot":[],"category":"39477096,","audit":0,"is_ugc":0,"type":"audio"},{"id":"1024076","ufid":"73714312","name":"\u5f20\u4e07\u68ee\u4e0b\u96ea\u4e86","file":"http:\/\/rdfile.oss-cn-hangzhou.aliyuncs.com\/filemanage\/init\/audio\/73714312.mp3?nonce=91aa836eb1fce8424f33f8219f1eaa6f","cover":"","updatetime":"1697698198","height":0,"width":0,"video":"","sort":0,"version":157,"cover2":"","appkey":"init","duration":6,"extra":{},"polyglot":[],"category":"39477096,","audit":0,"is_ugc":0,"type":"audio"},{"id":"1024075","ufid":"31426630","name":"\u5728\u5ea7\u7684\u5404\u4f4d\u90fd\u662f\u5783\u573e","file":"http:\/\/rdfile.oss-cn-hangzhou.aliyuncs.com\/filemanage\/init\/audio\/31426630.mp3?nonce=91aa836eb1fce8424f33f8219f1eaa6f","cover":"","updatetime":"1697698198","height":0,"width":0,"video":"","sort":0,"version":157,"cover2":"","appkey":"init","duration":4,"extra":{},"polyglot":[],"category":"39477096,","audit":0,"is_ugc":0,"type":"audio"},{"id":"1024074","ufid":"67931586","name":"\u4e00\u4e2a\u5b57\u7edd","file":"http:\/\/rdfile.oss-cn-hangzhou.aliyuncs.com\/filemanage\/init\/audio\/67931586.mp3?nonce=3a1c2145a90093c5abd1df3d23af2b00","cover":"","updatetime":"1697698197","height":0,"width":0,"video":"","sort":0,"version":157,"cover2":"","appkey":"init","duration":9,"extra":{},"polyglot":[],"category":"39477096,","audit":0,"is_ugc":0,"type":"audio"},{"id":"1024073","ufid":"32763282","name":"\u8981\u4ec0\u4e48\u81ea\u884c\u8f66","file":"http:\/\/rdfile.oss-cn-hangzhou.aliyuncs.com\/filemanage\/init\/audio\/32763282.mp3?nonce=3a1c2145a90093c5abd1df3d23af2b00","cover":"","updatetime":"1697698197","height":0,"width":0,"video":"","sort":0,"version":157,"cover2":"","appkey":"init","duration":4,"extra":{},"polyglot":[],"category":"39477096,","audit":0,"is_ugc":0,"type":"audio"},{"id":"1024072","ufid":"40832152","name":"\u71d5\u5b50\u6ca1\u6709\u4f60\u6211\u8981\u600e\u4e48\u6d3b","file":"http:\/\/rdfile.oss-cn-hangzhou.aliyuncs.com\/filemanage\/init\/audio\/40832152.mp3?nonce=3a1c2145a90093c5abd1df3d23af2b00","cover":"","updatetime":"1697698197","height":0,"width":0,"video":"","sort":0,"version":157,"cover2":"","appkey":"init","duration":9,"extra":{},"polyglot":[],"category":"39477096,","audit":0,"is_ugc":0,"type":"audio"},{"id":"1024071","ufid":"33573437","name":"\u96ea\u59e8 \u4f60\u5f00\u95e8\u554a","file":"http:\/\/rdfile.oss-cn-hangzhou.aliyuncs.com\/filemanage\/init\/audio\/33573437.mp3?nonce=3a1c2145a90093c5abd1df3d23af2b00","cover":"","updatetime":"1697698197","height":0,"width":0,"video":"","sort":0,"version":157,"cover2":"","appkey":"init","duration":9,"extra":{},"polyglot":[],"category":"39477096,","audit":0,"is_ugc":0,"type":"audio"},{"id":"1024070","ufid":"13207340","name":"\u65e0\u654c\u662f\u591a\u4e48\u5bc2\u5bde","file":"http:\/\/rdfile.oss-cn-hangzhou.aliyuncs.com\/filemanage\/init\/audio\/13207340.mp3?nonce=19675a0bdcb7606df308b2dd5df0373e","cover":"","updatetime":"1697698196","height":0,"width":0,"video":"","sort":0,"version":157,"cover2":"","appkey":"init","duration":58,"extra":{},"polyglot":[],"category":"39477096,","audit":0,"is_ugc":0,"type":"audio"},{"id":"1024069","ufid":"93057004","name":"\u6211\u600e\u4e48\u5c31\u7ba1\u4e0d\u4f4f\u8fd9\u624b\u5462","file":"http:\/\/rdfile.oss-cn-hangzhou.aliyuncs.com\/filemanage\/init\/audio\/93057004.mp3?nonce=19675a0bdcb7606df308b2dd5df0373e","cover":"","updatetime":"1697698196","height":0,"width":0,"video":"","sort":0,"version":157,"cover2":"","appkey":"init","duration":5,"extra":{},"polyglot":[],"category":"39477096,","audit":0,"is_ugc":0,"type":"audio"},{"id":"1024068","ufid":"46345931","name":"\u6211\u8981\u4e89\u4e00\u53e3\u6c14","file":"http:\/\/rdfile.oss-cn-hangzhou.aliyuncs.com\/filemanage\/init\/audio\/46345931.mp3?nonce=19675a0bdcb7606df308b2dd5df0373e","cover":"","updatetime":"1697698196","height":0,"width":0,"video":"","sort":0,"version":157,"cover2":"","appkey":"init","duration":5,"extra":{},"polyglot":[],"category":"39477096,","audit":0,"is_ugc":0,"type":"audio"},{"id":"1024067","ufid":"63104173","name":"\u6211\u8981\u628a\u8fd9\u73a9\u610f\u67d3\u6210\u7eff\u7684","file":"http:\/\/rdfile.oss-cn-hangzhou.aliyuncs.com\/filemanage\/init\/audio\/63104173.mp3?nonce=19675a0bdcb7606df308b2dd5df0373e","cover":"","updatetime":"1697698196","height":0,"width":0,"video":"","sort":0,"version":157,"cover2":"","appkey":"init","duration":4,"extra":{},"polyglot":[],"category":"39477096,","audit":0,"is_ugc":0,"type":"audio"},{"id":"1024066","ufid":"78966944","name":"\u6211\u517b\u4f60\u554a","file":"http:\/\/rdfile.oss-cn-hangzhou.aliyuncs.com\/filemanage\/init\/audio\/78966944.mp3?nonce=19675a0bdcb7606df308b2dd5df0373e","cover":"","updatetime":"1697698196","height":0,"width":0,"video":"","sort":0,"version":157,"cover2":"","appkey":"init","duration":59,"extra":{},"polyglot":[],"category":"39477096,","audit":0,"is_ugc":0,"type":"audio"},{"id":"1024065","ufid":"13834655","name":"\u6211\u644a\u724c\u4e86 \u6c88\u817e","file":"http:\/\/rdfile.oss-cn-hangzhou.aliyuncs.com\/filemanage\/init\/audio\/13834655.mp3?nonce=1202c05595bb7509042e9c7d60e5f237","cover":"","updatetime":"1697698195","height":0,"width":0,"video":"","sort":0,"version":157,"cover2":"","appkey":"init","duration":11,"extra":{},"polyglot":[],"category":"39477096,","audit":0,"is_ugc":0,"type":"audio"},{"id":"1024064","ufid":"81141559","name":"\u6211\u662f\u60f3\u7ad9\u7740\u8fd8\u628a\u94b1\u8d5a\u4e86","file":"http:\/\/rdfile.oss-cn-hangzhou.aliyuncs.com\/filemanage\/init\/audio\/81141559.mp3?nonce=1202c05595bb7509042e9c7d60e5f237","cover":"","updatetime":"1697698195","height":0,"width":0,"video":"","sort":0,"version":157,"cover2":"","appkey":"init","duration":3,"extra":{},"polyglot":[],"category":"39477096,","audit":0,"is_ugc":0,"type":"audio"},{"id":"1024063","ufid":"43138758","name":"\u6211\u5168\u90fd\u8981","file":"http:\/\/rdfile.oss-cn-hangzhou.aliyuncs.com\/filemanage\/init\/audio\/43138758.mp3?nonce=1202c05595bb7509042e9c7d60e5f237","cover":"","updatetime":"1697698195","height":0,"width":0,"video":"","sort":0,"version":157,"cover2":"","appkey":"init","duration":3,"extra":{},"polyglot":[],"category":"39477096,","audit":0,"is_ugc":0,"type":"audio"},{"id":"1024062","ufid":"82909576","name":"\u6211\u547d\u7531\u6211\u4e0d\u7531\u5929","file":"http:\/\/rdfile.oss-cn-hangzhou.aliyuncs.com\/filemanage\/init\/audio\/82909576.mp3?nonce=1202c05595bb7509042e9c7d60e5f237","cover":"","updatetime":"1697698195","height":0,"width":0,"video":"","sort":0,"version":157,"cover2":"","appkey":"init","duration":23,"extra":{},"polyglot":[],"category":"39477096,","audit":0,"is_ugc":0,"type":"audio"},{"id":"1024061","ufid":"52996154","name":"\u6211\u4ece\u672a\u89c1\u8fc7\u5982\u6b64\u539a\u989c\u65e0\u803b\u4e4b\u4eba","file":"http:\/\/rdfile.oss-cn-hangzhou.aliyuncs.com\/filemanage\/init\/audio\/52996154.mp3?nonce=f09d01d306cb48157b0fb7a7755dc5bb","cover":"","updatetime":"1697698194","height":0,"width":0,"video":"","sort":0,"version":157,"cover2":"","appkey":"init","duration":5,"extra":{},"polyglot":[],"category":"39477096,","audit":0,"is_ugc":0,"type":"audio"},{"id":"1024060","ufid":"64331915","name":"\u6211\u51fa\u6765\u4e86","file":"http:\/\/rdfile.oss-cn-hangzhou.aliyuncs.com\/filemanage\/init\/audio\/64331915.mp3?nonce=f09d01d306cb48157b0fb7a7755dc5bb","cover":"","updatetime":"1697698194","height":0,"width":0,"video":"","sort":0,"version":157,"cover2":"","appkey":"init","duration":5,"extra":{},"polyglot":[],"category":"39477096,","audit":0,"is_ugc":0,"type":"audio"},{"id":"1024059","ufid":"51446162","name":"\u6211\u4e0d\u5165\u5730\u72f1\u8c01\u5165\u5730\u72f1","file":"http:\/\/rdfile.oss-cn-hangzhou.aliyuncs.com\/filemanage\/init\/audio\/51446162.mp3?nonce=f09d01d306cb48157b0fb7a7755dc5bb","cover":"","updatetime":"1697698194","height":0,"width":0,"video":"","sort":0,"version":157,"cover2":"","appkey":"init","duration":6,"extra":{},"polyglot":[],"category":"39477096,","audit":0,"is_ugc":0,"type":"audio"},{"id":"1024058","ufid":"35336956","name":"\u6211\u4e0d\u63a5\u53d7\u4f60\u7684\u9053\u6b49","file":"http:\/\/rdfile.oss-cn-hangzhou.aliyuncs.com\/filemanage\/init\/audio\/35336956.mp3?nonce=f09d01d306cb48157b0fb7a7755dc5bb","cover":"","updatetime":"1697698194","height":0,"width":0,"video":"","sort":0,"version":157,"cover2":"","appkey":"init","duration":6,"extra":{},"polyglot":[],"category":"39477096,","audit":0,"is_ugc":0,"type":"audio"}]}}