{"code":0,"msg":"success","data":{"total":283,"per_page":20,"current_page":1,"last_page":15,"data":[{"id":"1024427","ufid":"73870898","name":"\u71b9\u5983\u56de\u5bab","file":"http:\/\/rdfile.oss-cn-hangzhou.aliyuncs.com\/filemanage\/init\/audio\/73870898.mp3?nonce=46426fca0355baf9dcdc0c6a627d732f","cover":"","updatetime":"1697698278","height":0,"width":0,"video":"","sort":0,"version":157,"cover2":"","appkey":"init","duration":9,"extra":{},"polyglot":[],"category":"40610022,","audit":0,"is_ugc":0,"type":"audio"},{"id":"1024426","ufid":"24118150","name":"\u5a9b\u5a9b\uff0c\u6715emo\u4e86","file":"http:\/\/rdfile.oss-cn-hangzhou.aliyuncs.com\/filemanage\/init\/audio\/24118150.mp3?nonce=46426fca0355baf9dcdc0c6a627d732f","cover":"","updatetime":"1697698278","height":0,"width":0,"video":"","sort":0,"version":157,"cover2":"","appkey":"init","duration":18,"extra":{},"polyglot":[],"category":"40610022,","audit":0,"is_ugc":0,"type":"audio"},{"id":"1024425","ufid":"88458008","name":"\u55e8\u55e8\u55e8","file":"http:\/\/rdfile.oss-cn-hangzhou.aliyuncs.com\/filemanage\/init\/audio\/88458008.mp3?nonce=c3f730d20afe5819bb6f6b3eb294339a","cover":"","updatetime":"1697698312","height":0,"width":0,"video":"","sort":0,"version":157,"cover2":"","appkey":"init","duration":4,"extra":{},"polyglot":[],"category":"40610022,","audit":0,"is_ugc":0,"type":"audio"},{"id":"1024424","ufid":"27943773","name":"\u5466\uff0c\u6211\u5bb6\u516c\u5b50\u4f1a\u63d2\u79e7\u4e86\u54e6","file":"http:\/\/rdfile.oss-cn-hangzhou.aliyuncs.com\/filemanage\/init\/audio\/27943773.mp3?nonce=7d54fd4cc2a53324acb6fab36f3216d9","cover":"","updatetime":"1697698277","height":0,"width":0,"video":"","sort":0,"version":157,"cover2":"","appkey":"init","duration":4,"extra":{},"polyglot":[],"category":"40610022,","audit":0,"is_ugc":0,"type":"audio"},{"id":"1024423","ufid":"22094578","name":"\u5c0a\u656c\u7684\u73a9\u5bb6\u60a8\u597d \u7cfb\u7edf\u68c0\u6d4b","file":"http:\/\/rdfile.oss-cn-hangzhou.aliyuncs.com\/filemanage\/init\/audio\/22094578.mp3?nonce=7d54fd4cc2a53324acb6fab36f3216d9","cover":"","updatetime":"1697698277","height":0,"width":0,"video":"","sort":0,"version":157,"cover2":"","appkey":"init","duration":13,"extra":{},"polyglot":[],"category":"40610022,","audit":0,"is_ugc":0,"type":"audio"},{"id":"1024422","ufid":"38735636","name":"\u6700\u61c2\u6c14\u6ce1\u97f3\u7684\u7537\u4eba","file":"http:\/\/rdfile.oss-cn-hangzhou.aliyuncs.com\/filemanage\/init\/audio\/38735636.mp3?nonce=7d54fd4cc2a53324acb6fab36f3216d9","cover":"","updatetime":"1697698277","height":0,"width":0,"video":"","sort":0,"version":157,"cover2":"","appkey":"init","duration":24,"extra":{},"polyglot":[],"category":"40610022,","audit":0,"is_ugc":0,"type":"audio"},{"id":"1024421","ufid":"75597480","name":"\u795d\u6211\u5927\u54e5\u4e00\u751f\u4e0d\u8d25","file":"http:\/\/rdfile.oss-cn-hangzhou.aliyuncs.com\/filemanage\/init\/audio\/75597480.mp3?nonce=7d54fd4cc2a53324acb6fab36f3216d9","cover":"","updatetime":"1697698277","height":0,"width":0,"video":"","sort":0,"version":157,"cover2":"","appkey":"init","duration":14,"extra":{},"polyglot":[],"category":"40610022,","audit":0,"is_ugc":0,"type":"audio"},{"id":"1024420","ufid":"77594941","name":"\u6ce8\u610f\u770b\uff0c\u8fd9\u4e2a\u7537\u4eba\u53eb\u5c0f\u5e05","file":"http:\/\/rdfile.oss-cn-hangzhou.aliyuncs.com\/filemanage\/init\/audio\/77594941.mp3?nonce=805e4def4b26627893f1ff3f380fd28d","cover":"","updatetime":"1697698276","height":0,"width":0,"video":"","sort":0,"version":157,"cover2":"","appkey":"init","duration":2,"extra":{},"polyglot":[],"category":"40610022,","audit":0,"is_ugc":0,"type":"audio"},{"id":"1024419","ufid":"56058642","name":"\u4e3b\u7ebf\u4efb\u52a1\u62ef\u6551\u79cb\u96c5-\u4e00\u526a","file":"http:\/\/rdfile.oss-cn-hangzhou.aliyuncs.com\/filemanage\/init\/audio\/56058642.mp3?nonce=805e4def4b26627893f1ff3f380fd28d","cover":"","updatetime":"1697698276","height":0,"width":0,"video":"","sort":0,"version":157,"cover2":"","appkey":"init","duration":39,"extra":{},"polyglot":[],"category":"40610022,","audit":0,"is_ugc":0,"type":"audio"},{"id":"1024418","ufid":"45301506","name":"\u5468\u6770\u4f26\u795d\u4f60\u751f\u65e5\u5feb\u4e50","file":"http:\/\/rdfile.oss-cn-hangzhou.aliyuncs.com\/filemanage\/init\/audio\/45301506.mp3?nonce=805e4def4b26627893f1ff3f380fd28d","cover":"","updatetime":"1697698276","height":0,"width":0,"video":"","sort":0,"version":157,"cover2":"","appkey":"init","duration":12,"extra":{},"polyglot":[],"category":"40610022,","audit":0,"is_ugc":0,"type":"audio"},{"id":"1024417","ufid":"56575146","name":"\u7ec8\u4e8e\u53d8\u6210\u5c0f\u65f6\u5019\u6700\u671f\u5f85\u7684","file":"http:\/\/rdfile.oss-cn-hangzhou.aliyuncs.com\/filemanage\/init\/audio\/56575146.mp3?nonce=ae0d853a1e22f7710bbe134da90a7218","cover":"","updatetime":"1697698275","height":0,"width":0,"video":"","sort":0,"version":157,"cover2":"","appkey":"init","duration":12,"extra":{},"polyglot":[],"category":"40610022,","audit":0,"is_ugc":0,"type":"audio"},{"id":"1024416","ufid":"21074503","name":"\u4e2d\u610f\u4f60(\u6ca1\u6709\u6253\u706b\u673a)","file":"http:\/\/rdfile.oss-cn-hangzhou.aliyuncs.com\/filemanage\/init\/audio\/21074503.mp3?nonce=ae0d853a1e22f7710bbe134da90a7218","cover":"","updatetime":"1697698275","height":0,"width":0,"video":"","sort":0,"version":157,"cover2":"","appkey":"init","duration":18,"extra":{},"polyglot":[],"category":"40610022,","audit":0,"is_ugc":0,"type":"audio"},{"id":"1024415","ufid":"74940090","name":"\u4e2d\u592e\u6c14\u8c61\u53f0\u9884\u8ba1\u4ece\u660e\u5929\u5f00","file":"http:\/\/rdfile.oss-cn-hangzhou.aliyuncs.com\/filemanage\/init\/audio\/74940090.mp3?nonce=ae0d853a1e22f7710bbe134da90a7218","cover":"","updatetime":"1697698275","height":0,"width":0,"video":"","sort":0,"version":157,"cover2":"","appkey":"init","duration":10,"extra":{},"polyglot":[],"category":"40610022,","audit":0,"is_ugc":0,"type":"audio"},{"id":"1024414","ufid":"36705850","name":"\u652f\u4ed8\u5b9d\u5230\u8d26100\u4e07","file":"http:\/\/rdfile.oss-cn-hangzhou.aliyuncs.com\/filemanage\/init\/audio\/36705850.mp3?nonce=ae0d853a1e22f7710bbe134da90a7218","cover":"","updatetime":"1697698275","height":0,"width":0,"video":"","sort":0,"version":157,"cover2":"","appkey":"init","duration":7,"extra":{},"polyglot":[],"category":"40610022,","audit":0,"is_ugc":0,"type":"audio"},{"id":"1024413","ufid":"20482395","name":"\u7504\u5a9b\u6574\u4e2a\u4eba\u90fd\u6ca1\u6709\u529b\u6c14","file":"http:\/\/rdfile.oss-cn-hangzhou.aliyuncs.com\/filemanage\/init\/audio\/20482395.mp3?nonce=faca1d8c44e096401c5a54e03a9daf9b","cover":"","updatetime":"1697698274","height":0,"width":0,"video":"","sort":0,"version":157,"cover2":"","appkey":"init","duration":5,"extra":{},"polyglot":[],"category":"40610022,","audit":0,"is_ugc":0,"type":"audio"},{"id":"1024412","ufid":"69303558","name":"\u7504\u5a9b\u4f20\u9b54\u6cd5\u600e\u4e48\u5931\u7075\u4e86","file":"http:\/\/rdfile.oss-cn-hangzhou.aliyuncs.com\/filemanage\/init\/audio\/69303558.mp3?nonce=faca1d8c44e096401c5a54e03a9daf9b","cover":"","updatetime":"1697698274","height":0,"width":0,"video":"","sort":0,"version":157,"cover2":"","appkey":"init","duration":23,"extra":{},"polyglot":[],"category":"40610022,","audit":0,"is_ugc":0,"type":"audio"},{"id":"1024411","ufid":"85781841","name":"\u771f\u7684\u5e05\uff0c\u4e00\u4e2a\u5c0f\u4f19\u5b50\u600e\u4e48","file":"http:\/\/rdfile.oss-cn-hangzhou.aliyuncs.com\/filemanage\/init\/audio\/85781841.mp3?nonce=faca1d8c44e096401c5a54e03a9daf9b","cover":"","updatetime":"1697698274","height":0,"width":0,"video":"","sort":0,"version":157,"cover2":"","appkey":"init","duration":11,"extra":{},"polyglot":[],"category":"40610022,","audit":0,"is_ugc":0,"type":"audio"},{"id":"1024410","ufid":"10958597","name":"\u8fd9\u662f\u4ec0\u4e48\u529f\u592b\u9752\u86d9","file":"http:\/\/rdfile.oss-cn-hangzhou.aliyuncs.com\/filemanage\/init\/audio\/10958597.mp3?nonce=faca1d8c44e096401c5a54e03a9daf9b","cover":"","updatetime":"1697698274","height":0,"width":0,"video":"","sort":0,"version":157,"cover2":"","appkey":"init","duration":10,"extra":{},"polyglot":[],"category":"40610022,","audit":0,"is_ugc":0,"type":"audio"},{"id":"1024409","ufid":"78137838","name":"\u8fd9\u5565\u554a","file":"http:\/\/rdfile.oss-cn-hangzhou.aliyuncs.com\/filemanage\/init\/audio\/78137838.mp3?nonce=d14a17621e08d2c783c521dc12c40912","cover":"","updatetime":"1697698309","height":0,"width":0,"video":"","sort":0,"version":157,"cover2":"","appkey":"init","duration":8,"extra":{},"polyglot":[],"category":"40610022,","audit":0,"is_ugc":0,"type":"audio"},{"id":"1024408","ufid":"80560987","name":"\u8fd9\u4e48\u5927\u4eba\u4e24\u767e\u5757\u90fd\u6ca1\u6709 \u6ca1","file":"http:\/\/rdfile.oss-cn-hangzhou.aliyuncs.com\/filemanage\/init\/audio\/80560987.mp3?nonce=00d60f0a2e3f361fa44817619cc0109c","cover":"","updatetime":"1697698273","height":0,"width":0,"video":"","sort":0,"version":157,"cover2":"","appkey":"init","duration":9,"extra":{},"polyglot":[],"category":"40610022,","audit":0,"is_ugc":0,"type":"audio"}]}}