{"code":0,"msg":"success","data":{"total":62,"per_page":20,"current_page":1,"last_page":4,"data":[{"id":"1023965","ufid":"45524900","name":"\u54d2\u54a9\u54df\uff0c\u8fbe\u54a9\u8fbe\u54a9","file":"http:\/\/rdfile.oss-cn-hangzhou.aliyuncs.com\/filemanage\/init\/audio\/45524900.mp3?nonce=11a933796f504bd3d04fe3b8cce7c280","cover":"","updatetime":"1697698173","height":0,"width":0,"video":"","sort":0,"version":157,"cover2":"","appkey":"init","duration":2,"extra":{},"polyglot":[],"category":"53914448,","audit":0,"is_ugc":0,"type":"audio"},{"id":"1023964","ufid":"80281984","name":"\u5c34\u5c2c\u7684\u7a7a\u6c14","file":"http:\/\/rdfile.oss-cn-hangzhou.aliyuncs.com\/filemanage\/init\/audio\/80281984.mp3?nonce=11a933796f504bd3d04fe3b8cce7c280","cover":"","updatetime":"1697698173","height":0,"width":0,"video":"","sort":0,"version":157,"cover2":"","appkey":"init","duration":3,"extra":{},"polyglot":[],"category":"53914448,","audit":0,"is_ugc":0,"type":"audio"},{"id":"1023963","ufid":"99519363","name":"\u5750\u4e0b-\u72ac\u591c\u53c9","file":"http:\/\/rdfile.oss-cn-hangzhou.aliyuncs.com\/filemanage\/init\/audio\/99519363.mp3?nonce=2b8fa106f0f2bfabc1c5b9747de189b2","cover":"","updatetime":"1697698172","height":0,"width":0,"video":"","sort":0,"version":157,"cover2":"","appkey":"init","duration":10,"extra":{},"polyglot":[],"category":"53914448,","audit":0,"is_ugc":0,"type":"audio"},{"id":"1023962","ufid":"96741370","name":"\u4e89\u7740\u5f80\u524d\u8dd1","file":"http:\/\/rdfile.oss-cn-hangzhou.aliyuncs.com\/filemanage\/init\/audio\/96741370.mp3?nonce=2b8fa106f0f2bfabc1c5b9747de189b2","cover":"","updatetime":"1697698172","height":0,"width":0,"video":"","sort":0,"version":157,"cover2":"","appkey":"init","duration":3,"extra":{},"polyglot":[],"category":"53914448,","audit":0,"is_ugc":0,"type":"audio"},{"id":"1023961","ufid":"33089238","name":"\u771f\u76f8\u53ea\u6709\u4e00\u4e2a","file":"http:\/\/rdfile.oss-cn-hangzhou.aliyuncs.com\/filemanage\/init\/audio\/33089238.mp3?nonce=2b8fa106f0f2bfabc1c5b9747de189b2","cover":"","updatetime":"1697698172","height":0,"width":0,"video":"","sort":0,"version":157,"cover2":"","appkey":"init","duration":4,"extra":{},"polyglot":[],"category":"53914448,","audit":0,"is_ugc":0,"type":"audio"},{"id":"1023960","ufid":"92865379","name":"\u518d\u8d77\u4e0d\u80fd","file":"http:\/\/rdfile.oss-cn-hangzhou.aliyuncs.com\/filemanage\/init\/audio\/92865379.mp3?nonce=2b8fa106f0f2bfabc1c5b9747de189b2","cover":"","updatetime":"1697698172","height":0,"width":0,"video":"","sort":0,"version":157,"cover2":"","appkey":"init","duration":3,"extra":{},"polyglot":[],"category":"53914448,","audit":0,"is_ugc":0,"type":"audio"},{"id":"1023959","ufid":"46211616","name":"\u4e00\u65b9\u901a\u884c","file":"http:\/\/rdfile.oss-cn-hangzhou.aliyuncs.com\/filemanage\/init\/audio\/46211616.mp3?nonce=2b8fa106f0f2bfabc1c5b9747de189b2","cover":"","updatetime":"1697698172","height":0,"width":0,"video":"","sort":0,"version":157,"cover2":"","appkey":"init","duration":7,"extra":{},"polyglot":[],"category":"53914448,","audit":0,"is_ugc":0,"type":"audio"},{"id":"1023958","ufid":"88552680","name":"\u5996\u7cbe\u7684\u5c3e\u5df4","file":"http:\/\/rdfile.oss-cn-hangzhou.aliyuncs.com\/filemanage\/init\/audio\/88552680.mp3?nonce=c9dd21d95189ffbbb198e070e1d85b3e","cover":"","updatetime":"1697698171","height":0,"width":0,"video":"","sort":0,"version":157,"cover2":"","appkey":"init","duration":4,"extra":{},"polyglot":[],"category":"53914448,","audit":0,"is_ugc":0,"type":"audio"},{"id":"1023957","ufid":"49928505","name":"\u5c0f\u65b0\u8bf4\u597d\u70e6\u54e6","file":"http:\/\/rdfile.oss-cn-hangzhou.aliyuncs.com\/filemanage\/init\/audio\/49928505.mp3?nonce=c9dd21d95189ffbbb198e070e1d85b3e","cover":"","updatetime":"1697698171","height":0,"width":0,"video":"","sort":0,"version":157,"cover2":"","appkey":"init","duration":4,"extra":{},"polyglot":[],"category":"53914448,","audit":0,"is_ugc":0,"type":"audio"},{"id":"1023956","ufid":"53822503","name":"\u5c0f\u65b0\u563f\u563f","file":"http:\/\/rdfile.oss-cn-hangzhou.aliyuncs.com\/filemanage\/init\/audio\/53822503.mp3?nonce=c9dd21d95189ffbbb198e070e1d85b3e","cover":"","updatetime":"1697698171","height":0,"width":0,"video":"","sort":0,"version":157,"cover2":"","appkey":"init","duration":2,"extra":{},"polyglot":[],"category":"53914448,","audit":0,"is_ugc":0,"type":"audio"},{"id":"1023955","ufid":"32397807","name":"\u5c0f\u767d\u4f60\u5728\u54ea\u8721\u7b14\u5c0f\u65b0","file":"http:\/\/rdfile.oss-cn-hangzhou.aliyuncs.com\/filemanage\/init\/audio\/32397807.mp3?nonce=c9dd21d95189ffbbb198e070e1d85b3e","cover":"","updatetime":"1697698171","height":0,"width":0,"video":"","sort":0,"version":157,"cover2":"","appkey":"init","duration":9,"extra":{},"polyglot":[],"category":"53914448,","audit":0,"is_ugc":0,"type":"audio"},{"id":"1023954","ufid":"18666838","name":"\u6d17\u889c\u5b50-\u51fb\u6740\u97f3\u6548","file":"http:\/\/rdfile.oss-cn-hangzhou.aliyuncs.com\/filemanage\/init\/audio\/18666838.mp3?nonce=2742854ca4d005d117a80e3ff15e5529","cover":"","updatetime":"1697698170","height":0,"width":0,"video":"","sort":0,"version":157,"cover2":"","appkey":"init","duration":2,"extra":{},"polyglot":[],"category":"53914448,","audit":0,"is_ugc":0,"type":"audio"},{"id":"1023953","ufid":"94240610","name":"\u6211\u51c6\u5907\u597d\u4e86-\u6d77\u7ef5\u5b9d\u5b9d","file":"http:\/\/rdfile.oss-cn-hangzhou.aliyuncs.com\/filemanage\/init\/audio\/94240610.mp3?nonce=2742854ca4d005d117a80e3ff15e5529","cover":"","updatetime":"1697698170","height":0,"width":0,"video":"","sort":0,"version":157,"cover2":"","appkey":"init","duration":9,"extra":{},"polyglot":[],"category":"53914448,","audit":0,"is_ugc":0,"type":"audio"},{"id":"1023952","ufid":"42173676","name":"\u8fdd\u548c\u611f2","file":"http:\/\/rdfile.oss-cn-hangzhou.aliyuncs.com\/filemanage\/init\/audio\/42173676.mp3?nonce=2742854ca4d005d117a80e3ff15e5529","cover":"","updatetime":"1697698170","height":0,"width":0,"video":"","sort":0,"version":157,"cover2":"","appkey":"init","duration":3,"extra":{},"polyglot":[],"category":"53914448,","audit":0,"is_ugc":0,"type":"audio"},{"id":"1023951","ufid":"56777937","name":"\u4e07\u82b1\u7b52","file":"http:\/\/rdfile.oss-cn-hangzhou.aliyuncs.com\/filemanage\/init\/audio\/56777937.mp3?nonce=2742854ca4d005d117a80e3ff15e5529","cover":"","updatetime":"1697698170","height":0,"width":0,"video":"","sort":0,"version":157,"cover2":"","appkey":"init","duration":3,"extra":{},"polyglot":[],"category":"53914448,","audit":0,"is_ugc":0,"type":"audio"},{"id":"1023950","ufid":"67254825","name":"\u7a81\u7136\u800c\u8d77\u7684\u654c\u610f","file":"http:\/\/rdfile.oss-cn-hangzhou.aliyuncs.com\/filemanage\/init\/audio\/67254825.mp3?nonce=2742854ca4d005d117a80e3ff15e5529","cover":"","updatetime":"1697698170","height":0,"width":0,"video":"","sort":0,"version":157,"cover2":"","appkey":"init","duration":3,"extra":{},"polyglot":[],"category":"53914448,","audit":0,"is_ugc":0,"type":"audio"},{"id":"1023949","ufid":"98867665","name":"\u5929\u5b98\u8d50\u798f","file":"http:\/\/rdfile.oss-cn-hangzhou.aliyuncs.com\/filemanage\/init\/audio\/98867665.mp3?nonce=550241cd8e1f251eee118521fbd9bd60","cover":"","updatetime":"1697698169","height":0,"width":0,"video":"","sort":0,"version":157,"cover2":"","appkey":"init","duration":10,"extra":{},"polyglot":[],"category":"53914448,","audit":0,"is_ugc":0,"type":"audio"},{"id":"1023948","ufid":"71818687","name":"\u6c64\u59c6\u7b11\u58f0-\u732b\u548c\u8001\u9f20","file":"http:\/\/rdfile.oss-cn-hangzhou.aliyuncs.com\/filemanage\/init\/audio\/71818687.mp3?nonce=550241cd8e1f251eee118521fbd9bd60","cover":"","updatetime":"1697698169","height":0,"width":0,"video":"","sort":0,"version":157,"cover2":"","appkey":"init","duration":23,"extra":{},"polyglot":[],"category":"53914448,","audit":0,"is_ugc":0,"type":"audio"},{"id":"1023947","ufid":"29530805","name":"\u6c64\u59c6\u5927\u7b11\u58f0","file":"http:\/\/rdfile.oss-cn-hangzhou.aliyuncs.com\/filemanage\/init\/audio\/29530805.mp3?nonce=d4a599dbbae76181141a4696964e76ec","cover":"","updatetime":"1697698302","height":0,"width":0,"video":"","sort":0,"version":157,"cover2":"","appkey":"init","duration":5,"extra":{},"polyglot":[],"category":"53914448,","audit":0,"is_ugc":0,"type":"audio"},{"id":"1023946","ufid":"64145841","name":"\u6c64\u59c6\u60e8\u53eb","file":"http:\/\/rdfile.oss-cn-hangzhou.aliyuncs.com\/filemanage\/init\/audio\/64145841.mp3?nonce=d4a599dbbae76181141a4696964e76ec","cover":"","updatetime":"1697698302","height":0,"width":0,"video":"","sort":0,"version":157,"cover2":"","appkey":"init","duration":3,"extra":{},"polyglot":[],"category":"53914448,","audit":0,"is_ugc":0,"type":"audio"}]}}