{"code":0,"msg":"success","data":{"total":83,"per_page":20,"current_page":1,"last_page":5,"data":[{"id":"1024818","ufid":"12606350","name":"\u5b87\u5b99\u52a8\u7269\u56ed\u97f3\u6548","file":"http:\/\/rdfile.oss-cn-hangzhou.aliyuncs.com\/filemanage\/init\/audio\/12606350.mp3?nonce=017f5cfc7d1e3e96b9d6ef88c04490cc","cover":"","updatetime":"1697698010","height":0,"width":0,"video":"","sort":0,"version":157,"cover2":"","appkey":"init","duration":64,"extra":{},"polyglot":[],"category":"57001669,","audit":0,"is_ugc":0,"type":"audio"},{"id":"1024817","ufid":"72808347","name":"\u71d5\u5b50\u55b3\u55b3\u53eb","file":"http:\/\/rdfile.oss-cn-hangzhou.aliyuncs.com\/filemanage\/init\/audio\/72808347.mp3?nonce=017f5cfc7d1e3e96b9d6ef88c04490cc","cover":"","updatetime":"1697698010","height":0,"width":0,"video":"","sort":0,"version":157,"cover2":"","appkey":"init","duration":21,"extra":{},"polyglot":[],"category":"57001669,","audit":0,"is_ugc":0,"type":"audio"},{"id":"1024816","ufid":"68287811","name":"\u987b\u9cb8\u53eb\u5927\u5168","file":"http:\/\/rdfile.oss-cn-hangzhou.aliyuncs.com\/filemanage\/init\/audio\/68287811.mp3?nonce=017f5cfc7d1e3e96b9d6ef88c04490cc","cover":"","updatetime":"1697698010","height":0,"width":0,"video":"","sort":0,"version":157,"cover2":"","appkey":"init","duration":10,"extra":{},"polyglot":[],"category":"57001669,","audit":0,"is_ugc":0,"type":"audio"},{"id":"1024815","ufid":"32166164","name":"\u590f\u65e5\u5348\u540e\u519c\u5e84\u97f3\u6548","file":"http:\/\/rdfile.oss-cn-hangzhou.aliyuncs.com\/filemanage\/init\/audio\/32166164.mp3?nonce=017f5cfc7d1e3e96b9d6ef88c04490cc","cover":"","updatetime":"1697698010","height":0,"width":0,"video":"","sort":0,"version":157,"cover2":"","appkey":"init","duration":19,"extra":{},"polyglot":[],"category":"57001669,","audit":0,"is_ugc":0,"type":"audio"},{"id":"1024814","ufid":"68886328","name":"\u4f01\u9e45\u5927\u9646\u97f3\u6548","file":"http:\/\/rdfile.oss-cn-hangzhou.aliyuncs.com\/filemanage\/init\/audio\/68886328.mp3?nonce=1debe4a71029575449f53099bf0861d7","cover":"","updatetime":"1697698009","height":0,"width":0,"video":"","sort":0,"version":157,"cover2":"","appkey":"init","duration":16,"extra":{},"polyglot":[],"category":"57001669,","audit":0,"is_ugc":0,"type":"audio"},{"id":"1024813","ufid":"28652837","name":"\u725b\u54de\u54de\u53eb","file":"http:\/\/rdfile.oss-cn-hangzhou.aliyuncs.com\/filemanage\/init\/audio\/28652837.mp3?nonce=1debe4a71029575449f53099bf0861d7","cover":"","updatetime":"1697698009","height":0,"width":0,"video":"","sort":0,"version":157,"cover2":"","appkey":"init","duration":2,"extra":{},"polyglot":[],"category":"57001669,","audit":0,"is_ugc":0,"type":"audio"},{"id":"1024812","ufid":"93604803","name":"\u6606\u866b\u58f0\u97f3","file":"http:\/\/rdfile.oss-cn-hangzhou.aliyuncs.com\/filemanage\/init\/audio\/93604803.mp3?nonce=1debe4a71029575449f53099bf0861d7","cover":"","updatetime":"1697698009","height":0,"width":0,"video":"","sort":0,"version":157,"cover2":"","appkey":"init","duration":1,"extra":{},"polyglot":[],"category":"57001669,","audit":0,"is_ugc":0,"type":"audio"},{"id":"1024811","ufid":"47156568","name":"\u9ec4\u83ba\u53eb","file":"http:\/\/rdfile.oss-cn-hangzhou.aliyuncs.com\/filemanage\/init\/audio\/47156568.mp3?nonce=1debe4a71029575449f53099bf0861d7","cover":"","updatetime":"1697698009","height":0,"width":0,"video":"","sort":0,"version":157,"cover2":"","appkey":"init","duration":7,"extra":{},"polyglot":[],"category":"57001669,","audit":0,"is_ugc":0,"type":"audio"},{"id":"1024810","ufid":"63441245","name":"\u72d0\u72f8\u5e26\u5979\u5b9d\u5b9d\u73a9\u58f0\u97f3","file":"http:\/\/rdfile.oss-cn-hangzhou.aliyuncs.com\/filemanage\/init\/audio\/63441245.mp3?nonce=1debe4a71029575449f53099bf0861d7","cover":"","updatetime":"1697698009","height":0,"width":0,"video":"","sort":0,"version":157,"cover2":"","appkey":"init","duration":16,"extra":{},"polyglot":[],"category":"57001669,","audit":0,"is_ugc":0,"type":"audio"},{"id":"1024809","ufid":"92780156","name":"\u6d77\u8c5a\u53d1\u51fa\u7684\u58f0\u97f3","file":"http:\/\/rdfile.oss-cn-hangzhou.aliyuncs.com\/filemanage\/init\/audio\/92780156.mp3?nonce=7cadf3c0dd15547491fd801630bc4943","cover":"","updatetime":"1697698008","height":0,"width":0,"video":"","sort":0,"version":157,"cover2":"","appkey":"init","duration":5,"extra":{},"polyglot":[],"category":"57001669,","audit":0,"is_ugc":0,"type":"audio"},{"id":"1024808","ufid":"67316634","name":"\u9e3d\u5b50\u5495\u5495\u53eb","file":"http:\/\/rdfile.oss-cn-hangzhou.aliyuncs.com\/filemanage\/init\/audio\/67316634.mp3?nonce=7cadf3c0dd15547491fd801630bc4943","cover":"","updatetime":"1697698008","height":0,"width":0,"video":"","sort":0,"version":157,"cover2":"","appkey":"init","duration":3,"extra":{},"polyglot":[],"category":"57001669,","audit":0,"is_ugc":0,"type":"audio"},{"id":"1024807","ufid":"81431701","name":"\u52a8\u7269\u5de8\u578b\u811a\u6b65\u58f0","file":"http:\/\/rdfile.oss-cn-hangzhou.aliyuncs.com\/filemanage\/init\/audio\/81431701.mp3?nonce=7cadf3c0dd15547491fd801630bc4943","cover":"","updatetime":"1697698008","height":0,"width":0,"video":"","sort":0,"version":157,"cover2":"","appkey":"init","duration":1,"extra":{},"polyglot":[],"category":"57001669,","audit":0,"is_ugc":0,"type":"audio"},{"id":"1024689","ufid":"20632705","name":"\u72ee\u543c","file":"http:\/\/rdfile.oss-cn-hangzhou.aliyuncs.com\/filemanage\/init\/audio\/20632705.mp3?nonce=a2729093546ccd5572262e5b038804ad","cover":"","updatetime":"1697698064","height":0,"width":0,"video":"","sort":0,"version":157,"cover2":"","appkey":"init","duration":3,"extra":{},"polyglot":[],"category":"57001669,","audit":0,"is_ugc":0,"type":"audio"},{"id":"1024688","ufid":"32302608","name":"\u732b\u54aa","file":"http:\/\/rdfile.oss-cn-hangzhou.aliyuncs.com\/filemanage\/init\/audio\/32302608.mp3?nonce=9fbc100ed3b393e6a2a50661314cb002","cover":"","updatetime":"1697698063","height":0,"width":0,"video":"","sort":0,"version":157,"cover2":"","appkey":"init","duration":1,"extra":{},"polyglot":[],"category":"57001669,","audit":0,"is_ugc":0,"type":"audio"},{"id":"1024687","ufid":"62627115","name":"\u9a6c\u8e44\u8dd1\u8fc7","file":"http:\/\/rdfile.oss-cn-hangzhou.aliyuncs.com\/filemanage\/init\/audio\/62627115.mp3?nonce=9fbc100ed3b393e6a2a50661314cb002","cover":"","updatetime":"1697698063","height":0,"width":0,"video":"","sort":0,"version":157,"cover2":"","appkey":"init","duration":8,"extra":{},"polyglot":[],"category":"57001669,","audit":0,"is_ugc":0,"type":"audio"},{"id":"1024686","ufid":"52922658","name":"\u9a6c\u55b7\u6c14\u58f0","file":"http:\/\/rdfile.oss-cn-hangzhou.aliyuncs.com\/filemanage\/init\/audio\/52922658.mp3?nonce=9fbc100ed3b393e6a2a50661314cb002","cover":"","updatetime":"1697698063","height":0,"width":0,"video":"","sort":0,"version":157,"cover2":"","appkey":"init","duration":1,"extra":{},"polyglot":[],"category":"57001669,","audit":0,"is_ugc":0,"type":"audio"},{"id":"1024685","ufid":"15518259","name":"\u91d1\u7fc5\u96c0","file":"http:\/\/rdfile.oss-cn-hangzhou.aliyuncs.com\/filemanage\/init\/audio\/15518259.mp3?nonce=f957200ff9aa7809ad4c061b912d4b84","cover":"","updatetime":"1697698062","height":0,"width":0,"video":"","sort":0,"version":157,"cover2":"","appkey":"init","duration":1,"extra":{},"polyglot":[],"category":"57001669,","audit":0,"is_ugc":0,"type":"audio"},{"id":"1024684","ufid":"74427342","name":"\u9ed1\u718a","file":"http:\/\/rdfile.oss-cn-hangzhou.aliyuncs.com\/filemanage\/init\/audio\/74427342.mp3?nonce=f957200ff9aa7809ad4c061b912d4b84","cover":"","updatetime":"1697698062","height":0,"width":0,"video":"","sort":0,"version":157,"cover2":"","appkey":"init","duration":1,"extra":{},"polyglot":[],"category":"57001669,","audit":0,"is_ugc":0,"type":"audio"},{"id":"1024683","ufid":"71194138","name":"\u6d77\u8c61","file":"http:\/\/rdfile.oss-cn-hangzhou.aliyuncs.com\/filemanage\/init\/audio\/71194138.mp3?nonce=f957200ff9aa7809ad4c061b912d4b84","cover":"","updatetime":"1697698062","height":0,"width":0,"video":"","sort":0,"version":157,"cover2":"","appkey":"init","duration":1,"extra":{},"polyglot":[],"category":"57001669,","audit":0,"is_ugc":0,"type":"audio"},{"id":"1024682","ufid":"29839861","name":"\u72d7\u5420","file":"http:\/\/rdfile.oss-cn-hangzhou.aliyuncs.com\/filemanage\/init\/audio\/29839861.mp3?nonce=f957200ff9aa7809ad4c061b912d4b84","cover":"","updatetime":"1697698062","height":0,"width":0,"video":"","sort":0,"version":157,"cover2":"","appkey":"init","duration":1,"extra":{},"polyglot":[],"category":"57001669,","audit":0,"is_ugc":0,"type":"audio"}]}}