{"code":0,"msg":"success","data":{"total":28,"per_page":20,"current_page":1,"last_page":2,"data":[{"id":"1019818","ufid":"97183477","name":"\u6e38\u620f\u5492\u8bed\u6216\u9b54\u6cd5\u6548\u679c","file":"http:\/\/rdfile.oss-cn-hangzhou.aliyuncs.com\/filemanage\/init\/audio\/97183477.mp3?nonce=cfcd208495d565ef66e7dff9f98764da","cover":"http:\/\/rdfile.oss-cn-hangzhou.aliyuncs.com\/filemanage\/init\/audio\/97183477.jpeg?nonce=cfcd208495d565ef66e7dff9f98764da","updatetime":"0","height":0,"width":0,"video":"","sort":0,"version":0,"cover2":"","appkey":"init","duration":3,"extra":{},"polyglot":[],"category":"0","audit":0,"is_ugc":0,"type":"audio"},{"id":"1019817","ufid":"21302261","name":"\u4fe1\u53f7\u6ce2","file":"http:\/\/rdfile.oss-cn-hangzhou.aliyuncs.com\/filemanage\/init\/audio\/21302261.mp3?nonce=cfcd208495d565ef66e7dff9f98764da","cover":"http:\/\/rdfile.oss-cn-hangzhou.aliyuncs.com\/filemanage\/init\/audio\/21302261.jpeg?nonce=cfcd208495d565ef66e7dff9f98764da","updatetime":"0","height":0,"width":0,"video":"","sort":0,"version":0,"cover2":"","appkey":"init","duration":4,"extra":{},"polyglot":[],"category":"0","audit":0,"is_ugc":0,"type":"audio"},{"id":"1019816","ufid":"23198185","name":"\u4fe1\u53f7","file":"http:\/\/rdfile.oss-cn-hangzhou.aliyuncs.com\/filemanage\/init\/audio\/23198185.mp3?nonce=cfcd208495d565ef66e7dff9f98764da","cover":"http:\/\/rdfile.oss-cn-hangzhou.aliyuncs.com\/filemanage\/init\/audio\/23198185.jpeg?nonce=cfcd208495d565ef66e7dff9f98764da","updatetime":"0","height":0,"width":0,"video":"","sort":0,"version":0,"cover2":"","appkey":"init","duration":2,"extra":{},"polyglot":[],"category":"0","audit":0,"is_ugc":0,"type":"audio"},{"id":"1019815","ufid":"34663471","name":"\u5929\u4f7f","file":"http:\/\/rdfile.oss-cn-hangzhou.aliyuncs.com\/filemanage\/init\/audio\/34663471.mp3?nonce=cfcd208495d565ef66e7dff9f98764da","cover":"http:\/\/rdfile.oss-cn-hangzhou.aliyuncs.com\/filemanage\/init\/audio\/34663471.jpeg?nonce=cfcd208495d565ef66e7dff9f98764da","updatetime":"0","height":0,"width":0,"video":"","sort":0,"version":0,"cover2":"","appkey":"init","duration":5,"extra":{},"polyglot":[],"category":"0","audit":0,"is_ugc":0,"type":"audio"},{"id":"1019814","ufid":"68150243","name":"\u65bd\u653e\u9b54\u6cd5\u9635\u97f3\u6548","file":"http:\/\/rdfile.oss-cn-hangzhou.aliyuncs.com\/filemanage\/init\/audio\/68150243.mp3?nonce=cfcd208495d565ef66e7dff9f98764da","cover":"http:\/\/rdfile.oss-cn-hangzhou.aliyuncs.com\/filemanage\/init\/audio\/68150243.jpeg?nonce=cfcd208495d565ef66e7dff9f98764da","updatetime":"0","height":0,"width":0,"video":"","sort":0,"version":0,"cover2":"","appkey":"init","duration":7,"extra":{},"polyglot":[],"category":"0","audit":0,"is_ugc":0,"type":"audio"},{"id":"1019813","ufid":"65882823","name":"\u95ea\u70c1\u97f3\u6548","file":"http:\/\/rdfile.oss-cn-hangzhou.aliyuncs.com\/filemanage\/init\/audio\/65882823.mp3?nonce=cfcd208495d565ef66e7dff9f98764da","cover":"http:\/\/rdfile.oss-cn-hangzhou.aliyuncs.com\/filemanage\/init\/audio\/65882823.jpeg?nonce=cfcd208495d565ef66e7dff9f98764da","updatetime":"0","height":0,"width":0,"video":"","sort":0,"version":0,"cover2":"","appkey":"init","duration":7,"extra":{},"polyglot":[],"category":"0","audit":0,"is_ugc":0,"type":"audio"},{"id":"1019812","ufid":"40080642","name":"\u5947\u5e7b\u7684\u68a6\u5883\u97f3\u4e50","file":"http:\/\/rdfile.oss-cn-hangzhou.aliyuncs.com\/filemanage\/init\/audio\/40080642.mp3?nonce=cfcd208495d565ef66e7dff9f98764da","cover":"http:\/\/rdfile.oss-cn-hangzhou.aliyuncs.com\/filemanage\/init\/audio\/40080642.jpeg?nonce=cfcd208495d565ef66e7dff9f98764da","updatetime":"0","height":0,"width":0,"video":"","sort":0,"version":0,"cover2":"","appkey":"init","duration":118,"extra":{},"polyglot":[],"category":"0","audit":0,"is_ugc":0,"type":"audio"},{"id":"1019811","ufid":"25078625","name":"\u9b54\u5e7b\u5f00\u573a","file":"http:\/\/rdfile.oss-cn-hangzhou.aliyuncs.com\/filemanage\/init\/audio\/25078625.mp3?nonce=cfcd208495d565ef66e7dff9f98764da","cover":"http:\/\/rdfile.oss-cn-hangzhou.aliyuncs.com\/filemanage\/init\/audio\/25078625.jpeg?nonce=cfcd208495d565ef66e7dff9f98764da","updatetime":"0","height":0,"width":0,"video":"","sort":0,"version":0,"cover2":"","appkey":"init","duration":3,"extra":{},"polyglot":[],"category":"0","audit":0,"is_ugc":0,"type":"audio"},{"id":"1019810","ufid":"32977393","name":"\u9b54\u5e7b\u7684\u8282\u594f","file":"http:\/\/rdfile.oss-cn-hangzhou.aliyuncs.com\/filemanage\/init\/audio\/32977393.mp3?nonce=cfcd208495d565ef66e7dff9f98764da","cover":"http:\/\/rdfile.oss-cn-hangzhou.aliyuncs.com\/filemanage\/init\/audio\/32977393.jpeg?nonce=cfcd208495d565ef66e7dff9f98764da","updatetime":"0","height":0,"width":0,"video":"","sort":0,"version":0,"cover2":"","appkey":"init","duration":34,"extra":{},"polyglot":[],"category":"0","audit":0,"is_ugc":0,"type":"audio"},{"id":"1019809","ufid":"93111878","name":"\u9b54\u5e7b\u5012\u8ba1\u65f6","file":"http:\/\/rdfile.oss-cn-hangzhou.aliyuncs.com\/filemanage\/init\/audio\/93111878.mp3?nonce=cfcd208495d565ef66e7dff9f98764da","cover":"http:\/\/rdfile.oss-cn-hangzhou.aliyuncs.com\/filemanage\/init\/audio\/93111878.jpeg?nonce=cfcd208495d565ef66e7dff9f98764da","updatetime":"0","height":0,"width":0,"video":"","sort":0,"version":0,"cover2":"","appkey":"init","duration":39,"extra":{},"polyglot":[],"category":"0","audit":0,"is_ugc":0,"type":"audio"},{"id":"1019808","ufid":"52811484","name":"\u9b54\u6cd5\u8f6c\u573a","file":"http:\/\/rdfile.oss-cn-hangzhou.aliyuncs.com\/filemanage\/init\/audio\/52811484.mp3?nonce=cfcd208495d565ef66e7dff9f98764da","cover":"http:\/\/rdfile.oss-cn-hangzhou.aliyuncs.com\/filemanage\/init\/audio\/52811484.jpeg?nonce=cfcd208495d565ef66e7dff9f98764da","updatetime":"0","height":0,"width":0,"video":"","sort":0,"version":0,"cover2":"","appkey":"init","duration":2,"extra":{},"polyglot":[],"category":"0","audit":0,"is_ugc":0,"type":"audio"},{"id":"1019807","ufid":"90311362","name":"\u9b54\u6cd5\u9635","file":"http:\/\/rdfile.oss-cn-hangzhou.aliyuncs.com\/filemanage\/init\/audio\/90311362.mp3?nonce=cfcd208495d565ef66e7dff9f98764da","cover":"http:\/\/rdfile.oss-cn-hangzhou.aliyuncs.com\/filemanage\/init\/audio\/90311362.jpeg?nonce=cfcd208495d565ef66e7dff9f98764da","updatetime":"0","height":0,"width":0,"video":"","sort":0,"version":0,"cover2":"","appkey":"init","duration":7,"extra":{},"polyglot":[],"category":"0","audit":0,"is_ugc":0,"type":"audio"},{"id":"1019806","ufid":"80722836","name":"\u9b54\u6cd5\u8fd0\u52a8\u6216\u5492","file":"http:\/\/rdfile.oss-cn-hangzhou.aliyuncs.com\/filemanage\/init\/audio\/80722836.mp3?nonce=cfcd208495d565ef66e7dff9f98764da","cover":"http:\/\/rdfile.oss-cn-hangzhou.aliyuncs.com\/filemanage\/init\/audio\/80722836.jpeg?nonce=cfcd208495d565ef66e7dff9f98764da","updatetime":"0","height":0,"width":0,"video":"","sort":0,"version":0,"cover2":"","appkey":"init","duration":5,"extra":{},"polyglot":[],"category":"0","audit":0,"is_ugc":0,"type":"audio"},{"id":"1019805","ufid":"25478207","name":"\u9b54\u6cd5\u97f3\u6548","file":"http:\/\/rdfile.oss-cn-hangzhou.aliyuncs.com\/filemanage\/init\/audio\/25478207.mp3?nonce=cfcd208495d565ef66e7dff9f98764da","cover":"http:\/\/rdfile.oss-cn-hangzhou.aliyuncs.com\/filemanage\/init\/audio\/25478207.jpeg?nonce=cfcd208495d565ef66e7dff9f98764da","updatetime":"0","height":0,"width":0,"video":"","sort":0,"version":0,"cover2":"","appkey":"init","duration":2,"extra":{},"polyglot":[],"category":"0","audit":0,"is_ugc":0,"type":"audio"},{"id":"1019804","ufid":"47581629","name":"\u9b54\u6cd5\u6548\u679c","file":"http:\/\/rdfile.oss-cn-hangzhou.aliyuncs.com\/filemanage\/init\/audio\/47581629.mp3?nonce=cfcd208495d565ef66e7dff9f98764da","cover":"http:\/\/rdfile.oss-cn-hangzhou.aliyuncs.com\/filemanage\/init\/audio\/47581629.jpeg?nonce=cfcd208495d565ef66e7dff9f98764da","updatetime":"0","height":0,"width":0,"video":"","sort":0,"version":0,"cover2":"","appkey":"init","duration":3,"extra":{},"polyglot":[],"category":"0","audit":0,"is_ugc":0,"type":"audio"},{"id":"1019803","ufid":"68493493","name":"\u9b54\u6cd5\u5c0f\u7cbe\u7075","file":"http:\/\/rdfile.oss-cn-hangzhou.aliyuncs.com\/filemanage\/init\/audio\/68493493.mp3?nonce=cfcd208495d565ef66e7dff9f98764da","cover":"http:\/\/rdfile.oss-cn-hangzhou.aliyuncs.com\/filemanage\/init\/audio\/68493493.jpeg?nonce=cfcd208495d565ef66e7dff9f98764da","updatetime":"0","height":0,"width":0,"video":"","sort":0,"version":0,"cover2":"","appkey":"init","duration":3,"extra":{},"polyglot":[],"category":"0","audit":0,"is_ugc":0,"type":"audio"},{"id":"1019802","ufid":"22316753","name":"\u9b54\u6cd5\u6c34\u6676\u97f3\u6548","file":"http:\/\/rdfile.oss-cn-hangzhou.aliyuncs.com\/filemanage\/init\/audio\/22316753.mp3?nonce=cfcd208495d565ef66e7dff9f98764da","cover":"http:\/\/rdfile.oss-cn-hangzhou.aliyuncs.com\/filemanage\/init\/audio\/22316753.jpeg?nonce=cfcd208495d565ef66e7dff9f98764da","updatetime":"0","height":0,"width":0,"video":"","sort":0,"version":0,"cover2":"","appkey":"init","duration":40,"extra":{},"polyglot":[],"category":"0","audit":0,"is_ugc":0,"type":"audio"},{"id":"1019801","ufid":"30464930","name":"\u9b54\u6cd5\u58f0\u97f3","file":"http:\/\/rdfile.oss-cn-hangzhou.aliyuncs.com\/filemanage\/init\/audio\/30464930.mp3?nonce=cfcd208495d565ef66e7dff9f98764da","cover":"http:\/\/rdfile.oss-cn-hangzhou.aliyuncs.com\/filemanage\/init\/audio\/30464930.jpeg?nonce=cfcd208495d565ef66e7dff9f98764da","updatetime":"0","height":0,"width":0,"video":"","sort":0,"version":0,"cover2":"","appkey":"init","duration":5,"extra":{},"polyglot":[],"category":"0","audit":0,"is_ugc":0,"type":"audio"},{"id":"1019800","ufid":"35199248","name":"\u9b54\u6cd5\u78b0\u649e\u5899\u58c1","file":"http:\/\/rdfile.oss-cn-hangzhou.aliyuncs.com\/filemanage\/init\/audio\/35199248.mp3?nonce=cfcd208495d565ef66e7dff9f98764da","cover":"http:\/\/rdfile.oss-cn-hangzhou.aliyuncs.com\/filemanage\/init\/audio\/35199248.jpeg?nonce=cfcd208495d565ef66e7dff9f98764da","updatetime":"0","height":0,"width":0,"video":"","sort":0,"version":0,"cover2":"","appkey":"init","duration":2,"extra":{},"polyglot":[],"category":"0","audit":0,"is_ugc":0,"type":"audio"},{"id":"1019799","ufid":"20403818","name":"\u9b54\u6cd5\u706b\u7130","file":"http:\/\/rdfile.oss-cn-hangzhou.aliyuncs.com\/filemanage\/init\/audio\/20403818.mp3?nonce=cfcd208495d565ef66e7dff9f98764da","cover":"http:\/\/rdfile.oss-cn-hangzhou.aliyuncs.com\/filemanage\/init\/audio\/20403818.jpeg?nonce=cfcd208495d565ef66e7dff9f98764da","updatetime":"0","height":0,"width":0,"video":"","sort":0,"version":0,"cover2":"","appkey":"init","duration":4,"extra":{},"polyglot":[],"category":"0","audit":0,"is_ugc":0,"type":"audio"}]}}