{"code":0,"msg":"success","data":{"total":89,"per_page":20,"current_page":1,"last_page":5,"data":[{"id":"1024851","ufid":"83838855","name":"\u7efc\u827a\u5e38\u7528\u5632\u7b11","file":"http:\/\/rdfile.oss-cn-hangzhou.aliyuncs.com\/filemanage\/init\/audio\/83838855.mp3?nonce=2f7d6083e5b2ae154fa8f7f595bb720d","cover":"","updatetime":"1697698052","height":0,"width":0,"video":"","sort":0,"version":157,"cover2":"","appkey":"init","duration":4,"extra":{},"polyglot":[],"category":"61294791,","audit":0,"is_ugc":0,"type":"audio"},{"id":"1024850","ufid":"80476818","name":"\u5468\u661f\u9a70\u7ecf\u5178\u7b11\u58f0","file":"http:\/\/rdfile.oss-cn-hangzhou.aliyuncs.com\/filemanage\/init\/audio\/80476818.mp3?nonce=2f7d6083e5b2ae154fa8f7f595bb720d","cover":"","updatetime":"1697698052","height":0,"width":0,"video":"","sort":0,"version":157,"cover2":"","appkey":"init","duration":8,"extra":{},"polyglot":[],"category":"61294791,","audit":0,"is_ugc":0,"type":"audio"},{"id":"1024849","ufid":"79746993","name":"\u5c0f\u5b69\u7b11","file":"http:\/\/rdfile.oss-cn-hangzhou.aliyuncs.com\/filemanage\/init\/audio\/79746993.mp3?nonce=2f7d6083e5b2ae154fa8f7f595bb720d","cover":"","updatetime":"1697698052","height":0,"width":0,"video":"","sort":0,"version":157,"cover2":"","appkey":"init","duration":1,"extra":{},"polyglot":[],"category":"61294791,","audit":0,"is_ugc":0,"type":"audio"},{"id":"1024848","ufid":"61160122","name":"\u8131\u53e3\u79c0\u5927\u7b11\u9f13\u638c","file":"http:\/\/rdfile.oss-cn-hangzhou.aliyuncs.com\/filemanage\/init\/audio\/61160122.mp3?nonce=2f7d6083e5b2ae154fa8f7f595bb720d","cover":"","updatetime":"1697698052","height":0,"width":0,"video":"","sort":0,"version":157,"cover2":"","appkey":"init","duration":6,"extra":{},"polyglot":[],"category":"61294791,","audit":0,"is_ugc":0,"type":"audio"},{"id":"1024847","ufid":"80862908","name":"\u725b\u9b54\u738b\u72c2\u7b11","file":"http:\/\/rdfile.oss-cn-hangzhou.aliyuncs.com\/filemanage\/init\/audio\/80862908.mp3?nonce=2f7d6083e5b2ae154fa8f7f595bb720d","cover":"","updatetime":"1697698052","height":0,"width":0,"video":"","sort":0,"version":157,"cover2":"","appkey":"init","duration":3,"extra":{},"polyglot":[],"category":"61294791,","audit":0,"is_ugc":0,"type":"audio"},{"id":"1024846","ufid":"67073484","name":"\u7f8e\u5267\u7b11\u58f0","file":"http:\/\/rdfile.oss-cn-hangzhou.aliyuncs.com\/filemanage\/init\/audio\/67073484.mp3?nonce=8dc43a235555b5e6c0e48fd6d3c2aa32","cover":"","updatetime":"1697698051","height":0,"width":0,"video":"","sort":0,"version":157,"cover2":"","appkey":"init","duration":4,"extra":{},"polyglot":[],"category":"61294791,","audit":0,"is_ugc":0,"type":"audio"},{"id":"1024845","ufid":"35917971","name":"\u52a8\u6f2b\u7b11\u58f0","file":"http:\/\/rdfile.oss-cn-hangzhou.aliyuncs.com\/filemanage\/init\/audio\/35917971.mp3?nonce=8dc43a235555b5e6c0e48fd6d3c2aa32","cover":"","updatetime":"1697698051","height":0,"width":0,"video":"","sort":0,"version":157,"cover2":"","appkey":"init","duration":4,"extra":{},"polyglot":[],"category":"61294791,","audit":0,"is_ugc":0,"type":"audio"},{"id":"1024681","ufid":"11840259","name":"\u765c\u7b11","file":"http:\/\/rdfile.oss-cn-hangzhou.aliyuncs.com\/filemanage\/init\/audio\/11840259.mp3?nonce=ad3908c358132f6db3d5b4ee9f4a4452","cover":"","updatetime":"1697698145","height":0,"width":0,"video":"","sort":0,"version":157,"cover2":"","appkey":"init","duration":3,"extra":{},"polyglot":[],"category":"61294791,","audit":0,"is_ugc":0,"type":"audio"},{"id":"1024680","ufid":"14689264","name":"\u5a74\u513f\u7b11","file":"http:\/\/rdfile.oss-cn-hangzhou.aliyuncs.com\/filemanage\/init\/audio\/14689264.mp3?nonce=ad3908c358132f6db3d5b4ee9f4a4452","cover":"","updatetime":"1697698145","height":0,"width":0,"video":"","sort":0,"version":157,"cover2":"","appkey":"init","duration":5,"extra":{},"polyglot":[],"category":"61294791,","audit":0,"is_ugc":0,"type":"audio"},{"id":"1024679","ufid":"65592570","name":"\u5c0f\u5b69\u54c8\u54c8\u7b11\u58f0","file":"http:\/\/rdfile.oss-cn-hangzhou.aliyuncs.com\/filemanage\/init\/audio\/65592570.mp3?nonce=ad3908c358132f6db3d5b4ee9f4a4452","cover":"","updatetime":"1697698145","height":0,"width":0,"video":"","sort":0,"version":157,"cover2":"","appkey":"init","duration":3,"extra":{},"polyglot":[],"category":"61294791,","audit":0,"is_ugc":0,"type":"audio"},{"id":"1024678","ufid":"77819300","name":"\u5deb\u5a46\u5e72\u7b11","file":"http:\/\/rdfile.oss-cn-hangzhou.aliyuncs.com\/filemanage\/init\/audio\/77819300.mp3?nonce=ad3908c358132f6db3d5b4ee9f4a4452","cover":"","updatetime":"1697698145","height":0,"width":0,"video":"","sort":0,"version":157,"cover2":"","appkey":"init","duration":2,"extra":{},"polyglot":[],"category":"61294791,","audit":0,"is_ugc":0,"type":"audio"},{"id":"1024677","ufid":"82766887","name":"\u4eba\u7fa4\u54c8\u54c8\u5927\u7b11\u58f01","file":"http:\/\/rdfile.oss-cn-hangzhou.aliyuncs.com\/filemanage\/init\/audio\/82766887.mp3?nonce=a274c30c53f293e9e345ad2b8fcffeed","cover":"","updatetime":"1697698144","height":0,"width":0,"video":"","sort":0,"version":157,"cover2":"","appkey":"init","duration":30,"extra":{},"polyglot":[],"category":"61294791,","audit":0,"is_ugc":0,"type":"audio"},{"id":"1024676","ufid":"24562243","name":"\u666e\u901a\u5927\u7b11","file":"http:\/\/rdfile.oss-cn-hangzhou.aliyuncs.com\/filemanage\/init\/audio\/24562243.mp3?nonce=a274c30c53f293e9e345ad2b8fcffeed","cover":"","updatetime":"1697698144","height":0,"width":0,"video":"","sort":0,"version":157,"cover2":"","appkey":"init","duration":3,"extra":{},"polyglot":[],"category":"61294791,","audit":0,"is_ugc":0,"type":"audio"},{"id":"1024675","ufid":"83342990","name":"\u53ef\u7231\u5978\u7b11","file":"http:\/\/rdfile.oss-cn-hangzhou.aliyuncs.com\/filemanage\/init\/audio\/83342990.mp3?nonce=a274c30c53f293e9e345ad2b8fcffeed","cover":"","updatetime":"1697698144","height":0,"width":0,"video":"","sort":0,"version":157,"cover2":"","appkey":"init","duration":2,"extra":{},"polyglot":[],"category":"61294791,","audit":0,"is_ugc":0,"type":"audio"},{"id":"1024674","ufid":"24627071","name":"\u5c16\u58f0\u5927\u7b11","file":"http:\/\/rdfile.oss-cn-hangzhou.aliyuncs.com\/filemanage\/init\/audio\/24627071.mp3?nonce=a274c30c53f293e9e345ad2b8fcffeed","cover":"","updatetime":"1697698144","height":0,"width":0,"video":"","sort":0,"version":157,"cover2":"","appkey":"init","duration":17,"extra":{},"polyglot":[],"category":"61294791,","audit":0,"is_ugc":0,"type":"audio"},{"id":"1024660","ufid":"88026857","name":"\u9e66\u9e49\u7b11\u58f0","file":"http:\/\/rdfile.oss-cn-hangzhou.aliyuncs.com\/filemanage\/init\/audio\/88026857.mp3?nonce=0315712df9c8bd8c5559128cdcd873b8","cover":"","updatetime":"1697698345","height":0,"width":0,"video":"","sort":0,"version":157,"cover2":"","appkey":"init","duration":1,"extra":{},"polyglot":[],"category":"61294791,","audit":0,"is_ugc":0,"type":"audio"},{"id":"1024659","ufid":"50428832","name":"\u7efc\u827a\u91cc\u4e0a\u5934\u7b11","file":"http:\/\/rdfile.oss-cn-hangzhou.aliyuncs.com\/filemanage\/init\/audio\/50428832.mp3?nonce=0315712df9c8bd8c5559128cdcd873b8","cover":"","updatetime":"1697698345","height":0,"width":0,"video":"","sort":0,"version":157,"cover2":"","appkey":"init","duration":4,"extra":{},"polyglot":[],"category":"61294791,","audit":0,"is_ugc":0,"type":"audio"},{"id":"1024658","ufid":"33510280","name":"\u7efc\u827a\u7f50\u5934\u7b11\u58f0","file":"http:\/\/rdfile.oss-cn-hangzhou.aliyuncs.com\/filemanage\/init\/audio\/33510280.mp3?nonce=0315712df9c8bd8c5559128cdcd873b8","cover":"","updatetime":"1697698345","height":0,"width":0,"video":"","sort":0,"version":157,"cover2":"","appkey":"init","duration":5,"extra":{},"polyglot":[],"category":"61294791,","audit":0,"is_ugc":0,"type":"audio"},{"id":"1024657","ufid":"37713113","name":"\u4f17\u4eba\u5927\u7b11","file":"http:\/\/rdfile.oss-cn-hangzhou.aliyuncs.com\/filemanage\/init\/audio\/37713113.mp3?nonce=353f9f8b65e2dfb3bfaaa816cfb0edaa","cover":"","updatetime":"1697698344","height":0,"width":0,"video":"","sort":0,"version":157,"cover2":"","appkey":"init","duration":5,"extra":{},"polyglot":[],"category":"61294791,","audit":0,"is_ugc":0,"type":"audio"},{"id":"1024656","ufid":"87061964","name":"\u5a74\u513f\u7b11\u58f0","file":"http:\/\/rdfile.oss-cn-hangzhou.aliyuncs.com\/filemanage\/init\/audio\/87061964.mp3?nonce=353f9f8b65e2dfb3bfaaa816cfb0edaa","cover":"","updatetime":"1697698344","height":0,"width":0,"video":"","sort":0,"version":157,"cover2":"","appkey":"init","duration":5,"extra":{},"polyglot":[],"category":"61294791,","audit":0,"is_ugc":0,"type":"audio"}]}}