{"code":0,"msg":"success","data":{"total":38,"per_page":20,"current_page":1,"last_page":2,"data":[{"id":"1005600","ufid":"96679874","name":"Clear And Melodious 38","file":"http:\/\/rdfile.oss-cn-hangzhou.aliyuncs.com\/filemanage\/init\/audio\/58\/caff0314ef84302b1f3eca810129a9f3\/00d8b347c4303f4919d08176edcfcf52.mp3?nonce=cfcd208495d565ef66e7dff9f98764da","cover":"","updatetime":"0","height":0,"width":0,"video":"","sort":100,"version":0,"cover2":"","appkey":"init","duration":1,"extra":{},"polyglot":{"en":"Clear And Melodious 38"},"category":"61511705,","audit":0,"is_ugc":0,"type":"audio"},{"id":"1005599","ufid":"77762646","name":"Clear And Melodious 37","file":"http:\/\/rdfile.oss-cn-hangzhou.aliyuncs.com\/filemanage\/init\/audio\/58\/957756a648519b9319b1606bfff51ea1\/d7e504059e904064ad9f6fc79b4d50f5.mp3?nonce=cfcd208495d565ef66e7dff9f98764da","cover":"","updatetime":"0","height":0,"width":0,"video":"","sort":100,"version":0,"cover2":"","appkey":"init","duration":1,"extra":{},"polyglot":{"en":"Clear And Melodious 37"},"category":"61511705,","audit":0,"is_ugc":0,"type":"audio"},{"id":"1005598","ufid":"48617062","name":"Clear And Melodious 36","file":"http:\/\/rdfile.oss-cn-hangzhou.aliyuncs.com\/filemanage\/init\/audio\/58\/bd4a1efb0df0660f9ed04b467a0d4b4f\/f847d61fd21f393c0b12f94ec4e88e5c.mp3?nonce=cfcd208495d565ef66e7dff9f98764da","cover":"","updatetime":"0","height":0,"width":0,"video":"","sort":100,"version":0,"cover2":"","appkey":"init","duration":1,"extra":{},"polyglot":{"en":"Clear And Melodious 36"},"category":"61511705,","audit":0,"is_ugc":0,"type":"audio"},{"id":"1005597","ufid":"51506527","name":"Clear And Melodious 35","file":"http:\/\/rdfile.oss-cn-hangzhou.aliyuncs.com\/filemanage\/init\/audio\/58\/ccb935874cdc1df923ab231a7ba3ed21\/47a0234cd03ed89bdb24bb7666bb5b89.mp3?nonce=cfcd208495d565ef66e7dff9f98764da","cover":"","updatetime":"0","height":0,"width":0,"video":"","sort":100,"version":0,"cover2":"","appkey":"init","duration":1,"extra":{},"polyglot":{"en":"Clear And Melodious 35"},"category":"61511705,","audit":0,"is_ugc":0,"type":"audio"},{"id":"1005596","ufid":"95084771","name":"Clear And Melodious 34","file":"http:\/\/rdfile.oss-cn-hangzhou.aliyuncs.com\/filemanage\/init\/audio\/58\/bf4d085d4a2ce18ca7315ad425cdd8ff\/167b4bae6bb311c47c0639992f53de9d.mp3?nonce=cfcd208495d565ef66e7dff9f98764da","cover":"","updatetime":"0","height":0,"width":0,"video":"","sort":100,"version":0,"cover2":"","appkey":"init","duration":1,"extra":{},"polyglot":{"en":"Clear And Melodious 34"},"category":"61511705,","audit":0,"is_ugc":0,"type":"audio"},{"id":"1005595","ufid":"56226208","name":"Clear And Melodious 33","file":"http:\/\/rdfile.oss-cn-hangzhou.aliyuncs.com\/filemanage\/init\/audio\/58\/0e6f1c6cb64894a47dee9f9407262caf\/0f081e24689c8dd40d98c6ac9bbfdf3e.mp3?nonce=cfcd208495d565ef66e7dff9f98764da","cover":"","updatetime":"0","height":0,"width":0,"video":"","sort":100,"version":0,"cover2":"","appkey":"init","duration":1,"extra":{},"polyglot":{"en":"Clear And Melodious 33"},"category":"61511705,","audit":0,"is_ugc":0,"type":"audio"},{"id":"1005594","ufid":"55643885","name":"Clear And Melodious 32","file":"http:\/\/rdfile.oss-cn-hangzhou.aliyuncs.com\/filemanage\/init\/audio\/58\/9c93d14886c38b0fc2e4948e5c78b8d1\/646870fb967ec3dc71d22fd9665efdc8.mp3?nonce=cfcd208495d565ef66e7dff9f98764da","cover":"","updatetime":"0","height":0,"width":0,"video":"","sort":100,"version":0,"cover2":"","appkey":"init","duration":3,"extra":{},"polyglot":{"en":"Clear And Melodious 32"},"category":"61511705,","audit":0,"is_ugc":0,"type":"audio"},{"id":"1005593","ufid":"26417770","name":"Clear And Melodious 31","file":"http:\/\/rdfile.oss-cn-hangzhou.aliyuncs.com\/filemanage\/init\/audio\/58\/1bc7f53f7733eb70f944cf3076c404fd\/7ee575327010852d636f5d24008245d7.mp3?nonce=cfcd208495d565ef66e7dff9f98764da","cover":"","updatetime":"0","height":0,"width":0,"video":"","sort":100,"version":0,"cover2":"","appkey":"init","duration":4,"extra":{},"polyglot":{"en":"Clear And Melodious 31"},"category":"61511705,","audit":0,"is_ugc":0,"type":"audio"},{"id":"1005592","ufid":"68489335","name":"Clear And Melodious 30","file":"http:\/\/rdfile.oss-cn-hangzhou.aliyuncs.com\/filemanage\/init\/audio\/58\/1a3032f9a9ffe751baa041115d5e808a\/4f663ba93ca5ed58a56e51604ccf1175.mp3?nonce=cfcd208495d565ef66e7dff9f98764da","cover":"","updatetime":"0","height":0,"width":0,"video":"","sort":100,"version":0,"cover2":"","appkey":"init","duration":3,"extra":{},"polyglot":{"en":"Clear And Melodious 30"},"category":"61511705,","audit":0,"is_ugc":0,"type":"audio"},{"id":"1005591","ufid":"46788429","name":"Clear And Melodious 29","file":"http:\/\/rdfile.oss-cn-hangzhou.aliyuncs.com\/filemanage\/init\/audio\/58\/9ab1ac08cd9c389a87eca140865d7c05\/bc06e74f7aa7c4ea98e18d7ebf3f6094.mp3?nonce=cfcd208495d565ef66e7dff9f98764da","cover":"","updatetime":"0","height":0,"width":0,"video":"","sort":100,"version":0,"cover2":"","appkey":"init","duration":2,"extra":{},"polyglot":{"en":"Clear And Melodious 29"},"category":"61511705,","audit":0,"is_ugc":0,"type":"audio"},{"id":"1005590","ufid":"39121530","name":"Clear And Melodious 28","file":"http:\/\/rdfile.oss-cn-hangzhou.aliyuncs.com\/filemanage\/init\/audio\/58\/f5b7fcd04712b0fc9ca1467346f3e4cb\/51336a6042550f8a006b5d65a2525811.mp3?nonce=cfcd208495d565ef66e7dff9f98764da","cover":"","updatetime":"0","height":0,"width":0,"video":"","sort":100,"version":0,"cover2":"","appkey":"init","duration":1,"extra":{},"polyglot":{"en":"Clear And Melodious 28"},"category":"61511705,","audit":0,"is_ugc":0,"type":"audio"},{"id":"1005589","ufid":"18428399","name":"Clear And Melodious 27","file":"http:\/\/rdfile.oss-cn-hangzhou.aliyuncs.com\/filemanage\/init\/audio\/58\/0dfde7a084c7caad4db416cd50fed0d0\/62a66d470d98bc7dd6ef680009f37d6a.mp3?nonce=cfcd208495d565ef66e7dff9f98764da","cover":"","updatetime":"0","height":0,"width":0,"video":"","sort":100,"version":0,"cover2":"","appkey":"init","duration":1,"extra":{},"polyglot":{"en":"Clear And Melodious 27"},"category":"61511705,","audit":0,"is_ugc":0,"type":"audio"},{"id":"1005588","ufid":"32951323","name":"Clear And Melodious 26","file":"http:\/\/rdfile.oss-cn-hangzhou.aliyuncs.com\/filemanage\/init\/audio\/58\/923aadf388021de4d4dab7bd668bd5cd\/c30faa1aebcf90887f7f060388229dac.mp3?nonce=cfcd208495d565ef66e7dff9f98764da","cover":"","updatetime":"0","height":0,"width":0,"video":"","sort":100,"version":0,"cover2":"","appkey":"init","duration":1,"extra":{},"polyglot":{"en":"Clear And Melodious 26"},"category":"61511705,","audit":0,"is_ugc":0,"type":"audio"},{"id":"1005587","ufid":"77618348","name":"Clear And Melodious 25","file":"http:\/\/rdfile.oss-cn-hangzhou.aliyuncs.com\/filemanage\/init\/audio\/58\/57fce090aa9b8720ffb9632d175d69ec\/d32968fd521bfda316e32316ec4cd7b4.mp3?nonce=cfcd208495d565ef66e7dff9f98764da","cover":"","updatetime":"0","height":0,"width":0,"video":"","sort":100,"version":0,"cover2":"","appkey":"init","duration":2,"extra":{},"polyglot":{"en":"Clear And Melodious 25"},"category":"61511705,","audit":0,"is_ugc":0,"type":"audio"},{"id":"1005586","ufid":"62872344","name":"Clear And Melodious 24","file":"http:\/\/rdfile.oss-cn-hangzhou.aliyuncs.com\/filemanage\/init\/audio\/58\/bb46fe4481a89a694f143218f134c2f7\/37a69bde65accb07ba54c3df70149a95.mp3?nonce=cfcd208495d565ef66e7dff9f98764da","cover":"","updatetime":"0","height":0,"width":0,"video":"","sort":100,"version":0,"cover2":"","appkey":"init","duration":2,"extra":{},"polyglot":{"en":"Clear And Melodious 24"},"category":"61511705,","audit":0,"is_ugc":0,"type":"audio"},{"id":"1005585","ufid":"30977402","name":"Clear And Melodious 23","file":"http:\/\/rdfile.oss-cn-hangzhou.aliyuncs.com\/filemanage\/init\/audio\/58\/2823ffe7f7317301427429fe6fff330b\/58b88ff82f26ca497e6f442d3752b250.mp3?nonce=cfcd208495d565ef66e7dff9f98764da","cover":"","updatetime":"0","height":0,"width":0,"video":"","sort":100,"version":0,"cover2":"","appkey":"init","duration":1,"extra":{},"polyglot":{"en":"Clear And Melodious 23"},"category":"61511705,","audit":0,"is_ugc":0,"type":"audio"},{"id":"1005584","ufid":"77853605","name":"Clear And Melodious 22","file":"http:\/\/rdfile.oss-cn-hangzhou.aliyuncs.com\/filemanage\/init\/audio\/58\/dd35b8d0459e111268bc18575333be8e\/113e216f396aa88b6c8eb447f6334d54.mp3?nonce=cfcd208495d565ef66e7dff9f98764da","cover":"","updatetime":"0","height":0,"width":0,"video":"","sort":100,"version":0,"cover2":"","appkey":"init","duration":2,"extra":{},"polyglot":{"en":"Clear And Melodious 22"},"category":"61511705,","audit":0,"is_ugc":0,"type":"audio"},{"id":"1005583","ufid":"29112249","name":"Clear And Melodious 21","file":"http:\/\/rdfile.oss-cn-hangzhou.aliyuncs.com\/filemanage\/init\/audio\/58\/8e3f93181c3a800ab0c8fac600f2a51f\/cec4655cd9865cd9b3550b4c5869120b.mp3?nonce=cfcd208495d565ef66e7dff9f98764da","cover":"","updatetime":"0","height":0,"width":0,"video":"","sort":100,"version":0,"cover2":"","appkey":"init","duration":1,"extra":{},"polyglot":{"en":"Clear And Melodious 21"},"category":"61511705,","audit":0,"is_ugc":0,"type":"audio"},{"id":"1005582","ufid":"70191090","name":"Clear And Melodious 20","file":"http:\/\/rdfile.oss-cn-hangzhou.aliyuncs.com\/filemanage\/init\/audio\/58\/ed4c29259166e1cab260cc7d4dde01da\/bda41ab7047b97fc9d0d89342866e95a.mp3?nonce=cfcd208495d565ef66e7dff9f98764da","cover":"","updatetime":"0","height":0,"width":0,"video":"","sort":100,"version":0,"cover2":"","appkey":"init","duration":3,"extra":{},"polyglot":{"en":"Clear And Melodious 20"},"category":"61511705,","audit":0,"is_ugc":0,"type":"audio"},{"id":"1005581","ufid":"91498942","name":"Clear And Melodious 19","file":"http:\/\/rdfile.oss-cn-hangzhou.aliyuncs.com\/filemanage\/init\/audio\/58\/c40a8bcaba669cc0873bf3a66c3a460c\/4b4889774b26984c47972c102a8b4404.mp3?nonce=cfcd208495d565ef66e7dff9f98764da","cover":"","updatetime":"0","height":0,"width":0,"video":"","sort":100,"version":0,"cover2":"","appkey":"init","duration":3,"extra":{},"polyglot":{"en":"Clear And Melodious 19"},"category":"61511705,","audit":0,"is_ugc":0,"type":"audio"}]}}