{"code":0,"msg":"success","data":{"total":75,"per_page":20,"current_page":1,"last_page":4,"data":[{"id":"1024870","ufid":"70167441","name":"\u661f\u661f\u9881\u5956\u5178\u793c\u8f6c\u573a","file":"http:\/\/rdfile.oss-cn-hangzhou.aliyuncs.com\/filemanage\/init\/audio\/70167441.mp3?nonce=39e49d7ff8c12ff4993bda11660f75ba","cover":"","updatetime":"1697698057","height":0,"width":0,"video":"","sort":0,"version":157,"cover2":"","appkey":"init","duration":12,"extra":{},"polyglot":[],"category":"63162629,","audit":0,"is_ugc":0,"type":"audio"},{"id":"1024869","ufid":"30579085","name":"\u73a9\u73a9\u6ca1\u60f3\u5230\u523a\u5566\u8f6c\u573a","file":"http:\/\/rdfile.oss-cn-hangzhou.aliyuncs.com\/filemanage\/init\/audio\/30579085.mp3?nonce=39e49d7ff8c12ff4993bda11660f75ba","cover":"","updatetime":"1697698057","height":0,"width":0,"video":"","sort":0,"version":157,"cover2":"","appkey":"init","duration":1,"extra":{},"polyglot":[],"category":"63162629,","audit":0,"is_ugc":0,"type":"audio"},{"id":"1024868","ufid":"94937953","name":"\u65f6\u5c1a\u9ad8\u7aef\u8f6c\u573a","file":"http:\/\/rdfile.oss-cn-hangzhou.aliyuncs.com\/filemanage\/init\/audio\/94937953.mp3?nonce=39e49d7ff8c12ff4993bda11660f75ba","cover":"","updatetime":"1697698057","height":0,"width":0,"video":"","sort":0,"version":157,"cover2":"","appkey":"init","duration":35,"extra":{},"polyglot":[],"category":"63162629,","audit":0,"is_ugc":0,"type":"audio"},{"id":"1024867","ufid":"94681498","name":"\u5c11\u513f\u8282\u76ee\u8f6c\u573a","file":"http:\/\/rdfile.oss-cn-hangzhou.aliyuncs.com\/filemanage\/init\/audio\/94681498.mp3?nonce=39e49d7ff8c12ff4993bda11660f75ba","cover":"","updatetime":"1697698057","height":0,"width":0,"video":"","sort":0,"version":157,"cover2":"","appkey":"init","duration":11,"extra":{},"polyglot":[],"category":"63162629,","audit":0,"is_ugc":0,"type":"audio"},{"id":"1024866","ufid":"62835523","name":"\u5e74\u540e\u8f6c\u573a\u5f3a\u70c8\u97f3\u6548","file":"http:\/\/rdfile.oss-cn-hangzhou.aliyuncs.com\/filemanage\/init\/audio\/62835523.mp3?nonce=39e49d7ff8c12ff4993bda11660f75ba","cover":"","updatetime":"1697698057","height":0,"width":0,"video":"","sort":0,"version":157,"cover2":"","appkey":"init","duration":5,"extra":{},"polyglot":[],"category":"63162629,","audit":0,"is_ugc":0,"type":"audio"},{"id":"1024865","ufid":"12811679","name":"\u597d\u83b1\u575e\u5927\u7247\u8f6c\u573a","file":"http:\/\/rdfile.oss-cn-hangzhou.aliyuncs.com\/filemanage\/init\/audio\/12811679.mp3?nonce=1a885b7bede3ec2e9e16fb08704c7546","cover":"","updatetime":"1697698056","height":0,"width":0,"video":"","sort":0,"version":157,"cover2":"","appkey":"init","duration":2,"extra":{},"polyglot":[],"category":"63162629,","audit":0,"is_ugc":0,"type":"audio"},{"id":"1024864","ufid":"56842050","name":"\u641e\u602a\u60ca\u559c\u8f6c\u573a","file":"http:\/\/rdfile.oss-cn-hangzhou.aliyuncs.com\/filemanage\/init\/audio\/56842050.mp3?nonce=1a885b7bede3ec2e9e16fb08704c7546","cover":"","updatetime":"1697698056","height":0,"width":0,"video":"","sort":0,"version":157,"cover2":"","appkey":"init","duration":10,"extra":{},"polyglot":[],"category":"63162629,","audit":0,"is_ugc":0,"type":"audio"},{"id":"1024863","ufid":"45160907","name":"\u98de\u884c\u53d8\u6362\u8f6c\u573a","file":"http:\/\/rdfile.oss-cn-hangzhou.aliyuncs.com\/filemanage\/init\/audio\/45160907.mp3?nonce=1a885b7bede3ec2e9e16fb08704c7546","cover":"","updatetime":"1697698056","height":0,"width":0,"video":"","sort":0,"version":157,"cover2":"","appkey":"init","duration":25,"extra":{},"polyglot":[],"category":"63162629,","audit":0,"is_ugc":0,"type":"audio"},{"id":"1024862","ufid":"84987544","name":"\u52a8\u753b\u590d\u53e4\u8f6c\u573a","file":"http:\/\/rdfile.oss-cn-hangzhou.aliyuncs.com\/filemanage\/init\/audio\/84987544.mp3?nonce=92a943353169027ce3da4053661aae00","cover":"","updatetime":"1697698055","height":0,"width":0,"video":"","sort":0,"version":157,"cover2":"","appkey":"init","duration":24,"extra":{},"polyglot":[],"category":"63162629,","audit":0,"is_ugc":0,"type":"audio"},{"id":"1024861","ufid":"13537192","name":"\u7535\u5f71\u54bb\u8f6c\u573a","file":"http:\/\/rdfile.oss-cn-hangzhou.aliyuncs.com\/filemanage\/init\/audio\/13537192.mp3?nonce=92a943353169027ce3da4053661aae00","cover":"","updatetime":"1697698055","height":0,"width":0,"video":"","sort":0,"version":157,"cover2":"","appkey":"init","duration":2,"extra":{},"polyglot":[],"category":"63162629,","audit":0,"is_ugc":0,"type":"audio"},{"id":"1024860","ufid":"56141095","name":"\u7a7f\u8d8a\u56de\u5fc6\u8f6c\u573a","file":"http:\/\/rdfile.oss-cn-hangzhou.aliyuncs.com\/filemanage\/init\/audio\/56141095.mp3?nonce=92a943353169027ce3da4053661aae00","cover":"","updatetime":"1697698055","height":0,"width":0,"video":"","sort":0,"version":157,"cover2":"","appkey":"init","duration":38,"extra":{},"polyglot":[],"category":"63162629,","audit":0,"is_ugc":0,"type":"audio"},{"id":"1024798","ufid":"41317648","name":"\u91cd\u91d1\u5c5e\u70ab\u9177\u8f6c\u573a","file":"http:\/\/rdfile.oss-cn-hangzhou.aliyuncs.com\/filemanage\/init\/audio\/41317648.mp3?nonce=360fa320309aa440d8315b3b1c1cd33b","cover":"","updatetime":"1697698093","height":0,"width":0,"video":"","sort":0,"version":157,"cover2":"","appkey":"init","duration":2,"extra":{},"polyglot":[],"category":"63162629,","audit":0,"is_ugc":0,"type":"audio"},{"id":"1024797","ufid":"13745840","name":"\u91cd\u51fb\u51fb\u6253\u9707\u64bc\u8f6c\u573a","file":"http:\/\/rdfile.oss-cn-hangzhou.aliyuncs.com\/filemanage\/init\/audio\/13745840.mp3?nonce=64aa3b2a8b8294a7df2ffc288d557e27","cover":"","updatetime":"1697698092","height":0,"width":0,"video":"","sort":0,"version":157,"cover2":"","appkey":"init","duration":2,"extra":{},"polyglot":[],"category":"63162629,","audit":0,"is_ugc":0,"type":"audio"},{"id":"1024796","ufid":"58284190","name":"\u906e\u7f69\u98ce\u5439\u5feb\u901f\u8f6c\u573a","file":"http:\/\/rdfile.oss-cn-hangzhou.aliyuncs.com\/filemanage\/init\/audio\/58284190.mp3?nonce=64aa3b2a8b8294a7df2ffc288d557e27","cover":"","updatetime":"1697698092","height":0,"width":0,"video":"","sort":0,"version":157,"cover2":"","appkey":"init","duration":2,"extra":{},"polyglot":[],"category":"63162629,","audit":0,"is_ugc":0,"type":"audio"},{"id":"1024795","ufid":"98246832","name":"\u9634\u68ee\u6050\u6016\u60ac\u7591\u6697\u9ed1\u98ce","file":"http:\/\/rdfile.oss-cn-hangzhou.aliyuncs.com\/filemanage\/init\/audio\/98246832.mp3?nonce=64aa3b2a8b8294a7df2ffc288d557e27","cover":"","updatetime":"1697698092","height":0,"width":0,"video":"","sort":0,"version":157,"cover2":"","appkey":"init","duration":2,"extra":{},"polyglot":[],"category":"63162629,","audit":0,"is_ugc":0,"type":"audio"},{"id":"1024794","ufid":"67046277","name":"\u60ac\u7591\u9707\u64bc\u5927\u6c14\u60ca\u609a\u8f6c\u573a","file":"http:\/\/rdfile.oss-cn-hangzhou.aliyuncs.com\/filemanage\/init\/audio\/67046277.mp3?nonce=64aa3b2a8b8294a7df2ffc288d557e27","cover":"","updatetime":"1697698092","height":0,"width":0,"video":"","sort":0,"version":157,"cover2":"","appkey":"init","duration":3,"extra":{},"polyglot":[],"category":"63162629,","audit":0,"is_ugc":0,"type":"audio"},{"id":"1024793","ufid":"96624659","name":"\u6b66\u4fa0\u5267\u5feb\u901f\u8f6c\u573a","file":"http:\/\/rdfile.oss-cn-hangzhou.aliyuncs.com\/filemanage\/init\/audio\/96624659.mp3?nonce=d129f31d032043fdd1d86e2bf08da0f1","cover":"","updatetime":"1697698091","height":0,"width":0,"video":"","sort":0,"version":157,"cover2":"","appkey":"init","duration":2,"extra":{},"polyglot":[],"category":"63162629,","audit":0,"is_ugc":0,"type":"audio"},{"id":"1024792","ufid":"98504199","name":"\u6b66\u4fa0\u97ad\u5b50\u98ce\u58f0\u6781\u901f\u8f6c\u573a","file":"http:\/\/rdfile.oss-cn-hangzhou.aliyuncs.com\/filemanage\/init\/audio\/98504199.mp3?nonce=d129f31d032043fdd1d86e2bf08da0f1","cover":"","updatetime":"1697698091","height":0,"width":0,"video":"","sort":0,"version":157,"cover2":"","appkey":"init","duration":1,"extra":{},"polyglot":[],"category":"63162629,","audit":0,"is_ugc":0,"type":"audio"},{"id":"1024791","ufid":"96917111","name":"\u7b4b\u6597\u4e91","file":"http:\/\/rdfile.oss-cn-hangzhou.aliyuncs.com\/filemanage\/init\/audio\/96917111.mp3?nonce=d129f31d032043fdd1d86e2bf08da0f1","cover":"","updatetime":"1697698091","height":0,"width":0,"video":"","sort":0,"version":157,"cover2":"","appkey":"init","duration":7,"extra":{},"polyglot":[],"category":"63162629,","audit":0,"is_ugc":0,"type":"audio"},{"id":"1024790","ufid":"32068746","name":"\u6781\u901f\u8f6c\u573a\u97f3\u6548","file":"http:\/\/rdfile.oss-cn-hangzhou.aliyuncs.com\/filemanage\/init\/audio\/32068746.mp3?nonce=d129f31d032043fdd1d86e2bf08da0f1","cover":"","updatetime":"1697698091","height":0,"width":0,"video":"","sort":0,"version":157,"cover2":"","appkey":"init","duration":1,"extra":{},"polyglot":[],"category":"63162629,","audit":0,"is_ugc":0,"type":"audio"}]}}