{"code":0,"msg":"success","data":{"total":21,"per_page":20,"current_page":1,"last_page":2,"data":[{"id":"1024806","ufid":"16212195","name":"\u4e0b\u96e8\u58f0","file":"http:\/\/rdfile.oss-cn-hangzhou.aliyuncs.com\/filemanage\/init\/audio\/16212195.mp3?nonce=aadd3fc542ba274b20ed962e49007411","cover":"","updatetime":"1697698095","height":0,"width":0,"video":"","sort":0,"version":157,"cover2":"","appkey":"init","duration":30,"extra":{},"polyglot":[],"category":"63659883,","audit":0,"is_ugc":0,"type":"audio"},{"id":"1024805","ufid":"53958828","name":"\u7834\u51b0\u58f0","file":"http:\/\/rdfile.oss-cn-hangzhou.aliyuncs.com\/filemanage\/init\/audio\/53958828.mp3?nonce=079043e1bf52409ef4f042cef9c853d5","cover":"","updatetime":"1697698094","height":0,"width":0,"video":"","sort":0,"version":157,"cover2":"","appkey":"init","duration":3,"extra":{},"polyglot":[],"category":"63659883,","audit":0,"is_ugc":0,"type":"audio"},{"id":"1024804","ufid":"74795609","name":"\u6728\u5934\u649e\u51fb","file":"http:\/\/rdfile.oss-cn-hangzhou.aliyuncs.com\/filemanage\/init\/audio\/74795609.mp3?nonce=079043e1bf52409ef4f042cef9c853d5","cover":"","updatetime":"1697698094","height":0,"width":0,"video":"","sort":0,"version":157,"cover2":"","appkey":"init","duration":3,"extra":{},"polyglot":[],"category":"63659883,","audit":0,"is_ugc":0,"type":"audio"},{"id":"1024803","ufid":"10166971","name":"\u706b\u7130\u71c3\u70e7","file":"http:\/\/rdfile.oss-cn-hangzhou.aliyuncs.com\/filemanage\/init\/audio\/10166971.mp3?nonce=079043e1bf52409ef4f042cef9c853d5","cover":"","updatetime":"1697698094","height":0,"width":0,"video":"","sort":0,"version":157,"cover2":"","appkey":"init","duration":45,"extra":{},"polyglot":[],"category":"63659883,","audit":0,"is_ugc":0,"type":"audio"},{"id":"1024802","ufid":"54173957","name":"\u5212\u706b\u67f4","file":"http:\/\/rdfile.oss-cn-hangzhou.aliyuncs.com\/filemanage\/init\/audio\/54173957.mp3?nonce=079043e1bf52409ef4f042cef9c853d5","cover":"","updatetime":"1697698094","height":0,"width":0,"video":"","sort":0,"version":157,"cover2":"","appkey":"init","duration":2,"extra":{},"polyglot":[],"category":"63659883,","audit":0,"is_ugc":0,"type":"audio"},{"id":"1024801","ufid":"69159869","name":"\u6e56\u6c34\u6ce2\u6d6a","file":"http:\/\/rdfile.oss-cn-hangzhou.aliyuncs.com\/filemanage\/init\/audio\/69159869.mp3?nonce=360fa320309aa440d8315b3b1c1cd33b","cover":"","updatetime":"1697698093","height":0,"width":0,"video":"","sort":0,"version":157,"cover2":"","appkey":"init","duration":15,"extra":{},"polyglot":[],"category":"63659883,","audit":0,"is_ugc":0,"type":"audio"},{"id":"1024800","ufid":"47347930","name":"\u98ce\u5439\u8fc7","file":"http:\/\/rdfile.oss-cn-hangzhou.aliyuncs.com\/filemanage\/init\/audio\/47347930.mp3?nonce=360fa320309aa440d8315b3b1c1cd33b","cover":"","updatetime":"1697698093","height":0,"width":0,"video":"","sort":0,"version":157,"cover2":"","appkey":"init","duration":15,"extra":{},"polyglot":[],"category":"63659883,","audit":0,"is_ugc":0,"type":"audio"},{"id":"1024799","ufid":"30059482","name":"\u5927\u6d77\u6ce2\u6d9b","file":"http:\/\/rdfile.oss-cn-hangzhou.aliyuncs.com\/filemanage\/init\/audio\/30059482.mp3?nonce=360fa320309aa440d8315b3b1c1cd33b","cover":"","updatetime":"1697698093","height":0,"width":0,"video":"","sort":0,"version":157,"cover2":"","appkey":"init","duration":22,"extra":{},"polyglot":[],"category":"63659883,","audit":0,"is_ugc":0,"type":"audio"},{"id":"1024673","ufid":"58945392","name":"\u96ea\u4e2d\u884c\u8d70","file":"http:\/\/rdfile.oss-cn-hangzhou.aliyuncs.com\/filemanage\/init\/audio\/58945392.mp3?nonce=88c105db434008a10e10ca3c69d5dd57","cover":"","updatetime":"1697698348","height":0,"width":0,"video":"","sort":0,"version":157,"cover2":"","appkey":"init","duration":27,"extra":{},"polyglot":[],"category":"63659883,","audit":0,"is_ugc":0,"type":"audio"},{"id":"1024672","ufid":"23444749","name":"\u5c0f\u6cb3\u6d41\u6c34","file":"http:\/\/rdfile.oss-cn-hangzhou.aliyuncs.com\/filemanage\/init\/audio\/23444749.mp3?nonce=88c105db434008a10e10ca3c69d5dd57","cover":"","updatetime":"1697698348","height":0,"width":0,"video":"","sort":0,"version":157,"cover2":"","appkey":"init","duration":79,"extra":{},"polyglot":[],"category":"63659883,","audit":0,"is_ugc":0,"type":"audio"},{"id":"1024671","ufid":"66419247","name":"\u5929\u6c14\u73af\u5883\u96e8\u6797\u4e1b\u6797","file":"http:\/\/rdfile.oss-cn-hangzhou.aliyuncs.com\/filemanage\/init\/audio\/66419247.mp3?nonce=88c105db434008a10e10ca3c69d5dd57","cover":"","updatetime":"1697698348","height":0,"width":0,"video":"","sort":0,"version":157,"cover2":"","appkey":"init","duration":90,"extra":{},"polyglot":[],"category":"63659883,","audit":0,"is_ugc":0,"type":"audio"},{"id":"1024670","ufid":"28174097","name":"\u5929\u6c14\u73af\u5883\u98ce\u66b4","file":"http:\/\/rdfile.oss-cn-hangzhou.aliyuncs.com\/filemanage\/init\/audio\/28174097.mp3?nonce=7accf3d89b0902e7df6f3031d77e5e2f","cover":"","updatetime":"1697698347","height":0,"width":0,"video":"","sort":0,"version":157,"cover2":"","appkey":"init","duration":90,"extra":{},"polyglot":[],"category":"63659883,","audit":0,"is_ugc":0,"type":"audio"},{"id":"1024669","ufid":"12851442","name":"\u5929\u6c14\u98ce\u66b4\u95ea\u7535\u649e\u51fb\u88c2\u7f1d","file":"http:\/\/rdfile.oss-cn-hangzhou.aliyuncs.com\/filemanage\/init\/audio\/12851442.mp3?nonce=7accf3d89b0902e7df6f3031d77e5e2f","cover":"","updatetime":"1697698347","height":0,"width":0,"video":"","sort":0,"version":157,"cover2":"","appkey":"init","duration":11,"extra":{},"polyglot":[],"category":"63659883,","audit":0,"is_ugc":0,"type":"audio"},{"id":"1024668","ufid":"51762795","name":"\u5929\u6c14\u98ce\u66b4\u95ea\u7535","file":"http:\/\/rdfile.oss-cn-hangzhou.aliyuncs.com\/filemanage\/init\/audio\/51762795.mp3?nonce=7accf3d89b0902e7df6f3031d77e5e2f","cover":"","updatetime":"1697698347","height":0,"width":0,"video":"","sort":0,"version":157,"cover2":"","appkey":"init","duration":8,"extra":{},"polyglot":[],"category":"63659883,","audit":0,"is_ugc":0,"type":"audio"},{"id":"1024667","ufid":"77240088","name":"\u5929\u6c14\u5730\u9707\u9686\u9686\u4e9a\u97f3\u901f\u4f4e\u97f3","file":"http:\/\/rdfile.oss-cn-hangzhou.aliyuncs.com\/filemanage\/init\/audio\/77240088.mp3?nonce=7accf3d89b0902e7df6f3031d77e5e2f","cover":"","updatetime":"1697698347","height":0,"width":0,"video":"","sort":0,"version":157,"cover2":"","appkey":"init","duration":60,"extra":{},"polyglot":[],"category":"63659883,","audit":0,"is_ugc":0,"type":"audio"},{"id":"1024666","ufid":"12417744","name":"\u6d77\u6d6a\u51b2\u649e\u5ca9\u77f3","file":"http:\/\/rdfile.oss-cn-hangzhou.aliyuncs.com\/filemanage\/init\/audio\/12417744.mp3?nonce=7accf3d89b0902e7df6f3031d77e5e2f","cover":"","updatetime":"1697698347","height":0,"width":0,"video":"","sort":0,"version":157,"cover2":"","appkey":"init","duration":90,"extra":{},"polyglot":[],"category":"63659883,","audit":0,"is_ugc":0,"type":"audio"},{"id":"1024665","ufid":"60506085","name":"\u52a8\u7269\u73af\u5883\u4e1b\u6797\u96e8\u6797","file":"http:\/\/rdfile.oss-cn-hangzhou.aliyuncs.com\/filemanage\/init\/audio\/60506085.mp3?nonce=329614a3f0e6e2bab3428426c76c2fe4","cover":"","updatetime":"1697698346","height":0,"width":0,"video":"","sort":0,"version":157,"cover2":"","appkey":"init","duration":90,"extra":{},"polyglot":[],"category":"63659883,","audit":0,"is_ugc":0,"type":"audio"},{"id":"1024664","ufid":"72020034","name":"\u51ac\u5929\u51db\u51bd\u7684\u98ce\u58f0","file":"http:\/\/rdfile.oss-cn-hangzhou.aliyuncs.com\/filemanage\/init\/audio\/72020034.mp3?nonce=329614a3f0e6e2bab3428426c76c2fe4","cover":"","updatetime":"1697698346","height":0,"width":0,"video":"","sort":0,"version":157,"cover2":"","appkey":"init","duration":41,"extra":{},"polyglot":[],"category":"63659883,","audit":0,"is_ugc":0,"type":"audio"},{"id":"1024663","ufid":"72910213","name":"\u51ac\u5929\u522e\u5927\u98ce","file":"http:\/\/rdfile.oss-cn-hangzhou.aliyuncs.com\/filemanage\/init\/audio\/72910213.mp3?nonce=329614a3f0e6e2bab3428426c76c2fe4","cover":"","updatetime":"1697698346","height":0,"width":0,"video":"","sort":0,"version":157,"cover2":"","appkey":"init","duration":17,"extra":{},"polyglot":[],"category":"63659883,","audit":0,"is_ugc":0,"type":"audio"},{"id":"1024662","ufid":"71599765","name":"\u51ac\u5929\u5927\u98ce\u5927\u96ea","file":"http:\/\/rdfile.oss-cn-hangzhou.aliyuncs.com\/filemanage\/init\/audio\/71599765.mp3?nonce=329614a3f0e6e2bab3428426c76c2fe4","cover":"","updatetime":"1697698346","height":0,"width":0,"video":"","sort":0,"version":157,"cover2":"","appkey":"init","duration":34,"extra":{},"polyglot":[],"category":"63659883,","audit":0,"is_ugc":0,"type":"audio"}]}}