{"code":0,"msg":"success","data":{"total":102,"per_page":20,"current_page":1,"last_page":6,"data":[{"id":"1005525","ufid":"36493125","name":"Gorgeous2","file":"http:\/\/rdfile.oss-cn-hangzhou.aliyuncs.com\/filemanage\/init\/audio\/54\/3b735e4018d854c0b72ac9660e82de19\/126e21babf484977f65f3b177019aafe.mp3?nonce=553e26bf6f6425c4b6b589755d5dadad","cover":"","updatetime":"1697698030","height":0,"width":0,"video":"","sort":100,"version":0,"cover2":"","appkey":"init","duration":7,"extra":{},"polyglot":{"en":"Gorgeous2"},"category":"79079757,","audit":0,"is_ugc":0,"type":"audio"},{"id":"1005524","ufid":"32089993","name":"Gorgeous1","file":"http:\/\/rdfile.oss-cn-hangzhou.aliyuncs.com\/filemanage\/init\/audio\/54\/3e90f6447f29c949899e737f725d81fc\/b8aad1e3d3f76048d87d0495841c19f6.mp3?nonce=553e26bf6f6425c4b6b589755d5dadad","cover":"","updatetime":"1697698030","height":0,"width":0,"video":"","sort":100,"version":0,"cover2":"","appkey":"init","duration":5,"extra":{},"polyglot":{"en":"Gorgeous1"},"category":"79079757,","audit":0,"is_ugc":0,"type":"audio"},{"id":"1005523","ufid":"39699059","name":"Mouth-spring2","file":"http:\/\/rdfile.oss-cn-hangzhou.aliyuncs.com\/filemanage\/init\/audio\/54\/581de6b2ec32418292e71580f08e6943\/0cf20d89ac76fde56be68722653a8047.mp3?nonce=40773a6b4a24ca0dfaa4dd9bf20333c9","cover":"","updatetime":"1697698020","height":0,"width":0,"video":"","sort":100,"version":0,"cover2":"","appkey":"init","duration":1,"extra":{},"polyglot":{"en":"Mouth-spring2"},"category":"79079757,","audit":0,"is_ugc":0,"type":"audio"},{"id":"1005522","ufid":"28351268","name":"Mouth-spring1","file":"http:\/\/rdfile.oss-cn-hangzhou.aliyuncs.com\/filemanage\/init\/audio\/54\/0249df8befcb82f62ab4505b3a406c89\/e4383ab2e10b05a7636282966d47c188.mp3?nonce=40773a6b4a24ca0dfaa4dd9bf20333c9","cover":"","updatetime":"1697698020","height":0,"width":0,"video":"","sort":100,"version":0,"cover2":"","appkey":"init","duration":2,"extra":{},"polyglot":{"en":"Mouth-spring1"},"category":"79079757,","audit":0,"is_ugc":0,"type":"audio"},{"id":"1005521","ufid":"37461145","name":"Osu3","file":"http:\/\/rdfile.oss-cn-hangzhou.aliyuncs.com\/filemanage\/init\/audio\/54\/86d49c8781d9ac1f6610f8ddd625eb04\/0bc4a2d0f880f4e87194d12adde6cd8d.mp3?nonce=d8723003b7c0d8729ce79a6ca1ad0f46","cover":"","updatetime":"1697698026","height":0,"width":0,"video":"","sort":100,"version":0,"cover2":"","appkey":"init","duration":2,"extra":{},"polyglot":{"en":"Osu3"},"category":"79079757,","audit":0,"is_ugc":0,"type":"audio"},{"id":"1005520","ufid":"16592229","name":"Osu2","file":"http:\/\/rdfile.oss-cn-hangzhou.aliyuncs.com\/filemanage\/init\/audio\/54\/8fb785444d0fab172ac7e79ddf395da8\/4dc0440d83d3bd304d677aa0ae910812.mp3?nonce=d8723003b7c0d8729ce79a6ca1ad0f46","cover":"","updatetime":"1697698026","height":0,"width":0,"video":"","sort":100,"version":0,"cover2":"","appkey":"init","duration":3,"extra":{},"polyglot":{"en":"Osu2"},"category":"79079757,","audit":0,"is_ugc":0,"type":"audio"},{"id":"1005519","ufid":"16966390","name":"Osu1","file":"http:\/\/rdfile.oss-cn-hangzhou.aliyuncs.com\/filemanage\/init\/audio\/54\/656646c8fc60fa13ff6e87ab2bc1b2ad\/f5e044d2329c5dc4a51d3ee37e081da8.mp3?nonce=cfcd208495d565ef66e7dff9f98764da","cover":"","updatetime":"0","height":0,"width":0,"video":"","sort":100,"version":0,"cover2":"","appkey":"init","duration":3,"extra":{},"polyglot":{"en":"Osu1"},"category":"79079757,","audit":0,"is_ugc":0,"type":"audio"},{"id":"1005518","ufid":"16595442","name":"Plug","file":"http:\/\/rdfile.oss-cn-hangzhou.aliyuncs.com\/filemanage\/init\/audio\/54\/b9fee05fce9330486204cbb0777a0c56\/f5da87710ec23425387a75e70a9c35b7.mp3?nonce=8180ac7948668ebe700872eedd98e6eb","cover":"","updatetime":"1697698012","height":0,"width":0,"video":"","sort":100,"version":0,"cover2":"","appkey":"init","duration":1,"extra":{},"polyglot":{"en":"Plug"},"category":"79079757,","audit":0,"is_ugc":0,"type":"audio"},{"id":"1005517","ufid":"87023807","name":"Open The Bottle","file":"http:\/\/rdfile.oss-cn-hangzhou.aliyuncs.com\/filemanage\/init\/audio\/54\/976f6f491d4cd9f62f3cfe392107387c\/dc3a71f5aecd44dbc6ed9d9e1bb5dfb6.mp3?nonce=acdd54b12c64fca423391dfbb080afa6","cover":"","updatetime":"1697698019","height":0,"width":0,"video":"","sort":100,"version":0,"cover2":"","appkey":"init","duration":1,"extra":{},"polyglot":{"en":"Open The Bottle"},"category":"79079757,","audit":0,"is_ugc":0,"type":"audio"},{"id":"1005516","ufid":"68668809","name":"Slap The Palm","file":"http:\/\/rdfile.oss-cn-hangzhou.aliyuncs.com\/filemanage\/init\/audio\/54\/774d140fb9a8941201299c4fccafabf2\/43100b778f634226292d48a565b1a279.mp3?nonce=f3cf3435dadc76d3bcb4e1d28310fc51","cover":"","updatetime":"1697698024","height":0,"width":0,"video":"","sort":100,"version":0,"cover2":"","appkey":"init","duration":1,"extra":{},"polyglot":{"en":"Slap The Palm"},"category":"79079757,","audit":0,"is_ugc":0,"type":"audio"},{"id":"1005515","ufid":"16079785","name":"Extend","file":"http:\/\/rdfile.oss-cn-hangzhou.aliyuncs.com\/filemanage\/init\/audio\/54\/2280f4442ad96476a50e9d7a6b8217ff\/ae885c26fa0c95b376daf44933e43a57.mp3?nonce=553e26bf6f6425c4b6b589755d5dadad","cover":"","updatetime":"1697698030","height":0,"width":0,"video":"","sort":100,"version":0,"cover2":"","appkey":"init","duration":1,"extra":{},"polyglot":{"en":"Extend"},"category":"79079757,","audit":0,"is_ugc":0,"type":"audio"},{"id":"1005514","ufid":"87207968","name":"Trumpet ","file":"http:\/\/rdfile.oss-cn-hangzhou.aliyuncs.com\/filemanage\/init\/audio\/54\/fa4d009dfcff41a389598ea6d4ea1e69\/a365efac7c361d08ba40c006e36d0272.mp3?nonce=2ede21bc40e72b4e1aa6caa502842a5f","cover":"","updatetime":"1697698029","height":0,"width":0,"video":"","sort":100,"version":0,"cover2":"","appkey":"init","duration":1,"extra":{},"polyglot":{"en":"Trumpet "},"category":"79079757,","audit":0,"is_ugc":0,"type":"audio"},{"id":"1005513","ufid":"20384430","name":"Cash Register ","file":"http:\/\/rdfile.oss-cn-hangzhou.aliyuncs.com\/filemanage\/init\/audio\/54\/aa7ac7e726b1aebdaf88e8c5a5544a79\/608ee8a20ac90b73cd9e24c5b259058a.mp3?nonce=ef65bcb332fe240fcc340dbebbc181c8","cover":"","updatetime":"1697698025","height":0,"width":0,"video":"","sort":100,"version":0,"cover2":"","appkey":"init","duration":2,"extra":{},"polyglot":{"en":"Cash Register "},"category":"79079757,","audit":0,"is_ugc":0,"type":"audio"},{"id":"1005512","ufid":"76163715","name":"Trumpet","file":"http:\/\/rdfile.oss-cn-hangzhou.aliyuncs.com\/filemanage\/init\/audio\/54\/1aa5126c9056c4791450a1fd9eefeb65\/5f026fdd093d9b3bb9069b34d37bb9e7.mp3?nonce=2ede21bc40e72b4e1aa6caa502842a5f","cover":"","updatetime":"1697698029","height":0,"width":0,"video":"","sort":100,"version":0,"cover2":"","appkey":"init","duration":2,"extra":{},"polyglot":{"en":"Trumpet"},"category":"79079757,","audit":0,"is_ugc":0,"type":"audio"},{"id":"1005511","ufid":"99942540","name":"Glass Breaking","file":"http:\/\/rdfile.oss-cn-hangzhou.aliyuncs.com\/filemanage\/init\/audio\/54\/5234af08c9c079549a8effd6a7b69e8d\/cc47fce162485862093d22f468d2ba5b.mp3?nonce=8180ac7948668ebe700872eedd98e6eb","cover":"","updatetime":"1697698012","height":0,"width":0,"video":"","sort":100,"version":0,"cover2":"","appkey":"init","duration":1,"extra":{},"polyglot":{"en":"Glass Breaking"},"category":"79079757,","audit":0,"is_ugc":0,"type":"audio"},{"id":"1005510","ufid":"99172532","name":"Reduce","file":"http:\/\/rdfile.oss-cn-hangzhou.aliyuncs.com\/filemanage\/init\/audio\/54\/8fac84c9c0767ca7450122b639f44838\/4ec7c1f5ec398d0cf16867c4f3c9a8cb.mp3?nonce=d8723003b7c0d8729ce79a6ca1ad0f46","cover":"","updatetime":"1697698026","height":0,"width":0,"video":"","sort":100,"version":0,"cover2":"","appkey":"init","duration":1,"extra":{},"polyglot":{"en":"Reduce"},"category":"79079757,","audit":0,"is_ugc":0,"type":"audio"},{"id":"1005509","ufid":"70244589","name":"Maintenance In Progress","file":"http:\/\/rdfile.oss-cn-hangzhou.aliyuncs.com\/filemanage\/init\/audio\/54\/53d903ebc03cced40868d6f6b78a7fce\/51481ff3ad1af5cba3a47bfaaf80e331.mp3?nonce=cfcd208495d565ef66e7dff9f98764da","cover":"","updatetime":"0","height":0,"width":0,"video":"","sort":100,"version":0,"cover2":"","appkey":"init","duration":2,"extra":{},"polyglot":{"en":"Maintenance In Progress"},"category":"79079757,","audit":0,"is_ugc":0,"type":"audio"},{"id":"1005508","ufid":"72242939","name":"Lighter ","file":"http:\/\/rdfile.oss-cn-hangzhou.aliyuncs.com\/filemanage\/init\/audio\/54\/11b6c2894ad0188c2ffd41174b193726\/b46fb2ef43f9aef9107c5c380bda2c14.mp3?nonce=92418649a5d5ec988d305ea36165522d","cover":"","updatetime":"1697698314","height":0,"width":0,"video":"","sort":100,"version":0,"cover2":"","appkey":"init","duration":2,"extra":{},"polyglot":{"en":"Lighter "},"category":"79079757,","audit":0,"is_ugc":0,"type":"audio"},{"id":"1005507","ufid":"75223823","name":"The Plate Is Broken","file":"http:\/\/rdfile.oss-cn-hangzhou.aliyuncs.com\/filemanage\/init\/audio\/54\/cca6ee0a44e2f020fbcdf453d4adb991\/7b7d99f42306dbb80d1ff6a41744b2c5.mp3?nonce=915ee8b64826eb52121e9c363a024819","cover":"","updatetime":"1697698022","height":0,"width":0,"video":"","sort":100,"version":0,"cover2":"","appkey":"init","duration":1,"extra":{},"polyglot":{"en":"The Plate Is Broken"},"category":"79079757,","audit":0,"is_ugc":0,"type":"audio"},{"id":"1005506","ufid":"94851606","name":"Alluvial Gold","file":"http:\/\/rdfile.oss-cn-hangzhou.aliyuncs.com\/filemanage\/init\/audio\/54\/2939bf27602587c23cf227c8a2857d08\/6fc69a8e0d9e4e87b34005f0350e1c17.mp3?nonce=f3cf3435dadc76d3bcb4e1d28310fc51","cover":"","updatetime":"1697698024","height":0,"width":0,"video":"","sort":100,"version":0,"cover2":"","appkey":"init","duration":2,"extra":{},"polyglot":{"en":"Alluvial Gold"},"category":"79079757,","audit":0,"is_ugc":0,"type":"audio"}]}}