{"code":0,"msg":"success","data":{"total":38,"per_page":20,"current_page":1,"last_page":2,"data":[{"id":"1019607","ufid":"67088538","name":"\u96e8\u6ef4","file":"http:\/\/rdfile.oss-cn-hangzhou.aliyuncs.com\/filemanage\/init\/audio\/67088538.mp3?nonce=cfcd208495d565ef66e7dff9f98764da","cover":"http:\/\/rdfile.oss-cn-hangzhou.aliyuncs.com\/filemanage\/init\/audio\/67088538.jpeg?nonce=cfcd208495d565ef66e7dff9f98764da","updatetime":"0","height":0,"width":0,"video":"","sort":0,"version":0,"cover2":"","appkey":"init","duration":41,"extra":{},"polyglot":[],"category":"0","audit":0,"is_ugc":0,"type":"audio"},{"id":"1019606","ufid":"93764696","name":"\u5ca9\u77f3\u6eda\u843d","file":"http:\/\/rdfile.oss-cn-hangzhou.aliyuncs.com\/filemanage\/init\/audio\/93764696.mp3?nonce=cfcd208495d565ef66e7dff9f98764da","cover":"http:\/\/rdfile.oss-cn-hangzhou.aliyuncs.com\/filemanage\/init\/audio\/93764696.jpeg?nonce=cfcd208495d565ef66e7dff9f98764da","updatetime":"0","height":0,"width":0,"video":"","sort":0,"version":0,"cover2":"","appkey":"init","duration":7,"extra":{},"polyglot":[],"category":"0","audit":0,"is_ugc":0,"type":"audio"},{"id":"1019605","ufid":"80082292","name":"\u5ca9\u58c1\u5012\u4e0b","file":"http:\/\/rdfile.oss-cn-hangzhou.aliyuncs.com\/filemanage\/init\/audio\/80082292.mp3?nonce=cfcd208495d565ef66e7dff9f98764da","cover":"http:\/\/rdfile.oss-cn-hangzhou.aliyuncs.com\/filemanage\/init\/audio\/80082292.jpeg?nonce=cfcd208495d565ef66e7dff9f98764da","updatetime":"0","height":0,"width":0,"video":"","sort":0,"version":0,"cover2":"","appkey":"init","duration":5,"extra":{},"polyglot":[],"category":"0","audit":0,"is_ugc":0,"type":"audio"},{"id":"1019604","ufid":"20185350","name":"\u718a\u718a\u71c3\u70e7\u7684\u706b\u7130","file":"http:\/\/rdfile.oss-cn-hangzhou.aliyuncs.com\/filemanage\/init\/audio\/20185350.mp3?nonce=cfcd208495d565ef66e7dff9f98764da","cover":"http:\/\/rdfile.oss-cn-hangzhou.aliyuncs.com\/filemanage\/init\/audio\/20185350.jpeg?nonce=cfcd208495d565ef66e7dff9f98764da","updatetime":"0","height":0,"width":0,"video":"","sort":0,"version":0,"cover2":"","appkey":"init","duration":36,"extra":{},"polyglot":[],"category":"0","audit":0,"is_ugc":0,"type":"audio"},{"id":"1019603","ufid":"55376410","name":"\u5c0f\u96e8","file":"http:\/\/rdfile.oss-cn-hangzhou.aliyuncs.com\/filemanage\/init\/audio\/55376410.mp3?nonce=cfcd208495d565ef66e7dff9f98764da","cover":"http:\/\/rdfile.oss-cn-hangzhou.aliyuncs.com\/filemanage\/init\/audio\/55376410.jpeg?nonce=cfcd208495d565ef66e7dff9f98764da","updatetime":"0","height":0,"width":0,"video":"","sort":0,"version":0,"cover2":"","appkey":"init","duration":26,"extra":{},"polyglot":[],"category":"0","audit":0,"is_ugc":0,"type":"audio"},{"id":"1019602","ufid":"88796696","name":"\u6c34\u4e2d\u5192\u6ce1\u58f0","file":"http:\/\/rdfile.oss-cn-hangzhou.aliyuncs.com\/filemanage\/init\/audio\/88796696.mp3?nonce=cfcd208495d565ef66e7dff9f98764da","cover":"http:\/\/rdfile.oss-cn-hangzhou.aliyuncs.com\/filemanage\/init\/audio\/88796696.jpeg?nonce=cfcd208495d565ef66e7dff9f98764da","updatetime":"0","height":0,"width":0,"video":"","sort":0,"version":0,"cover2":"","appkey":"init","duration":20,"extra":{},"polyglot":[],"category":"0","audit":0,"is_ugc":0,"type":"audio"},{"id":"1019601","ufid":"61859311","name":"\u6c34\u4e0b\u6c1b\u56f4\u58f0","file":"http:\/\/rdfile.oss-cn-hangzhou.aliyuncs.com\/filemanage\/init\/audio\/61859311.mp3?nonce=cfcd208495d565ef66e7dff9f98764da","cover":"http:\/\/rdfile.oss-cn-hangzhou.aliyuncs.com\/filemanage\/init\/audio\/61859311.jpeg?nonce=cfcd208495d565ef66e7dff9f98764da","updatetime":"0","height":0,"width":0,"video":"","sort":0,"version":0,"cover2":"","appkey":"init","duration":28,"extra":{},"polyglot":[],"category":"0","audit":0,"is_ugc":0,"type":"audio"},{"id":"1019600","ufid":"96687507","name":"\u6c34\u6ef4\u58f02","file":"http:\/\/rdfile.oss-cn-hangzhou.aliyuncs.com\/filemanage\/init\/audio\/96687507.mp3?nonce=cfcd208495d565ef66e7dff9f98764da","cover":"http:\/\/rdfile.oss-cn-hangzhou.aliyuncs.com\/filemanage\/init\/audio\/96687507.jpeg?nonce=cfcd208495d565ef66e7dff9f98764da","updatetime":"0","height":0,"width":0,"video":"","sort":0,"version":0,"cover2":"","appkey":"init","duration":0,"extra":{},"polyglot":[],"category":"0","audit":0,"is_ugc":0,"type":"audio"},{"id":"1019599","ufid":"27512785","name":"\u6c34\u6ef4\u58f0","file":"http:\/\/rdfile.oss-cn-hangzhou.aliyuncs.com\/filemanage\/init\/audio\/27512785.mp3?nonce=cfcd208495d565ef66e7dff9f98764da","cover":"http:\/\/rdfile.oss-cn-hangzhou.aliyuncs.com\/filemanage\/init\/audio\/27512785.jpeg?nonce=cfcd208495d565ef66e7dff9f98764da","updatetime":"0","height":0,"width":0,"video":"","sort":0,"version":0,"cover2":"","appkey":"init","duration":13,"extra":{},"polyglot":[],"category":"0","audit":0,"is_ugc":0,"type":"audio"},{"id":"1019598","ufid":"66668080","name":"\u6811\u679d\u6446\u52a8\u58f0","file":"http:\/\/rdfile.oss-cn-hangzhou.aliyuncs.com\/filemanage\/init\/audio\/66668080.mp3?nonce=cfcd208495d565ef66e7dff9f98764da","cover":"http:\/\/rdfile.oss-cn-hangzhou.aliyuncs.com\/filemanage\/init\/audio\/66668080.jpeg?nonce=cfcd208495d565ef66e7dff9f98764da","updatetime":"0","height":0,"width":0,"video":"","sort":0,"version":0,"cover2":"","appkey":"init","duration":30,"extra":{},"polyglot":[],"category":"0","audit":0,"is_ugc":0,"type":"audio"},{"id":"1019597","ufid":"34455723","name":"\u6572\u95e82","file":"http:\/\/rdfile.oss-cn-hangzhou.aliyuncs.com\/filemanage\/init\/audio\/34455723.mp3?nonce=cfcd208495d565ef66e7dff9f98764da","cover":"http:\/\/rdfile.oss-cn-hangzhou.aliyuncs.com\/filemanage\/init\/audio\/34455723.jpeg?nonce=cfcd208495d565ef66e7dff9f98764da","updatetime":"0","height":0,"width":0,"video":"","sort":0,"version":0,"cover2":"","appkey":"init","duration":2,"extra":{},"polyglot":[],"category":"0","audit":0,"is_ugc":0,"type":"audio"},{"id":"1019596","ufid":"66928137","name":"\u5f3a\u52b2\u7684\u98ce\u58f0","file":"http:\/\/rdfile.oss-cn-hangzhou.aliyuncs.com\/filemanage\/init\/audio\/66928137.mp3?nonce=cfcd208495d565ef66e7dff9f98764da","cover":"http:\/\/rdfile.oss-cn-hangzhou.aliyuncs.com\/filemanage\/init\/audio\/66928137.jpeg?nonce=cfcd208495d565ef66e7dff9f98764da","updatetime":"0","height":0,"width":0,"video":"","sort":0,"version":0,"cover2":"","appkey":"init","duration":20,"extra":{},"polyglot":[],"category":"0","audit":0,"is_ugc":0,"type":"audio"},{"id":"1019595","ufid":"83588445","name":"\u6c14\u6ce1\u7834\u88c2","file":"http:\/\/rdfile.oss-cn-hangzhou.aliyuncs.com\/filemanage\/init\/audio\/83588445.mp3?nonce=cfcd208495d565ef66e7dff9f98764da","cover":"http:\/\/rdfile.oss-cn-hangzhou.aliyuncs.com\/filemanage\/init\/audio\/83588445.jpeg?nonce=cfcd208495d565ef66e7dff9f98764da","updatetime":"0","height":0,"width":0,"video":"","sort":0,"version":0,"cover2":"","appkey":"init","duration":10,"extra":{},"polyglot":[],"category":"0","audit":0,"is_ugc":0,"type":"audio"},{"id":"1019594","ufid":"27468868","name":"\u9e1f\u53eb\u866b\u9e23","file":"http:\/\/rdfile.oss-cn-hangzhou.aliyuncs.com\/filemanage\/init\/audio\/27468868.mp3?nonce=cfcd208495d565ef66e7dff9f98764da","cover":"http:\/\/rdfile.oss-cn-hangzhou.aliyuncs.com\/filemanage\/init\/audio\/27468868.jpeg?nonce=cfcd208495d565ef66e7dff9f98764da","updatetime":"0","height":0,"width":0,"video":"","sort":0,"version":0,"cover2":"","appkey":"init","duration":18,"extra":{},"polyglot":[],"category":"0","audit":0,"is_ugc":0,"type":"audio"},{"id":"1019593","ufid":"82990629","name":"\u5185\u9646\u9f99\u5377\u98ce","file":"http:\/\/rdfile.oss-cn-hangzhou.aliyuncs.com\/filemanage\/init\/audio\/82990629.mp3?nonce=cfcd208495d565ef66e7dff9f98764da","cover":"http:\/\/rdfile.oss-cn-hangzhou.aliyuncs.com\/filemanage\/init\/audio\/82990629.jpeg?nonce=cfcd208495d565ef66e7dff9f98764da","updatetime":"0","height":0,"width":0,"video":"","sort":0,"version":0,"cover2":"","appkey":"init","duration":9,"extra":{},"polyglot":[],"category":"0","audit":0,"is_ugc":0,"type":"audio"},{"id":"1019592","ufid":"20197062","name":"\u5192\u6ce1\u58f0","file":"http:\/\/rdfile.oss-cn-hangzhou.aliyuncs.com\/filemanage\/init\/audio\/20197062.mp3?nonce=cfcd208495d565ef66e7dff9f98764da","cover":"http:\/\/rdfile.oss-cn-hangzhou.aliyuncs.com\/filemanage\/init\/audio\/20197062.jpeg?nonce=cfcd208495d565ef66e7dff9f98764da","updatetime":"0","height":0,"width":0,"video":"","sort":0,"version":0,"cover2":"","appkey":"init","duration":12,"extra":{},"polyglot":[],"category":"0","audit":0,"is_ugc":0,"type":"audio"},{"id":"1019591","ufid":"42492488","name":"\u9f99\u5377\u98ce\u58f0","file":"http:\/\/rdfile.oss-cn-hangzhou.aliyuncs.com\/filemanage\/init\/audio\/42492488.mp3?nonce=cfcd208495d565ef66e7dff9f98764da","cover":"http:\/\/rdfile.oss-cn-hangzhou.aliyuncs.com\/filemanage\/init\/audio\/42492488.jpeg?nonce=cfcd208495d565ef66e7dff9f98764da","updatetime":"0","height":0,"width":0,"video":"","sort":0,"version":0,"cover2":"","appkey":"init","duration":50,"extra":{},"polyglot":[],"category":"0","audit":0,"is_ugc":0,"type":"audio"},{"id":"1019590","ufid":"63006929","name":"\u6d41\u6c34\u58f0","file":"http:\/\/rdfile.oss-cn-hangzhou.aliyuncs.com\/filemanage\/init\/audio\/63006929.mp3?nonce=cfcd208495d565ef66e7dff9f98764da","cover":"http:\/\/rdfile.oss-cn-hangzhou.aliyuncs.com\/filemanage\/init\/audio\/63006929.jpeg?nonce=cfcd208495d565ef66e7dff9f98764da","updatetime":"0","height":0,"width":0,"video":"","sort":0,"version":0,"cover2":"","appkey":"init","duration":12,"extra":{},"polyglot":[],"category":"0","audit":0,"is_ugc":0,"type":"audio"},{"id":"1019589","ufid":"34273819","name":"\u88c2\u89e3\u5730\u9707","file":"http:\/\/rdfile.oss-cn-hangzhou.aliyuncs.com\/filemanage\/init\/audio\/34273819.mp3?nonce=cfcd208495d565ef66e7dff9f98764da","cover":"http:\/\/rdfile.oss-cn-hangzhou.aliyuncs.com\/filemanage\/init\/audio\/34273819.jpeg?nonce=cfcd208495d565ef66e7dff9f98764da","updatetime":"0","height":0,"width":0,"video":"","sort":0,"version":0,"cover2":"","appkey":"init","duration":12,"extra":{},"polyglot":[],"category":"0","audit":0,"is_ugc":0,"type":"audio"},{"id":"1019588","ufid":"67205470","name":"\u96f7\u96e8\u58f0","file":"http:\/\/rdfile.oss-cn-hangzhou.aliyuncs.com\/filemanage\/init\/audio\/67205470.mp3?nonce=cfcd208495d565ef66e7dff9f98764da","cover":"http:\/\/rdfile.oss-cn-hangzhou.aliyuncs.com\/filemanage\/init\/audio\/67205470.jpeg?nonce=cfcd208495d565ef66e7dff9f98764da","updatetime":"0","height":0,"width":0,"video":"","sort":0,"version":0,"cover2":"","appkey":"init","duration":30,"extra":{},"polyglot":[],"category":"0","audit":0,"is_ugc":0,"type":"audio"}]}}