{"code":0,"msg":"success","data":{"total":86,"per_page":20,"current_page":1,"last_page":5,"data":[{"id":"1024834","ufid":"45771127","name":"\u6536\u96c6\u9707\u52a8","file":"http:\/\/rdfile.oss-cn-hangzhou.aliyuncs.com\/filemanage\/init\/audio\/45771127.mp3?nonce=90881307a60f7cba79497deabbdb4981","cover":"","updatetime":"1697698043","height":0,"width":0,"video":"","sort":0,"version":157,"cover2":"","appkey":"init","duration":4,"extra":{},"polyglot":[],"category":"90817263,","audit":0,"is_ugc":0,"type":"audio"},{"id":"1024564","ufid":"19611855","name":"\u94a5\u5319\u6389\u5230\u5730\u4e0a\u58f0","file":"http:\/\/rdfile.oss-cn-hangzhou.aliyuncs.com\/filemanage\/init\/audio\/19611855.mp3?nonce=f6af9cdd670a4901aad52dafba1d90a7","cover":"","updatetime":"1697698322","height":0,"width":0,"video":"","sort":0,"version":157,"cover2":"","appkey":"init","duration":1,"extra":{},"polyglot":[],"category":"90817263,","audit":0,"is_ugc":0,"type":"audio"},{"id":"1024563","ufid":"95336162","name":"\u96e8\u6253\u5728\u8f66\u7a97","file":"http:\/\/rdfile.oss-cn-hangzhou.aliyuncs.com\/filemanage\/init\/audio\/95336162.mp3?nonce=f6af9cdd670a4901aad52dafba1d90a7","cover":"","updatetime":"1697698322","height":0,"width":0,"video":"","sort":0,"version":157,"cover2":"","appkey":"init","duration":90,"extra":{},"polyglot":[],"category":"90817263,","audit":0,"is_ugc":0,"type":"audio"},{"id":"1024562","ufid":"80650733","name":"\u7528\u706b\u67f4\u76d2\u70b9\u7136\u706b\u67f4\u68d2","file":"http:\/\/rdfile.oss-cn-hangzhou.aliyuncs.com\/filemanage\/init\/audio\/80650733.mp3?nonce=2d8a0045b8721b42f1f02bcd94fe49d7","cover":"","updatetime":"1697698321","height":0,"width":0,"video":"","sort":0,"version":157,"cover2":"","appkey":"init","duration":3,"extra":{},"polyglot":[],"category":"90817263,","audit":0,"is_ugc":0,"type":"audio"},{"id":"1024561","ufid":"27076998","name":"\u8840\u538b\u8bb0\u6cf5\u901f","file":"http:\/\/rdfile.oss-cn-hangzhou.aliyuncs.com\/filemanage\/init\/audio\/27076998.mp3?nonce=2d8a0045b8721b42f1f02bcd94fe49d7","cover":"","updatetime":"1697698321","height":0,"width":0,"video":"","sort":0,"version":157,"cover2":"","appkey":"init","duration":6,"extra":{},"polyglot":[],"category":"90817263,","audit":0,"is_ugc":0,"type":"audio"},{"id":"1024560","ufid":"98646961","name":"\u884c\u674e\u7bb1\u6eda\u8f6e\u58f0","file":"http:\/\/rdfile.oss-cn-hangzhou.aliyuncs.com\/filemanage\/init\/audio\/98646961.mp3?nonce=2d8a0045b8721b42f1f02bcd94fe49d7","cover":"","updatetime":"1697698321","height":0,"width":0,"video":"","sort":0,"version":157,"cover2":"","appkey":"init","duration":2,"extra":{},"polyglot":[],"category":"90817263,","audit":0,"is_ugc":0,"type":"audio"},{"id":"1024559","ufid":"67783165","name":"\u5438\u7ba1\u6233\u5976\u8336","file":"http:\/\/rdfile.oss-cn-hangzhou.aliyuncs.com\/filemanage\/init\/audio\/67783165.mp3?nonce=2d8a0045b8721b42f1f02bcd94fe49d7","cover":"","updatetime":"1697698321","height":0,"width":0,"video":"","sort":0,"version":157,"cover2":"","appkey":"init","duration":1,"extra":{},"polyglot":[],"category":"90817263,","audit":0,"is_ugc":0,"type":"audio"},{"id":"1024558","ufid":"36500531","name":"\u7269\u4f53\u7206\u70b8","file":"http:\/\/rdfile.oss-cn-hangzhou.aliyuncs.com\/filemanage\/init\/audio\/36500531.mp3?nonce=2d8a0045b8721b42f1f02bcd94fe49d7","cover":"","updatetime":"1697698321","height":0,"width":0,"video":"","sort":0,"version":157,"cover2":"","appkey":"init","duration":1,"extra":{},"polyglot":[],"category":"90817263,","audit":0,"is_ugc":0,"type":"audio"},{"id":"1024557","ufid":"36448593","name":"\u7269\u54c1\u843d\u5230\u783e\u77f3\u4e2d","file":"http:\/\/rdfile.oss-cn-hangzhou.aliyuncs.com\/filemanage\/init\/audio\/36448593.mp3?nonce=7a1d00a9e247e307f856d568d0fce8b1","cover":"","updatetime":"1697698320","height":0,"width":0,"video":"","sort":0,"version":157,"cover2":"","appkey":"init","duration":1,"extra":{},"polyglot":[],"category":"90817263,","audit":0,"is_ugc":0,"type":"audio"},{"id":"1024556","ufid":"81420452","name":"\u7269\u54c1\u4e22\u8fdb\u5783\u573e\u6876","file":"http:\/\/rdfile.oss-cn-hangzhou.aliyuncs.com\/filemanage\/init\/audio\/81420452.mp3?nonce=7a1d00a9e247e307f856d568d0fce8b1","cover":"","updatetime":"1697698320","height":0,"width":0,"video":"","sort":0,"version":157,"cover2":"","appkey":"init","duration":1,"extra":{},"polyglot":[],"category":"90817263,","audit":0,"is_ugc":0,"type":"audio"},{"id":"1024555","ufid":"23069461","name":"\u7269\u54c1\u6389\u843d\u6c34\u6ce5\u5730","file":"http:\/\/rdfile.oss-cn-hangzhou.aliyuncs.com\/filemanage\/init\/audio\/23069461.mp3?nonce=7a1d00a9e247e307f856d568d0fce8b1","cover":"","updatetime":"1697698320","height":0,"width":0,"video":"","sort":0,"version":157,"cover2":"","appkey":"init","duration":1,"extra":{},"polyglot":[],"category":"90817263,","audit":0,"is_ugc":0,"type":"audio"},{"id":"1024554","ufid":"65398724","name":"\u7269\u54c1\u6389\u843d\u5730\u677f","file":"http:\/\/rdfile.oss-cn-hangzhou.aliyuncs.com\/filemanage\/init\/audio\/65398724.mp3?nonce=7a1d00a9e247e307f856d568d0fce8b1","cover":"","updatetime":"1697698320","height":0,"width":0,"video":"","sort":0,"version":157,"cover2":"","appkey":"init","duration":1,"extra":{},"polyglot":[],"category":"90817263,","audit":0,"is_ugc":0,"type":"audio"},{"id":"1024553","ufid":"39648671","name":"\u62d6\u62c9\u6728\u5757","file":"http:\/\/rdfile.oss-cn-hangzhou.aliyuncs.com\/filemanage\/init\/audio\/39648671.mp3?nonce=a062d384d9420126379b11b9480c2ac0","cover":"","updatetime":"1697698319","height":0,"width":0,"video":"","sort":0,"version":157,"cover2":"","appkey":"init","duration":2,"extra":{},"polyglot":[],"category":"90817263,","audit":0,"is_ugc":0,"type":"audio"},{"id":"1024552","ufid":"68133346","name":"\u62d6\u52a8\u6905\u5b50","file":"http:\/\/rdfile.oss-cn-hangzhou.aliyuncs.com\/filemanage\/init\/audio\/68133346.mp3?nonce=a062d384d9420126379b11b9480c2ac0","cover":"","updatetime":"1697698319","height":0,"width":0,"video":"","sort":0,"version":157,"cover2":"","appkey":"init","duration":1,"extra":{},"polyglot":[],"category":"90817263,","audit":0,"is_ugc":0,"type":"audio"},{"id":"1024551","ufid":"63284142","name":"\u5851\u6599\u51fb\u6253\u6c34\u6ce5\u5730","file":"http:\/\/rdfile.oss-cn-hangzhou.aliyuncs.com\/filemanage\/init\/audio\/63284142.mp3?nonce=a062d384d9420126379b11b9480c2ac0","cover":"","updatetime":"1697698319","height":0,"width":0,"video":"","sort":0,"version":157,"cover2":"","appkey":"init","duration":1,"extra":{},"polyglot":[],"category":"90817263,","audit":0,"is_ugc":0,"type":"audio"},{"id":"1024550","ufid":"89025200","name":"\u6495\u5f00\u8584\u819c\u7eb8","file":"http:\/\/rdfile.oss-cn-hangzhou.aliyuncs.com\/filemanage\/init\/audio\/89025200.mp3?nonce=a062d384d9420126379b11b9480c2ac0","cover":"","updatetime":"1697698319","height":0,"width":0,"video":"","sort":0,"version":157,"cover2":"","appkey":"init","duration":1,"extra":{},"polyglot":[],"category":"90817263,","audit":0,"is_ugc":0,"type":"audio"},{"id":"1024549","ufid":"26787953","name":"\u53cc\u624b\u62cd\u6c34","file":"http:\/\/rdfile.oss-cn-hangzhou.aliyuncs.com\/filemanage\/init\/audio\/26787953.mp3?nonce=3a4aac4de01075640fe1daefe458b886","cover":"","updatetime":"1697698318","height":0,"width":0,"video":"","sort":0,"version":157,"cover2":"","appkey":"init","duration":1,"extra":{},"polyglot":[],"category":"90817263,","audit":0,"is_ugc":0,"type":"audio"},{"id":"1024548","ufid":"28774514","name":"\u65f6\u949f\u6307\u9488\u58f0","file":"http:\/\/rdfile.oss-cn-hangzhou.aliyuncs.com\/filemanage\/init\/audio\/28774514.mp3?nonce=3a4aac4de01075640fe1daefe458b886","cover":"","updatetime":"1697698318","height":0,"width":0,"video":"","sort":0,"version":157,"cover2":"","appkey":"init","duration":3,"extra":{},"polyglot":[],"category":"90817263,","audit":0,"is_ugc":0,"type":"audio"},{"id":"1024547","ufid":"97237216","name":"\u6572\u95e8","file":"http:\/\/rdfile.oss-cn-hangzhou.aliyuncs.com\/filemanage\/init\/audio\/97237216.mp3?nonce=3a4aac4de01075640fe1daefe458b886","cover":"","updatetime":"1697698318","height":0,"width":0,"video":"","sort":0,"version":157,"cover2":"","appkey":"init","duration":1,"extra":{},"polyglot":[],"category":"90817263,","audit":0,"is_ugc":0,"type":"audio"},{"id":"1024546","ufid":"86590170","name":"\u5899\u58c1\u706f\u5f00\u5173\u58f0","file":"http:\/\/rdfile.oss-cn-hangzhou.aliyuncs.com\/filemanage\/init\/audio\/86590170.mp3?nonce=3a4aac4de01075640fe1daefe458b886","cover":"","updatetime":"1697698318","height":0,"width":0,"video":"","sort":0,"version":157,"cover2":"","appkey":"init","duration":4,"extra":{},"polyglot":[],"category":"90817263,","audit":0,"is_ugc":0,"type":"audio"}]}}