{"code":0,"msg":"success","data":{"total":61,"per_page":20,"current_page":1,"last_page":4,"data":[{"id":"1024112","ufid":"73725014","name":"\u94b9\u51fb","file":"http:\/\/rdfile.oss-cn-hangzhou.aliyuncs.com\/filemanage\/init\/audio\/73725014.mp3?nonce=a91b24a96af7d816feadcbe958bb561a","cover":"","updatetime":"1697698207","height":0,"width":0,"video":"","sort":0,"version":157,"cover2":"","appkey":"init","duration":9,"extra":{},"polyglot":[],"category":"90925581,","audit":0,"is_ugc":0,"type":"audio"},{"id":"1024111","ufid":"29542507","name":"\u55d2\u54d2~\u5439\u53f7","file":"http:\/\/rdfile.oss-cn-hangzhou.aliyuncs.com\/filemanage\/init\/audio\/29542507.mp3?nonce=a91b24a96af7d816feadcbe958bb561a","cover":"","updatetime":"1697698207","height":0,"width":0,"video":"","sort":0,"version":157,"cover2":"","appkey":"init","duration":2,"extra":{},"polyglot":[],"category":"90925581,","audit":0,"is_ugc":0,"type":"audio"},{"id":"1024110","ufid":"52251719","name":"\u5522\u5450\u6f14\u594f","file":"http:\/\/rdfile.oss-cn-hangzhou.aliyuncs.com\/filemanage\/init\/audio\/52251719.mp3?nonce=a91b24a96af7d816feadcbe958bb561a","cover":"","updatetime":"1697698207","height":0,"width":0,"video":"","sort":0,"version":157,"cover2":"","appkey":"init","duration":16,"extra":{},"polyglot":[],"category":"90925581,","audit":0,"is_ugc":0,"type":"audio"},{"id":"1024109","ufid":"15187881","name":"\u949f\u7434","file":"http:\/\/rdfile.oss-cn-hangzhou.aliyuncs.com\/filemanage\/init\/audio\/15187881.mp3?nonce=a91b24a96af7d816feadcbe958bb561a","cover":"","updatetime":"1697698207","height":0,"width":0,"video":"","sort":0,"version":157,"cover2":"","appkey":"init","duration":11,"extra":{},"polyglot":[],"category":"90925581,","audit":0,"is_ugc":0,"type":"audio"},{"id":"1024108","ufid":"11460025","name":"\u5706\u53f7","file":"http:\/\/rdfile.oss-cn-hangzhou.aliyuncs.com\/filemanage\/init\/audio\/11460025.mp3?nonce=9d0818e30e0fe3edc4b0314f3ca222b6","cover":"","updatetime":"1697698206","height":0,"width":0,"video":"","sort":0,"version":157,"cover2":"","appkey":"init","duration":6,"extra":{},"polyglot":[],"category":"90925581,","audit":0,"is_ugc":0,"type":"audio"},{"id":"1024107","ufid":"72305566","name":"\u97f3\u8c03\u60a0\u957f\u7684\u949f\u58f0","file":"http:\/\/rdfile.oss-cn-hangzhou.aliyuncs.com\/filemanage\/init\/audio\/72305566.mp3?nonce=9d0818e30e0fe3edc4b0314f3ca222b6","cover":"","updatetime":"1697698206","height":0,"width":0,"video":"","sort":0,"version":157,"cover2":"","appkey":"init","duration":8,"extra":{},"polyglot":[],"category":"90925581,","audit":0,"is_ugc":0,"type":"audio"},{"id":"1024106","ufid":"40133644","name":"\u4e00\u5c0f\u6bb5\u7235\u58eb\u9f13\u8fc7\u95e8","file":"http:\/\/rdfile.oss-cn-hangzhou.aliyuncs.com\/filemanage\/init\/audio\/40133644.mp3?nonce=9d0818e30e0fe3edc4b0314f3ca222b6","cover":"","updatetime":"1697698206","height":0,"width":0,"video":"","sort":0,"version":157,"cover2":"","appkey":"init","duration":2,"extra":{},"polyglot":[],"category":"90925581,","audit":0,"is_ugc":0,"type":"audio"},{"id":"1024105","ufid":"38187764","name":"\u5c0f\u8282\u594f \u9f13\u70b9-\u821e\u5343\u5e74","file":"http:\/\/rdfile.oss-cn-hangzhou.aliyuncs.com\/filemanage\/init\/audio\/38187764.mp3?nonce=9d0818e30e0fe3edc4b0314f3ca222b6","cover":"","updatetime":"1697698206","height":0,"width":0,"video":"","sort":0,"version":157,"cover2":"","appkey":"init","duration":100,"extra":{},"polyglot":[],"category":"90925581,","audit":0,"is_ugc":0,"type":"audio"},{"id":"1024104","ufid":"78589866","name":"\u5371\u9669\u964d\u4e34\u6025\u4fc3\u7684\u9f13\u58f0\u91cd\u51fb\u58f0","file":"http:\/\/rdfile.oss-cn-hangzhou.aliyuncs.com\/filemanage\/init\/audio\/78589866.mp3?nonce=545a4bc1ad456b74cf154e08b3e9133f","cover":"","updatetime":"1697698205","height":0,"width":0,"video":"","sort":0,"version":157,"cover2":"","appkey":"init","duration":7,"extra":{},"polyglot":[],"category":"90925581,","audit":0,"is_ugc":0,"type":"audio"},{"id":"1024103","ufid":"73542373","name":"\u54c7\u54c7\u60b2\u4f24\u957f\u53f7","file":"http:\/\/rdfile.oss-cn-hangzhou.aliyuncs.com\/filemanage\/init\/audio\/73542373.mp3?nonce=545a4bc1ad456b74cf154e08b3e9133f","cover":"","updatetime":"1697698205","height":0,"width":0,"video":"","sort":0,"version":157,"cover2":"","appkey":"init","duration":5,"extra":{},"polyglot":[],"category":"90925581,","audit":0,"is_ugc":0,"type":"audio"},{"id":"1024102","ufid":"86408409","name":"\u592a\u9f13 \u549a\u549a","file":"http:\/\/rdfile.oss-cn-hangzhou.aliyuncs.com\/filemanage\/init\/audio\/86408409.mp3?nonce=d4a599dbbae76181141a4696964e76ec","cover":"","updatetime":"1697698302","height":0,"width":0,"video":"","sort":0,"version":157,"cover2":"","appkey":"init","duration":5,"extra":{},"polyglot":[],"category":"90925581,","audit":0,"is_ugc":0,"type":"audio"},{"id":"1024101","ufid":"19581485","name":"\u53cc\u7c27\u7ba1","file":"http:\/\/rdfile.oss-cn-hangzhou.aliyuncs.com\/filemanage\/init\/audio\/19581485.mp3?nonce=545a4bc1ad456b74cf154e08b3e9133f","cover":"","updatetime":"1697698205","height":0,"width":0,"video":"","sort":0,"version":157,"cover2":"","appkey":"init","duration":4,"extra":{},"polyglot":[],"category":"90925581,","audit":0,"is_ugc":0,"type":"audio"},{"id":"1024100","ufid":"74091545","name":"\u6c99\u9524\u6447\u6643\u7a7a\u95f4\u611f\u97f3\u6548","file":"http:\/\/rdfile.oss-cn-hangzhou.aliyuncs.com\/filemanage\/init\/audio\/74091545.mp3?nonce=27d44d9abc8f151eb95cd24c0b883015","cover":"","updatetime":"1697698204","height":0,"width":0,"video":"","sort":0,"version":157,"cover2":"","appkey":"init","duration":2,"extra":{},"polyglot":[],"category":"90925581,","audit":0,"is_ugc":0,"type":"audio"},{"id":"1024099","ufid":"24183009","name":"\u8428\u514b\u65af","file":"http:\/\/rdfile.oss-cn-hangzhou.aliyuncs.com\/filemanage\/init\/audio\/24183009.mp3?nonce=27d44d9abc8f151eb95cd24c0b883015","cover":"","updatetime":"1697698204","height":0,"width":0,"video":"","sort":0,"version":157,"cover2":"","appkey":"init","duration":14,"extra":{},"polyglot":[],"category":"90925581,","audit":0,"is_ugc":0,"type":"audio"},{"id":"1024098","ufid":"51167102","name":"\u6e05\u8106\u94c3\u58f0\u7b80\u77ed\u97f3\u6548","file":"http:\/\/rdfile.oss-cn-hangzhou.aliyuncs.com\/filemanage\/init\/audio\/51167102.mp3?nonce=27d44d9abc8f151eb95cd24c0b883015","cover":"","updatetime":"1697698204","height":0,"width":0,"video":"","sort":0,"version":157,"cover2":"","appkey":"init","duration":2,"extra":{},"polyglot":[],"category":"90925581,","audit":0,"is_ugc":0,"type":"audio"},{"id":"1024097","ufid":"19358146","name":"\u7435\u7436\u65cb\u5f8b\u6ed1\u7a3d\u641e\u7b11\u97f3\u6548","file":"http:\/\/rdfile.oss-cn-hangzhou.aliyuncs.com\/filemanage\/init\/audio\/19358146.mp3?nonce=447cb58b02e638e2865477a16ab4fd25","cover":"","updatetime":"1697698203","height":0,"width":0,"video":"","sort":0,"version":157,"cover2":"","appkey":"init","duration":3,"extra":{},"polyglot":[],"category":"90925581,","audit":0,"is_ugc":0,"type":"audio"},{"id":"1024096","ufid":"29897162","name":"\u6728\u5409\u4ed6\u626b\u5f26","file":"http:\/\/rdfile.oss-cn-hangzhou.aliyuncs.com\/filemanage\/init\/audio\/29897162.mp3?nonce=447cb58b02e638e2865477a16ab4fd25","cover":"","updatetime":"1697698203","height":0,"width":0,"video":"","sort":0,"version":157,"cover2":"","appkey":"init","duration":2,"extra":{},"polyglot":[],"category":"90925581,","audit":0,"is_ugc":0,"type":"audio"},{"id":"1024095","ufid":"83007684","name":"\u6c11\u4e50\u7435\u7436\u65cb\u5f8b\u97f3\u6548","file":"http:\/\/rdfile.oss-cn-hangzhou.aliyuncs.com\/filemanage\/init\/audio\/83007684.mp3?nonce=447cb58b02e638e2865477a16ab4fd25","cover":"","updatetime":"1697698203","height":0,"width":0,"video":"","sort":0,"version":157,"cover2":"","appkey":"init","duration":4,"extra":{},"polyglot":[],"category":"90925581,","audit":0,"is_ugc":0,"type":"audio"},{"id":"1024094","ufid":"65100634","name":"\u9a6c\u6797\u5df4","file":"http:\/\/rdfile.oss-cn-hangzhou.aliyuncs.com\/filemanage\/init\/audio\/65100634.mp3?nonce=447cb58b02e638e2865477a16ab4fd25","cover":"","updatetime":"1697698203","height":0,"width":0,"video":"","sort":0,"version":157,"cover2":"","appkey":"init","duration":4,"extra":{},"polyglot":[],"category":"90925581,","audit":0,"is_ugc":0,"type":"audio"},{"id":"1024093","ufid":"58420635","name":"\u9523\u548c\u6728\u7ba1\u4e50\u5668","file":"http:\/\/rdfile.oss-cn-hangzhou.aliyuncs.com\/filemanage\/init\/audio\/58420635.mp3?nonce=3552332bebc07c197250855e71f7e089","cover":"","updatetime":"1697698202","height":0,"width":0,"video":"","sort":0,"version":157,"cover2":"","appkey":"init","duration":5,"extra":{},"polyglot":[],"category":"90925581,","audit":0,"is_ugc":0,"type":"audio"}]}}