{"code":0,"msg":"success","data":{"total":46,"per_page":20,"current_page":1,"last_page":3,"data":[{"id":"1024619","ufid":"94154248","name":"\u59b2\u5df1-\u6ca1\u6709\u5fc3","file":"http:\/\/rdfile.oss-cn-hangzhou.aliyuncs.com\/filemanage\/init\/audio\/94154248.mp3?nonce=046029dc630a0c3815f44f6c6c555bb2","cover":"","updatetime":"1697698336","height":0,"width":0,"video":"","sort":0,"version":157,"cover2":"","appkey":"init","duration":4,"extra":{},"polyglot":[],"category":"94922262,","audit":0,"is_ugc":0,"type":"audio"},{"id":"1024618","ufid":"81938065","name":"\u5e84\u5468-\u7ec8\u6210\u7edd\u54cd","file":"http:\/\/rdfile.oss-cn-hangzhou.aliyuncs.com\/filemanage\/init\/audio\/81938065.mp3?nonce=aab7e169f7fb1ac944c3c7311da4a723","cover":"","updatetime":"1697698335","height":0,"width":0,"video":"","sort":0,"version":157,"cover2":"","appkey":"init","duration":6,"extra":{},"polyglot":[],"category":"94922262,","audit":0,"is_ugc":0,"type":"audio"},{"id":"1024617","ufid":"10733468","name":"\u5e84\u5468-\u53ea\u4e0e\u4f60\u4e00\u4eba\u542c","file":"http:\/\/rdfile.oss-cn-hangzhou.aliyuncs.com\/filemanage\/init\/audio\/10733468.mp3?nonce=aab7e169f7fb1ac944c3c7311da4a723","cover":"","updatetime":"1697698335","height":0,"width":0,"video":"","sort":0,"version":157,"cover2":"","appkey":"init","duration":5,"extra":{},"polyglot":[],"category":"94922262,","audit":0,"is_ugc":0,"type":"audio"},{"id":"1024616","ufid":"83872678","name":"\u5e84\u5468-\u4e00\u66f2\u916c\u77e5\u5df1","file":"http:\/\/rdfile.oss-cn-hangzhou.aliyuncs.com\/filemanage\/init\/audio\/83872678.mp3?nonce=aab7e169f7fb1ac944c3c7311da4a723","cover":"","updatetime":"1697698335","height":0,"width":0,"video":"","sort":0,"version":157,"cover2":"","appkey":"init","duration":2,"extra":{},"polyglot":[],"category":"94922262,","audit":0,"is_ugc":0,"type":"audio"},{"id":"1024615","ufid":"44379938","name":"\u5e84\u5468-\u4e00\u5f39\u5c71\u5cb3","file":"http:\/\/rdfile.oss-cn-hangzhou.aliyuncs.com\/filemanage\/init\/audio\/44379938.mp3?nonce=aab7e169f7fb1ac944c3c7311da4a723","cover":"","updatetime":"1697698335","height":0,"width":0,"video":"","sort":0,"version":157,"cover2":"","appkey":"init","duration":21,"extra":{},"polyglot":[],"category":"94922262,","audit":0,"is_ugc":0,"type":"audio"},{"id":"1024614","ufid":"14664542","name":"\u5e84\u5468-\u677e\u4e0b\u95ee\u6765\u5ba2","file":"http:\/\/rdfile.oss-cn-hangzhou.aliyuncs.com\/filemanage\/init\/audio\/14664542.mp3?nonce=844616704faef3c5ccdf402186889f83","cover":"","updatetime":"1697698334","height":0,"width":0,"video":"","sort":0,"version":157,"cover2":"","appkey":"init","duration":5,"extra":{},"polyglot":[],"category":"94922262,","audit":0,"is_ugc":0,"type":"audio"},{"id":"1024613","ufid":"97872740","name":"\u5e84\u5468-\u7ed5\u6881\u4e09\u65e5","file":"http:\/\/rdfile.oss-cn-hangzhou.aliyuncs.com\/filemanage\/init\/audio\/97872740.mp3?nonce=844616704faef3c5ccdf402186889f83","cover":"","updatetime":"1697698334","height":0,"width":0,"video":"","sort":0,"version":157,"cover2":"","appkey":"init","duration":3,"extra":{},"polyglot":[],"category":"94922262,","audit":0,"is_ugc":0,"type":"audio"},{"id":"1024612","ufid":"44314856","name":"\u5e84\u5468-\u6c5f\u4e0a\u9752\u5cf0","file":"http:\/\/rdfile.oss-cn-hangzhou.aliyuncs.com\/filemanage\/init\/audio\/44314856.mp3?nonce=844616704faef3c5ccdf402186889f83","cover":"","updatetime":"1697698334","height":0,"width":0,"video":"","sort":0,"version":157,"cover2":"","appkey":"init","duration":7,"extra":{},"polyglot":[],"category":"94922262,","audit":0,"is_ugc":0,"type":"audio"},{"id":"1024611","ufid":"78332092","name":"\u5e84\u5468-\u6545\u4eba\u4f55\u5728","file":"http:\/\/rdfile.oss-cn-hangzhou.aliyuncs.com\/filemanage\/init\/audio\/78332092.mp3?nonce=844616704faef3c5ccdf402186889f83","cover":"","updatetime":"1697698334","height":0,"width":0,"video":"","sort":0,"version":157,"cover2":"","appkey":"init","duration":4,"extra":{},"polyglot":[],"category":"94922262,","audit":0,"is_ugc":0,"type":"audio"},{"id":"1024610","ufid":"11130401","name":"\u5e84\u5468-\u5bf9\u725b\u9f13\u7434","file":"http:\/\/rdfile.oss-cn-hangzhou.aliyuncs.com\/filemanage\/init\/audio\/11130401.mp3?nonce=844616704faef3c5ccdf402186889f83","cover":"","updatetime":"1697698334","height":0,"width":0,"video":"","sort":0,"version":157,"cover2":"","appkey":"init","duration":5,"extra":{},"polyglot":[],"category":"94922262,","audit":0,"is_ugc":0,"type":"audio"},{"id":"1024609","ufid":"77840506","name":"\u732a\u516b\u6212-\u53c8\u6765\u6b3a\u8d1f\u6211","file":"http:\/\/rdfile.oss-cn-hangzhou.aliyuncs.com\/filemanage\/init\/audio\/77840506.mp3?nonce=12dfff874e3eeb150b24ef349e90be50","cover":"","updatetime":"1697698333","height":0,"width":0,"video":"","sort":0,"version":157,"cover2":"","appkey":"init","duration":19,"extra":{},"polyglot":[],"category":"94922262,","audit":0,"is_ugc":0,"type":"audio"},{"id":"1024608","ufid":"98804418","name":"\u732a\u516b\u6212-\u5996\u602a","file":"http:\/\/rdfile.oss-cn-hangzhou.aliyuncs.com\/filemanage\/init\/audio\/98804418.mp3?nonce=12dfff874e3eeb150b24ef349e90be50","cover":"","updatetime":"1697698333","height":0,"width":0,"video":"","sort":0,"version":157,"cover2":"","appkey":"init","duration":3,"extra":{},"polyglot":[],"category":"94922262,","audit":0,"is_ugc":0,"type":"audio"},{"id":"1024607","ufid":"95324450","name":"\u732a\u516b\u6212-\u6b47\u4f1a\u513f\u5427","file":"http:\/\/rdfile.oss-cn-hangzhou.aliyuncs.com\/filemanage\/init\/audio\/95324450.mp3?nonce=12dfff874e3eeb150b24ef349e90be50","cover":"","updatetime":"1697698333","height":0,"width":0,"video":"","sort":0,"version":157,"cover2":"","appkey":"init","duration":4,"extra":{},"polyglot":[],"category":"94922262,","audit":0,"is_ugc":0,"type":"audio"},{"id":"1024606","ufid":"92534765","name":"\u732a\u516b\u6212-\u6211\u5927\u5e08\u5144","file":"http:\/\/rdfile.oss-cn-hangzhou.aliyuncs.com\/filemanage\/init\/audio\/92534765.mp3?nonce=12dfff874e3eeb150b24ef349e90be50","cover":"","updatetime":"1697698333","height":0,"width":0,"video":"","sort":0,"version":157,"cover2":"","appkey":"init","duration":5,"extra":{},"polyglot":[],"category":"94922262,","audit":0,"is_ugc":0,"type":"audio"},{"id":"1024605","ufid":"41766655","name":"\u732a\u516b\u6212-\u77a7\u4f60\u8fd9\u6a21\u6837","file":"http:\/\/rdfile.oss-cn-hangzhou.aliyuncs.com\/filemanage\/init\/audio\/41766655.mp3?nonce=1ad7d1aa82c43c0b52658fde2df6e270","cover":"","updatetime":"1697698332","height":0,"width":0,"video":"","sort":0,"version":157,"cover2":"","appkey":"init","duration":3,"extra":{},"polyglot":[],"category":"94922262,","audit":0,"is_ugc":0,"type":"audio"},{"id":"1024604","ufid":"35122463","name":"\u732a\u516b\u6212-\u5a18\u5b50","file":"http:\/\/rdfile.oss-cn-hangzhou.aliyuncs.com\/filemanage\/init\/audio\/35122463.mp3?nonce=1ad7d1aa82c43c0b52658fde2df6e270","cover":"","updatetime":"1697698332","height":0,"width":0,"video":"","sort":0,"version":157,"cover2":"","appkey":"init","duration":19,"extra":{},"polyglot":[],"category":"94922262,","audit":0,"is_ugc":0,"type":"audio"},{"id":"1024603","ufid":"16155202","name":"\u732a\u516b\u6212-\u90a3\u54ea\u513f\u7ba1\u7528\u554a","file":"http:\/\/rdfile.oss-cn-hangzhou.aliyuncs.com\/filemanage\/init\/audio\/16155202.mp3?nonce=1ad7d1aa82c43c0b52658fde2df6e270","cover":"","updatetime":"1697698332","height":0,"width":0,"video":"","sort":0,"version":157,"cover2":"","appkey":"init","duration":2,"extra":{},"polyglot":[],"category":"94922262,","audit":0,"is_ugc":0,"type":"audio"},{"id":"1024602","ufid":"87878402","name":"\u732a\u516b\u6212-\u90a3\u513f\u51c6\u6709\u597d\u5403\u597d\u559d\u7684","file":"http:\/\/rdfile.oss-cn-hangzhou.aliyuncs.com\/filemanage\/init\/audio\/87878402.mp3?nonce=1ad7d1aa82c43c0b52658fde2df6e270","cover":"","updatetime":"1697698332","height":0,"width":0,"video":"","sort":0,"version":157,"cover2":"","appkey":"init","duration":5,"extra":{},"polyglot":[],"category":"94922262,","audit":0,"is_ugc":0,"type":"audio"},{"id":"1024601","ufid":"80412299","name":"\u732a\u516b\u6212-\u4e5d\u9f7f\u9489\u8019","file":"http:\/\/rdfile.oss-cn-hangzhou.aliyuncs.com\/filemanage\/init\/audio\/80412299.mp3?nonce=4b4f093aa89f06f7d7f7f7521fcb3661","cover":"","updatetime":"1697698331","height":0,"width":0,"video":"","sort":0,"version":157,"cover2":"","appkey":"init","duration":2,"extra":{},"polyglot":[],"category":"94922262,","audit":0,"is_ugc":0,"type":"audio"},{"id":"1024600","ufid":"57380893","name":"\u732a\u516b\u6212-\u7334\u54e5\u4f60\u7b49\u7b49\u6211","file":"http:\/\/rdfile.oss-cn-hangzhou.aliyuncs.com\/filemanage\/init\/audio\/57380893.mp3?nonce=4b4f093aa89f06f7d7f7f7521fcb3661","cover":"","updatetime":"1697698331","height":0,"width":0,"video":"","sort":0,"version":157,"cover2":"","appkey":"init","duration":2,"extra":{},"polyglot":[],"category":"94922262,","audit":0,"is_ugc":0,"type":"audio"}]}}