{"code":0,"msg":"success","data":{"total":72,"per_page":20,"current_page":1,"last_page":4,"data":[{"id":"1024859","ufid":"26932344","name":"\u661f\u9645\u4e4b\u95e8\u79d1\u5e7b\u97f3\u6548","file":"http:\/\/rdfile.oss-cn-hangzhou.aliyuncs.com\/filemanage\/init\/audio\/26932344.mp3?nonce=92a943353169027ce3da4053661aae00","cover":"","updatetime":"1697698055","height":0,"width":0,"video":"","sort":0,"version":157,"cover2":"","appkey":"init","duration":6,"extra":{},"polyglot":[],"category":"99213254,","audit":0,"is_ugc":0,"type":"audio"},{"id":"1024858","ufid":"54323493","name":"\u6e29\u6696\u6cbb\u6108\u6e38\u620f\u97f3\u6548","file":"http:\/\/rdfile.oss-cn-hangzhou.aliyuncs.com\/filemanage\/init\/audio\/54323493.mp3?nonce=3c9bfb6d3a8a3c3d5ed63ac1120e3d1a","cover":"","updatetime":"1697698054","height":0,"width":0,"video":"","sort":0,"version":157,"cover2":"","appkey":"init","duration":12,"extra":{},"polyglot":[],"category":"99213254,","audit":0,"is_ugc":0,"type":"audio"},{"id":"1024857","ufid":"63556564","name":"\u82b1\u6728\u5170\u730e\u9f99\u8005\u97f3\u6548","file":"http:\/\/rdfile.oss-cn-hangzhou.aliyuncs.com\/filemanage\/init\/audio\/63556564.mp3?nonce=3c9bfb6d3a8a3c3d5ed63ac1120e3d1a","cover":"","updatetime":"1697698054","height":0,"width":0,"video":"","sort":0,"version":157,"cover2":"","appkey":"init","duration":94,"extra":{},"polyglot":[],"category":"99213254,","audit":0,"is_ugc":0,"type":"audio"},{"id":"1024856","ufid":"86734868","name":"\u5200\u5854\u4f20\u5947\u97f3\u6548","file":"http:\/\/rdfile.oss-cn-hangzhou.aliyuncs.com\/filemanage\/init\/audio\/86734868.mp3?nonce=3c9bfb6d3a8a3c3d5ed63ac1120e3d1a","cover":"","updatetime":"1697698054","height":0,"width":0,"video":"","sort":0,"version":157,"cover2":"","appkey":"init","duration":63,"extra":{},"polyglot":[],"category":"99213254,","audit":0,"is_ugc":0,"type":"audio"},{"id":"1024855","ufid":"45298630","name":"\u64a4\u9000\uff0c\u522b\u6253\u66b4\u541b","file":"http:\/\/rdfile.oss-cn-hangzhou.aliyuncs.com\/filemanage\/init\/audio\/45298630.mp3?nonce=422e29c681fe590e863fd603eaae37fd","cover":"","updatetime":"1697698053","height":0,"width":0,"video":"","sort":0,"version":157,"cover2":"","appkey":"init","duration":3,"extra":{},"polyglot":[],"category":"99213254,","audit":0,"is_ugc":0,"type":"audio"},{"id":"1024854","ufid":"53253281","name":"\u4fdd\u62a4\u6211\u65b9\u8f93\u51fa","file":"http:\/\/rdfile.oss-cn-hangzhou.aliyuncs.com\/filemanage\/init\/audio\/53253281.mp3?nonce=422e29c681fe590e863fd603eaae37fd","cover":"","updatetime":"1697698053","height":0,"width":0,"video":"","sort":0,"version":157,"cover2":"","appkey":"init","duration":2,"extra":{},"polyglot":[],"category":"99213254,","audit":0,"is_ugc":0,"type":"audio"},{"id":"1024853","ufid":"52959764","name":"\u516b\u795e\u5eb5\u97f3\u6548","file":"http:\/\/rdfile.oss-cn-hangzhou.aliyuncs.com\/filemanage\/init\/audio\/52959764.mp3?nonce=422e29c681fe590e863fd603eaae37fd","cover":"","updatetime":"1697698053","height":0,"width":0,"video":"","sort":0,"version":157,"cover2":"","appkey":"init","duration":56,"extra":{},"polyglot":[],"category":"99213254,","audit":0,"is_ugc":0,"type":"audio"},{"id":"1024852","ufid":"54700571","name":"\u516b\u6740","file":"http:\/\/rdfile.oss-cn-hangzhou.aliyuncs.com\/filemanage\/init\/audio\/54700571.mp3?nonce=422e29c681fe590e863fd603eaae37fd","cover":"","updatetime":"1697698053","height":0,"width":0,"video":"","sort":0,"version":157,"cover2":"","appkey":"init","duration":4,"extra":{},"polyglot":[],"category":"99213254,","audit":0,"is_ugc":0,"type":"audio"},{"id":"1020120","ufid":"50946446","name":"\u6218\u4e89\u524d\u7684\u5b81\u9759","file":"http:\/\/rdfile.oss-cn-hangzhou.aliyuncs.com\/filemanage\/init\/audio\/50946446.mp3?nonce=cfcd208495d565ef66e7dff9f98764da","cover":"http:\/\/rdfile.oss-cn-hangzhou.aliyuncs.com\/filemanage\/init\/audio\/50946446.jpeg?nonce=cfcd208495d565ef66e7dff9f98764da","updatetime":"0","height":0,"width":0,"video":"","sort":0,"version":0,"cover2":"","appkey":"init","duration":2,"extra":{},"polyglot":[],"category":"0","audit":0,"is_ugc":0,"type":"audio"},{"id":"1020119","ufid":"19384187","name":"\u6e38\u620f\u97f3\u65482","file":"http:\/\/rdfile.oss-cn-hangzhou.aliyuncs.com\/filemanage\/init\/audio\/19384187.mp3?nonce=cfcd208495d565ef66e7dff9f98764da","cover":"http:\/\/rdfile.oss-cn-hangzhou.aliyuncs.com\/filemanage\/init\/audio\/19384187.jpeg?nonce=cfcd208495d565ef66e7dff9f98764da","updatetime":"0","height":0,"width":0,"video":"","sort":0,"version":0,"cover2":"","appkey":"init","duration":1,"extra":{},"polyglot":[],"category":"0","audit":0,"is_ugc":0,"type":"audio"},{"id":"1020118","ufid":"55198078","name":"\u6e38\u620f\u97f3\u4e502","file":"http:\/\/rdfile.oss-cn-hangzhou.aliyuncs.com\/filemanage\/init\/audio\/55198078.mp3?nonce=cfcd208495d565ef66e7dff9f98764da","cover":"http:\/\/rdfile.oss-cn-hangzhou.aliyuncs.com\/filemanage\/init\/audio\/55198078.jpeg?nonce=cfcd208495d565ef66e7dff9f98764da","updatetime":"0","height":0,"width":0,"video":"","sort":0,"version":0,"cover2":"","appkey":"init","duration":62,"extra":{},"polyglot":[],"category":"0","audit":0,"is_ugc":0,"type":"audio"},{"id":"1020117","ufid":"91792211","name":"\u6e38\u620f\u97f3\u4e50","file":"http:\/\/rdfile.oss-cn-hangzhou.aliyuncs.com\/filemanage\/init\/audio\/91792211.mp3?nonce=cfcd208495d565ef66e7dff9f98764da","cover":"http:\/\/rdfile.oss-cn-hangzhou.aliyuncs.com\/filemanage\/init\/audio\/91792211.jpeg?nonce=cfcd208495d565ef66e7dff9f98764da","updatetime":"0","height":0,"width":0,"video":"","sort":0,"version":0,"cover2":"","appkey":"init","duration":40,"extra":{},"polyglot":[],"category":"0","audit":0,"is_ugc":0,"type":"audio"},{"id":"1020116","ufid":"69307040","name":"\u6e38\u620f\u5931\u8d25","file":"http:\/\/rdfile.oss-cn-hangzhou.aliyuncs.com\/filemanage\/init\/audio\/69307040.mp3?nonce=1551b0dbce65f9be596ccd1fe17a18bb","cover":"http:\/\/rdfile.oss-cn-hangzhou.aliyuncs.com\/filemanage\/init\/audio\/69307040.jpeg?nonce=1551b0dbce65f9be596ccd1fe17a18bb","updatetime":"1697698308","height":0,"width":0,"video":"","sort":0,"version":0,"cover2":"","appkey":"init","duration":3,"extra":{},"polyglot":[],"category":"0","audit":0,"is_ugc":0,"type":"audio"},{"id":"1020115","ufid":"92157687","name":"\u6e38\u620f\u80dc\u5229","file":"http:\/\/rdfile.oss-cn-hangzhou.aliyuncs.com\/filemanage\/init\/audio\/92157687.mp3?nonce=cfcd208495d565ef66e7dff9f98764da","cover":"http:\/\/rdfile.oss-cn-hangzhou.aliyuncs.com\/filemanage\/init\/audio\/92157687.jpeg?nonce=cfcd208495d565ef66e7dff9f98764da","updatetime":"0","height":0,"width":0,"video":"","sort":0,"version":0,"cover2":"","appkey":"init","duration":5,"extra":{},"polyglot":[],"category":"0","audit":0,"is_ugc":0,"type":"audio"},{"id":"1020114","ufid":"12474364","name":"\u6e38\u620f\u5c04\u51fb\u58f0","file":"http:\/\/rdfile.oss-cn-hangzhou.aliyuncs.com\/filemanage\/init\/audio\/12474364.mp3?nonce=cfcd208495d565ef66e7dff9f98764da","cover":"http:\/\/rdfile.oss-cn-hangzhou.aliyuncs.com\/filemanage\/init\/audio\/12474364.jpeg?nonce=cfcd208495d565ef66e7dff9f98764da","updatetime":"0","height":0,"width":0,"video":"","sort":0,"version":0,"cover2":"","appkey":"init","duration":0,"extra":{},"polyglot":[],"category":"0","audit":0,"is_ugc":0,"type":"audio"},{"id":"1020113","ufid":"21580404","name":"\u6e38\u620f\u4efb\u52a1\u5b8c\u6210","file":"http:\/\/rdfile.oss-cn-hangzhou.aliyuncs.com\/filemanage\/init\/audio\/21580404.mp3?nonce=cfcd208495d565ef66e7dff9f98764da","cover":"http:\/\/rdfile.oss-cn-hangzhou.aliyuncs.com\/filemanage\/init\/audio\/21580404.jpeg?nonce=cfcd208495d565ef66e7dff9f98764da","updatetime":"0","height":0,"width":0,"video":"","sort":0,"version":0,"cover2":"","appkey":"init","duration":2,"extra":{},"polyglot":[],"category":"0","audit":0,"is_ugc":0,"type":"audio"},{"id":"1020112","ufid":"72508039","name":"\u6e38\u620f\u524d\u594f","file":"http:\/\/rdfile.oss-cn-hangzhou.aliyuncs.com\/filemanage\/init\/audio\/72508039.mp3?nonce=cfcd208495d565ef66e7dff9f98764da","cover":"http:\/\/rdfile.oss-cn-hangzhou.aliyuncs.com\/filemanage\/init\/audio\/72508039.jpeg?nonce=cfcd208495d565ef66e7dff9f98764da","updatetime":"0","height":0,"width":0,"video":"","sort":0,"version":0,"cover2":"","appkey":"init","duration":10,"extra":{},"polyglot":[],"category":"0","audit":0,"is_ugc":0,"type":"audio"},{"id":"1020111","ufid":"52699044","name":"\u6e38\u620f\u96c6\u5e02\u4e3b\u9898\u80cc\u666f\u4e50","file":"http:\/\/rdfile.oss-cn-hangzhou.aliyuncs.com\/filemanage\/init\/audio\/52699044.mp3?nonce=cfcd208495d565ef66e7dff9f98764da","cover":"http:\/\/rdfile.oss-cn-hangzhou.aliyuncs.com\/filemanage\/init\/audio\/52699044.jpeg?nonce=cfcd208495d565ef66e7dff9f98764da","updatetime":"0","height":0,"width":0,"video":"","sort":0,"version":0,"cover2":"","appkey":"init","duration":39,"extra":{},"polyglot":[],"category":"0","audit":0,"is_ugc":0,"type":"audio"},{"id":"1020110","ufid":"44117980","name":"\u6e38\u620f\u6fc0\u5149\u5c04\u51fb\u5faa\u73af","file":"http:\/\/rdfile.oss-cn-hangzhou.aliyuncs.com\/filemanage\/init\/audio\/44117980.mp3?nonce=cfcd208495d565ef66e7dff9f98764da","cover":"http:\/\/rdfile.oss-cn-hangzhou.aliyuncs.com\/filemanage\/init\/audio\/44117980.jpeg?nonce=cfcd208495d565ef66e7dff9f98764da","updatetime":"0","height":0,"width":0,"video":"","sort":0,"version":0,"cover2":"","appkey":"init","duration":2,"extra":{},"polyglot":[],"category":"0","audit":0,"is_ugc":0,"type":"audio"},{"id":"1020109","ufid":"69647401","name":"\u6e38\u620f\u83b7\u53d6\u80fd\u6e90","file":"http:\/\/rdfile.oss-cn-hangzhou.aliyuncs.com\/filemanage\/init\/audio\/69647401.mp3?nonce=cfcd208495d565ef66e7dff9f98764da","cover":"http:\/\/rdfile.oss-cn-hangzhou.aliyuncs.com\/filemanage\/init\/audio\/69647401.jpeg?nonce=cfcd208495d565ef66e7dff9f98764da","updatetime":"0","height":0,"width":0,"video":"","sort":0,"version":0,"cover2":"","appkey":"init","duration":4,"extra":{},"polyglot":[],"category":"0","audit":0,"is_ugc":0,"type":"audio"}]}}