{"code":0,"msg":"success","data":{"total":47,"per_page":20,"current_page":1,"last_page":3,"data":[{"id":"1024746","ufid":"57092375","name":"\u76f4\u5347\u98de\u673a","file":"http:\/\/rdfile.oss-cn-hangzhou.aliyuncs.com\/filemanage\/init\/audio\/57092375.mp3?nonce=f713297a9f9e2d9cde50cb403976b4f7","cover":"","updatetime":"1697698079","height":0,"width":0,"video":"","sort":0,"version":157,"cover2":"","appkey":"init","duration":23,"extra":{},"polyglot":[],"category":"99916318,","audit":0,"is_ugc":0,"type":"audio"},{"id":"1024745","ufid":"89203617","name":"\u6e38\u8247\u9a6c\u8fbe","file":"http:\/\/rdfile.oss-cn-hangzhou.aliyuncs.com\/filemanage\/init\/audio\/89203617.mp3?nonce=f713297a9f9e2d9cde50cb403976b4f7","cover":"","updatetime":"1697698079","height":0,"width":0,"video":"","sort":0,"version":157,"cover2":"","appkey":"init","duration":70,"extra":{},"polyglot":[],"category":"99916318,","audit":0,"is_ugc":0,"type":"audio"},{"id":"1024744","ufid":"81394894","name":"\u6c7d\u8f66\u5587\u53ed","file":"http:\/\/rdfile.oss-cn-hangzhou.aliyuncs.com\/filemanage\/init\/audio\/81394894.mp3?nonce=f713297a9f9e2d9cde50cb403976b4f7","cover":"","updatetime":"1697698079","height":0,"width":0,"video":"","sort":0,"version":157,"cover2":"","appkey":"init","duration":2,"extra":{},"polyglot":[],"category":"99916318,","audit":0,"is_ugc":0,"type":"audio"},{"id":"1024743","ufid":"67786120","name":"\u6c7d\u8f66\u70b9\u706b","file":"http:\/\/rdfile.oss-cn-hangzhou.aliyuncs.com\/filemanage\/init\/audio\/67786120.mp3?nonce=f713297a9f9e2d9cde50cb403976b4f7","cover":"","updatetime":"1697698079","height":0,"width":0,"video":"","sort":0,"version":157,"cover2":"","appkey":"init","duration":30,"extra":{},"polyglot":[],"category":"99916318,","audit":0,"is_ugc":0,"type":"audio"},{"id":"1024742","ufid":"48591948","name":"\u98de\u673a\u8d77\u98de","file":"http:\/\/rdfile.oss-cn-hangzhou.aliyuncs.com\/filemanage\/init\/audio\/48591948.mp3?nonce=b219a1c994b2131dfc1207a7a442161d","cover":"","updatetime":"1697698078","height":0,"width":0,"video":"","sort":0,"version":157,"cover2":"","appkey":"init","duration":18,"extra":{},"polyglot":[],"category":"99916318,","audit":0,"is_ugc":0,"type":"audio"},{"id":"1024741","ufid":"47064479","name":"\u7535\u8f66\u9a76\u8fc7","file":"http:\/\/rdfile.oss-cn-hangzhou.aliyuncs.com\/filemanage\/init\/audio\/47064479.mp3?nonce=b219a1c994b2131dfc1207a7a442161d","cover":"","updatetime":"1697698078","height":0,"width":0,"video":"","sort":0,"version":157,"cover2":"","appkey":"init","duration":19,"extra":{},"polyglot":[],"category":"99916318,","audit":0,"is_ugc":0,"type":"audio"},{"id":"1024740","ufid":"97595836","name":"\u5730\u94c1\u5173\u95e8","file":"http:\/\/rdfile.oss-cn-hangzhou.aliyuncs.com\/filemanage\/init\/audio\/97595836.mp3?nonce=b219a1c994b2131dfc1207a7a442161d","cover":"","updatetime":"1697698078","height":0,"width":0,"video":"","sort":0,"version":157,"cover2":"","appkey":"init","duration":5,"extra":{},"polyglot":[],"category":"99916318,","audit":0,"is_ugc":0,"type":"audio"},{"id":"1024739","ufid":"39238452","name":"\u8239\u6868\u5212\u6c34","file":"http:\/\/rdfile.oss-cn-hangzhou.aliyuncs.com\/filemanage\/init\/audio\/39238452.mp3?nonce=aa603cde13c2fafec08e812cff8a12e9","cover":"","updatetime":"1697698077","height":0,"width":0,"video":"","sort":0,"version":157,"cover2":"","appkey":"init","duration":15,"extra":{},"polyglot":[],"category":"99916318,","audit":0,"is_ugc":0,"type":"audio"},{"id":"1019687","ufid":"28917049","name":"\u98d9\u8f66","file":"http:\/\/rdfile.oss-cn-hangzhou.aliyuncs.com\/filemanage\/init\/audio\/28917049.mp3?nonce=cfcd208495d565ef66e7dff9f98764da","cover":"http:\/\/rdfile.oss-cn-hangzhou.aliyuncs.com\/filemanage\/init\/audio\/28917049.jpeg?nonce=cfcd208495d565ef66e7dff9f98764da","updatetime":"0","height":0,"width":0,"video":"","sort":0,"version":0,"cover2":"","appkey":"init","duration":40,"extra":{},"polyglot":[],"category":"0","audit":0,"is_ugc":0,"type":"audio"},{"id":"1019686","ufid":"20574230","name":"\u81ea\u884c\u8f66\u94c3\u58f0","file":"http:\/\/rdfile.oss-cn-hangzhou.aliyuncs.com\/filemanage\/init\/audio\/20574230.mp3?nonce=cfcd208495d565ef66e7dff9f98764da","cover":"http:\/\/rdfile.oss-cn-hangzhou.aliyuncs.com\/filemanage\/init\/audio\/20574230.jpeg?nonce=cfcd208495d565ef66e7dff9f98764da","updatetime":"0","height":0,"width":0,"video":"","sort":0,"version":0,"cover2":"","appkey":"init","duration":1,"extra":{},"polyglot":[],"category":"0","audit":0,"is_ugc":0,"type":"audio"},{"id":"1019685","ufid":"62774779","name":"\u84b8\u6c7d\u706b\u8f66","file":"http:\/\/rdfile.oss-cn-hangzhou.aliyuncs.com\/filemanage\/init\/audio\/62774779.mp3?nonce=cfcd208495d565ef66e7dff9f98764da","cover":"http:\/\/rdfile.oss-cn-hangzhou.aliyuncs.com\/filemanage\/init\/audio\/62774779.jpeg?nonce=cfcd208495d565ef66e7dff9f98764da","updatetime":"0","height":0,"width":0,"video":"","sort":0,"version":0,"cover2":"","appkey":"init","duration":17,"extra":{},"polyglot":[],"category":"0","audit":0,"is_ugc":0,"type":"audio"},{"id":"1019684","ufid":"77759989","name":"\u6709\u8f68\u7535\u8f66","file":"http:\/\/rdfile.oss-cn-hangzhou.aliyuncs.com\/filemanage\/init\/audio\/77759989.mp3?nonce=cfcd208495d565ef66e7dff9f98764da","cover":"http:\/\/rdfile.oss-cn-hangzhou.aliyuncs.com\/filemanage\/init\/audio\/77759989.jpeg?nonce=cfcd208495d565ef66e7dff9f98764da","updatetime":"0","height":0,"width":0,"video":"","sort":0,"version":0,"cover2":"","appkey":"init","duration":141,"extra":{},"polyglot":[],"category":"0","audit":0,"is_ugc":0,"type":"audio"},{"id":"1019683","ufid":"67821082","name":"\u7cfb\u5b89\u5168\u5e26\u7684\u58f0\u97f3","file":"http:\/\/rdfile.oss-cn-hangzhou.aliyuncs.com\/filemanage\/init\/audio\/67821082.mp3?nonce=cfcd208495d565ef66e7dff9f98764da","cover":"http:\/\/rdfile.oss-cn-hangzhou.aliyuncs.com\/filemanage\/init\/audio\/67821082.jpeg?nonce=cfcd208495d565ef66e7dff9f98764da","updatetime":"0","height":0,"width":0,"video":"","sort":0,"version":0,"cover2":"","appkey":"init","duration":28,"extra":{},"polyglot":[],"category":"0","audit":0,"is_ugc":0,"type":"audio"},{"id":"1019682","ufid":"75113301","name":"\u8d5b\u8f66\u8dd1\u9053\u6d4b\u8bd5","file":"http:\/\/rdfile.oss-cn-hangzhou.aliyuncs.com\/filemanage\/init\/audio\/75113301.mp3?nonce=cfcd208495d565ef66e7dff9f98764da","cover":"http:\/\/rdfile.oss-cn-hangzhou.aliyuncs.com\/filemanage\/init\/audio\/75113301.jpeg?nonce=cfcd208495d565ef66e7dff9f98764da","updatetime":"0","height":0,"width":0,"video":"","sort":0,"version":0,"cover2":"","appkey":"init","duration":24,"extra":{},"polyglot":[],"category":"0","audit":0,"is_ugc":0,"type":"audio"},{"id":"1019681","ufid":"14157969","name":"\u6c7d\u8f66\u884c\u9a76","file":"http:\/\/rdfile.oss-cn-hangzhou.aliyuncs.com\/filemanage\/init\/audio\/14157969.mp3?nonce=cfcd208495d565ef66e7dff9f98764da","cover":"http:\/\/rdfile.oss-cn-hangzhou.aliyuncs.com\/filemanage\/init\/audio\/14157969.jpeg?nonce=cfcd208495d565ef66e7dff9f98764da","updatetime":"0","height":0,"width":0,"video":"","sort":0,"version":0,"cover2":"","appkey":"init","duration":12,"extra":{},"polyglot":[],"category":"0","audit":0,"is_ugc":0,"type":"audio"},{"id":"1019680","ufid":"25867297","name":"\u6c7d\u8f66\u8d77\u6b65","file":"http:\/\/rdfile.oss-cn-hangzhou.aliyuncs.com\/filemanage\/init\/audio\/25867297.mp3?nonce=cfcd208495d565ef66e7dff9f98764da","cover":"http:\/\/rdfile.oss-cn-hangzhou.aliyuncs.com\/filemanage\/init\/audio\/25867297.jpeg?nonce=cfcd208495d565ef66e7dff9f98764da","updatetime":"0","height":0,"width":0,"video":"","sort":0,"version":0,"cover2":"","appkey":"init","duration":39,"extra":{},"polyglot":[],"category":"0","audit":0,"is_ugc":0,"type":"audio"},{"id":"1019679","ufid":"11674419","name":"\u6c7d\u8f66\u7206\u70b8\u97f3\u6548","file":"http:\/\/rdfile.oss-cn-hangzhou.aliyuncs.com\/filemanage\/init\/audio\/11674419.mp3?nonce=cfcd208495d565ef66e7dff9f98764da","cover":"http:\/\/rdfile.oss-cn-hangzhou.aliyuncs.com\/filemanage\/init\/audio\/11674419.jpeg?nonce=cfcd208495d565ef66e7dff9f98764da","updatetime":"0","height":0,"width":0,"video":"","sort":0,"version":0,"cover2":"","appkey":"init","duration":8,"extra":{},"polyglot":[],"category":"0","audit":0,"is_ugc":0,"type":"audio"},{"id":"1019678","ufid":"15790856","name":"\u55b7\u5c04\u98de\u673a\u98de\u8fc7\u5929\u7a7a","file":"http:\/\/rdfile.oss-cn-hangzhou.aliyuncs.com\/filemanage\/init\/audio\/15790856.mp3?nonce=cfcd208495d565ef66e7dff9f98764da","cover":"http:\/\/rdfile.oss-cn-hangzhou.aliyuncs.com\/filemanage\/init\/audio\/15790856.jpeg?nonce=cfcd208495d565ef66e7dff9f98764da","updatetime":"0","height":0,"width":0,"video":"","sort":0,"version":0,"cover2":"","appkey":"init","duration":35,"extra":{},"polyglot":[],"category":"0","audit":0,"is_ugc":0,"type":"audio"},{"id":"1019677","ufid":"49379532","name":"\u6469\u6258\u8f66","file":"http:\/\/rdfile.oss-cn-hangzhou.aliyuncs.com\/filemanage\/init\/audio\/49379532.mp3?nonce=cfcd208495d565ef66e7dff9f98764da","cover":"http:\/\/rdfile.oss-cn-hangzhou.aliyuncs.com\/filemanage\/init\/audio\/49379532.jpeg?nonce=cfcd208495d565ef66e7dff9f98764da","updatetime":"0","height":0,"width":0,"video":"","sort":0,"version":0,"cover2":"","appkey":"init","duration":16,"extra":{},"polyglot":[],"category":"0","audit":0,"is_ugc":0,"type":"audio"},{"id":"1019676","ufid":"46814989","name":"\u9a6c\u8f66","file":"http:\/\/rdfile.oss-cn-hangzhou.aliyuncs.com\/filemanage\/init\/audio\/46814989.mp3?nonce=cfcd208495d565ef66e7dff9f98764da","cover":"http:\/\/rdfile.oss-cn-hangzhou.aliyuncs.com\/filemanage\/init\/audio\/46814989.jpeg?nonce=cfcd208495d565ef66e7dff9f98764da","updatetime":"0","height":0,"width":0,"video":"","sort":0,"version":0,"cover2":"","appkey":"init","duration":5,"extra":{},"polyglot":[],"category":"0","audit":0,"is_ugc":0,"type":"audio"}]}}