{"code":0,"msg":"success","data":{"total":636,"per_page":10,"current_page":5,"last_page":64,"data":[{"id":"1020299","ufid":"24601062","name":"\u6b22\u559c\u8fc7\u5e74","file":"http:\/\/rdfile.oss-cn-hangzhou.aliyuncs.com\/filemanage\/e069b36c568d909f\/templateapi\/16725337816967\/file.zip?nonce=cfcd208495d565ef66e7dff9f98764da","cover":"http:\/\/rdfile.oss-cn-hangzhou.aliyuncs.com\/filemanage\/e069b36c568d909f\/templateapi\/16725337816967\/cover.webp?nonce=cfcd208495d565ef66e7dff9f98764da","updatetime":"0","height":1556,"width":720,"video":"http:\/\/rdfile.oss-cn-hangzhou.aliyuncs.com\/filemanage\/e069b36c568d909f\/templateapi\/16725337816967\/video.mp4?nonce=cfcd208495d565ef66e7dff9f98764da","sort":0,"version":158,"cover2":"","appkey":"init","duration":0,"extra":{},"polyglot":[],"category":"0","audit":0,"is_ugc":0,"text_need":0,"picture_need":0,"video_need":1,"type":"templateapi"},{"id":"1020297","ufid":"33387118","name":"\u65b0\u5e74\u5feb\u4e502023","file":"http:\/\/rdfile.oss-cn-hangzhou.aliyuncs.com\/filemanage\/e069b36c568d909f\/templateapi\/16724745285377\/file.zip?nonce=cfcd208495d565ef66e7dff9f98764da","cover":"http:\/\/rdfile.oss-cn-hangzhou.aliyuncs.com\/filemanage\/e069b36c568d909f\/templateapi\/16724745285377\/cover.webp?nonce=cfcd208495d565ef66e7dff9f98764da","updatetime":"0","height":1280,"width":720,"video":"http:\/\/rdfile.oss-cn-hangzhou.aliyuncs.com\/filemanage\/e069b36c568d909f\/templateapi\/16724745285377\/video.mp4?nonce=cfcd208495d565ef66e7dff9f98764da","sort":0,"version":158,"cover2":"","appkey":"init","duration":0,"extra":{},"polyglot":[],"category":"0","audit":0,"is_ugc":0,"text_need":0,"picture_need":0,"video_need":1,"type":"templateapi"},{"id":"1020288","ufid":"37763500","name":"\u6211\u76842022","file":"http:\/\/rdfile.oss-cn-hangzhou.aliyuncs.com\/filemanage\/e069b36c568d909f\/templateapi\/16723842143870\/file.zip?nonce=249c0f44f85e81cd9a568869f08bf025","cover":"http:\/\/rdfile.oss-cn-hangzhou.aliyuncs.com\/filemanage\/e069b36c568d909f\/templateapi\/16723842143870\/cover.webp?nonce=249c0f44f85e81cd9a568869f08bf025","updatetime":"1684914859","height":608,"width":1080,"video":"http:\/\/rdfile.oss-cn-hangzhou.aliyuncs.com\/filemanage\/e069b36c568d909f\/templateapi\/16723842143870\/video.mp4?nonce=249c0f44f85e81cd9a568869f08bf025","sort":0,"version":158,"cover2":"","appkey":"init","duration":0,"extra":{},"polyglot":[],"category":"0","audit":0,"is_ugc":0,"text_need":0,"picture_need":1,"video_need":12,"type":"templateapi"},{"id":"1020265","ufid":"65411629","name":"\u65b0\u95fb\u8fde\u7ebf","file":"http:\/\/rdfile.oss-cn-hangzhou.aliyuncs.com\/filemanage\/e069b36c568d909f\/templateapi\/16721343422903\/file.zip?nonce=76ffe5739e5c0c6e27a7bddb6bf53389","cover":"http:\/\/rdfile.oss-cn-hangzhou.aliyuncs.com\/filemanage\/e069b36c568d909f\/templateapi\/16721343422903\/cover.webp?nonce=76ffe5739e5c0c6e27a7bddb6bf53389","updatetime":"1684897619","height":607,"width":1080,"video":"http:\/\/rdfile.oss-cn-hangzhou.aliyuncs.com\/filemanage\/e069b36c568d909f\/templateapi\/16721343422903\/video.mp4?nonce=76ffe5739e5c0c6e27a7bddb6bf53389","sort":0,"version":158,"cover2":"","appkey":"init","duration":0,"extra":{},"polyglot":[],"category":"0","audit":0,"is_ugc":0,"text_need":5,"picture_need":2,"video_need":0,"type":"templateapi"},{"id":"1019476","ufid":"42091877","name":"\u4f60\u8981\u771f\u957f\u8fd9\u6837\u80fd\u6ca1\u5bf9\u8c61","file":"http:\/\/rdfile.oss-cn-hangzhou.aliyuncs.com\/filemanage\/e069b36c568d909f\/templateapi\/16720498562993\/file.zip?nonce=cfcd208495d565ef66e7dff9f98764da","cover":"http:\/\/rdfile.oss-cn-hangzhou.aliyuncs.com\/filemanage\/e069b36c568d909f\/templateapi\/16720498562993\/cover.webp?nonce=cfcd208495d565ef66e7dff9f98764da","updatetime":"0","height":1920,"width":1080,"video":"http:\/\/rdfile.oss-cn-hangzhou.aliyuncs.com\/filemanage\/e069b36c568d909f\/templateapi\/16720498562993\/video.mp4?nonce=cfcd208495d565ef66e7dff9f98764da","sort":0,"version":158,"cover2":"","appkey":"init","duration":0,"extra":{},"polyglot":[],"category":"0","audit":0,"is_ugc":0,"text_need":0,"picture_need":0,"video_need":1,"type":"templateapi"},{"id":"1019474","ufid":"36690284","name":"\u94a2\u7434\u5361\u70b9","file":"http:\/\/rdfile.oss-cn-hangzhou.aliyuncs.com\/filemanage\/e069b36c568d909f\/templateapi\/16720477857849\/file.zip?nonce=710b07c0aab268fae3fba806603edc93","cover":"http:\/\/rdfile.oss-cn-hangzhou.aliyuncs.com\/filemanage\/e069b36c568d909f\/templateapi\/16720477857849\/cover.webp?nonce=710b07c0aab268fae3fba806603edc93","updatetime":"1684893455","height":607,"width":1080,"video":"http:\/\/rdfile.oss-cn-hangzhou.aliyuncs.com\/filemanage\/e069b36c568d909f\/templateapi\/16720477857849\/video.mp4?nonce=710b07c0aab268fae3fba806603edc93","sort":0,"version":158,"cover2":"","appkey":"init","duration":0,"extra":{},"polyglot":[],"category":"0","audit":0,"is_ugc":0,"text_need":1,"picture_need":10,"video_need":1,"type":"templateapi"},{"id":"1019410","ufid":"68563193","name":"\u670b\u53cb\u5708\u9001\u82f9\u679c","file":"http:\/\/rdfile.oss-cn-hangzhou.aliyuncs.com\/filemanage\/e069b36c568d909f\/templateapi\/16717784176090\/file.zip?nonce=e14906b2b7387f37ea056717caf4bda7","cover":"http:\/\/rdfile.oss-cn-hangzhou.aliyuncs.com\/filemanage\/e069b36c568d909f\/templateapi\/16717784176090\/cover.webp?nonce=e14906b2b7387f37ea056717caf4bda7","updatetime":"1684894833","height":1060,"width":596,"video":"http:\/\/rdfile.oss-cn-hangzhou.aliyuncs.com\/filemanage\/e069b36c568d909f\/templateapi\/16717784176090\/video.mp4?nonce=e14906b2b7387f37ea056717caf4bda7","sort":0,"version":158,"cover2":"","appkey":"init","duration":0,"extra":{},"polyglot":[],"category":"0","audit":0,"is_ugc":0,"text_need":3,"picture_need":2,"video_need":0,"type":"templateapi"},{"id":"1019408","ufid":"93101970","name":"\u6c1b\u56f4\u611f\u6162\u52a8\u4f5c","file":"http:\/\/rdfile.oss-cn-hangzhou.aliyuncs.com\/filemanage\/e069b36c568d909f\/templateapi\/16717056116074\/file.zip?nonce=cfcd208495d565ef66e7dff9f98764da","cover":"http:\/\/rdfile.oss-cn-hangzhou.aliyuncs.com\/filemanage\/e069b36c568d909f\/templateapi\/16717056116074\/cover.webp?nonce=cfcd208495d565ef66e7dff9f98764da","updatetime":"0","height":1920,"width":1080,"video":"http:\/\/rdfile.oss-cn-hangzhou.aliyuncs.com\/filemanage\/e069b36c568d909f\/templateapi\/16717056116074\/video.mp4?nonce=cfcd208495d565ef66e7dff9f98764da","sort":0,"version":157,"cover2":"","appkey":"init","duration":0,"extra":{},"polyglot":[],"category":"0","audit":0,"is_ugc":0,"text_need":0,"picture_need":0,"video_need":1,"type":"templateapi"},{"id":"1019403","ufid":"98275037","name":"\u51ac\u81f3","file":"http:\/\/rdfile.oss-cn-hangzhou.aliyuncs.com\/filemanage\/e069b36c568d909f\/templateapi\/16716805076769\/file.zip?nonce=3dce447006335a57a6849afe5b4c83aa","cover":"http:\/\/rdfile.oss-cn-hangzhou.aliyuncs.com\/filemanage\/e069b36c568d909f\/templateapi\/16716805076769\/cover.webp?nonce=3dce447006335a57a6849afe5b4c83aa","updatetime":"1684893257","height":1058,"width":595,"video":"http:\/\/rdfile.oss-cn-hangzhou.aliyuncs.com\/filemanage\/e069b36c568d909f\/templateapi\/16716805076769\/video.mp4?nonce=3dce447006335a57a6849afe5b4c83aa","sort":0,"version":158,"cover2":"","appkey":"init","duration":0,"extra":{},"polyglot":[],"category":"0","audit":0,"is_ugc":0,"text_need":0,"picture_need":0,"video_need":2,"type":"templateapi"},{"id":"1019393","ufid":"27209815","name":"\u5e0c\u671b\u6211\u4eec\u90fd\u8d70\u5411\u5e78\u798f","file":"http:\/\/rdfile.oss-cn-hangzhou.aliyuncs.com\/filemanage\/e069b36c568d909f\/templateapi\/16716185706608\/file.zip?nonce=cfcd208495d565ef66e7dff9f98764da","cover":"http:\/\/rdfile.oss-cn-hangzhou.aliyuncs.com\/filemanage\/e069b36c568d909f\/templateapi\/16716185706608\/cover.webp?nonce=cfcd208495d565ef66e7dff9f98764da","updatetime":"0","height":1920,"width":1080,"video":"http:\/\/rdfile.oss-cn-hangzhou.aliyuncs.com\/filemanage\/e069b36c568d909f\/templateapi\/16716185706608\/video.mp4?nonce=cfcd208495d565ef66e7dff9f98764da","sort":0,"version":157,"cover2":"","appkey":"init","duration":0,"extra":{},"polyglot":[],"category":"0","audit":0,"is_ugc":0,"text_need":0,"picture_need":0,"video_need":1,"type":"templateapi"}]}}