{"code":0,"msg":"success","data":{"total":173,"per_page":10,"current_page":5,"last_page":18,"data":[{"id":"1014797","ufid":"31793288","name":"\u6211\u5bf9\u94b1\u6ca1\u6709\u5174\u8da3","file":"http:\/\/rdfile.oss-cn-hangzhou.aliyuncs.com\/filemanage\/e069b36c568d909f\/templateapi\/16499165945191\/file.zip?nonce=0fdc01ae5c615b249ab5a504dae195a4","cover":"http:\/\/rdfile.oss-cn-hangzhou.aliyuncs.com\/filemanage\/e069b36c568d909f\/templateapi\/16499165945191\/cover.png?nonce=0fdc01ae5c615b249ab5a504dae195a4&x-oss-process=style\/templateapi","updatetime":"1699942521","height":1060,"width":596,"video":"http:\/\/rdfile.oss-cn-hangzhou.aliyuncs.com\/filemanage\/e069b36c568d909f\/templateapi\/16499165945191\/video.mp4?nonce=0fdc01ae5c615b249ab5a504dae195a4","sort":0,"version":152,"cover2":"","appkey":"init","duration":0,"extra":{},"polyglot":[],"category":"0","audit":0,"is_ugc":0,"text_need":0,"picture_need":0,"video_need":2,"type":"templateapi"},{"id":"1016366","ufid":"86753792","name":"\u65e9\u5b89\u8f6c\u8f6c\u5b57\u4f53\u95f9\u949f","file":"http:\/\/rdfile.oss-cn-hangzhou.aliyuncs.com\/filemanage\/e069b36c568d909f\/templateapi\/16674682991623\/file.zip?nonce=6959f47b5b76a24d3658694bb2580c25","cover":"http:\/\/rdfile.oss-cn-hangzhou.aliyuncs.com\/filemanage\/e069b36c568d909f\/templateapi\/16674682991623\/cover.webp?nonce=6959f47b5b76a24d3658694bb2580c25","updatetime":"1684896378","height":1081,"width":608,"video":"http:\/\/rdfile.oss-cn-hangzhou.aliyuncs.com\/filemanage\/e069b36c568d909f\/templateapi\/16674682991623\/video.mp4?nonce=6959f47b5b76a24d3658694bb2580c25","sort":0,"version":154,"cover2":"","appkey":"init","duration":0,"extra":{},"polyglot":[],"category":"0","audit":0,"is_ugc":0,"text_need":1,"picture_need":0,"video_need":2,"type":"templateapi"},{"id":"1016361","ufid":"10854170","name":"\u7231\u5fc3\u5bab\u683c","file":"http:\/\/rdfile.oss-cn-hangzhou.aliyuncs.com\/filemanage\/e069b36c568d909f\/templateapi\/16674627076438\/file.zip?nonce=67a6ff64c47bbc8caa0913603461497f","cover":"http:\/\/rdfile.oss-cn-hangzhou.aliyuncs.com\/filemanage\/e069b36c568d909f\/templateapi\/16674627076438\/cover.webp?nonce=67a6ff64c47bbc8caa0913603461497f","updatetime":"1684895159","height":1080,"width":1080,"video":"http:\/\/rdfile.oss-cn-hangzhou.aliyuncs.com\/filemanage\/e069b36c568d909f\/templateapi\/16674627076438\/video.mp4?nonce=67a6ff64c47bbc8caa0913603461497f","sort":0,"version":154,"cover2":"","appkey":"init","duration":0,"extra":{},"polyglot":[],"category":"0","audit":0,"is_ugc":0,"text_need":0,"picture_need":0,"video_need":1,"type":"templateapi"},{"id":"1016352","ufid":"36219576","name":"\u9542\u7a7a\u6587\u5b57\u5206\u5272\u5f00\u573a","file":"http:\/\/rdfile.oss-cn-hangzhou.aliyuncs.com\/filemanage\/e069b36c568d909f\/templateapi\/16673777115537\/file.zip?nonce=8b2a5e7d382b074b169438133431c6c2","cover":"http:\/\/rdfile.oss-cn-hangzhou.aliyuncs.com\/filemanage\/e069b36c568d909f\/templateapi\/16673777115537\/cover.webp?nonce=8b2a5e7d382b074b169438133431c6c2","updatetime":"1684898383","height":607,"width":1080,"video":"http:\/\/rdfile.oss-cn-hangzhou.aliyuncs.com\/filemanage\/e069b36c568d909f\/templateapi\/16673777115537\/video.mp4?nonce=8b2a5e7d382b074b169438133431c6c2","sort":0,"version":153,"cover2":"","appkey":"init","duration":0,"extra":{},"polyglot":[],"category":"0","audit":0,"is_ugc":0,"text_need":0,"picture_need":0,"video_need":1,"type":"templateapi"},{"id":"1016344","ufid":"34020473","name":"\u4f59\u60c5\u672a\u4e86","file":"http:\/\/rdfile.oss-cn-hangzhou.aliyuncs.com\/filemanage\/e069b36c568d909f\/templateapi\/16673613514227\/file.zip?nonce=44f943aa03ddbbec8aeec7790af26851","cover":"http:\/\/rdfile.oss-cn-hangzhou.aliyuncs.com\/filemanage\/e069b36c568d909f\/templateapi\/16673613514227\/cover.webp?nonce=44f943aa03ddbbec8aeec7790af26851","updatetime":"1684896450","height":1748,"width":1005,"video":"http:\/\/rdfile.oss-cn-hangzhou.aliyuncs.com\/filemanage\/e069b36c568d909f\/templateapi\/16673613514227\/video.mp4?nonce=44f943aa03ddbbec8aeec7790af26851","sort":0,"version":154,"cover2":"","appkey":"init","duration":0,"extra":{},"polyglot":[],"category":"0","audit":0,"is_ugc":0,"text_need":8,"picture_need":0,"video_need":3,"type":"templateapi"},{"id":"1016169","ufid":"35807635","name":"\u968f\u62cd\u5feb\u526a","file":"http:\/\/rdfile.oss-cn-hangzhou.aliyuncs.com\/filemanage\/e069b36c568d909f\/templateapi\/16655648386242\/file.zip?nonce=10cca7e5f7d59a9d82fa05c2ee2583c3","cover":"http:\/\/rdfile.oss-cn-hangzhou.aliyuncs.com\/filemanage\/e069b36c568d909f\/templateapi\/16655648386242\/cover.webp?nonce=10cca7e5f7d59a9d82fa05c2ee2583c3","updatetime":"1684911510","height":1920,"width":1080,"video":"http:\/\/rdfile.oss-cn-hangzhou.aliyuncs.com\/filemanage\/e069b36c568d909f\/templateapi\/16655648386242\/video.mp4?nonce=10cca7e5f7d59a9d82fa05c2ee2583c3","sort":0,"version":153,"cover2":"","appkey":"init","duration":0,"extra":{},"polyglot":[],"category":"0","audit":0,"is_ugc":0,"text_need":0,"picture_need":0,"video_need":3,"type":"templateapi"},{"id":"1016147","ufid":"18835196","name":"\u6240\u6709\u6d6a\u6f2b\u90fd\u5728\u8fd9\u4e2abgm\u91cc\u4e86","file":"http:\/\/rdfile.oss-cn-hangzhou.aliyuncs.com\/filemanage\/e069b36c568d909f\/templateapi\/16654710015508\/file.zip?nonce=27344f6dffcdbb74fce90726367d43ac","cover":"http:\/\/rdfile.oss-cn-hangzhou.aliyuncs.com\/filemanage\/e069b36c568d909f\/templateapi\/16654710015508\/cover.webp?nonce=27344f6dffcdbb74fce90726367d43ac","updatetime":"1684896463","height":1280,"width":720,"video":"http:\/\/rdfile.oss-cn-hangzhou.aliyuncs.com\/filemanage\/e069b36c568d909f\/templateapi\/16654710015508\/video.mp4?nonce=27344f6dffcdbb74fce90726367d43ac","sort":0,"version":153,"cover2":"","appkey":"init","duration":0,"extra":{},"polyglot":[],"category":"0","audit":0,"is_ugc":0,"text_need":0,"picture_need":0,"video_need":5,"type":"templateapi"},{"id":"1016097","ufid":"12945317","name":"\u7529\u624b\u53d8\u88c5","file":"http:\/\/rdfile.oss-cn-hangzhou.aliyuncs.com\/filemanage\/e069b36c568d909f\/templateapi\/16652176808998\/file.zip?nonce=cfcd208495d565ef66e7dff9f98764da","cover":"http:\/\/rdfile.oss-cn-hangzhou.aliyuncs.com\/filemanage\/e069b36c568d909f\/templateapi\/16652176808998\/cover.webp?nonce=cfcd208495d565ef66e7dff9f98764da","updatetime":"0","height":1920,"width":1080,"video":"http:\/\/rdfile.oss-cn-hangzhou.aliyuncs.com\/filemanage\/e069b36c568d909f\/templateapi\/16652176808998\/video.mp4?nonce=cfcd208495d565ef66e7dff9f98764da","sort":0,"version":153,"cover2":"","appkey":"6ecb39f1c12f1a35","duration":0,"extra":{},"polyglot":[],"category":"0","audit":0,"is_ugc":0,"text_need":0,"picture_need":0,"video_need":2,"type":"templateapi"},{"id":"1015924","ufid":"55023046","name":"\u6211\u4eec\u7684\u7535\u5f71","file":"http:\/\/rdfile.oss-cn-hangzhou.aliyuncs.com\/filemanage\/e069b36c568d909f\/templateapi\/16614125346065\/file.zip?nonce=5e71bf18f01abc3a9f0127f9a209df7f","cover":"http:\/\/rdfile.oss-cn-hangzhou.aliyuncs.com\/filemanage\/e069b36c568d909f\/templateapi\/16614125346065\/cover.webp?nonce=5e71bf18f01abc3a9f0127f9a209df7f","updatetime":"1684898206","height":1060,"width":596,"video":"http:\/\/rdfile.oss-cn-hangzhou.aliyuncs.com\/filemanage\/e069b36c568d909f\/templateapi\/16614125346065\/video.mp4?nonce=5e71bf18f01abc3a9f0127f9a209df7f","sort":0,"version":153,"cover2":"","appkey":"init","duration":0,"extra":{},"polyglot":[],"category":"0","audit":0,"is_ugc":0,"text_need":6,"picture_need":6,"video_need":0,"type":"templateapi"},{"id":"1015213","ufid":"88807309","name":"\u6210\u8bed\u62dc\u65b0\u5e74","file":"http:\/\/rdfile.oss-cn-hangzhou.aliyuncs.com\/filemanage\/e069b36c568d909f\/templateapi\/16533855683958\/file.zip?nonce=7e2b0cff8a7695103d3b6542620ae5d6","cover":"http:\/\/rdfile.oss-cn-hangzhou.aliyuncs.com\/filemanage\/e069b36c568d909f\/templateapi\/16533855683958\/cover.webp?nonce=7e2b0cff8a7695103d3b6542620ae5d6","updatetime":"1684895288","height":633,"width":356,"video":"http:\/\/rdfile.oss-cn-hangzhou.aliyuncs.com\/filemanage\/e069b36c568d909f\/templateapi\/16533855683958\/video.mp4?nonce=7e2b0cff8a7695103d3b6542620ae5d6","sort":0,"version":153,"cover2":"","appkey":"init","duration":0,"extra":{},"polyglot":[],"category":"0","audit":0,"is_ugc":0,"text_need":9,"picture_need":0,"video_need":1,"type":"templateapi"}]}}