{"code":0,"msg":"success","data":{"total":636,"per_page":10,"current_page":52,"last_page":64,"data":[{"id":"1012306","ufid":"27138376","name":"\u672a\u6765\u53ef\u671f","file":"http:\/\/rdfile.oss-cn-hangzhou.aliyuncs.com\/filemanage\/e069b36c568d909f\/templateapi\/16304699768052\/file.zip?nonce=57f4a920cc8f79a5130d62f0a5c54bec","cover":"http:\/\/rdfile.oss-cn-hangzhou.aliyuncs.com\/filemanage\/e069b36c568d909f\/templateapi\/16304699768052\/cover.png?nonce=57f4a920cc8f79a5130d62f0a5c54bec&x-oss-process=style\/templateapi","updatetime":"1704185704","height":1080,"width":607,"video":"http:\/\/rdfile.oss-cn-hangzhou.aliyuncs.com\/filemanage\/e069b36c568d909f\/templateapi\/16304699768052\/video.mp4?nonce=57f4a920cc8f79a5130d62f0a5c54bec","sort":100,"version":147,"cover2":"","appkey":"init","duration":0,"extra":{},"polyglot":{"en":"The future is promising"},"category":"0","audit":0,"is_ugc":0,"text_need":0,"picture_need":4,"video_need":0,"type":"templateapi"},{"id":"1012305","ufid":"80937385","name":"\u7cbe\u7075","file":"http:\/\/rdfile.oss-cn-hangzhou.aliyuncs.com\/filemanage\/e069b36c568d909f\/templateapi\/16304696838874\/file.zip?nonce=23fa1dfa57727d9e348b9832c912c917","cover":"http:\/\/rdfile.oss-cn-hangzhou.aliyuncs.com\/filemanage\/e069b36c568d909f\/templateapi\/16304696838874\/cover.png?nonce=23fa1dfa57727d9e348b9832c912c917&x-oss-process=style\/templateapi","updatetime":"1704185703","height":1080,"width":607,"video":"http:\/\/rdfile.oss-cn-hangzhou.aliyuncs.com\/filemanage\/e069b36c568d909f\/templateapi\/16304696838874\/video.mp4?nonce=23fa1dfa57727d9e348b9832c912c917","sort":100,"version":147,"cover2":"","appkey":"init","duration":0,"extra":{},"polyglot":{"en":"Elf"},"category":"0","audit":0,"is_ugc":0,"text_need":0,"picture_need":1,"video_need":0,"type":"templateapi"},{"id":"1012304","ufid":"49419426","name":"\u5c71\u6942\u68a8","file":"http:\/\/rdfile.oss-cn-hangzhou.aliyuncs.com\/filemanage\/e069b36c568d909f\/templateapi\/16304689748722\/file.zip?nonce=23fa1dfa57727d9e348b9832c912c917","cover":"http:\/\/rdfile.oss-cn-hangzhou.aliyuncs.com\/filemanage\/e069b36c568d909f\/templateapi\/16304689748722\/cover.png?nonce=23fa1dfa57727d9e348b9832c912c917&x-oss-process=style\/templateapi","updatetime":"1704185703","height":1080,"width":607,"video":"http:\/\/rdfile.oss-cn-hangzhou.aliyuncs.com\/filemanage\/e069b36c568d909f\/templateapi\/16304689748722\/video.mp4?nonce=23fa1dfa57727d9e348b9832c912c917","sort":100,"version":147,"cover2":"","appkey":"init","duration":0,"extra":{},"polyglot":{"en":"Hawthorn pear"},"category":"0","audit":0,"is_ugc":0,"text_need":0,"picture_need":0,"video_need":8,"type":"templateapi"},{"id":"1012302","ufid":"47898715","name":"\u4e00\u8a00\u96be\u5c3d","file":"http:\/\/rdfile.oss-cn-hangzhou.aliyuncs.com\/filemanage\/e069b36c568d909f\/templateapi\/16304050089736\/file.zip?nonce=23fa1dfa57727d9e348b9832c912c917","cover":"http:\/\/rdfile.oss-cn-hangzhou.aliyuncs.com\/filemanage\/e069b36c568d909f\/templateapi\/16304050089736\/cover.png?nonce=23fa1dfa57727d9e348b9832c912c917&x-oss-process=style\/templateapi","updatetime":"1704185703","height":1280,"width":720,"video":"http:\/\/rdfile.oss-cn-hangzhou.aliyuncs.com\/filemanage\/e069b36c568d909f\/templateapi\/16304050089736\/video.mp4?nonce=23fa1dfa57727d9e348b9832c912c917","sort":100,"version":147,"cover2":"","appkey":"init","duration":0,"extra":{},"polyglot":{"en":"Hard to describe in one word"},"category":"0","audit":0,"is_ugc":0,"text_need":0,"picture_need":0,"video_need":1,"type":"templateapi"},{"id":"1012301","ufid":"62085196","name":"\u98de\u9e1f\u96c6","file":"http:\/\/rdfile.oss-cn-hangzhou.aliyuncs.com\/filemanage\/e069b36c568d909f\/templateapi\/16304013847317\/file.zip?nonce=23fa1dfa57727d9e348b9832c912c917","cover":"http:\/\/rdfile.oss-cn-hangzhou.aliyuncs.com\/filemanage\/e069b36c568d909f\/templateapi\/16304013847317\/cover.png?nonce=23fa1dfa57727d9e348b9832c912c917&x-oss-process=style\/templateapi","updatetime":"1704185703","height":1280,"width":720,"video":"http:\/\/rdfile.oss-cn-hangzhou.aliyuncs.com\/filemanage\/e069b36c568d909f\/templateapi\/16304013847317\/video.mp4?nonce=23fa1dfa57727d9e348b9832c912c917","sort":100,"version":147,"cover2":"","appkey":"init","duration":0,"extra":{},"polyglot":{"en":"Stray Birds"},"category":"0","audit":0,"is_ugc":0,"text_need":0,"picture_need":2,"video_need":0,"type":"templateapi"},{"id":"1012300","ufid":"58802926","name":"\u5e0c\u533a\u67ef\u514b\u73a9\u6cd5","file":"http:\/\/rdfile.oss-cn-hangzhou.aliyuncs.com\/filemanage\/e069b36c568d909f\/templateapi\/16303972206321\/file.zip?nonce=23fa1dfa57727d9e348b9832c912c917","cover":"http:\/\/rdfile.oss-cn-hangzhou.aliyuncs.com\/filemanage\/e069b36c568d909f\/templateapi\/16303972206321\/cover.png?nonce=23fa1dfa57727d9e348b9832c912c917&x-oss-process=style\/templateapi","updatetime":"1704185703","height":1080,"width":607,"video":"http:\/\/rdfile.oss-cn-hangzhou.aliyuncs.com\/filemanage\/e069b36c568d909f\/templateapi\/16303972206321\/video.mp4?nonce=23fa1dfa57727d9e348b9832c912c917","sort":100,"version":147,"cover2":"","appkey":"init","duration":0,"extra":{},"polyglot":{"en":"Hitchcock gameplay"},"category":"0","audit":0,"is_ugc":0,"text_need":0,"picture_need":5,"video_need":0,"type":"templateapi"},{"id":"1012299","ufid":"41280038","name":"\u96e8\u5929","file":"http:\/\/rdfile.oss-cn-hangzhou.aliyuncs.com\/filemanage\/e069b36c568d909f\/templateapi\/16303960695710\/file.zip?nonce=18f2ea9a7f0864346eb1109d7b298bfd","cover":"http:\/\/rdfile.oss-cn-hangzhou.aliyuncs.com\/filemanage\/e069b36c568d909f\/templateapi\/16303960695710\/cover.png?nonce=18f2ea9a7f0864346eb1109d7b298bfd&x-oss-process=style\/templateapi","updatetime":"1704185702","height":1080,"width":607,"video":"http:\/\/rdfile.oss-cn-hangzhou.aliyuncs.com\/filemanage\/e069b36c568d909f\/templateapi\/16303960695710\/video.mp4?nonce=18f2ea9a7f0864346eb1109d7b298bfd","sort":100,"version":147,"cover2":"","appkey":"init","duration":0,"extra":{},"polyglot":{"en":"Rain day"},"category":"0","audit":0,"is_ugc":0,"text_need":0,"picture_need":2,"video_need":0,"type":"templateapi"},{"id":"1012298","ufid":"30393776","name":"\u522b\u78b0\u6211\u624b\u673a","file":"http:\/\/rdfile.oss-cn-hangzhou.aliyuncs.com\/filemanage\/e069b36c568d909f\/templateapi\/16303944404901\/file.zip?nonce=18f2ea9a7f0864346eb1109d7b298bfd","cover":"http:\/\/rdfile.oss-cn-hangzhou.aliyuncs.com\/filemanage\/e069b36c568d909f\/templateapi\/16303944404901\/cover.png?nonce=18f2ea9a7f0864346eb1109d7b298bfd&x-oss-process=style\/templateapi","updatetime":"1704185702","height":1280,"width":720,"video":"http:\/\/rdfile.oss-cn-hangzhou.aliyuncs.com\/filemanage\/e069b36c568d909f\/templateapi\/16303944404901\/video.mp4?nonce=18f2ea9a7f0864346eb1109d7b298bfd","sort":100,"version":147,"cover2":"","appkey":"init","duration":0,"extra":{},"polyglot":{"en":"Don"},"category":"0","audit":0,"is_ugc":0,"text_need":0,"picture_need":2,"video_need":0,"type":"templateapi"},{"id":"1012297","ufid":"99512395","name":"\u725b\u76ae\u7eb8\u62cd\u7acb\u5f97","file":"http:\/\/rdfile.oss-cn-hangzhou.aliyuncs.com\/filemanage\/e069b36c568d909f\/templateapi\/16303927866844\/file.zip?nonce=18f2ea9a7f0864346eb1109d7b298bfd","cover":"http:\/\/rdfile.oss-cn-hangzhou.aliyuncs.com\/filemanage\/e069b36c568d909f\/templateapi\/16303927866844\/cover.png?nonce=18f2ea9a7f0864346eb1109d7b298bfd&x-oss-process=style\/templateapi","updatetime":"1704185702","height":720,"width":404,"video":"http:\/\/rdfile.oss-cn-hangzhou.aliyuncs.com\/filemanage\/e069b36c568d909f\/templateapi\/16303927866844\/video.mp4?nonce=18f2ea9a7f0864346eb1109d7b298bfd","sort":100,"version":147,"cover2":"","appkey":"init","duration":0,"extra":{},"polyglot":{"en":"Kraft paper polaroids"},"category":"0","audit":0,"is_ugc":0,"text_need":0,"picture_need":0,"video_need":11,"type":"templateapi"},{"id":"1012294","ufid":"27106216","name":"\u5927\u7247\u00b7\u902e\u6355\u4ee4","file":"http:\/\/rdfile.oss-cn-hangzhou.aliyuncs.com\/filemanage\/e069b36c568d909f\/templateapi\/16303840928147\/file.zip?nonce=18f2ea9a7f0864346eb1109d7b298bfd","cover":"http:\/\/rdfile.oss-cn-hangzhou.aliyuncs.com\/filemanage\/e069b36c568d909f\/templateapi\/16303840928147\/cover.png?nonce=18f2ea9a7f0864346eb1109d7b298bfd&x-oss-process=style\/templateapi","updatetime":"1704185702","height":720,"width":1280,"video":"http:\/\/rdfile.oss-cn-hangzhou.aliyuncs.com\/filemanage\/e069b36c568d909f\/templateapi\/16303840928147\/video.mp4?nonce=18f2ea9a7f0864346eb1109d7b298bfd","sort":100,"version":147,"cover2":"","appkey":"init","duration":0,"extra":{},"polyglot":{"en":"Blockbuster Arrest Warrant"},"category":"0","audit":0,"is_ugc":0,"text_need":0,"picture_need":0,"video_need":11,"type":"templateapi"}]}}