{"code":0,"msg":"success","data":{"total":636,"per_page":10,"current_page":36,"last_page":64,"data":[{"id":"1014808","ufid":"81487005","name":"\u4f20\u9001\u95e8","file":"http:\/\/rdfile.oss-cn-hangzhou.aliyuncs.com\/filemanage\/e069b36c568d909f\/templateapi\/16499284225198\/file.zip?nonce=1ee65edd0fbb9a0066632f200c4ea150","cover":"http:\/\/rdfile.oss-cn-hangzhou.aliyuncs.com\/filemanage\/e069b36c568d909f\/templateapi\/16499284225198\/cover.png?nonce=1ee65edd0fbb9a0066632f200c4ea150&x-oss-process=style\/templateapi","updatetime":"1704185844","height":720,"width":1280,"video":"http:\/\/rdfile.oss-cn-hangzhou.aliyuncs.com\/filemanage\/e069b36c568d909f\/templateapi\/16499284225198\/video.mp4?nonce=1ee65edd0fbb9a0066632f200c4ea150","sort":0,"version":152,"cover2":"","appkey":"init","duration":0,"extra":{},"polyglot":{"en":"Portal"},"category":"0","audit":0,"is_ugc":0,"text_need":0,"picture_need":0,"video_need":3,"type":"templateapi"},{"id":"1014807","ufid":"15314220","name":"\u7b49\u75ab\u60c5\u8fc7\u540e","file":"http:\/\/rdfile.oss-cn-hangzhou.aliyuncs.com\/filemanage\/e069b36c568d909f\/templateapi\/16499280324713\/file.zip?nonce=1ee65edd0fbb9a0066632f200c4ea150","cover":"http:\/\/rdfile.oss-cn-hangzhou.aliyuncs.com\/filemanage\/e069b36c568d909f\/templateapi\/16499280324713\/cover.png?nonce=1ee65edd0fbb9a0066632f200c4ea150&x-oss-process=style\/templateapi","updatetime":"1704185844","height":633,"width":356,"video":"http:\/\/rdfile.oss-cn-hangzhou.aliyuncs.com\/filemanage\/e069b36c568d909f\/templateapi\/16499280324713\/video.mp4?nonce=1ee65edd0fbb9a0066632f200c4ea150","sort":0,"version":152,"cover2":"","appkey":"init","duration":0,"extra":{},"polyglot":{"en":"Wait until the epidemic passes"},"category":"0","audit":0,"is_ugc":0,"text_need":0,"picture_need":16,"video_need":0,"type":"templateapi"},{"id":"1014805","ufid":"62541391","name":"\u6eda\u52a8\u76f8\u518c","file":"http:\/\/rdfile.oss-cn-hangzhou.aliyuncs.com\/filemanage\/e069b36c568d909f\/templateapi\/16499236912686\/file.zip?nonce=1ee65edd0fbb9a0066632f200c4ea150","cover":"http:\/\/rdfile.oss-cn-hangzhou.aliyuncs.com\/filemanage\/e069b36c568d909f\/templateapi\/16499236912686\/cover.png?nonce=1ee65edd0fbb9a0066632f200c4ea150&x-oss-process=style\/templateapi","updatetime":"1704185844","height":720,"width":1280,"video":"http:\/\/rdfile.oss-cn-hangzhou.aliyuncs.com\/filemanage\/e069b36c568d909f\/templateapi\/16499236912686\/video.mp4?nonce=1ee65edd0fbb9a0066632f200c4ea150","sort":0,"version":152,"cover2":"","appkey":"init","duration":0,"extra":{},"polyglot":{"en":"Scroll through album"},"category":"0","audit":0,"is_ugc":0,"text_need":0,"picture_need":0,"video_need":9,"type":"templateapi"},{"id":"1014797","ufid":"31793288","name":"\u6211\u5bf9\u94b1\u6ca1\u6709\u5174\u8da3","file":"http:\/\/rdfile.oss-cn-hangzhou.aliyuncs.com\/filemanage\/e069b36c568d909f\/templateapi\/16499165945191\/file.zip?nonce=1ee65edd0fbb9a0066632f200c4ea150","cover":"http:\/\/rdfile.oss-cn-hangzhou.aliyuncs.com\/filemanage\/e069b36c568d909f\/templateapi\/16499165945191\/cover.png?nonce=1ee65edd0fbb9a0066632f200c4ea150&x-oss-process=style\/templateapi","updatetime":"1704185844","height":1060,"width":596,"video":"http:\/\/rdfile.oss-cn-hangzhou.aliyuncs.com\/filemanage\/e069b36c568d909f\/templateapi\/16499165945191\/video.mp4?nonce=1ee65edd0fbb9a0066632f200c4ea150","sort":0,"version":152,"cover2":"","appkey":"init","duration":0,"extra":{},"polyglot":{"en":"I"},"category":"0","audit":0,"is_ugc":0,"text_need":0,"picture_need":0,"video_need":2,"type":"templateapi"},{"id":"1014792","ufid":"96143777","name":"\u98de\u5929\u9526\u9ca4","file":"http:\/\/rdfile.oss-cn-hangzhou.aliyuncs.com\/filemanage\/e069b36c568d909f\/templateapi\/16499054546165\/file.zip?nonce=1ee65edd0fbb9a0066632f200c4ea150","cover":"http:\/\/rdfile.oss-cn-hangzhou.aliyuncs.com\/filemanage\/e069b36c568d909f\/templateapi\/16499054546165\/cover.png?nonce=1ee65edd0fbb9a0066632f200c4ea150&x-oss-process=style\/templateapi","updatetime":"1704185844","height":1280,"width":720,"video":"http:\/\/rdfile.oss-cn-hangzhou.aliyuncs.com\/filemanage\/e069b36c568d909f\/templateapi\/16499054546165\/video.mp4?nonce=1ee65edd0fbb9a0066632f200c4ea150","sort":0,"version":152,"cover2":"","appkey":"init","duration":0,"extra":{},"polyglot":{"en":"Flying koi"},"category":"0","audit":0,"is_ugc":0,"text_need":0,"picture_need":0,"video_need":1,"type":"templateapi"},{"id":"1014790","ufid":"57401620","name":"\u5f88\u60f3\u67d0\u4eba","file":"http:\/\/rdfile.oss-cn-hangzhou.aliyuncs.com\/filemanage\/e069b36c568d909f\/templateapi\/16498449376883\/file.zip?nonce=1ee65edd0fbb9a0066632f200c4ea150","cover":"http:\/\/rdfile.oss-cn-hangzhou.aliyuncs.com\/filemanage\/e069b36c568d909f\/templateapi\/16498449376883\/cover.png?nonce=1ee65edd0fbb9a0066632f200c4ea150&x-oss-process=style\/templateapi","updatetime":"1704185844","height":633,"width":356,"video":"http:\/\/rdfile.oss-cn-hangzhou.aliyuncs.com\/filemanage\/e069b36c568d909f\/templateapi\/16498449376883\/video.mp4?nonce=1ee65edd0fbb9a0066632f200c4ea150","sort":0,"version":152,"cover2":"","appkey":"init","duration":0,"extra":{},"polyglot":{"en":"Miss someone very much"},"category":"0","audit":0,"is_ugc":0,"text_need":5,"picture_need":5,"video_need":0,"type":"templateapi"},{"id":"1014788","ufid":"44964038","name":"\u52a8\u611f\u8282\u62cd","file":"http:\/\/rdfile.oss-cn-hangzhou.aliyuncs.com\/filemanage\/e069b36c568d909f\/templateapi\/16498416412450\/file.zip?nonce=8ffc8df0547e536cdbfb77b438a8ad63","cover":"http:\/\/rdfile.oss-cn-hangzhou.aliyuncs.com\/filemanage\/e069b36c568d909f\/templateapi\/16498416412450\/cover.png?nonce=8ffc8df0547e536cdbfb77b438a8ad63&x-oss-process=style\/templateapi","updatetime":"1704185843","height":633,"width":356,"video":"http:\/\/rdfile.oss-cn-hangzhou.aliyuncs.com\/filemanage\/e069b36c568d909f\/templateapi\/16498416412450\/video.mp4?nonce=8ffc8df0547e536cdbfb77b438a8ad63","sort":0,"version":152,"cover2":"","appkey":"init","duration":0,"extra":{},"polyglot":{"en":"Dynamic beat"},"category":"0","audit":0,"is_ugc":0,"text_need":0,"picture_need":6,"video_need":0,"type":"templateapi"},{"id":"1014787","ufid":"89589743","name":"\u5f3a\u54e5\uff0c\u5feb\u770b\u7535\u89c6","file":"http:\/\/rdfile.oss-cn-hangzhou.aliyuncs.com\/filemanage\/e069b36c568d909f\/templateapi\/16498415774759\/file.zip?nonce=8ffc8df0547e536cdbfb77b438a8ad63","cover":"http:\/\/rdfile.oss-cn-hangzhou.aliyuncs.com\/filemanage\/e069b36c568d909f\/templateapi\/16498415774759\/cover.png?nonce=8ffc8df0547e536cdbfb77b438a8ad63&x-oss-process=style\/templateapi","updatetime":"1704185843","height":1059,"width":596,"video":"http:\/\/rdfile.oss-cn-hangzhou.aliyuncs.com\/filemanage\/e069b36c568d909f\/templateapi\/16498415774759\/video.mp4?nonce=8ffc8df0547e536cdbfb77b438a8ad63","sort":0,"version":152,"cover2":"","appkey":"init","duration":0,"extra":{},"polyglot":{"en":"Brother Qiang, watch TV quickly"},"category":"0","audit":0,"is_ugc":0,"text_need":0,"picture_need":0,"video_need":1,"type":"templateapi"},{"id":"1014786","ufid":"94644460","name":"\u56db\u5206\u5c4f\u51fa\u573a\u4ecb\u7ecd","file":"http:\/\/rdfile.oss-cn-hangzhou.aliyuncs.com\/filemanage\/e069b36c568d909f\/templateapi\/16498400528845\/file.zip?nonce=8ffc8df0547e536cdbfb77b438a8ad63","cover":"http:\/\/rdfile.oss-cn-hangzhou.aliyuncs.com\/filemanage\/e069b36c568d909f\/templateapi\/16498400528845\/cover.png?nonce=8ffc8df0547e536cdbfb77b438a8ad63&x-oss-process=style\/templateapi","updatetime":"1704185843","height":720,"width":1280,"video":"http:\/\/rdfile.oss-cn-hangzhou.aliyuncs.com\/filemanage\/e069b36c568d909f\/templateapi\/16498400528845\/video.mp4?nonce=8ffc8df0547e536cdbfb77b438a8ad63","sort":0,"version":152,"cover2":"","appkey":"init","duration":0,"extra":{},"polyglot":{"en":"Four-split screen appearance introduction"},"category":"0","audit":0,"is_ugc":0,"text_need":0,"picture_need":0,"video_need":28,"type":"templateapi"},{"id":"1014784","ufid":"48371956","name":"\u8774\u8776\u98de\u821e","file":"http:\/\/rdfile.oss-cn-hangzhou.aliyuncs.com\/filemanage\/e069b36c568d909f\/templateapi\/16498347591581\/file.zip?nonce=8ffc8df0547e536cdbfb77b438a8ad63","cover":"http:\/\/rdfile.oss-cn-hangzhou.aliyuncs.com\/filemanage\/e069b36c568d909f\/templateapi\/16498347591581\/cover.png?nonce=8ffc8df0547e536cdbfb77b438a8ad63&x-oss-process=style\/templateapi","updatetime":"1704185843","height":634,"width":357,"video":"http:\/\/rdfile.oss-cn-hangzhou.aliyuncs.com\/filemanage\/e069b36c568d909f\/templateapi\/16498347591581\/video.mp4?nonce=8ffc8df0547e536cdbfb77b438a8ad63","sort":0,"version":152,"cover2":"","appkey":"init","duration":0,"extra":{},"polyglot":{"en":"Butterfly flying"},"category":"0","audit":0,"is_ugc":0,"text_need":0,"picture_need":1,"video_need":0,"type":"templateapi"}]}}