{"code":0,"msg":"success","data":{"total":173,"per_page":10,"current_page":11,"last_page":18,"data":[{"id":"1012490","ufid":"56582294","name":"\u795e\u66f2","file":"http:\/\/rdfile.oss-cn-hangzhou.aliyuncs.com\/filemanage\/e069b36c568d909f\/templateapi\/16348721582412\/file.zip?nonce=ba7539e3e8ef3f379b353f53dfc26a42","cover":"http:\/\/rdfile.oss-cn-hangzhou.aliyuncs.com\/filemanage\/e069b36c568d909f\/templateapi\/16348721582412\/cover.png?nonce=ba7539e3e8ef3f379b353f53dfc26a42&x-oss-process=style\/templateapi","updatetime":"1684912728","height":1280,"width":720,"video":"http:\/\/rdfile.oss-cn-hangzhou.aliyuncs.com\/filemanage\/e069b36c568d909f\/templateapi\/16348721582412\/video.mp4?nonce=ba7539e3e8ef3f379b353f53dfc26a42","sort":100,"version":148,"cover2":"","appkey":"init","duration":0,"extra":{},"polyglot":[],"category":"0","audit":0,"is_ugc":0,"text_need":0,"picture_need":0,"video_need":5,"type":"templateapi"},{"id":"1012469","ufid":"56955228","name":"\u5e7f\u897f\u7248\u6843\u82b1\u8fd0","file":"http:\/\/rdfile.oss-cn-hangzhou.aliyuncs.com\/filemanage\/e069b36c568d909f\/templateapi\/16339419995154\/file.zip?nonce=117c52ef9d04b5849f57676fa5a3ace4","cover":"http:\/\/rdfile.oss-cn-hangzhou.aliyuncs.com\/filemanage\/e069b36c568d909f\/templateapi\/16339419995154\/cover.png?nonce=117c52ef9d04b5849f57676fa5a3ace4&x-oss-process=style\/templateapi","updatetime":"1684912537","height":1248,"width":702,"video":"http:\/\/rdfile.oss-cn-hangzhou.aliyuncs.com\/filemanage\/e069b36c568d909f\/templateapi\/16339419995154\/video.mp4?nonce=117c52ef9d04b5849f57676fa5a3ace4","sort":100,"version":148,"cover2":"","appkey":"init","duration":0,"extra":{},"polyglot":[],"category":"0","audit":0,"is_ugc":0,"text_need":0,"picture_need":15,"video_need":0,"type":"templateapi"},{"id":"1012245","ufid":"38579544","name":"\u65f6\u5c1a\u5468\u520a","file":"http:\/\/rdfile.oss-cn-hangzhou.aliyuncs.com\/filemanage\/e069b36c568d909f\/templateapi\/16297784133379\/file.zip?nonce=ec6b2b5bcab633a3620099cc082fec46","cover":"http:\/\/rdfile.oss-cn-hangzhou.aliyuncs.com\/filemanage\/e069b36c568d909f\/templateapi\/16297784133379\/cover.png?nonce=ec6b2b5bcab633a3620099cc082fec46&x-oss-process=style\/templateapi","updatetime":"1684913005","height":720,"width":405,"video":"http:\/\/rdfile.oss-cn-hangzhou.aliyuncs.com\/filemanage\/e069b36c568d909f\/templateapi\/16297784133379\/video.mp4?nonce=ec6b2b5bcab633a3620099cc082fec46","sort":100,"version":147,"cover2":"","appkey":"init","duration":0,"extra":{},"polyglot":[],"category":"0","audit":0,"is_ugc":0,"text_need":8,"picture_need":20,"video_need":0,"type":"templateapi"},{"id":"1015365","ufid":"65274212","name":"\u670b\u53cb\u5708\u4e5d\u5bab\u683c","file":"http:\/\/rdfile.oss-cn-hangzhou.aliyuncs.com\/filemanage\/e069b36c568d909f\/templateapi\/16552813726302\/file.zip?nonce=4d8164623fa437e1588d9d02cbd26edd","cover":"http:\/\/rdfile.oss-cn-hangzhou.aliyuncs.com\/filemanage\/e069b36c568d909f\/templateapi\/16552813726302\/cover.webp?nonce=4d8164623fa437e1588d9d02cbd26edd","updatetime":"1684898074","height":1058,"width":508,"video":"http:\/\/rdfile.oss-cn-hangzhou.aliyuncs.com\/filemanage\/e069b36c568d909f\/templateapi\/16552813726302\/video.mp4?nonce=4d8164623fa437e1588d9d02cbd26edd","sort":0,"version":153,"cover2":"","appkey":"init","duration":0,"extra":{},"polyglot":[],"category":"0","audit":0,"is_ugc":0,"text_need":0,"picture_need":20,"video_need":14,"type":"templateapi"},{"id":"1015360","ufid":"41107466","name":"3D\u81ea\u52a8\u8f6e\u64ad\u76f8\u518c","file":"http:\/\/rdfile.oss-cn-hangzhou.aliyuncs.com\/filemanage\/e069b36c568d909f\/templateapi\/16552783835513\/file.zip?nonce=e7242af52cb5ed9b2ec4eac5b5bcfd6a","cover":"http:\/\/rdfile.oss-cn-hangzhou.aliyuncs.com\/filemanage\/e069b36c568d909f\/templateapi\/16552783835513\/cover.webp?nonce=e7242af52cb5ed9b2ec4eac5b5bcfd6a","updatetime":"1684898119","height":612,"width":1080,"video":"http:\/\/rdfile.oss-cn-hangzhou.aliyuncs.com\/filemanage\/e069b36c568d909f\/templateapi\/16552783835513\/video.mp4?nonce=e7242af52cb5ed9b2ec4eac5b5bcfd6a","sort":0,"version":153,"cover2":"","appkey":"init","duration":0,"extra":{},"polyglot":[],"category":"0","audit":0,"is_ugc":0,"text_need":0,"picture_need":0,"video_need":12,"type":"templateapi"},{"id":"1012034","ufid":"46359463","name":"\u590d\u53e4\u6b4c\u8bcd","file":"http:\/\/rdfile.oss-cn-hangzhou.aliyuncs.com\/filemanage\/e069b36c568d909f\/templateapi\/16278966231099\/file.zip?nonce=38755a588aceabca4c259f99e891d9bd","cover":"http:\/\/rdfile.oss-cn-hangzhou.aliyuncs.com\/filemanage\/e069b36c568d909f\/templateapi\/16278966231099\/cover.png?nonce=38755a588aceabca4c259f99e891d9bd&x-oss-process=style\/templateapi","updatetime":"1684912629","height":1280,"width":1280,"video":"http:\/\/rdfile.oss-cn-hangzhou.aliyuncs.com\/filemanage\/e069b36c568d909f\/templateapi\/16278966231099\/video.mp4?nonce=38755a588aceabca4c259f99e891d9bd","sort":100,"version":147,"cover2":"","appkey":"init","duration":0,"extra":{},"polyglot":[],"category":"0","audit":0,"is_ugc":0,"text_need":6,"picture_need":0,"video_need":6,"type":"templateapi"},{"id":"1011914","ufid":"27473864","name":"\u5982\u771f\u5982\u5047","file":"http:\/\/rdfile.oss-cn-hangzhou.aliyuncs.com\/filemanage\/e069b36c568d909f\/templateapi\/16273727677354\/file.zip?nonce=fe2f40fc7a3650d320fbd93168e68777","cover":"http:\/\/rdfile.oss-cn-hangzhou.aliyuncs.com\/filemanage\/e069b36c568d909f\/templateapi\/16273727677354\/cover.png?nonce=fe2f40fc7a3650d320fbd93168e68777&x-oss-process=style\/templateapi","updatetime":"1684912784","height":1080,"width":607,"video":"http:\/\/rdfile.oss-cn-hangzhou.aliyuncs.com\/filemanage\/e069b36c568d909f\/templateapi\/16273727677354\/video.mp4?nonce=fe2f40fc7a3650d320fbd93168e68777","sort":100,"version":147,"cover2":"","appkey":"init","duration":0,"extra":{},"polyglot":[],"category":"0","audit":0,"is_ugc":0,"text_need":4,"picture_need":0,"video_need":4,"type":"templateapi"},{"id":"1015357","ufid":"40240130","name":"\u5c01\u9762\u76f8\u518c","file":"http:\/\/rdfile.oss-cn-hangzhou.aliyuncs.com\/filemanage\/e069b36c568d909f\/templateapi\/16552768823910\/file.zip?nonce=3fbaab19cf05d98097fd78094e07cc6c","cover":"http:\/\/rdfile.oss-cn-hangzhou.aliyuncs.com\/filemanage\/e069b36c568d909f\/templateapi\/16552768823910\/cover.webp?nonce=3fbaab19cf05d98097fd78094e07cc6c","updatetime":"1684898239","height":1280,"width":720,"video":"http:\/\/rdfile.oss-cn-hangzhou.aliyuncs.com\/filemanage\/e069b36c568d909f\/templateapi\/16552768823910\/video.mp4?nonce=3fbaab19cf05d98097fd78094e07cc6c","sort":0,"version":153,"cover2":"","appkey":"init","duration":0,"extra":{},"polyglot":[],"category":"0","audit":0,"is_ugc":0,"text_need":0,"picture_need":0,"video_need":9,"type":"templateapi"},{"id":"1015219","ufid":"21396900","name":"\u6ed1\u52a8\u76f8\u518c","file":"http:\/\/rdfile.oss-cn-hangzhou.aliyuncs.com\/filemanage\/e069b36c568d909f\/templateapi\/16534627521969\/file.zip?nonce=1e4ef6c4d16ed1731d523a72b32cf62e","cover":"http:\/\/rdfile.oss-cn-hangzhou.aliyuncs.com\/filemanage\/e069b36c568d909f\/templateapi\/16534627521969\/cover.webp?nonce=1e4ef6c4d16ed1731d523a72b32cf62e","updatetime":"1684898107","height":607,"width":1080,"video":"http:\/\/rdfile.oss-cn-hangzhou.aliyuncs.com\/filemanage\/e069b36c568d909f\/templateapi\/16534627521969\/video.mp4?nonce=1e4ef6c4d16ed1731d523a72b32cf62e","sort":0,"version":153,"cover2":"","appkey":"init","duration":0,"extra":{},"polyglot":[],"category":"0","audit":0,"is_ugc":0,"text_need":0,"picture_need":0,"video_need":3,"type":"templateapi"},{"id":"1011879","ufid":"91816797","name":"\u5927\u7247","file":"http:\/\/rdfile.oss-cn-hangzhou.aliyuncs.com\/filemanage\/e069b36c568d909f\/templateapi\/16269376678931\/file.zip?nonce=832518c3b9de8c4b7d790fa31eebb59a","cover":"http:\/\/rdfile.oss-cn-hangzhou.aliyuncs.com\/filemanage\/e069b36c568d909f\/templateapi\/16269376678931\/cover.png?nonce=832518c3b9de8c4b7d790fa31eebb59a&x-oss-process=style\/templateapi","updatetime":"1684913075","height":1080,"width":607,"video":"http:\/\/rdfile.oss-cn-hangzhou.aliyuncs.com\/filemanage\/e069b36c568d909f\/templateapi\/16269376678931\/video.mp4?nonce=832518c3b9de8c4b7d790fa31eebb59a","sort":100,"version":147,"cover2":"","appkey":"init","duration":0,"extra":{},"polyglot":[],"category":"0","audit":0,"is_ugc":0,"text_need":5,"picture_need":0,"video_need":4,"type":"templateapi"}]}}