{"code":0,"msg":"success","data":{"total":283,"per_page":20,"current_page":13,"last_page":15,"data":[{"id":"1024187","ufid":"78409598","name":"\u957f\u9f3b\u72d7\u4e13\u7528\u97f3\u6548","file":"http:\/\/rdfile.oss-cn-hangzhou.aliyuncs.com\/filemanage\/init\/audio\/78409598.mp3?nonce=786cf264f4ec275b66fa8c47e90f39b8","cover":"","updatetime":"1697698224","height":0,"width":0,"video":"","sort":0,"version":157,"cover2":"","appkey":"init","duration":12,"extra":{},"polyglot":[],"category":"40610022,","audit":0,"is_ugc":0,"type":"audio"},{"id":"1024186","ufid":"36809576","name":"\u4e0d\u8981\u5bf9\u6211\u4ed8\u51fa\u611f\u60c5-\u5927S\u6ce1","file":"http:\/\/rdfile.oss-cn-hangzhou.aliyuncs.com\/filemanage\/init\/audio\/36809576.mp3?nonce=786cf264f4ec275b66fa8c47e90f39b8","cover":"","updatetime":"1697698224","height":0,"width":0,"video":"","sort":0,"version":157,"cover2":"","appkey":"init","duration":12,"extra":{},"polyglot":[],"category":"40610022,","audit":0,"is_ugc":0,"type":"audio"},{"id":"1024185","ufid":"17210030","name":"\u6ce2\u6bd4\u6ce2\u6bd4\u6ce2\u6bd4","file":"http:\/\/rdfile.oss-cn-hangzhou.aliyuncs.com\/filemanage\/init\/audio\/17210030.mp3?nonce=e0398beace901be16054b905b3c42566","cover":"","updatetime":"1697698285","height":0,"width":0,"video":"","sort":0,"version":157,"cover2":"","appkey":"init","duration":6,"extra":{},"polyglot":[],"category":"40610022,","audit":0,"is_ugc":0,"type":"audio"},{"id":"1024184","ufid":"51966311","name":"\u8868\u59d1\u5728\u6e29\u5dde\u641e\u6279\u53d1","file":"http:\/\/rdfile.oss-cn-hangzhou.aliyuncs.com\/filemanage\/init\/audio\/51966311.mp3?nonce=786cf264f4ec275b66fa8c47e90f39b8","cover":"","updatetime":"1697698224","height":0,"width":0,"video":"","sort":0,"version":157,"cover2":"","appkey":"init","duration":32,"extra":{},"polyglot":[],"category":"40610022,","audit":0,"is_ugc":0,"type":"audio"},{"id":"1024183","ufid":"73079723","name":"\u53d8\u901f\u7248\u7529\u8471\u6b4c","file":"http:\/\/rdfile.oss-cn-hangzhou.aliyuncs.com\/filemanage\/init\/audio\/73079723.mp3?nonce=786cf264f4ec275b66fa8c47e90f39b8","cover":"","updatetime":"1697698224","height":0,"width":0,"video":"","sort":0,"version":157,"cover2":"","appkey":"init","duration":10,"extra":{},"polyglot":[],"category":"40610022,","audit":0,"is_ugc":0,"type":"audio"},{"id":"1024182","ufid":"95980507","name":"\u60b2\u4f24BGM","file":"http:\/\/rdfile.oss-cn-hangzhou.aliyuncs.com\/filemanage\/init\/audio\/95980507.mp3?nonce=0aea89955fd68df721ca98feca63e35b","cover":"","updatetime":"1697698284","height":0,"width":0,"video":"","sort":0,"version":157,"cover2":"","appkey":"init","duration":11,"extra":{},"polyglot":[],"category":"40610022,","audit":0,"is_ugc":0,"type":"audio"},{"id":"1024181","ufid":"58804967","name":"\u6446\u70c2\u4e4b\u6b4c Mondayihave","file":"http:\/\/rdfile.oss-cn-hangzhou.aliyuncs.com\/filemanage\/init\/audio\/58804967.mp3?nonce=f39d369f77b6e23b7fc530268da12c34","cover":"","updatetime":"1697698223","height":0,"width":0,"video":"","sort":0,"version":157,"cover2":"","appkey":"init","duration":15,"extra":{},"polyglot":[],"category":"40610022,","audit":0,"is_ugc":0,"type":"audio"},{"id":"1024180","ufid":"67062134","name":"\u5427\u5c4e\u5566\uff0c\u6881\u975e\u51e1!","file":"http:\/\/rdfile.oss-cn-hangzhou.aliyuncs.com\/filemanage\/init\/audio\/67062134.mp3?nonce=f39d369f77b6e23b7fc530268da12c34","cover":"","updatetime":"1697698223","height":0,"width":0,"video":"","sort":0,"version":157,"cover2":"","appkey":"init","duration":9,"extra":{},"polyglot":[],"category":"40610022,","audit":0,"is_ugc":0,"type":"audio"},{"id":"1024179","ufid":"52687342","name":"\u5965\u5229\u5965\u5229\u5b89","file":"http:\/\/rdfile.oss-cn-hangzhou.aliyuncs.com\/filemanage\/init\/audio\/52687342.mp3?nonce=f39d369f77b6e23b7fc530268da12c34","cover":"","updatetime":"1697698223","height":0,"width":0,"video":"","sort":0,"version":157,"cover2":"","appkey":"init","duration":2,"extra":{},"polyglot":[],"category":"40610022,","audit":0,"is_ugc":0,"type":"audio"},{"id":"1024178","ufid":"57091912","name":"\u5b89\u9675\u5bb9\u5b9d\u5a1f\u6211\u7684\u55d3\u5b50","file":"http:\/\/rdfile.oss-cn-hangzhou.aliyuncs.com\/filemanage\/init\/audio\/57091912.mp3?nonce=15ac6fa95ae976c59f492937ce528735","cover":"","updatetime":"1697698222","height":0,"width":0,"video":"","sort":0,"version":157,"cover2":"","appkey":"init","duration":57,"extra":{},"polyglot":[],"category":"40610022,","audit":0,"is_ugc":0,"type":"audio"},{"id":"1024177","ufid":"74327178","name":"\u7231\u5982\u706b","file":"http:\/\/rdfile.oss-cn-hangzhou.aliyuncs.com\/filemanage\/init\/audio\/74327178.mp3?nonce=15ac6fa95ae976c59f492937ce528735","cover":"","updatetime":"1697698222","height":0,"width":0,"video":"","sort":0,"version":157,"cover2":"","appkey":"init","duration":66,"extra":{},"polyglot":[],"category":"40610022,","audit":0,"is_ugc":0,"type":"audio"},{"id":"1024176","ufid":"66997241","name":"\u7231\u7684\u9b54\u529b\u8f6c\u5708\u5708","file":"http:\/\/rdfile.oss-cn-hangzhou.aliyuncs.com\/filemanage\/init\/audio\/66997241.mp3?nonce=15ac6fa95ae976c59f492937ce528735","cover":"","updatetime":"1697698222","height":0,"width":0,"video":"","sort":0,"version":157,"cover2":"","appkey":"init","duration":28,"extra":{},"polyglot":[],"category":"40610022,","audit":0,"is_ugc":0,"type":"audio"},{"id":"1024175","ufid":"24024355","name":"\u54c0\u5bb6\u957f\u5934\u53d1\u5566","file":"http:\/\/rdfile.oss-cn-hangzhou.aliyuncs.com\/filemanage\/init\/audio\/24024355.mp3?nonce=15ac6fa95ae976c59f492937ce528735","cover":"","updatetime":"1697698222","height":0,"width":0,"video":"","sort":0,"version":157,"cover2":"","appkey":"init","duration":18,"extra":{},"polyglot":[],"category":"40610022,","audit":0,"is_ugc":0,"type":"audio"},{"id":"1024174","ufid":"93951721","name":"\u963f\u73cd\u7231\u4e0a\u4e86\u963f\u5f3a","file":"http:\/\/rdfile.oss-cn-hangzhou.aliyuncs.com\/filemanage\/init\/audio\/93951721.mp3?nonce=15ac6fa95ae976c59f492937ce528735","cover":"","updatetime":"1697698222","height":0,"width":0,"video":"","sort":0,"version":157,"cover2":"","appkey":"init","duration":24,"extra":{},"polyglot":[],"category":"40610022,","audit":0,"is_ugc":0,"type":"audio"},{"id":"1024173","ufid":"93789872","name":"\u963f\u59e8\u538b\u4e00\u538b","file":"http:\/\/rdfile.oss-cn-hangzhou.aliyuncs.com\/filemanage\/init\/audio\/93789872.mp3?nonce=e03c2bbb258ae92d388153481eb32ea3","cover":"","updatetime":"1697698221","height":0,"width":0,"video":"","sort":0,"version":157,"cover2":"","appkey":"init","duration":36,"extra":{},"polyglot":[],"category":"40610022,","audit":0,"is_ugc":0,"type":"audio"},{"id":"1024172","ufid":"48861642","name":"\u963f\u91cc\u560e\u591a\u7f8e\u7f8a\u7f8a\u6851","file":"http:\/\/rdfile.oss-cn-hangzhou.aliyuncs.com\/filemanage\/init\/audio\/48861642.mp3?nonce=e03c2bbb258ae92d388153481eb32ea3","cover":"","updatetime":"1697698221","height":0,"width":0,"video":"","sort":0,"version":157,"cover2":"","appkey":"init","duration":2,"extra":{},"polyglot":[],"category":"40610022,","audit":0,"is_ugc":0,"type":"audio"},{"id":"1024171","ufid":"81310641","name":"\u554a\u5bf9\u5bf9\u5bf9","file":"http:\/\/rdfile.oss-cn-hangzhou.aliyuncs.com\/filemanage\/init\/audio\/81310641.mp3?nonce=e03c2bbb258ae92d388153481eb32ea3","cover":"","updatetime":"1697698221","height":0,"width":0,"video":"","sort":0,"version":157,"cover2":"","appkey":"init","duration":3,"extra":{},"polyglot":[],"category":"40610022,","audit":0,"is_ugc":0,"type":"audio"},{"id":"1024170","ufid":"22649913","name":"\u554a\u554a~\u4ee5\u7236\u4e4b\u540d\u524d\u594f","file":"http:\/\/rdfile.oss-cn-hangzhou.aliyuncs.com\/filemanage\/init\/audio\/22649913.mp3?nonce=e03c2bbb258ae92d388153481eb32ea3","cover":"","updatetime":"1697698221","height":0,"width":0,"video":"","sort":0,"version":157,"cover2":"","appkey":"init","duration":14,"extra":{},"polyglot":[],"category":"40610022,","audit":0,"is_ugc":0,"type":"audio"},{"id":"1024169","ufid":"96989861","name":"\u300a\u4eacAD\u5c0f\u66f2\u300b\u300a\u8fc8\u5df4\u8d6b\u8001","file":"http:\/\/rdfile.oss-cn-hangzhou.aliyuncs.com\/filemanage\/init\/audio\/96989861.mp3?nonce=3bdd4179fb266a76c14f1b5512a92f5a","cover":"","updatetime":"1697698220","height":0,"width":0,"video":"","sort":0,"version":157,"cover2":"","appkey":"init","duration":50,"extra":{},"polyglot":[],"category":"40610022,","audit":0,"is_ugc":0,"type":"audio"},{"id":"1024168","ufid":"25573526","name":"will pass all my exam","file":"http:\/\/rdfile.oss-cn-hangzhou.aliyuncs.com\/filemanage\/init\/audio\/25573526.mp3?nonce=3bdd4179fb266a76c14f1b5512a92f5a","cover":"","updatetime":"1697698220","height":0,"width":0,"video":"","sort":0,"version":157,"cover2":"","appkey":"init","duration":5,"extra":{},"polyglot":[],"category":"40610022,","audit":0,"is_ugc":0,"type":"audio"}]}}