{"code":0,"msg":"success","data":{"total":636,"per_page":10,"current_page":22,"last_page":64,"data":[{"id":"1016180","ufid":"90096902","name":"\u624b\u5199\u4fe1","file":"http:\/\/rdfile.oss-cn-hangzhou.aliyuncs.com\/filemanage\/e069b36c568d909f\/templateapi\/16656558725104\/file.zip?nonce=511d8a1b14e59423d807dd88c80e823e","cover":"http:\/\/rdfile.oss-cn-hangzhou.aliyuncs.com\/filemanage\/e069b36c568d909f\/templateapi\/16656558725104\/cover.webp?nonce=511d8a1b14e59423d807dd88c80e823e","updatetime":"1704185951","height":1059,"width":795,"video":"http:\/\/rdfile.oss-cn-hangzhou.aliyuncs.com\/filemanage\/e069b36c568d909f\/templateapi\/16656558725104\/video.mp4?nonce=511d8a1b14e59423d807dd88c80e823e","sort":0,"version":153,"cover2":"","appkey":"init","duration":0,"extra":{},"polyglot":{"en":"Handwritten letter"},"category":"0","audit":0,"is_ugc":0,"text_need":2,"picture_need":0,"video_need":1,"type":"templateapi"},{"id":"1016179","ufid":"18845986","name":"\u624b\u52bf\u53d8\u88c5","file":"http:\/\/rdfile.oss-cn-hangzhou.aliyuncs.com\/filemanage\/e069b36c568d909f\/templateapi\/16656547928817\/file.zip?nonce=511d8a1b14e59423d807dd88c80e823e","cover":"http:\/\/rdfile.oss-cn-hangzhou.aliyuncs.com\/filemanage\/e069b36c568d909f\/templateapi\/16656547928817\/cover.webp?nonce=511d8a1b14e59423d807dd88c80e823e","updatetime":"1704185951","height":1280,"width":720,"video":"http:\/\/rdfile.oss-cn-hangzhou.aliyuncs.com\/filemanage\/e069b36c568d909f\/templateapi\/16656547928817\/video.mp4?nonce=511d8a1b14e59423d807dd88c80e823e","sort":0,"version":153,"cover2":"","appkey":"6ecb39f1c12f1a35","duration":0,"extra":{},"polyglot":{"en":"Gesture crossdressing"},"category":"0","audit":0,"is_ugc":0,"text_need":0,"picture_need":0,"video_need":2,"type":"templateapi"},{"id":"1016174","ufid":"26687203","name":"\u5730\u4e0b\u8f66\u5e93\u6c1b\u56f4\u5361\u70b9","file":"http:\/\/rdfile.oss-cn-hangzhou.aliyuncs.com\/filemanage\/e069b36c568d909f\/templateapi\/16656442947123\/file.zip?nonce=6989282f720269bc97b95391d3d93c64","cover":"http:\/\/rdfile.oss-cn-hangzhou.aliyuncs.com\/filemanage\/e069b36c568d909f\/templateapi\/16656442947123\/cover.webp?nonce=6989282f720269bc97b95391d3d93c64","updatetime":"1704185950","height":1920,"width":1080,"video":"http:\/\/rdfile.oss-cn-hangzhou.aliyuncs.com\/filemanage\/e069b36c568d909f\/templateapi\/16656442947123\/video.mp4?nonce=6989282f720269bc97b95391d3d93c64","sort":0,"version":153,"cover2":"","appkey":"init","duration":0,"extra":{},"polyglot":{"en":"Right time Underground garage atmosphere"},"category":"0","audit":0,"is_ugc":0,"text_need":0,"picture_need":0,"video_need":3,"type":"templateapi"},{"id":"1016173","ufid":"65177840","name":"\u6d77\u8fb9\u5c11\u5973","file":"http:\/\/rdfile.oss-cn-hangzhou.aliyuncs.com\/filemanage\/e069b36c568d909f\/templateapi\/16656330611363\/file.zip?nonce=72858b905312ee8c9cc3e273470c4371","cover":"http:\/\/rdfile.oss-cn-hangzhou.aliyuncs.com\/filemanage\/e069b36c568d909f\/templateapi\/16656330611363\/cover.webp?nonce=72858b905312ee8c9cc3e273470c4371","updatetime":"1704185949","height":1280,"width":720,"video":"http:\/\/rdfile.oss-cn-hangzhou.aliyuncs.com\/filemanage\/e069b36c568d909f\/templateapi\/16656330611363\/video.mp4?nonce=72858b905312ee8c9cc3e273470c4371","sort":0,"version":153,"cover2":"","appkey":"init","duration":0,"extra":{},"polyglot":{"en":"Seaside girl"},"category":"0","audit":0,"is_ugc":0,"text_need":0,"picture_need":0,"video_need":4,"type":"templateapi"},{"id":"1016169","ufid":"35807635","name":"\u968f\u62cd\u5feb\u526a","file":"http:\/\/rdfile.oss-cn-hangzhou.aliyuncs.com\/filemanage\/e069b36c568d909f\/templateapi\/16655648386242\/file.zip?nonce=72858b905312ee8c9cc3e273470c4371","cover":"http:\/\/rdfile.oss-cn-hangzhou.aliyuncs.com\/filemanage\/e069b36c568d909f\/templateapi\/16655648386242\/cover.webp?nonce=72858b905312ee8c9cc3e273470c4371","updatetime":"1704185949","height":1920,"width":1080,"video":"http:\/\/rdfile.oss-cn-hangzhou.aliyuncs.com\/filemanage\/e069b36c568d909f\/templateapi\/16655648386242\/video.mp4?nonce=72858b905312ee8c9cc3e273470c4371","sort":0,"version":153,"cover2":"","appkey":"init","duration":0,"extra":{},"polyglot":{"en":"Cut on the fly"},"category":"0","audit":0,"is_ugc":0,"text_need":0,"picture_need":0,"video_need":3,"type":"templateapi"},{"id":"1016164","ufid":"19503696","name":"\u7f8e\u62cd\u97f3\u4e50\u7c7b\u6a21\u7248","file":"http:\/\/rdfile.oss-cn-hangzhou.aliyuncs.com\/filemanage\/e069b36c568d909f\/templateapi\/16655590213407\/file.zip?nonce=72858b905312ee8c9cc3e273470c4371","cover":"http:\/\/rdfile.oss-cn-hangzhou.aliyuncs.com\/filemanage\/e069b36c568d909f\/templateapi\/16655590213407\/cover.webp?nonce=72858b905312ee8c9cc3e273470c4371","updatetime":"1704185949","height":1280,"width":720,"video":"http:\/\/rdfile.oss-cn-hangzhou.aliyuncs.com\/filemanage\/e069b36c568d909f\/templateapi\/16655590213407\/video.mp4?nonce=72858b905312ee8c9cc3e273470c4371","sort":0,"version":153,"cover2":"","appkey":"init","duration":0,"extra":{},"polyglot":{"en":"Meipai music template"},"category":"0","audit":0,"is_ugc":0,"text_need":0,"picture_need":0,"video_need":4,"type":"templateapi"},{"id":"1016161","ufid":"64427752","name":"\u7f8e\u62cd\u968f\u526a","file":"http:\/\/rdfile.oss-cn-hangzhou.aliyuncs.com\/filemanage\/e069b36c568d909f\/templateapi\/16655457576387\/file.zip?nonce=a83936797a6ff246061570c1c2cb4efc","cover":"http:\/\/rdfile.oss-cn-hangzhou.aliyuncs.com\/filemanage\/e069b36c568d909f\/templateapi\/16655457576387\/cover.webp?nonce=a83936797a6ff246061570c1c2cb4efc","updatetime":"1704185948","height":1280,"width":720,"video":"http:\/\/rdfile.oss-cn-hangzhou.aliyuncs.com\/filemanage\/e069b36c568d909f\/templateapi\/16655457576387\/video.mp4?nonce=a83936797a6ff246061570c1c2cb4efc","sort":0,"version":153,"cover2":"","appkey":"init","duration":0,"extra":{},"polyglot":{"en":"Beautiful photos and cuts"},"category":"0","audit":0,"is_ugc":0,"text_need":0,"picture_need":0,"video_need":4,"type":"templateapi"},{"id":"1016153","ufid":"71781650","name":"\u5982\u679c\u8bf4\u4f60\u8981\u79bb\u5f00\u6211\u53d8\u88c5","file":"http:\/\/rdfile.oss-cn-hangzhou.aliyuncs.com\/filemanage\/e069b36c568d909f\/templateapi\/16654800891819\/file.zip?nonce=a83936797a6ff246061570c1c2cb4efc","cover":"http:\/\/rdfile.oss-cn-hangzhou.aliyuncs.com\/filemanage\/e069b36c568d909f\/templateapi\/16654800891819\/cover.webp?nonce=a83936797a6ff246061570c1c2cb4efc","updatetime":"1704185948","height":1280,"width":720,"video":"http:\/\/rdfile.oss-cn-hangzhou.aliyuncs.com\/filemanage\/e069b36c568d909f\/templateapi\/16654800891819\/video.mp4?nonce=a83936797a6ff246061570c1c2cb4efc","sort":0,"version":153,"cover2":"","appkey":"init","duration":0,"extra":{},"polyglot":{"en":"If you say you want to leave me and crossdress"},"category":"0","audit":0,"is_ugc":0,"text_need":0,"picture_need":0,"video_need":2,"type":"templateapi"},{"id":"1016148","ufid":"42796497","name":"\u65cb\u8f6c\u6162\u52a8\u4f5c","file":"http:\/\/rdfile.oss-cn-hangzhou.aliyuncs.com\/filemanage\/e069b36c568d909f\/templateapi\/16654745022339\/file.zip?nonce=34d0932e6164cb77fc16284f99dd5868","cover":"http:\/\/rdfile.oss-cn-hangzhou.aliyuncs.com\/filemanage\/e069b36c568d909f\/templateapi\/16654745022339\/cover.webp?nonce=34d0932e6164cb77fc16284f99dd5868","updatetime":"1704185947","height":1280,"width":720,"video":"http:\/\/rdfile.oss-cn-hangzhou.aliyuncs.com\/filemanage\/e069b36c568d909f\/templateapi\/16654745022339\/video.mp4?nonce=34d0932e6164cb77fc16284f99dd5868","sort":0,"version":153,"cover2":"","appkey":"init","duration":0,"extra":{},"polyglot":{"en":"Rotate slow motion"},"category":"0","audit":0,"is_ugc":0,"text_need":0,"picture_need":0,"video_need":1,"type":"templateapi"},{"id":"1016147","ufid":"18835196","name":"\u6240\u6709\u6d6a\u6f2b\u90fd\u5728\u8fd9\u4e2abgm\u91cc\u4e86","file":"http:\/\/rdfile.oss-cn-hangzhou.aliyuncs.com\/filemanage\/e069b36c568d909f\/templateapi\/16654710015508\/file.zip?nonce=34d0932e6164cb77fc16284f99dd5868","cover":"http:\/\/rdfile.oss-cn-hangzhou.aliyuncs.com\/filemanage\/e069b36c568d909f\/templateapi\/16654710015508\/cover.webp?nonce=34d0932e6164cb77fc16284f99dd5868","updatetime":"1704185947","height":1280,"width":720,"video":"http:\/\/rdfile.oss-cn-hangzhou.aliyuncs.com\/filemanage\/e069b36c568d909f\/templateapi\/16654710015508\/video.mp4?nonce=34d0932e6164cb77fc16284f99dd5868","sort":0,"version":153,"cover2":"","appkey":"init","duration":0,"extra":{},"polyglot":{"en":"All the romance is in this BGM"},"category":"0","audit":0,"is_ugc":0,"text_need":0,"picture_need":0,"video_need":5,"type":"templateapi"}]}}