{"code":0,"msg":"success","data":{"total":636,"per_page":10,"current_page":56,"last_page":64,"data":[{"id":"1012036","ufid":"52393359","name":"\u5012\u653e","file":"http:\/\/rdfile.oss-cn-hangzhou.aliyuncs.com\/filemanage\/e069b36c568d909f\/templateapi\/16279000656606\/file.zip?nonce=a006d373b44994b3ea4a21fb541123f1","cover":"http:\/\/rdfile.oss-cn-hangzhou.aliyuncs.com\/filemanage\/e069b36c568d909f\/templateapi\/16279000656606\/cover.png?nonce=a006d373b44994b3ea4a21fb541123f1&x-oss-process=style\/templateapi","updatetime":"1704185679","height":1280,"width":720,"video":"http:\/\/rdfile.oss-cn-hangzhou.aliyuncs.com\/filemanage\/e069b36c568d909f\/templateapi\/16279000656606\/video.mp4?nonce=a006d373b44994b3ea4a21fb541123f1","sort":100,"version":147,"cover2":"","appkey":"init","duration":0,"extra":{},"polyglot":{"en":"Play upside down"},"category":"0","audit":0,"is_ugc":0,"text_need":0,"picture_need":0,"video_need":1,"type":"templateapi"},{"id":"1012034","ufid":"46359463","name":"\u590d\u53e4\u6b4c\u8bcd","file":"http:\/\/rdfile.oss-cn-hangzhou.aliyuncs.com\/filemanage\/e069b36c568d909f\/templateapi\/16278966231099\/file.zip?nonce=80a4595dc42d1a26cd3adbdb5bb2252a","cover":"http:\/\/rdfile.oss-cn-hangzhou.aliyuncs.com\/filemanage\/e069b36c568d909f\/templateapi\/16278966231099\/cover.png?nonce=80a4595dc42d1a26cd3adbdb5bb2252a&x-oss-process=style\/templateapi","updatetime":"1704185678","height":1280,"width":1280,"video":"http:\/\/rdfile.oss-cn-hangzhou.aliyuncs.com\/filemanage\/e069b36c568d909f\/templateapi\/16278966231099\/video.mp4?nonce=80a4595dc42d1a26cd3adbdb5bb2252a","sort":100,"version":147,"cover2":"","appkey":"init","duration":0,"extra":{},"polyglot":{"en":"Retro lyrics"},"category":"0","audit":0,"is_ugc":0,"text_need":6,"picture_need":0,"video_need":6,"type":"templateapi"},{"id":"1012032","ufid":"83003893","name":"\u66f2\u7ebf\u53d8\u901f","file":"http:\/\/rdfile.oss-cn-hangzhou.aliyuncs.com\/filemanage\/e069b36c568d909f\/templateapi\/16278942772411\/file.zip?nonce=80a4595dc42d1a26cd3adbdb5bb2252a","cover":"http:\/\/rdfile.oss-cn-hangzhou.aliyuncs.com\/filemanage\/e069b36c568d909f\/templateapi\/16278942772411\/cover.png?nonce=80a4595dc42d1a26cd3adbdb5bb2252a&x-oss-process=style\/templateapi","updatetime":"1704185678","height":720,"width":1280,"video":"http:\/\/rdfile.oss-cn-hangzhou.aliyuncs.com\/filemanage\/e069b36c568d909f\/templateapi\/16278942772411\/video.mp4?nonce=80a4595dc42d1a26cd3adbdb5bb2252a","sort":100,"version":147,"cover2":"","appkey":"init","duration":0,"extra":{},"polyglot":{"en":"Curve shifting"},"category":"0","audit":0,"is_ugc":0,"text_need":0,"picture_need":0,"video_need":1,"type":"templateapi"},{"id":"1012023","ufid":"17472692","name":"\u6ee1\u6ee1\u7684\u7231","file":"http:\/\/rdfile.oss-cn-hangzhou.aliyuncs.com\/filemanage\/e069b36c568d909f\/templateapi\/16276389408561\/file.zip?nonce=adfd188e9effb902b1c575b95f5a8b53","cover":"http:\/\/rdfile.oss-cn-hangzhou.aliyuncs.com\/filemanage\/e069b36c568d909f\/templateapi\/16276389408561\/cover.png?nonce=adfd188e9effb902b1c575b95f5a8b53&x-oss-process=style\/templateapi","updatetime":"1704185677","height":1280,"width":720,"video":"http:\/\/rdfile.oss-cn-hangzhou.aliyuncs.com\/filemanage\/e069b36c568d909f\/templateapi\/16276389408561\/video.mp4?nonce=adfd188e9effb902b1c575b95f5a8b53","sort":100,"version":147,"cover2":"","appkey":"init","duration":0,"extra":{},"polyglot":{"en":"Full of love"},"category":"0","audit":0,"is_ugc":0,"text_need":0,"picture_need":0,"video_need":6,"type":"templateapi"},{"id":"1012022","ufid":"50070017","name":"\u6797\u95f4\u5c0f\u9053","file":"http:\/\/rdfile.oss-cn-hangzhou.aliyuncs.com\/filemanage\/e069b36c568d909f\/templateapi\/16276387848009\/file.zip?nonce=adfd188e9effb902b1c575b95f5a8b53","cover":"http:\/\/rdfile.oss-cn-hangzhou.aliyuncs.com\/filemanage\/e069b36c568d909f\/templateapi\/16276387848009\/cover.png?nonce=adfd188e9effb902b1c575b95f5a8b53&x-oss-process=style\/templateapi","updatetime":"1704185677","height":1280,"width":720,"video":"http:\/\/rdfile.oss-cn-hangzhou.aliyuncs.com\/filemanage\/e069b36c568d909f\/templateapi\/16276387848009\/video.mp4?nonce=adfd188e9effb902b1c575b95f5a8b53","sort":100,"version":147,"cover2":"","appkey":"init","duration":0,"extra":{},"polyglot":{"en":"Forest path"},"category":"0","audit":0,"is_ugc":0,"text_need":0,"picture_need":0,"video_need":1,"type":"templateapi"},{"id":"1012020","ufid":"87394324","name":"\u53d8\u8272\u5c01\u9762","file":"http:\/\/rdfile.oss-cn-hangzhou.aliyuncs.com\/filemanage\/e069b36c568d909f\/templateapi\/16276349393668\/file.zip?nonce=ce7863aa8e028f3167af45bbb1053740","cover":"http:\/\/rdfile.oss-cn-hangzhou.aliyuncs.com\/filemanage\/e069b36c568d909f\/templateapi\/16276349393668\/cover.png?nonce=ce7863aa8e028f3167af45bbb1053740&x-oss-process=style\/templateapi","updatetime":"1704185676","height":1280,"width":720,"video":"http:\/\/rdfile.oss-cn-hangzhou.aliyuncs.com\/filemanage\/e069b36c568d909f\/templateapi\/16276349393668\/video.mp4?nonce=ce7863aa8e028f3167af45bbb1053740","sort":100,"version":147,"cover2":"","appkey":"init","duration":0,"extra":{},"polyglot":{"en":"Color changing cover"},"category":"0","audit":0,"is_ugc":0,"text_need":0,"picture_need":4,"video_need":0,"type":"templateapi"},{"id":"1012016","ufid":"19887121","name":"\u5907\u5fd8\u5f55","file":"http:\/\/rdfile.oss-cn-hangzhou.aliyuncs.com\/filemanage\/e069b36c568d909f\/templateapi\/16276297107679\/file.zip?nonce=ce7863aa8e028f3167af45bbb1053740","cover":"http:\/\/rdfile.oss-cn-hangzhou.aliyuncs.com\/filemanage\/e069b36c568d909f\/templateapi\/16276297107679\/cover.png?nonce=ce7863aa8e028f3167af45bbb1053740&x-oss-process=style\/templateapi","updatetime":"1704185676","height":1280,"width":720,"video":"http:\/\/rdfile.oss-cn-hangzhou.aliyuncs.com\/filemanage\/e069b36c568d909f\/templateapi\/16276297107679\/video.mp4?nonce=ce7863aa8e028f3167af45bbb1053740","sort":100,"version":147,"cover2":"","appkey":"init","duration":0,"extra":{},"polyglot":{"en":"Memorandum"},"category":"0","audit":0,"is_ugc":0,"text_need":0,"picture_need":15,"video_need":0,"type":"templateapi"},{"id":"1012014","ufid":"30622913","name":"\u751f\u6d3b\u65e5\u8bb0","file":"http:\/\/rdfile.oss-cn-hangzhou.aliyuncs.com\/filemanage\/e069b36c568d909f\/templateapi\/16276295496561\/file.zip?nonce=90dc49a015081390a4ade7bf7a4b61f7","cover":"http:\/\/rdfile.oss-cn-hangzhou.aliyuncs.com\/filemanage\/e069b36c568d909f\/templateapi\/16276295496561\/cover.png?nonce=90dc49a015081390a4ade7bf7a4b61f7&x-oss-process=style\/templateapi","updatetime":"1704185675","height":720,"width":1280,"video":"http:\/\/rdfile.oss-cn-hangzhou.aliyuncs.com\/filemanage\/e069b36c568d909f\/templateapi\/16276295496561\/video.mp4?nonce=90dc49a015081390a4ade7bf7a4b61f7","sort":100,"version":147,"cover2":"","appkey":"init","duration":0,"extra":{},"polyglot":{"en":"Life diary"},"category":"0","audit":0,"is_ugc":0,"text_need":5,"picture_need":0,"video_need":2,"type":"templateapi"},{"id":"1012006","ufid":"63951489","name":"\u4e0d\u89c4\u5219\u8499\u677f","file":"http:\/\/rdfile.oss-cn-hangzhou.aliyuncs.com\/filemanage\/e069b36c568d909f\/templateapi\/16275535063887\/file.zip?nonce=d96bc01b3e9d607b1c4c2e172c8c2205","cover":"http:\/\/rdfile.oss-cn-hangzhou.aliyuncs.com\/filemanage\/e069b36c568d909f\/templateapi\/16275535063887\/cover.png?nonce=d96bc01b3e9d607b1c4c2e172c8c2205&x-oss-process=style\/templateapi","updatetime":"1704185674","height":1280,"width":720,"video":"http:\/\/rdfile.oss-cn-hangzhou.aliyuncs.com\/filemanage\/e069b36c568d909f\/templateapi\/16275535063887\/video.mp4?nonce=d96bc01b3e9d607b1c4c2e172c8c2205","sort":100,"version":147,"cover2":"","appkey":"init","duration":0,"extra":{},"polyglot":{"en":"Irregular mask"},"category":"0","audit":0,"is_ugc":0,"text_need":0,"picture_need":0,"video_need":4,"type":"templateapi"},{"id":"1011998","ufid":"66660815","name":"I LOVE YOU","file":"http:\/\/rdfile.oss-cn-hangzhou.aliyuncs.com\/filemanage\/e069b36c568d909f\/templateapi\/16275397828696\/file.zip?nonce=09f125b177d02cecff21398295832aff","cover":"http:\/\/rdfile.oss-cn-hangzhou.aliyuncs.com\/filemanage\/e069b36c568d909f\/templateapi\/16275397828696\/cover.png?nonce=09f125b177d02cecff21398295832aff&x-oss-process=style\/templateapi","updatetime":"1704185673","height":1280,"width":720,"video":"http:\/\/rdfile.oss-cn-hangzhou.aliyuncs.com\/filemanage\/e069b36c568d909f\/templateapi\/16275397828696\/video.mp4?nonce=09f125b177d02cecff21398295832aff","sort":100,"version":147,"cover2":"","appkey":"init","duration":0,"extra":{},"polyglot":{"en":"I LOVE YOU"},"category":"0","audit":0,"is_ugc":0,"text_need":0,"picture_need":8,"video_need":0,"type":"templateapi"}]}}