{"code":0,"msg":"success","data":{"total":636,"per_page":10,"current_page":58,"last_page":64,"data":[{"id":"1011878","ufid":"17062002","name":"\u6298\u7eb9","file":"http:\/\/rdfile.oss-cn-hangzhou.aliyuncs.com\/filemanage\/e069b36c568d909f\/templateapi\/16269186397116\/file.zip?nonce=cfcd208495d565ef66e7dff9f98764da","cover":"http:\/\/rdfile.oss-cn-hangzhou.aliyuncs.com\/filemanage\/e069b36c568d909f\/templateapi\/16269186397116\/cover.png?nonce=cfcd208495d565ef66e7dff9f98764da&x-oss-process=style\/templateapi","updatetime":"0","height":1080,"width":607,"video":"http:\/\/rdfile.oss-cn-hangzhou.aliyuncs.com\/filemanage\/e069b36c568d909f\/templateapi\/16269186397116\/video.mp4?nonce=cfcd208495d565ef66e7dff9f98764da","sort":100,"version":147,"cover2":"","appkey":"init","duration":0,"extra":{},"polyglot":[],"category":"0","audit":0,"is_ugc":0,"text_need":0,"picture_need":2,"video_need":0,"type":"templateapi"},{"id":"1011872","ufid":"21638256","name":"\u591a\u683c\u7279\u6548","file":"http:\/\/rdfile.oss-cn-hangzhou.aliyuncs.com\/filemanage\/e069b36c568d909f\/templateapi\/16268535371090\/file.zip?nonce=cfcd208495d565ef66e7dff9f98764da","cover":"http:\/\/rdfile.oss-cn-hangzhou.aliyuncs.com\/filemanage\/e069b36c568d909f\/templateapi\/16268535371090\/cover.png?nonce=cfcd208495d565ef66e7dff9f98764da&x-oss-process=style\/templateapi","updatetime":"0","height":1080,"width":607,"video":"http:\/\/rdfile.oss-cn-hangzhou.aliyuncs.com\/filemanage\/e069b36c568d909f\/templateapi\/16268535371090\/video.mp4?nonce=cfcd208495d565ef66e7dff9f98764da","sort":100,"version":147,"cover2":"","appkey":"init","duration":0,"extra":{},"polyglot":[],"category":"0","audit":0,"is_ugc":0,"text_need":0,"picture_need":9,"video_need":0,"type":"templateapi"},{"id":"1011871","ufid":"20149465","name":"\u9ed1\u767d\u4eba\u751f","file":"http:\/\/rdfile.oss-cn-hangzhou.aliyuncs.com\/filemanage\/e069b36c568d909f\/templateapi\/16268493872757\/file.zip?nonce=cfcd208495d565ef66e7dff9f98764da","cover":"http:\/\/rdfile.oss-cn-hangzhou.aliyuncs.com\/filemanage\/e069b36c568d909f\/templateapi\/16268493872757\/cover.png?nonce=cfcd208495d565ef66e7dff9f98764da&x-oss-process=style\/templateapi","updatetime":"0","height":1080,"width":607,"video":"http:\/\/rdfile.oss-cn-hangzhou.aliyuncs.com\/filemanage\/e069b36c568d909f\/templateapi\/16268493872757\/video.mp4?nonce=cfcd208495d565ef66e7dff9f98764da","sort":100,"version":147,"cover2":"","appkey":"init","duration":0,"extra":{},"polyglot":[],"category":"0","audit":0,"is_ugc":0,"text_need":2,"picture_need":3,"video_need":0,"type":"templateapi"},{"id":"1011867","ufid":"73544912","name":"\u6ee4\u955c\u53d8\u6362","file":"http:\/\/rdfile.oss-cn-hangzhou.aliyuncs.com\/filemanage\/e069b36c568d909f\/templateapi\/16268383954927\/file.zip?nonce=cfcd208495d565ef66e7dff9f98764da","cover":"http:\/\/rdfile.oss-cn-hangzhou.aliyuncs.com\/filemanage\/e069b36c568d909f\/templateapi\/16268383954927\/cover.png?nonce=cfcd208495d565ef66e7dff9f98764da&x-oss-process=style\/templateapi","updatetime":"0","height":1080,"width":607,"video":"http:\/\/rdfile.oss-cn-hangzhou.aliyuncs.com\/filemanage\/e069b36c568d909f\/templateapi\/16268383954927\/video.mp4?nonce=cfcd208495d565ef66e7dff9f98764da","sort":100,"version":147,"cover2":"","appkey":"init","duration":0,"extra":{},"polyglot":[],"category":"0","audit":0,"is_ugc":0,"text_need":0,"picture_need":2,"video_need":0,"type":"templateapi"},{"id":"1011864","ufid":"73984910","name":"\u7eb9\u7406\u5361\u70b9","file":"http:\/\/rdfile.oss-cn-hangzhou.aliyuncs.com\/filemanage\/e069b36c568d909f\/templateapi\/16268346138055\/file.zip?nonce=cfcd208495d565ef66e7dff9f98764da","cover":"http:\/\/rdfile.oss-cn-hangzhou.aliyuncs.com\/filemanage\/e069b36c568d909f\/templateapi\/16268346138055\/cover.png?nonce=cfcd208495d565ef66e7dff9f98764da&x-oss-process=style\/templateapi","updatetime":"0","height":1080,"width":607,"video":"http:\/\/rdfile.oss-cn-hangzhou.aliyuncs.com\/filemanage\/e069b36c568d909f\/templateapi\/16268346138055\/video.mp4?nonce=cfcd208495d565ef66e7dff9f98764da","sort":100,"version":147,"cover2":"","appkey":"init","duration":0,"extra":{},"polyglot":[],"category":"0","audit":0,"is_ugc":0,"text_need":0,"picture_need":16,"video_need":0,"type":"templateapi"},{"id":"1011851","ufid":"24204839","name":"\u9177\u70ab\u6ee4\u955c","file":"http:\/\/rdfile.oss-cn-hangzhou.aliyuncs.com\/filemanage\/e069b36c568d909f\/templateapi\/16267765642089\/file.zip?nonce=cfcd208495d565ef66e7dff9f98764da","cover":"http:\/\/rdfile.oss-cn-hangzhou.aliyuncs.com\/filemanage\/e069b36c568d909f\/templateapi\/16267765642089\/cover.png?nonce=cfcd208495d565ef66e7dff9f98764da&x-oss-process=style\/templateapi","updatetime":"0","height":1080,"width":607,"video":"http:\/\/rdfile.oss-cn-hangzhou.aliyuncs.com\/filemanage\/e069b36c568d909f\/templateapi\/16267765642089\/video.mp4?nonce=cfcd208495d565ef66e7dff9f98764da","sort":100,"version":147,"cover2":"","appkey":"init","duration":0,"extra":{},"polyglot":[],"category":"0","audit":0,"is_ugc":0,"text_need":1,"picture_need":0,"video_need":2,"type":"templateapi"},{"id":"1011847","ufid":"62071948","name":"\u6545\u969c\u7c92\u5b50","file":"http:\/\/rdfile.oss-cn-hangzhou.aliyuncs.com\/filemanage\/e069b36c568d909f\/templateapi\/16267721757395\/file.zip?nonce=cfcd208495d565ef66e7dff9f98764da","cover":"http:\/\/rdfile.oss-cn-hangzhou.aliyuncs.com\/filemanage\/e069b36c568d909f\/templateapi\/16267721757395\/cover.png?nonce=cfcd208495d565ef66e7dff9f98764da&x-oss-process=style\/templateapi","updatetime":"0","height":1080,"width":607,"video":"http:\/\/rdfile.oss-cn-hangzhou.aliyuncs.com\/filemanage\/e069b36c568d909f\/templateapi\/16267721757395\/video.mp4?nonce=cfcd208495d565ef66e7dff9f98764da","sort":100,"version":147,"cover2":"","appkey":"init","duration":0,"extra":{},"polyglot":[],"category":"0","audit":0,"is_ugc":0,"text_need":0,"picture_need":5,"video_need":0,"type":"templateapi"},{"id":"1011842","ufid":"55867175","name":"\u539f\u76f8\u673a","file":"http:\/\/rdfile.oss-cn-hangzhou.aliyuncs.com\/filemanage\/e069b36c568d909f\/templateapi\/16267709017475\/file.zip?nonce=cfcd208495d565ef66e7dff9f98764da","cover":"http:\/\/rdfile.oss-cn-hangzhou.aliyuncs.com\/filemanage\/e069b36c568d909f\/templateapi\/16267709017475\/cover.png?nonce=cfcd208495d565ef66e7dff9f98764da&x-oss-process=style\/templateapi","updatetime":"0","height":1080,"width":607,"video":"http:\/\/rdfile.oss-cn-hangzhou.aliyuncs.com\/filemanage\/e069b36c568d909f\/templateapi\/16267709017475\/video.mp4?nonce=cfcd208495d565ef66e7dff9f98764da","sort":100,"version":147,"cover2":"","appkey":"init","duration":0,"extra":{},"polyglot":[],"category":"0","audit":0,"is_ugc":0,"text_need":0,"picture_need":3,"video_need":0,"type":"templateapi"},{"id":"1011837","ufid":"13693189","name":"\u5149\u6548","file":"http:\/\/rdfile.oss-cn-hangzhou.aliyuncs.com\/filemanage\/e069b36c568d909f\/templateapi\/16267637115916\/file.zip?nonce=cfcd208495d565ef66e7dff9f98764da","cover":"http:\/\/rdfile.oss-cn-hangzhou.aliyuncs.com\/filemanage\/e069b36c568d909f\/templateapi\/16267637115916\/cover.png?nonce=cfcd208495d565ef66e7dff9f98764da&x-oss-process=style\/templateapi","updatetime":"0","height":1080,"width":607,"video":"http:\/\/rdfile.oss-cn-hangzhou.aliyuncs.com\/filemanage\/e069b36c568d909f\/templateapi\/16267637115916\/video.mp4?nonce=cfcd208495d565ef66e7dff9f98764da","sort":100,"version":147,"cover2":"","appkey":"init","duration":0,"extra":{},"polyglot":[],"category":"0","audit":0,"is_ugc":0,"text_need":0,"picture_need":0,"video_need":2,"type":"templateapi"},{"id":"1011826","ufid":"98832289","name":"\u65e5\u5e38\u5143\u6c14","file":"http:\/\/rdfile.oss-cn-hangzhou.aliyuncs.com\/filemanage\/e069b36c568d909f\/templateapi\/16267497402126\/file.zip?nonce=024151727898aacdb059b9f5502493f0","cover":"http:\/\/rdfile.oss-cn-hangzhou.aliyuncs.com\/filemanage\/e069b36c568d909f\/templateapi\/16267497402126\/cover.png?nonce=024151727898aacdb059b9f5502493f0&x-oss-process=style\/templateapi","updatetime":"1684912795","height":1080,"width":607,"video":"http:\/\/rdfile.oss-cn-hangzhou.aliyuncs.com\/filemanage\/e069b36c568d909f\/templateapi\/16267497402126\/video.mp4?nonce=024151727898aacdb059b9f5502493f0","sort":100,"version":147,"cover2":"","appkey":"init","duration":0,"extra":{},"polyglot":[],"category":"0","audit":0,"is_ugc":0,"text_need":0,"picture_need":0,"video_need":8,"type":"templateapi"}]}}