{"code":0,"msg":"success","data":{"total":84,"per_page":10,"current_page":8,"last_page":9,"data":[{"id":"1011984","ufid":"87763068","name":"5\u5c4fvlog","file":"http:\/\/rdfile.oss-cn-hangzhou.aliyuncs.com\/filemanage\/e069b36c568d909f\/templateapi\/16275307826692\/file.zip?nonce=d2636604b19e54546c3aba9c58142a3b","cover":"http:\/\/rdfile.oss-cn-hangzhou.aliyuncs.com\/filemanage\/e069b36c568d909f\/templateapi\/16275307826692\/cover.png?nonce=d2636604b19e54546c3aba9c58142a3b&x-oss-process=style\/templateapi","updatetime":"1684913031","height":1280,"width":720,"video":"http:\/\/rdfile.oss-cn-hangzhou.aliyuncs.com\/filemanage\/e069b36c568d909f\/templateapi\/16275307826692\/video.mp4?nonce=d2636604b19e54546c3aba9c58142a3b","sort":100,"version":147,"cover2":"","appkey":"init","duration":0,"extra":{},"polyglot":[],"category":"0","audit":0,"is_ugc":0,"text_need":0,"picture_need":0,"video_need":5,"type":"templateapi"},{"id":"1011973","ufid":"66728536","name":"\u5230\u5904\u662f\u9633\u5149","file":"http:\/\/rdfile.oss-cn-hangzhou.aliyuncs.com\/filemanage\/e069b36c568d909f\/templateapi\/16274681898898\/file.zip?nonce=112fec135170db61cb4dbad354c3204a","cover":"http:\/\/rdfile.oss-cn-hangzhou.aliyuncs.com\/filemanage\/e069b36c568d909f\/templateapi\/16274681898898\/cover.png?nonce=112fec135170db61cb4dbad354c3204a&x-oss-process=style\/templateapi","updatetime":"1684912757","height":1280,"width":720,"video":"http:\/\/rdfile.oss-cn-hangzhou.aliyuncs.com\/filemanage\/e069b36c568d909f\/templateapi\/16274681898898\/video.mp4?nonce=112fec135170db61cb4dbad354c3204a","sort":100,"version":147,"cover2":"","appkey":"init","duration":0,"extra":{},"polyglot":[],"category":"0","audit":0,"is_ugc":0,"text_need":0,"picture_need":0,"video_need":8,"type":"templateapi"},{"id":"1011954","ufid":"45071068","name":"\u5206\u683c\u573a\u666f","file":"http:\/\/rdfile.oss-cn-hangzhou.aliyuncs.com\/filemanage\/e069b36c568d909f\/templateapi\/16274589272569\/file.zip?nonce=c4f2608f0c0abf783817fe69cfdc8a5d","cover":"http:\/\/rdfile.oss-cn-hangzhou.aliyuncs.com\/filemanage\/e069b36c568d909f\/templateapi\/16274589272569\/cover.png?nonce=c4f2608f0c0abf783817fe69cfdc8a5d&x-oss-process=style\/templateapi","updatetime":"1684913041","height":1080,"width":607,"video":"http:\/\/rdfile.oss-cn-hangzhou.aliyuncs.com\/filemanage\/e069b36c568d909f\/templateapi\/16274589272569\/video.mp4?nonce=c4f2608f0c0abf783817fe69cfdc8a5d","sort":100,"version":147,"cover2":"","appkey":"init","duration":0,"extra":{},"polyglot":[],"category":"0","audit":0,"is_ugc":0,"text_need":0,"picture_need":0,"video_need":4,"type":"templateapi"},{"id":"1011880","ufid":"89829858","name":"Happy Today","file":"http:\/\/rdfile.oss-cn-hangzhou.aliyuncs.com\/filemanage\/e069b36c568d909f\/templateapi\/16269407456474\/file.zip?nonce=4eafc5473f16d536e204c91201a53dbc","cover":"http:\/\/rdfile.oss-cn-hangzhou.aliyuncs.com\/filemanage\/e069b36c568d909f\/templateapi\/16269407456474\/cover.png?nonce=4eafc5473f16d536e204c91201a53dbc&x-oss-process=style\/templateapi","updatetime":"1684913244","height":1080,"width":1878,"video":"http:\/\/rdfile.oss-cn-hangzhou.aliyuncs.com\/filemanage\/e069b36c568d909f\/templateapi\/16269407456474\/video.mp4?nonce=4eafc5473f16d536e204c91201a53dbc","sort":100,"version":147,"cover2":"","appkey":"init","duration":0,"extra":{},"polyglot":[],"category":"0","audit":0,"is_ugc":0,"text_need":6,"picture_need":0,"video_need":5,"type":"templateapi"},{"id":"1011826","ufid":"98832289","name":"\u65e5\u5e38\u5143\u6c14","file":"http:\/\/rdfile.oss-cn-hangzhou.aliyuncs.com\/filemanage\/e069b36c568d909f\/templateapi\/16267497402126\/file.zip?nonce=024151727898aacdb059b9f5502493f0","cover":"http:\/\/rdfile.oss-cn-hangzhou.aliyuncs.com\/filemanage\/e069b36c568d909f\/templateapi\/16267497402126\/cover.png?nonce=024151727898aacdb059b9f5502493f0&x-oss-process=style\/templateapi","updatetime":"1684912795","height":1080,"width":607,"video":"http:\/\/rdfile.oss-cn-hangzhou.aliyuncs.com\/filemanage\/e069b36c568d909f\/templateapi\/16267497402126\/video.mp4?nonce=024151727898aacdb059b9f5502493f0","sort":100,"version":147,"cover2":"","appkey":"init","duration":0,"extra":{},"polyglot":[],"category":"0","audit":0,"is_ugc":0,"text_need":0,"picture_need":0,"video_need":8,"type":"templateapi"},{"id":"1011772","ufid":"16119348","name":"\u4fe1\u7b3a","file":"http:\/\/rdfile.oss-cn-hangzhou.aliyuncs.com\/filemanage\/e069b36c568d909f\/templateapi\/16264087926869\/file.zip?nonce=f47e505a266dea6f0ab2d53cb4e51a54","cover":"http:\/\/rdfile.oss-cn-hangzhou.aliyuncs.com\/filemanage\/e069b36c568d909f\/templateapi\/16264087926869\/cover.png?nonce=f47e505a266dea6f0ab2d53cb4e51a54&x-oss-process=style\/templateapi","updatetime":"1684912822","height":1080,"width":607,"video":"http:\/\/rdfile.oss-cn-hangzhou.aliyuncs.com\/filemanage\/e069b36c568d909f\/templateapi\/16264087926869\/video.mp4?nonce=f47e505a266dea6f0ab2d53cb4e51a54","sort":100,"version":146,"cover2":"","appkey":"init","duration":0,"extra":{},"polyglot":[],"category":"0","audit":0,"is_ugc":0,"text_need":0,"picture_need":0,"video_need":8,"type":"templateapi"},{"id":"1011704","ufid":"63340121","name":"\u65f6\u5c1a\u8fbe\u4eba","file":"http:\/\/rdfile.oss-cn-hangzhou.aliyuncs.com\/filemanage\/e069b36c568d909f\/templateapi\/16262499223404\/file.zip?nonce=9a4279372b2e874752ed97d9c426d4d2","cover":"http:\/\/rdfile.oss-cn-hangzhou.aliyuncs.com\/filemanage\/e069b36c568d909f\/templateapi\/16262499223404\/cover.png?nonce=9a4279372b2e874752ed97d9c426d4d2&x-oss-process=style\/templateapi","updatetime":"1684913196","height":1080,"width":607,"video":"http:\/\/rdfile.oss-cn-hangzhou.aliyuncs.com\/filemanage\/e069b36c568d909f\/templateapi\/16262499223404\/video.mp4?nonce=9a4279372b2e874752ed97d9c426d4d2","sort":100,"version":146,"cover2":"","appkey":"init","duration":0,"extra":{},"polyglot":[],"category":"0","audit":0,"is_ugc":0,"text_need":0,"picture_need":0,"video_need":10,"type":"templateapi"},{"id":"1011683","ufid":"18049019","name":"\u9752\u6625\u65e5\u8bb0","file":"http:\/\/rdfile.oss-cn-hangzhou.aliyuncs.com\/filemanage\/e069b36c568d909f\/templateapi\/16262316011708\/file.zip?nonce=b906cb2afb08bcba78283235e848bd18","cover":"http:\/\/rdfile.oss-cn-hangzhou.aliyuncs.com\/filemanage\/e069b36c568d909f\/templateapi\/16262316011708\/cover.png?nonce=b906cb2afb08bcba78283235e848bd18&x-oss-process=style\/templateapi","updatetime":"1684912836","height":1080,"width":607,"video":"http:\/\/rdfile.oss-cn-hangzhou.aliyuncs.com\/filemanage\/e069b36c568d909f\/templateapi\/16262316011708\/video.mp4?nonce=b906cb2afb08bcba78283235e848bd18","sort":100,"version":146,"cover2":"","appkey":"init","duration":0,"extra":{},"polyglot":[],"category":"0","audit":0,"is_ugc":0,"text_need":0,"picture_need":0,"video_need":10,"type":"templateapi"},{"id":"1011680","ufid":"58657020","name":"\u6211\u4eec\u7684\u5a5a\u793c","file":"http:\/\/rdfile.oss-cn-hangzhou.aliyuncs.com\/filemanage\/e069b36c568d909f\/templateapi\/16261739725300\/file.zip?nonce=4d121465fbb6b400481f99f300082031","cover":"http:\/\/rdfile.oss-cn-hangzhou.aliyuncs.com\/filemanage\/e069b36c568d909f\/templateapi\/16261739725300\/cover.png?nonce=4d121465fbb6b400481f99f300082031&x-oss-process=style\/templateapi","updatetime":"1684912848","height":1080,"width":607,"video":"http:\/\/rdfile.oss-cn-hangzhou.aliyuncs.com\/filemanage\/e069b36c568d909f\/templateapi\/16261739725300\/video.mp4?nonce=4d121465fbb6b400481f99f300082031","sort":100,"version":146,"cover2":"","appkey":"init","duration":0,"extra":{},"polyglot":[],"category":"0","audit":0,"is_ugc":0,"text_need":0,"picture_need":0,"video_need":7,"type":"templateapi"},{"id":"1011430","ufid":"31442326","name":"\u9713\u8679\u5199\u771f","file":"http:\/\/rdfile.oss-cn-hangzhou.aliyuncs.com\/filemanage\/e069b36c568d909f\/templateapi\/16258129779127\/file.zip?nonce=8de4a3b4ac8735b0ce788ef4be659f13","cover":"http:\/\/rdfile.oss-cn-hangzhou.aliyuncs.com\/filemanage\/e069b36c568d909f\/templateapi\/16258129779127\/cover.png?nonce=8de4a3b4ac8735b0ce788ef4be659f13&x-oss-process=style\/templateapi","updatetime":"1684914455","height":1080,"width":1920,"video":"http:\/\/rdfile.oss-cn-hangzhou.aliyuncs.com\/filemanage\/e069b36c568d909f\/templateapi\/16258129779127\/video.mp4?nonce=8de4a3b4ac8735b0ce788ef4be659f13","sort":100,"version":146,"cover2":"","appkey":"init","duration":0,"extra":{},"polyglot":[],"category":"0","audit":0,"is_ugc":0,"text_need":0,"picture_need":0,"video_need":10,"type":"templateapi"}]}}