{"code":0,"msg":"success","data":{"total":173,"per_page":10,"current_page":8,"last_page":18,"data":[{"id":"1015418","ufid":"81604102","name":"\u300a\u8d77\u98ce\u4e86\u300b\u6b4c\u8bcd\u5b57\u5e55","file":"http:\/\/rdfile.oss-cn-hangzhou.aliyuncs.com\/filemanage\/e069b36c568d909f\/templateapi\/16559693943084\/file.zip?nonce=6c3f94f27b2113070249c12192527e3d","cover":"http:\/\/rdfile.oss-cn-hangzhou.aliyuncs.com\/filemanage\/e069b36c568d909f\/templateapi\/16559693943084\/cover.webp?nonce=6c3f94f27b2113070249c12192527e3d","updatetime":"1684911577","height":1280,"width":720,"video":"http:\/\/rdfile.oss-cn-hangzhou.aliyuncs.com\/filemanage\/e069b36c568d909f\/templateapi\/16559693943084\/video.mp4?nonce=6c3f94f27b2113070249c12192527e3d","sort":0,"version":153,"cover2":"","appkey":"init","duration":0,"extra":{},"polyglot":[],"category":"0","audit":0,"is_ugc":0,"text_need":0,"picture_need":0,"video_need":1,"type":"templateapi"},{"id":"1015228","ufid":"81931460","name":"\u4f60\u5728\u6211\u5fc3\u91cc\u4e0b\u4e86\u4e00\u573a\u96e8","file":"http:\/\/rdfile.oss-cn-hangzhou.aliyuncs.com\/filemanage\/e069b36c568d909f\/templateapi\/16535581686572\/file.zip?nonce=bc46c10c50bf6669fb7125884e200055","cover":"http:\/\/rdfile.oss-cn-hangzhou.aliyuncs.com\/filemanage\/e069b36c568d909f\/templateapi\/16535581686572\/cover.webp?nonce=bc46c10c50bf6669fb7125884e200055","updatetime":"1684895308","height":632,"width":356,"video":"http:\/\/rdfile.oss-cn-hangzhou.aliyuncs.com\/filemanage\/e069b36c568d909f\/templateapi\/16535581686572\/video.mp4?nonce=bc46c10c50bf6669fb7125884e200055","sort":0,"version":153,"cover2":"","appkey":"init","duration":0,"extra":{},"polyglot":[],"category":"0","audit":0,"is_ugc":0,"text_need":4,"picture_need":1,"video_need":0,"type":"templateapi"},{"id":"1015356","ufid":"64745044","name":"3D\u52a8\u753b\u5361\u70b9","file":"http:\/\/rdfile.oss-cn-hangzhou.aliyuncs.com\/filemanage\/e069b36c568d909f\/templateapi\/16552745738653\/file.zip?nonce=d74cac7843b90dc92a75d23652e984aa","cover":"http:\/\/rdfile.oss-cn-hangzhou.aliyuncs.com\/filemanage\/e069b36c568d909f\/templateapi\/16552745738653\/cover.webp?nonce=d74cac7843b90dc92a75d23652e984aa","updatetime":"1684899080","height":1280,"width":720,"video":"http:\/\/rdfile.oss-cn-hangzhou.aliyuncs.com\/filemanage\/e069b36c568d909f\/templateapi\/16552745738653\/video.mp4?nonce=d74cac7843b90dc92a75d23652e984aa","sort":0,"version":153,"cover2":"","appkey":"init","duration":0,"extra":{},"polyglot":[],"category":"0","audit":0,"is_ugc":0,"text_need":0,"picture_need":0,"video_need":8,"type":"templateapi"},{"id":"1014884","ufid":"52589959","name":"\u5361\u7247\u76f8\u518c","file":"http:\/\/rdfile.oss-cn-hangzhou.aliyuncs.com\/filemanage\/e069b36c568d909f\/templateapi\/16508559371048\/file.zip?nonce=f01b924bd704129c5616ebc1db2d2cf3","cover":"http:\/\/rdfile.oss-cn-hangzhou.aliyuncs.com\/filemanage\/e069b36c568d909f\/templateapi\/16508559371048\/cover.webp?nonce=f01b924bd704129c5616ebc1db2d2cf3","updatetime":"1684894961","height":720,"width":1278,"video":"http:\/\/rdfile.oss-cn-hangzhou.aliyuncs.com\/filemanage\/e069b36c568d909f\/templateapi\/16508559371048\/video.mp4?nonce=f01b924bd704129c5616ebc1db2d2cf3","sort":0,"version":152,"cover2":"","appkey":"init","duration":0,"extra":{},"polyglot":[],"category":"0","audit":0,"is_ugc":0,"text_need":0,"picture_need":23,"video_need":0,"type":"templateapi"},{"id":"1016060","ufid":"29856400","name":"\u751f\u6d3b\u6c1b\u56f4\u611f\u526a\u8f91","file":"http:\/\/rdfile.oss-cn-hangzhou.aliyuncs.com\/filemanage\/e069b36c568d909f\/templateapi\/16642683433319\/file.zip?nonce=9f73a80fa8feb82c2c6242c0d58f5a42","cover":"http:\/\/rdfile.oss-cn-hangzhou.aliyuncs.com\/filemanage\/e069b36c568d909f\/templateapi\/16642683433319\/cover.webp?nonce=9f73a80fa8feb82c2c6242c0d58f5a42","updatetime":"1684893400","height":1080,"width":1440,"video":"http:\/\/rdfile.oss-cn-hangzhou.aliyuncs.com\/filemanage\/e069b36c568d909f\/templateapi\/16642683433319\/video.mp4?nonce=9f73a80fa8feb82c2c6242c0d58f5a42","sort":0,"version":153,"cover2":"","appkey":"init","duration":0,"extra":{},"polyglot":[],"category":"0","audit":0,"is_ugc":0,"text_need":0,"picture_need":0,"video_need":7,"type":"templateapi"},{"id":"1016054","ufid":"67083720","name":"\u753b\u68461","file":"http:\/\/rdfile.oss-cn-hangzhou.aliyuncs.com\/filemanage\/e069b36c568d909f\/templateapi\/16641889618038\/file.zip?nonce=b04c4c240d45640242cb581cea2f14d3","cover":"http:\/\/rdfile.oss-cn-hangzhou.aliyuncs.com\/filemanage\/e069b36c568d909f\/templateapi\/16641889618038\/cover.webp?nonce=b04c4c240d45640242cb581cea2f14d3","updatetime":"1684895469","height":1280,"width":720,"video":"http:\/\/rdfile.oss-cn-hangzhou.aliyuncs.com\/filemanage\/e069b36c568d909f\/templateapi\/16641889618038\/video.mp4?nonce=b04c4c240d45640242cb581cea2f14d3","sort":0,"version":153,"cover2":"","appkey":"init","duration":0,"extra":{},"polyglot":[],"category":"0","audit":0,"is_ugc":0,"text_need":0,"picture_need":0,"video_need":3,"type":"templateapi"},{"id":"1014875","ufid":"24383727","name":"\u7a7a\u95f4\u89c6\u89d2","file":"http:\/\/rdfile.oss-cn-hangzhou.aliyuncs.com\/filemanage\/e069b36c568d909f\/templateapi\/16506208095575\/file.zip?nonce=eb39699ef83cf9edcc49ce3458bee495","cover":"http:\/\/rdfile.oss-cn-hangzhou.aliyuncs.com\/filemanage\/e069b36c568d909f\/templateapi\/16506208095575\/cover.webp?nonce=eb39699ef83cf9edcc49ce3458bee495","updatetime":"1684896999","height":1278,"width":720,"video":"http:\/\/rdfile.oss-cn-hangzhou.aliyuncs.com\/filemanage\/e069b36c568d909f\/templateapi\/16506208095575\/video.mp4?nonce=eb39699ef83cf9edcc49ce3458bee495","sort":0,"version":152,"cover2":"","appkey":"init","duration":0,"extra":{},"polyglot":[],"category":"0","audit":0,"is_ugc":0,"text_need":0,"picture_need":28,"video_need":0,"type":"templateapi"},{"id":"1014871","ufid":"84709665","name":"\u5c42\u53e0\u5927\u7247","file":"http:\/\/rdfile.oss-cn-hangzhou.aliyuncs.com\/filemanage\/e069b36c568d909f\/templateapi\/16505365436183\/file.zip?nonce=a42568d4e356a57092e7e6be33d7f647","cover":"http:\/\/rdfile.oss-cn-hangzhou.aliyuncs.com\/filemanage\/e069b36c568d909f\/templateapi\/16505365436183\/cover.webp?nonce=a42568d4e356a57092e7e6be33d7f647","updatetime":"1684894997","height":720,"width":1280,"video":"http:\/\/rdfile.oss-cn-hangzhou.aliyuncs.com\/filemanage\/e069b36c568d909f\/templateapi\/16505365436183\/video.mp4?nonce=a42568d4e356a57092e7e6be33d7f647","sort":0,"version":152,"cover2":"","appkey":"init","duration":0,"extra":{},"polyglot":[],"category":"0","audit":0,"is_ugc":0,"text_need":0,"picture_need":36,"video_need":0,"type":"templateapi"},{"id":"1014873","ufid":"74452313","name":"\u8c03\u67e5\u4e2d","file":"http:\/\/rdfile.oss-cn-hangzhou.aliyuncs.com\/filemanage\/e069b36c568d909f\/templateapi\/16506079878091\/file.zip?nonce=5c6733979df740c8d6b0e3558466a325","cover":"http:\/\/rdfile.oss-cn-hangzhou.aliyuncs.com\/filemanage\/e069b36c568d909f\/templateapi\/16506079878091\/cover.webp?nonce=5c6733979df740c8d6b0e3558466a325","updatetime":"1684896702","height":720,"width":1252,"video":"http:\/\/rdfile.oss-cn-hangzhou.aliyuncs.com\/filemanage\/e069b36c568d909f\/templateapi\/16506079878091\/video.mp4?nonce=5c6733979df740c8d6b0e3558466a325","sort":0,"version":152,"cover2":"","appkey":"init","duration":0,"extra":{},"polyglot":[],"category":"0","audit":0,"is_ugc":0,"text_need":0,"picture_need":0,"video_need":9,"type":"templateapi"},{"id":"1014790","ufid":"57401620","name":"\u5f88\u60f3\u67d0\u4eba","file":"http:\/\/rdfile.oss-cn-hangzhou.aliyuncs.com\/filemanage\/e069b36c568d909f\/templateapi\/16498449376883\/file.zip?nonce=bbbaf3fb9d192c25b7380cc3afa5a350","cover":"http:\/\/rdfile.oss-cn-hangzhou.aliyuncs.com\/filemanage\/e069b36c568d909f\/templateapi\/16498449376883\/cover.png?nonce=bbbaf3fb9d192c25b7380cc3afa5a350&x-oss-process=style\/templateapi","updatetime":"1684913298","height":633,"width":356,"video":"http:\/\/rdfile.oss-cn-hangzhou.aliyuncs.com\/filemanage\/e069b36c568d909f\/templateapi\/16498449376883\/video.mp4?nonce=bbbaf3fb9d192c25b7380cc3afa5a350","sort":0,"version":152,"cover2":"","appkey":"init","duration":0,"extra":{},"polyglot":[],"category":"0","audit":0,"is_ugc":0,"text_need":5,"picture_need":5,"video_need":0,"type":"templateapi"}]}}