{"code":0,"msg":"success","data":{"total":636,"per_page":10,"current_page":48,"last_page":64,"data":[{"id":"1012474","ufid":"22841505","name":"\u90a3\u4e48\u4e0d\u5c0f\u5fc3","file":"http:\/\/rdfile.oss-cn-hangzhou.aliyuncs.com\/filemanage\/e069b36c568d909f\/templateapi\/16341982581080\/file.zip?nonce=cf5f0aab394cd8ed93e6ea96510da2f9","cover":"http:\/\/rdfile.oss-cn-hangzhou.aliyuncs.com\/filemanage\/e069b36c568d909f\/templateapi\/16341982581080\/cover.png?nonce=cf5f0aab394cd8ed93e6ea96510da2f9&x-oss-process=style\/templateapi","updatetime":"1704185719","height":1280,"width":720,"video":"http:\/\/rdfile.oss-cn-hangzhou.aliyuncs.com\/filemanage\/e069b36c568d909f\/templateapi\/16341982581080\/video.mp4?nonce=cf5f0aab394cd8ed93e6ea96510da2f9","sort":100,"version":148,"cover2":"","appkey":"init","duration":0,"extra":{},"polyglot":{"en":"So careless"},"category":"0","audit":0,"is_ugc":0,"text_need":0,"picture_need":1,"video_need":0,"type":"templateapi"},{"id":"1012473","ufid":"38865199","name":"\u8001\u5a18\u5565\u90fd\u597d","file":"http:\/\/rdfile.oss-cn-hangzhou.aliyuncs.com\/filemanage\/e069b36c568d909f\/templateapi\/16341963345516\/file.zip?nonce=cf5f0aab394cd8ed93e6ea96510da2f9","cover":"http:\/\/rdfile.oss-cn-hangzhou.aliyuncs.com\/filemanage\/e069b36c568d909f\/templateapi\/16341963345516\/cover.png?nonce=cf5f0aab394cd8ed93e6ea96510da2f9&x-oss-process=style\/templateapi","updatetime":"1704185719","height":1280,"width":720,"video":"http:\/\/rdfile.oss-cn-hangzhou.aliyuncs.com\/filemanage\/e069b36c568d909f\/templateapi\/16341963345516\/video.mp4?nonce=cf5f0aab394cd8ed93e6ea96510da2f9","sort":100,"version":148,"cover2":"","appkey":"init","duration":0,"extra":{},"polyglot":{"en":"I"},"category":"0","audit":0,"is_ugc":0,"text_need":0,"picture_need":6,"video_need":0,"type":"templateapi"},{"id":"1012469","ufid":"56955228","name":"\u5e7f\u897f\u7248\u6843\u82b1\u8fd0","file":"http:\/\/rdfile.oss-cn-hangzhou.aliyuncs.com\/filemanage\/e069b36c568d909f\/templateapi\/16339419995154\/file.zip?nonce=cf5f0aab394cd8ed93e6ea96510da2f9","cover":"http:\/\/rdfile.oss-cn-hangzhou.aliyuncs.com\/filemanage\/e069b36c568d909f\/templateapi\/16339419995154\/cover.png?nonce=cf5f0aab394cd8ed93e6ea96510da2f9&x-oss-process=style\/templateapi","updatetime":"1704185719","height":1248,"width":702,"video":"http:\/\/rdfile.oss-cn-hangzhou.aliyuncs.com\/filemanage\/e069b36c568d909f\/templateapi\/16339419995154\/video.mp4?nonce=cf5f0aab394cd8ed93e6ea96510da2f9","sort":100,"version":148,"cover2":"","appkey":"init","duration":0,"extra":{},"polyglot":{"en":"Guangxi version of Peach Blossom Luck"},"category":"0","audit":0,"is_ugc":0,"text_need":0,"picture_need":15,"video_need":0,"type":"templateapi"},{"id":"1012446","ufid":"60042143","name":"MY VLOG","file":"http:\/\/rdfile.oss-cn-hangzhou.aliyuncs.com\/filemanage\/e069b36c568d909f\/templateapi\/16328164036673\/file.zip?nonce=98d4e6853c6d3154658ddd16daf6a200","cover":"http:\/\/rdfile.oss-cn-hangzhou.aliyuncs.com\/filemanage\/e069b36c568d909f\/templateapi\/16328164036673\/cover.png?nonce=98d4e6853c6d3154658ddd16daf6a200&x-oss-process=style\/templateapi","updatetime":"1704185716","height":720,"width":1280,"video":"http:\/\/rdfile.oss-cn-hangzhou.aliyuncs.com\/filemanage\/e069b36c568d909f\/templateapi\/16328164036673\/video.mp4?nonce=98d4e6853c6d3154658ddd16daf6a200","sort":100,"version":148,"cover2":"","appkey":"init","duration":0,"extra":{},"polyglot":{"en":"MY VLOG"},"category":"0","audit":0,"is_ugc":0,"text_need":0,"picture_need":0,"video_need":1,"type":"templateapi"},{"id":"1012445","ufid":"87446049","name":"\u76f8\u4f9d\u4e3a\u547d","file":"http:\/\/rdfile.oss-cn-hangzhou.aliyuncs.com\/filemanage\/e069b36c568d909f\/templateapi\/16327968172890\/file.zip?nonce=98d4e6853c6d3154658ddd16daf6a200","cover":"http:\/\/rdfile.oss-cn-hangzhou.aliyuncs.com\/filemanage\/e069b36c568d909f\/templateapi\/16327968172890\/cover.png?nonce=98d4e6853c6d3154658ddd16daf6a200&x-oss-process=style\/templateapi","updatetime":"1704185716","height":1280,"width":720,"video":"http:\/\/rdfile.oss-cn-hangzhou.aliyuncs.com\/filemanage\/e069b36c568d909f\/templateapi\/16327968172890\/video.mp4?nonce=98d4e6853c6d3154658ddd16daf6a200","sort":100,"version":148,"cover2":"","appkey":"init","duration":0,"extra":{},"polyglot":{"en":"Depend on each other"},"category":"0","audit":0,"is_ugc":0,"text_need":0,"picture_need":0,"video_need":4,"type":"templateapi"},{"id":"1012444","ufid":"98396143","name":"\u7956\u56fd\u4e07\u5c81","file":"http:\/\/rdfile.oss-cn-hangzhou.aliyuncs.com\/filemanage\/e069b36c568d909f\/templateapi\/16327379711633\/file.zip?nonce=98d4e6853c6d3154658ddd16daf6a200","cover":"http:\/\/rdfile.oss-cn-hangzhou.aliyuncs.com\/filemanage\/e069b36c568d909f\/templateapi\/16327379711633\/cover.png?nonce=98d4e6853c6d3154658ddd16daf6a200&x-oss-process=style\/templateapi","updatetime":"1704185716","height":1280,"width":1280,"video":"http:\/\/rdfile.oss-cn-hangzhou.aliyuncs.com\/filemanage\/e069b36c568d909f\/templateapi\/16327379711633\/video.mp4?nonce=98d4e6853c6d3154658ddd16daf6a200","sort":100,"version":148,"cover2":"","appkey":"init","duration":0,"extra":{},"polyglot":{"en":"Long live the motherland"},"category":"0","audit":0,"is_ugc":0,"text_need":0,"picture_need":2,"video_need":0,"type":"templateapi"},{"id":"1012443","ufid":"43750132","name":"\u76db\u4e16\u534e\u8bde","file":"http:\/\/rdfile.oss-cn-hangzhou.aliyuncs.com\/filemanage\/e069b36c568d909f\/templateapi\/16327358979429\/file.zip?nonce=e1e817fcbb42ba7673081e0e991e88e2","cover":"http:\/\/rdfile.oss-cn-hangzhou.aliyuncs.com\/filemanage\/e069b36c568d909f\/templateapi\/16327358979429\/cover.png?nonce=e1e817fcbb42ba7673081e0e991e88e2&x-oss-process=style\/templateapi","updatetime":"1704185715","height":1280,"width":736,"video":"http:\/\/rdfile.oss-cn-hangzhou.aliyuncs.com\/filemanage\/e069b36c568d909f\/templateapi\/16327358979429\/video.mp4?nonce=e1e817fcbb42ba7673081e0e991e88e2","sort":100,"version":148,"cover2":"","appkey":"init","duration":0,"extra":{},"polyglot":{"en":"Happy Birthday"},"category":"0","audit":0,"is_ugc":0,"text_need":0,"picture_need":0,"video_need":3,"type":"templateapi"},{"id":"1012435","ufid":"84730382","name":"\u62cd\u7167","file":"http:\/\/rdfile.oss-cn-hangzhou.aliyuncs.com\/filemanage\/e069b36c568d909f\/templateapi\/16327153066006\/file.zip?nonce=e1e817fcbb42ba7673081e0e991e88e2","cover":"http:\/\/rdfile.oss-cn-hangzhou.aliyuncs.com\/filemanage\/e069b36c568d909f\/templateapi\/16327153066006\/cover.png?nonce=e1e817fcbb42ba7673081e0e991e88e2&x-oss-process=style\/templateapi","updatetime":"1704185715","height":1280,"width":720,"video":"http:\/\/rdfile.oss-cn-hangzhou.aliyuncs.com\/filemanage\/e069b36c568d909f\/templateapi\/16327153066006\/video.mp4?nonce=e1e817fcbb42ba7673081e0e991e88e2","sort":100,"version":148,"cover2":"","appkey":"init","duration":0,"extra":{},"polyglot":{"en":"Shot"},"category":"0","audit":0,"is_ugc":0,"text_need":0,"picture_need":0,"video_need":3,"type":"templateapi"},{"id":"1012432","ufid":"12729219","name":"\u5468\u672b\u6109\u5feb","file":"http:\/\/rdfile.oss-cn-hangzhou.aliyuncs.com\/filemanage\/e069b36c568d909f\/templateapi\/16326422467013\/file.zip?nonce=e1e817fcbb42ba7673081e0e991e88e2","cover":"http:\/\/rdfile.oss-cn-hangzhou.aliyuncs.com\/filemanage\/e069b36c568d909f\/templateapi\/16326422467013\/cover.png?nonce=e1e817fcbb42ba7673081e0e991e88e2&x-oss-process=style\/templateapi","updatetime":"1704185715","height":1280,"width":720,"video":"http:\/\/rdfile.oss-cn-hangzhou.aliyuncs.com\/filemanage\/e069b36c568d909f\/templateapi\/16326422467013\/video.mp4?nonce=e1e817fcbb42ba7673081e0e991e88e2","sort":100,"version":148,"cover2":"","appkey":"init","duration":0,"extra":{},"polyglot":{"en":"Have a good weekend"},"category":"0","audit":0,"is_ugc":0,"text_need":1,"picture_need":14,"video_need":0,"type":"templateapi"},{"id":"1012431","ufid":"99389124","name":"\u4eba\u7684\u4e00\u751f","file":"http:\/\/rdfile.oss-cn-hangzhou.aliyuncs.com\/filemanage\/e069b36c568d909f\/templateapi\/16326405326010\/file.zip?nonce=c01f5d710d9054836ea6429fda8774a1","cover":"http:\/\/rdfile.oss-cn-hangzhou.aliyuncs.com\/filemanage\/e069b36c568d909f\/templateapi\/16326405326010\/cover.png?nonce=c01f5d710d9054836ea6429fda8774a1&x-oss-process=style\/templateapi","updatetime":"1704185714","height":1280,"width":720,"video":"http:\/\/rdfile.oss-cn-hangzhou.aliyuncs.com\/filemanage\/e069b36c568d909f\/templateapi\/16326405326010\/video.mp4?nonce=c01f5d710d9054836ea6429fda8774a1","sort":100,"version":148,"cover2":"","appkey":"init","duration":0,"extra":{},"polyglot":{"en":"A person"},"category":"0","audit":0,"is_ugc":0,"text_need":0,"picture_need":0,"video_need":1,"type":"templateapi"}]}}