{"code":0,"msg":"success","data":{"total":113,"per_page":10,"current_page":1,"last_page":12,"data":[{"id":"1020489","ufid":"83367353","name":"\u8499\u7248\u5173\u952e\u5e27\u5f8b\u52a8\u2014\u5361\u519c\u94a2\u7434\u66f2","file":"http:\/\/rdfile.oss-cn-hangzhou.aliyuncs.com\/filemanage\/e069b36c568d909f\/templateapi\/16760170492818\/file.zip?nonce=ad77fea85e8dbea8b803c6f0390dff86","cover":"http:\/\/rdfile.oss-cn-hangzhou.aliyuncs.com\/filemanage\/e069b36c568d909f\/templateapi\/16760170492818\/cover.webp?nonce=ad77fea85e8dbea8b803c6f0390dff86","updatetime":"1684897413","height":607,"width":1080,"video":"http:\/\/rdfile.oss-cn-hangzhou.aliyuncs.com\/filemanage\/e069b36c568d909f\/templateapi\/16760170492818\/video.mp4?nonce=ad77fea85e8dbea8b803c6f0390dff86","sort":0,"version":159,"cover2":"","appkey":"init","duration":0,"extra":{},"polyglot":[],"category":"0","audit":0,"is_ugc":0,"text_need":0,"picture_need":0,"video_need":1,"type":"templateapi"},{"id":"1019474","ufid":"36690284","name":"\u94a2\u7434\u5361\u70b9","file":"http:\/\/rdfile.oss-cn-hangzhou.aliyuncs.com\/filemanage\/e069b36c568d909f\/templateapi\/16720477857849\/file.zip?nonce=710b07c0aab268fae3fba806603edc93","cover":"http:\/\/rdfile.oss-cn-hangzhou.aliyuncs.com\/filemanage\/e069b36c568d909f\/templateapi\/16720477857849\/cover.webp?nonce=710b07c0aab268fae3fba806603edc93","updatetime":"1684893455","height":607,"width":1080,"video":"http:\/\/rdfile.oss-cn-hangzhou.aliyuncs.com\/filemanage\/e069b36c568d909f\/templateapi\/16720477857849\/video.mp4?nonce=710b07c0aab268fae3fba806603edc93","sort":0,"version":158,"cover2":"","appkey":"init","duration":0,"extra":{},"polyglot":[],"category":"0","audit":0,"is_ugc":0,"text_need":1,"picture_need":10,"video_need":1,"type":"templateapi"},{"id":"1016701","ufid":"86671130","name":"\u52a8\u611f\u7167\u7247\u5361\u70b9","file":"http:\/\/rdfile.oss-cn-hangzhou.aliyuncs.com\/filemanage\/e069b36c568d909f\/templateapi\/16709259122247\/file.zip?nonce=cfcd208495d565ef66e7dff9f98764da","cover":"http:\/\/rdfile.oss-cn-hangzhou.aliyuncs.com\/filemanage\/e069b36c568d909f\/templateapi\/16709259122247\/cover.webp?nonce=cfcd208495d565ef66e7dff9f98764da","updatetime":"0","height":1920,"width":1080,"video":"http:\/\/rdfile.oss-cn-hangzhou.aliyuncs.com\/filemanage\/e069b36c568d909f\/templateapi\/16709259122247\/video.mp4?nonce=cfcd208495d565ef66e7dff9f98764da","sort":0,"version":157,"cover2":"","appkey":"init","duration":0,"extra":{},"polyglot":[],"category":"0","audit":0,"is_ugc":0,"text_need":0,"picture_need":0,"video_need":5,"type":"templateapi"},{"id":"1016697","ufid":"23603760","name":"\u6d77\u5e02\u8703\u697c\u7684\u7ae5\u8bdd \u97f3\u4e50\u5361\u70b9","file":"http:\/\/rdfile.oss-cn-hangzhou.aliyuncs.com\/filemanage\/e069b36c568d909f\/templateapi\/16708382113342\/file.zip?nonce=cfcd208495d565ef66e7dff9f98764da","cover":"http:\/\/rdfile.oss-cn-hangzhou.aliyuncs.com\/filemanage\/e069b36c568d909f\/templateapi\/16708382113342\/cover.webp?nonce=cfcd208495d565ef66e7dff9f98764da","updatetime":"0","height":1920,"width":1080,"video":"http:\/\/rdfile.oss-cn-hangzhou.aliyuncs.com\/filemanage\/e069b36c568d909f\/templateapi\/16708382113342\/video.mp4?nonce=cfcd208495d565ef66e7dff9f98764da","sort":0,"version":157,"cover2":"","appkey":"init","duration":0,"extra":{},"polyglot":[],"category":"0","audit":0,"is_ugc":0,"text_need":0,"picture_need":0,"video_need":10,"type":"templateapi"},{"id":"1016625","ufid":"98386640","name":"\u5e26\u4e0a\u4f60\u7684\u732b\u79d2\u53d8\u9ed1\u8c79","file":"http:\/\/rdfile.oss-cn-hangzhou.aliyuncs.com\/filemanage\/e069b36c568d909f\/templateapi\/16698712431706\/file.zip?nonce=f0778b80f5dd6a769db6a23c1098386d","cover":"http:\/\/rdfile.oss-cn-hangzhou.aliyuncs.com\/filemanage\/e069b36c568d909f\/templateapi\/16698712431706\/cover.webp?nonce=f0778b80f5dd6a769db6a23c1098386d","updatetime":"1684896148","height":1920,"width":1080,"video":"http:\/\/rdfile.oss-cn-hangzhou.aliyuncs.com\/filemanage\/e069b36c568d909f\/templateapi\/16698712431706\/video.mp4?nonce=f0778b80f5dd6a769db6a23c1098386d","sort":0,"version":156,"cover2":"","appkey":"init","duration":0,"extra":{},"polyglot":[],"category":"0","audit":0,"is_ugc":0,"text_need":0,"picture_need":0,"video_need":2,"type":"templateapi"},{"id":"1016605","ufid":"13714401","name":"Catch My Breath \u97f3\u4e50\u5361\u70b9","file":"http:\/\/rdfile.oss-cn-hangzhou.aliyuncs.com\/filemanage\/e069b36c568d909f\/templateapi\/16697973576310\/file.zip?nonce=cfcd208495d565ef66e7dff9f98764da","cover":"http:\/\/rdfile.oss-cn-hangzhou.aliyuncs.com\/filemanage\/e069b36c568d909f\/templateapi\/16697973576310\/cover.webp?nonce=cfcd208495d565ef66e7dff9f98764da","updatetime":"0","height":1080,"width":1920,"video":"http:\/\/rdfile.oss-cn-hangzhou.aliyuncs.com\/filemanage\/e069b36c568d909f\/templateapi\/16697973576310\/video.mp4?nonce=cfcd208495d565ef66e7dff9f98764da","sort":0,"version":156,"cover2":"","appkey":"init","duration":0,"extra":{},"polyglot":[],"category":"0","audit":0,"is_ugc":0,"text_need":0,"picture_need":0,"video_need":16,"type":"templateapi"},{"id":"1016592","ufid":"62929038","name":"\u7279\u6548\u5361\u70b9","file":"http:\/\/rdfile.oss-cn-hangzhou.aliyuncs.com\/filemanage\/e069b36c568d909f\/templateapi\/16697070225219\/file.zip?nonce=cfcd208495d565ef66e7dff9f98764da","cover":"http:\/\/rdfile.oss-cn-hangzhou.aliyuncs.com\/filemanage\/e069b36c568d909f\/templateapi\/16697070225219\/cover.webp?nonce=cfcd208495d565ef66e7dff9f98764da","updatetime":"0","height":1080,"width":1920,"video":"http:\/\/rdfile.oss-cn-hangzhou.aliyuncs.com\/filemanage\/e069b36c568d909f\/templateapi\/16697070225219\/video.mp4?nonce=cfcd208495d565ef66e7dff9f98764da","sort":0,"version":156,"cover2":"","appkey":"init","duration":0,"extra":{},"polyglot":[],"category":"0","audit":0,"is_ugc":0,"text_need":0,"picture_need":0,"video_need":2,"type":"templateapi"},{"id":"1016512","ufid":"96608534","name":"\u7fa4\u9752\uff0c\u70ed\u95e8\u97f3\u4e50\u5361\u70b9","file":"http:\/\/rdfile.oss-cn-hangzhou.aliyuncs.com\/filemanage\/e069b36c568d909f\/templateapi\/16690255817287\/file.zip?nonce=cfcd208495d565ef66e7dff9f98764da","cover":"http:\/\/rdfile.oss-cn-hangzhou.aliyuncs.com\/filemanage\/e069b36c568d909f\/templateapi\/16690255817287\/cover.webp?nonce=cfcd208495d565ef66e7dff9f98764da","updatetime":"0","height":1748,"width":983,"video":"http:\/\/rdfile.oss-cn-hangzhou.aliyuncs.com\/filemanage\/e069b36c568d909f\/templateapi\/16690255817287\/video.mp4?nonce=cfcd208495d565ef66e7dff9f98764da","sort":0,"version":155,"cover2":"","appkey":"init","duration":0,"extra":{},"polyglot":[],"category":"0","audit":0,"is_ugc":0,"text_need":0,"picture_need":16,"video_need":2,"type":"templateapi"},{"id":"1016502","ufid":"38779114","name":"\u5c11\u5e74\u611f\u5361\u70b9","file":"http:\/\/rdfile.oss-cn-hangzhou.aliyuncs.com\/filemanage\/e069b36c568d909f\/templateapi\/16690093751119\/file.zip?nonce=cfcd208495d565ef66e7dff9f98764da","cover":"http:\/\/rdfile.oss-cn-hangzhou.aliyuncs.com\/filemanage\/e069b36c568d909f\/templateapi\/16690093751119\/cover.webp?nonce=cfcd208495d565ef66e7dff9f98764da","updatetime":"0","height":1225,"width":689,"video":"http:\/\/rdfile.oss-cn-hangzhou.aliyuncs.com\/filemanage\/e069b36c568d909f\/templateapi\/16690093751119\/video.mp4?nonce=cfcd208495d565ef66e7dff9f98764da","sort":0,"version":154,"cover2":"","appkey":"init","duration":0,"extra":{},"polyglot":[],"category":"0","audit":0,"is_ugc":0,"text_need":0,"picture_need":0,"video_need":5,"type":"templateapi"},{"id":"1016487","ufid":"70512027","name":"\u4eba\u7269\u5206\u5c4f\u51fa\u573a","file":"http:\/\/rdfile.oss-cn-hangzhou.aliyuncs.com\/filemanage\/e069b36c568d909f\/templateapi\/16686750428733\/file.zip?nonce=dacdef298ecee928b041e86bd1a4e5bc","cover":"http:\/\/rdfile.oss-cn-hangzhou.aliyuncs.com\/filemanage\/e069b36c568d909f\/templateapi\/16686750428733\/cover.webp?nonce=dacdef298ecee928b041e86bd1a4e5bc","updatetime":"1684894864","height":607,"width":1080,"video":"http:\/\/rdfile.oss-cn-hangzhou.aliyuncs.com\/filemanage\/e069b36c568d909f\/templateapi\/16686750428733\/video.mp4?nonce=dacdef298ecee928b041e86bd1a4e5bc","sort":0,"version":155,"cover2":"","appkey":"init","duration":0,"extra":{},"polyglot":[],"category":"0","audit":0,"is_ugc":0,"text_need":0,"picture_need":5,"video_need":0,"type":"templateapi"}]}}