{"code":0,"msg":"success","data":{"total":16,"per_page":10,"current_page":1,"last_page":2,"data":[{"id":"1020361","ufid":"16678235","name":"\u96a7\u9053\u6a21\u7248","file":"http:\/\/rdfile.oss-cn-hangzhou.aliyuncs.com\/filemanage\/e069b36c568d909f\/templateapi\/16751679138507\/file.zip?nonce=f7c49b1dc8a20cc129f01607b674cb6d","cover":"http:\/\/rdfile.oss-cn-hangzhou.aliyuncs.com\/filemanage\/e069b36c568d909f\/templateapi\/16751679138507\/cover.webp?nonce=f7c49b1dc8a20cc129f01607b674cb6d","updatetime":"1684893308","height":720,"width":1280,"video":"http:\/\/rdfile.oss-cn-hangzhou.aliyuncs.com\/filemanage\/e069b36c568d909f\/templateapi\/16751679138507\/video.mp4?nonce=f7c49b1dc8a20cc129f01607b674cb6d","sort":0,"version":158,"cover2":"","appkey":"init","duration":0,"extra":{},"polyglot":[],"category":"0","audit":0,"is_ugc":0,"text_need":0,"picture_need":0,"video_need":5,"type":"templateapi"},{"id":"1019408","ufid":"93101970","name":"\u6c1b\u56f4\u611f\u6162\u52a8\u4f5c","file":"http:\/\/rdfile.oss-cn-hangzhou.aliyuncs.com\/filemanage\/e069b36c568d909f\/templateapi\/16717056116074\/file.zip?nonce=cfcd208495d565ef66e7dff9f98764da","cover":"http:\/\/rdfile.oss-cn-hangzhou.aliyuncs.com\/filemanage\/e069b36c568d909f\/templateapi\/16717056116074\/cover.webp?nonce=cfcd208495d565ef66e7dff9f98764da","updatetime":"0","height":1920,"width":1080,"video":"http:\/\/rdfile.oss-cn-hangzhou.aliyuncs.com\/filemanage\/e069b36c568d909f\/templateapi\/16717056116074\/video.mp4?nonce=cfcd208495d565ef66e7dff9f98764da","sort":0,"version":157,"cover2":"","appkey":"init","duration":0,"extra":{},"polyglot":[],"category":"0","audit":0,"is_ugc":0,"text_need":0,"picture_need":0,"video_need":1,"type":"templateapi"},{"id":"1016846","ufid":"52523748","name":"\u9152\u7cbe\u8fc7\u654f\u7684\u5e05\u54e5","file":"http:\/\/rdfile.oss-cn-hangzhou.aliyuncs.com\/filemanage\/e069b36c568d909f\/templateapi\/16715322156548\/file.zip?nonce=cfcd208495d565ef66e7dff9f98764da","cover":"http:\/\/rdfile.oss-cn-hangzhou.aliyuncs.com\/filemanage\/e069b36c568d909f\/templateapi\/16715322156548\/cover.webp?nonce=cfcd208495d565ef66e7dff9f98764da","updatetime":"0","height":1920,"width":1080,"video":"http:\/\/rdfile.oss-cn-hangzhou.aliyuncs.com\/filemanage\/e069b36c568d909f\/templateapi\/16715322156548\/video.mp4?nonce=cfcd208495d565ef66e7dff9f98764da","sort":0,"version":157,"cover2":"","appkey":"init","duration":0,"extra":{},"polyglot":[],"category":"0","audit":0,"is_ugc":0,"text_need":0,"picture_need":0,"video_need":1,"type":"templateapi"},{"id":"1016841","ufid":"26349016","name":"\u4e0b\u96ea\u7279\u6548","file":"http:\/\/rdfile.oss-cn-hangzhou.aliyuncs.com\/filemanage\/e069b36c568d909f\/templateapi\/16715282554309\/file.zip?nonce=27f309819af02a7126103ec80fc89fc6","cover":"http:\/\/rdfile.oss-cn-hangzhou.aliyuncs.com\/filemanage\/e069b36c568d909f\/templateapi\/16715282554309\/cover.webp?nonce=27f309819af02a7126103ec80fc89fc6","updatetime":"1684894901","height":1058,"width":595,"video":"http:\/\/rdfile.oss-cn-hangzhou.aliyuncs.com\/filemanage\/e069b36c568d909f\/templateapi\/16715282554309\/video.mp4?nonce=27f309819af02a7126103ec80fc89fc6","sort":0,"version":155,"cover2":"","appkey":"init","duration":0,"extra":{},"polyglot":[],"category":"0","audit":0,"is_ugc":0,"text_need":0,"picture_need":0,"video_need":1,"type":"templateapi"},{"id":"1016836","ufid":"85232949","name":"\u65e5\u843d\u6162\u52a8\u4f5c\u53d8\u8272","file":"http:\/\/rdfile.oss-cn-hangzhou.aliyuncs.com\/filemanage\/e069b36c568d909f\/templateapi\/16714427662384\/file.zip?nonce=cfcd208495d565ef66e7dff9f98764da","cover":"http:\/\/rdfile.oss-cn-hangzhou.aliyuncs.com\/filemanage\/e069b36c568d909f\/templateapi\/16714427662384\/cover.webp?nonce=cfcd208495d565ef66e7dff9f98764da","updatetime":"0","height":1920,"width":1080,"video":"http:\/\/rdfile.oss-cn-hangzhou.aliyuncs.com\/filemanage\/e069b36c568d909f\/templateapi\/16714427662384\/video.mp4?nonce=cfcd208495d565ef66e7dff9f98764da","sort":0,"version":157,"cover2":"","appkey":"init","duration":0,"extra":{},"polyglot":[],"category":"0","audit":0,"is_ugc":0,"text_need":0,"picture_need":0,"video_need":1,"type":"templateapi"},{"id":"1016695","ufid":"49431818","name":"Alone\u52a8\u611f\u6162\u52a8\u4f5c","file":"http:\/\/rdfile.oss-cn-hangzhou.aliyuncs.com\/filemanage\/e069b36c568d909f\/templateapi\/16708358329975\/file.zip?nonce=cfcd208495d565ef66e7dff9f98764da","cover":"http:\/\/rdfile.oss-cn-hangzhou.aliyuncs.com\/filemanage\/e069b36c568d909f\/templateapi\/16708358329975\/cover.webp?nonce=cfcd208495d565ef66e7dff9f98764da","updatetime":"0","height":1920,"width":1080,"video":"http:\/\/rdfile.oss-cn-hangzhou.aliyuncs.com\/filemanage\/e069b36c568d909f\/templateapi\/16708358329975\/video.mp4?nonce=cfcd208495d565ef66e7dff9f98764da","sort":0,"version":157,"cover2":"","appkey":"init","duration":0,"extra":{},"polyglot":[],"category":"0","audit":0,"is_ugc":0,"text_need":0,"picture_need":0,"video_need":1,"type":"templateapi"},{"id":"1016684","ufid":"68322159","name":"\u90a3\u5e74\u6211\u53cc\u624b\u63d2\u515c","file":"http:\/\/rdfile.oss-cn-hangzhou.aliyuncs.com\/filemanage\/e069b36c568d909f\/templateapi\/16704066609904\/file.zip?nonce=290438b43edb9858509e215dc82f71b1","cover":"http:\/\/rdfile.oss-cn-hangzhou.aliyuncs.com\/filemanage\/e069b36c568d909f\/templateapi\/16704066609904\/cover.webp?nonce=290438b43edb9858509e215dc82f71b1","updatetime":"1684896092","height":1920,"width":1080,"video":"http:\/\/rdfile.oss-cn-hangzhou.aliyuncs.com\/filemanage\/e069b36c568d909f\/templateapi\/16704066609904\/video.mp4?nonce=290438b43edb9858509e215dc82f71b1","sort":0,"version":156,"cover2":"","appkey":"init","duration":0,"extra":{},"polyglot":[],"category":"0","audit":0,"is_ugc":0,"text_need":0,"picture_need":0,"video_need":1,"type":"templateapi"},{"id":"1016679","ufid":"55743594","name":"\u5982\u679c\u624d\u5341\u516b \u70ed\u70b9\u97f3\u4e50","file":"http:\/\/rdfile.oss-cn-hangzhou.aliyuncs.com\/filemanage\/e069b36c568d909f\/templateapi\/16703209116512\/file.zip?nonce=cfcd208495d565ef66e7dff9f98764da","cover":"http:\/\/rdfile.oss-cn-hangzhou.aliyuncs.com\/filemanage\/e069b36c568d909f\/templateapi\/16703209116512\/cover.webp?nonce=cfcd208495d565ef66e7dff9f98764da","updatetime":"0","height":1280,"width":720,"video":"http:\/\/rdfile.oss-cn-hangzhou.aliyuncs.com\/filemanage\/e069b36c568d909f\/templateapi\/16703209116512\/video.mp4?nonce=cfcd208495d565ef66e7dff9f98764da","sort":0,"version":156,"cover2":"","appkey":"init","duration":0,"extra":{},"polyglot":[],"category":"0","audit":0,"is_ugc":0,"text_need":0,"picture_need":0,"video_need":1,"type":"templateapi"},{"id":"1016476","ufid":"74813222","name":"\u7231\u5fc3\u6162\u52a8\u4f5c","file":"http:\/\/rdfile.oss-cn-hangzhou.aliyuncs.com\/filemanage\/e069b36c568d909f\/templateapi\/16685819511180\/file.zip?nonce=cfcd208495d565ef66e7dff9f98764da","cover":"http:\/\/rdfile.oss-cn-hangzhou.aliyuncs.com\/filemanage\/e069b36c568d909f\/templateapi\/16685819511180\/cover.webp?nonce=cfcd208495d565ef66e7dff9f98764da","updatetime":"0","height":1225,"width":690,"video":"http:\/\/rdfile.oss-cn-hangzhou.aliyuncs.com\/filemanage\/e069b36c568d909f\/templateapi\/16685819511180\/video.mp4?nonce=cfcd208495d565ef66e7dff9f98764da","sort":0,"version":154,"cover2":"","appkey":"init","duration":0,"extra":{},"polyglot":[],"category":"0","audit":0,"is_ugc":0,"text_need":0,"picture_need":0,"video_need":1,"type":"templateapi"},{"id":"1016458","ufid":"20653636","name":"Moody \u6162\u52a8\u4f5c","file":"http:\/\/rdfile.oss-cn-hangzhou.aliyuncs.com\/filemanage\/e069b36c568d909f\/templateapi\/16684203082635\/file.zip?nonce=cfcd208495d565ef66e7dff9f98764da","cover":"http:\/\/rdfile.oss-cn-hangzhou.aliyuncs.com\/filemanage\/e069b36c568d909f\/templateapi\/16684203082635\/cover.webp?nonce=cfcd208495d565ef66e7dff9f98764da","updatetime":"0","height":1225,"width":689,"video":"http:\/\/rdfile.oss-cn-hangzhou.aliyuncs.com\/filemanage\/e069b36c568d909f\/templateapi\/16684203082635\/video.mp4?nonce=cfcd208495d565ef66e7dff9f98764da","sort":0,"version":154,"cover2":"","appkey":"init","duration":0,"extra":{},"polyglot":[],"category":"0","audit":0,"is_ugc":0,"text_need":1,"picture_need":0,"video_need":1,"type":"templateapi"}]}}