{"code":0,"msg":"success","data":{"total":173,"per_page":10,"current_page":1,"last_page":18,"data":[{"id":"1015349","ufid":"84461164","name":"\u65cb\u8f6c\u6821\u5fbd","file":"http:\/\/rdfile.oss-cn-hangzhou.aliyuncs.com\/filemanage\/e069b36c568d909f\/templateapi\/16551896634480\/file.zip?nonce=b9871188fc7aa56eed11e3c14873bb0b","cover":"http:\/\/rdfile.oss-cn-hangzhou.aliyuncs.com\/filemanage\/e069b36c568d909f\/templateapi\/16551896634480\/cover.webp?nonce=b9871188fc7aa56eed11e3c14873bb0b","updatetime":"1684912353","height":1059,"width":706,"video":"http:\/\/rdfile.oss-cn-hangzhou.aliyuncs.com\/filemanage\/e069b36c568d909f\/templateapi\/16551896634480\/video.mp4?nonce=b9871188fc7aa56eed11e3c14873bb0b","sort":0,"version":153,"cover2":"","appkey":"init","duration":0,"extra":{},"polyglot":[],"category":"0","audit":0,"is_ugc":0,"text_need":0,"picture_need":0,"video_need":2,"type":"templateapi"},{"id":"1020724","ufid":"22167103","name":"\u4e0d\u8d1f\u65f6\u5149","file":"http:\/\/rdfile.oss-cn-hangzhou.aliyuncs.com\/filemanage\/e069b36c568d909f\/templateapi\/16787780065442\/file.zip?nonce=1e301655ab5c880736237b7c0d40f763","cover":"http:\/\/rdfile.oss-cn-hangzhou.aliyuncs.com\/filemanage\/e069b36c568d909f\/templateapi\/16787780065442\/cover.webp?nonce=1e301655ab5c880736237b7c0d40f763","updatetime":"1684916251","height":1280,"width":720,"video":"http:\/\/rdfile.oss-cn-hangzhou.aliyuncs.com\/filemanage\/e069b36c568d909f\/templateapi\/16787780065442\/video.mp4?nonce=1e301655ab5c880736237b7c0d40f763","sort":0,"version":161,"cover2":"","appkey":"init","duration":0,"extra":{},"polyglot":[],"category":"0","audit":0,"is_ugc":0,"text_need":0,"picture_need":0,"video_need":13,"type":"templateapi"},{"id":"1020669","ufid":"73158771","name":"\u53cc\u5f00\u5c4f\u5f00\u573a\u6548\u679c","file":"http:\/\/rdfile.oss-cn-hangzhou.aliyuncs.com\/filemanage\/e069b36c568d909f\/templateapi\/16777514111713\/file.zip?nonce=4e61333d67c84e967c46fcccaa0fa2cc","cover":"http:\/\/rdfile.oss-cn-hangzhou.aliyuncs.com\/filemanage\/e069b36c568d909f\/templateapi\/16777514111713\/cover.webp?nonce=4e61333d67c84e967c46fcccaa0fa2cc","updatetime":"1684911177","height":607,"width":1080,"video":"http:\/\/rdfile.oss-cn-hangzhou.aliyuncs.com\/filemanage\/e069b36c568d909f\/templateapi\/16777514111713\/video.mp4?nonce=4e61333d67c84e967c46fcccaa0fa2cc","sort":0,"version":159,"cover2":"","appkey":"init","duration":0,"extra":{},"polyglot":[],"category":"0","audit":0,"is_ugc":0,"text_need":1,"picture_need":0,"video_need":3,"type":"templateapi"},{"id":"1020489","ufid":"83367353","name":"\u8499\u7248\u5173\u952e\u5e27\u5f8b\u52a8\u2014\u5361\u519c\u94a2\u7434\u66f2","file":"http:\/\/rdfile.oss-cn-hangzhou.aliyuncs.com\/filemanage\/e069b36c568d909f\/templateapi\/16760170492818\/file.zip?nonce=ad77fea85e8dbea8b803c6f0390dff86","cover":"http:\/\/rdfile.oss-cn-hangzhou.aliyuncs.com\/filemanage\/e069b36c568d909f\/templateapi\/16760170492818\/cover.webp?nonce=ad77fea85e8dbea8b803c6f0390dff86","updatetime":"1684897413","height":607,"width":1080,"video":"http:\/\/rdfile.oss-cn-hangzhou.aliyuncs.com\/filemanage\/e069b36c568d909f\/templateapi\/16760170492818\/video.mp4?nonce=ad77fea85e8dbea8b803c6f0390dff86","sort":0,"version":159,"cover2":"","appkey":"init","duration":0,"extra":{},"polyglot":[],"category":"0","audit":0,"is_ugc":0,"text_need":0,"picture_need":0,"video_need":1,"type":"templateapi"},{"id":"1019474","ufid":"36690284","name":"\u94a2\u7434\u5361\u70b9","file":"http:\/\/rdfile.oss-cn-hangzhou.aliyuncs.com\/filemanage\/e069b36c568d909f\/templateapi\/16720477857849\/file.zip?nonce=710b07c0aab268fae3fba806603edc93","cover":"http:\/\/rdfile.oss-cn-hangzhou.aliyuncs.com\/filemanage\/e069b36c568d909f\/templateapi\/16720477857849\/cover.webp?nonce=710b07c0aab268fae3fba806603edc93","updatetime":"1684893455","height":607,"width":1080,"video":"http:\/\/rdfile.oss-cn-hangzhou.aliyuncs.com\/filemanage\/e069b36c568d909f\/templateapi\/16720477857849\/video.mp4?nonce=710b07c0aab268fae3fba806603edc93","sort":0,"version":158,"cover2":"","appkey":"init","duration":0,"extra":{},"polyglot":[],"category":"0","audit":0,"is_ugc":0,"text_need":1,"picture_need":10,"video_need":1,"type":"templateapi"},{"id":"1020361","ufid":"16678235","name":"\u96a7\u9053\u6a21\u7248","file":"http:\/\/rdfile.oss-cn-hangzhou.aliyuncs.com\/filemanage\/e069b36c568d909f\/templateapi\/16751679138507\/file.zip?nonce=f7c49b1dc8a20cc129f01607b674cb6d","cover":"http:\/\/rdfile.oss-cn-hangzhou.aliyuncs.com\/filemanage\/e069b36c568d909f\/templateapi\/16751679138507\/cover.webp?nonce=f7c49b1dc8a20cc129f01607b674cb6d","updatetime":"1684893308","height":720,"width":1280,"video":"http:\/\/rdfile.oss-cn-hangzhou.aliyuncs.com\/filemanage\/e069b36c568d909f\/templateapi\/16751679138507\/video.mp4?nonce=f7c49b1dc8a20cc129f01607b674cb6d","sort":0,"version":158,"cover2":"","appkey":"init","duration":0,"extra":{},"polyglot":[],"category":"0","audit":0,"is_ugc":0,"text_need":0,"picture_need":0,"video_need":5,"type":"templateapi"},{"id":"1016841","ufid":"26349016","name":"\u4e0b\u96ea\u7279\u6548","file":"http:\/\/rdfile.oss-cn-hangzhou.aliyuncs.com\/filemanage\/e069b36c568d909f\/templateapi\/16715282554309\/file.zip?nonce=27f309819af02a7126103ec80fc89fc6","cover":"http:\/\/rdfile.oss-cn-hangzhou.aliyuncs.com\/filemanage\/e069b36c568d909f\/templateapi\/16715282554309\/cover.webp?nonce=27f309819af02a7126103ec80fc89fc6","updatetime":"1684894901","height":1058,"width":595,"video":"http:\/\/rdfile.oss-cn-hangzhou.aliyuncs.com\/filemanage\/e069b36c568d909f\/templateapi\/16715282554309\/video.mp4?nonce=27f309819af02a7126103ec80fc89fc6","sort":0,"version":155,"cover2":"","appkey":"init","duration":0,"extra":{},"polyglot":[],"category":"0","audit":0,"is_ugc":0,"text_need":0,"picture_need":0,"video_need":1,"type":"templateapi"},{"id":"1020265","ufid":"65411629","name":"\u65b0\u95fb\u8fde\u7ebf","file":"http:\/\/rdfile.oss-cn-hangzhou.aliyuncs.com\/filemanage\/e069b36c568d909f\/templateapi\/16721343422903\/file.zip?nonce=76ffe5739e5c0c6e27a7bddb6bf53389","cover":"http:\/\/rdfile.oss-cn-hangzhou.aliyuncs.com\/filemanage\/e069b36c568d909f\/templateapi\/16721343422903\/cover.webp?nonce=76ffe5739e5c0c6e27a7bddb6bf53389","updatetime":"1684897619","height":607,"width":1080,"video":"http:\/\/rdfile.oss-cn-hangzhou.aliyuncs.com\/filemanage\/e069b36c568d909f\/templateapi\/16721343422903\/video.mp4?nonce=76ffe5739e5c0c6e27a7bddb6bf53389","sort":0,"version":158,"cover2":"","appkey":"init","duration":0,"extra":{},"polyglot":[],"category":"0","audit":0,"is_ugc":0,"text_need":5,"picture_need":2,"video_need":0,"type":"templateapi"},{"id":"1016705","ufid":"38835372","name":"\u9759\u5f85\u65f6\u5149","file":"http:\/\/rdfile.oss-cn-hangzhou.aliyuncs.com\/filemanage\/e069b36c568d909f\/templateapi\/16710144149424\/file.zip?nonce=44a1ca376b5835e5c4f5ff6ab119b7cc","cover":"http:\/\/rdfile.oss-cn-hangzhou.aliyuncs.com\/filemanage\/e069b36c568d909f\/templateapi\/16710144149424\/cover.webp?nonce=44a1ca376b5835e5c4f5ff6ab119b7cc","updatetime":"1684897499","height":1060,"width":596,"video":"http:\/\/rdfile.oss-cn-hangzhou.aliyuncs.com\/filemanage\/e069b36c568d909f\/templateapi\/16710144149424\/video.mp4?nonce=44a1ca376b5835e5c4f5ff6ab119b7cc","sort":0,"version":155,"cover2":"","appkey":"init","duration":0,"extra":{},"polyglot":[],"category":"0","audit":0,"is_ugc":0,"text_need":1,"picture_need":0,"video_need":1,"type":"templateapi"},{"id":"1019410","ufid":"68563193","name":"\u670b\u53cb\u5708\u9001\u82f9\u679c","file":"http:\/\/rdfile.oss-cn-hangzhou.aliyuncs.com\/filemanage\/e069b36c568d909f\/templateapi\/16717784176090\/file.zip?nonce=e14906b2b7387f37ea056717caf4bda7","cover":"http:\/\/rdfile.oss-cn-hangzhou.aliyuncs.com\/filemanage\/e069b36c568d909f\/templateapi\/16717784176090\/cover.webp?nonce=e14906b2b7387f37ea056717caf4bda7","updatetime":"1684894833","height":1060,"width":596,"video":"http:\/\/rdfile.oss-cn-hangzhou.aliyuncs.com\/filemanage\/e069b36c568d909f\/templateapi\/16717784176090\/video.mp4?nonce=e14906b2b7387f37ea056717caf4bda7","sort":0,"version":158,"cover2":"","appkey":"init","duration":0,"extra":{},"polyglot":[],"category":"0","audit":0,"is_ugc":0,"text_need":3,"picture_need":2,"video_need":0,"type":"templateapi"}]}}