{"code":0,"data":{"current_page":5,"data":[{"appkey":"init","cover":"","cover2":"","duration":34,"file":"https://raw.githubusercontent.com/sjianji/Magic-Cut/blob/main/data/cloud_music/74711967/1005156/file.mp3","height":0,"id":"1005156","name":"All Good In The Wood","pictureNeed":0,"sort":100,"textNeed":0,"type":"cloud_music","ufid":"14762937","updatetime":"0","version":0,"video":"","videoNeed":0,"width":0}],"last_page":5,"per_page":20,"total":81},"msg":"success"}