{"code":0,"msg":"success","data":{"total":636,"per_page":10,"current_page":39,"last_page":64,"data":[{"id":"1014713","ufid":"88157829","name":"\u8e22\u98de\u5730\u7403","file":"http:\/\/rdfile.oss-cn-hangzhou.aliyuncs.com\/filemanage\/e069b36c568d909f\/templateapi\/16486218468956\/file.zip?nonce=d1c0a5dd0e4b8ea0823ffb9991dade83","cover":"http:\/\/rdfile.oss-cn-hangzhou.aliyuncs.com\/filemanage\/e069b36c568d909f\/templateapi\/16486218468956\/cover.png?nonce=d1c0a5dd0e4b8ea0823ffb9991dade83&x-oss-process=style\/templateapi","updatetime":"1704185836","height":1272,"width":720,"video":"http:\/\/rdfile.oss-cn-hangzhou.aliyuncs.com\/filemanage\/e069b36c568d909f\/templateapi\/16486218468956\/video.mp4?nonce=d1c0a5dd0e4b8ea0823ffb9991dade83","sort":0,"version":150,"cover2":"","appkey":"init","duration":0,"extra":{},"polyglot":{"en":"Kick the earth"},"category":"0","audit":0,"is_ugc":0,"text_need":0,"picture_need":1,"video_need":0,"type":"templateapi"},{"id":"1014708","ufid":"14847986","name":"3D\u8fd0\u955c","file":"http:\/\/rdfile.oss-cn-hangzhou.aliyuncs.com\/filemanage\/e069b36c568d909f\/templateapi\/16486132799925\/file.zip?nonce=48163da4cb6e6fe33614e1418a8b6b2b","cover":"http:\/\/rdfile.oss-cn-hangzhou.aliyuncs.com\/filemanage\/e069b36c568d909f\/templateapi\/16486132799925\/cover.png?nonce=48163da4cb6e6fe33614e1418a8b6b2b&x-oss-process=style\/templateapi","updatetime":"1704185835","height":1042,"width":720,"video":"http:\/\/rdfile.oss-cn-hangzhou.aliyuncs.com\/filemanage\/e069b36c568d909f\/templateapi\/16486132799925\/video.mp4?nonce=48163da4cb6e6fe33614e1418a8b6b2b","sort":0,"version":150,"cover2":"","appkey":"init","duration":0,"extra":{},"polyglot":{"en":"3D mirror movement"},"category":"0","audit":0,"is_ugc":0,"text_need":0,"picture_need":3,"video_need":0,"type":"templateapi"},{"id":"1014705","ufid":"16746969","name":"\u4eba\u50cf\u586b\u5145","file":"http:\/\/rdfile.oss-cn-hangzhou.aliyuncs.com\/filemanage\/e069b36c568d909f\/templateapi\/16485441874274\/file.zip?nonce=48163da4cb6e6fe33614e1418a8b6b2b","cover":"http:\/\/rdfile.oss-cn-hangzhou.aliyuncs.com\/filemanage\/e069b36c568d909f\/templateapi\/16485441874274\/cover.png?nonce=48163da4cb6e6fe33614e1418a8b6b2b&x-oss-process=style\/templateapi","updatetime":"1704185835","height":1080,"width":720,"video":"http:\/\/rdfile.oss-cn-hangzhou.aliyuncs.com\/filemanage\/e069b36c568d909f\/templateapi\/16485441874274\/video.mp4?nonce=48163da4cb6e6fe33614e1418a8b6b2b","sort":0,"version":150,"cover2":"","appkey":"init","duration":0,"extra":{},"polyglot":{"en":"Portrait fill"},"category":"0","audit":0,"is_ugc":0,"text_need":0,"picture_need":4,"video_need":0,"type":"templateapi"},{"id":"1014698","ufid":"71734832","name":"\u540d\u753b\u7684\u773c\u775b","file":"http:\/\/rdfile.oss-cn-hangzhou.aliyuncs.com\/filemanage\/e069b36c568d909f\/templateapi\/16485222132077\/file.zip?nonce=0200441654792fa8359b34a300910b4d","cover":"http:\/\/rdfile.oss-cn-hangzhou.aliyuncs.com\/filemanage\/e069b36c568d909f\/templateapi\/16485222132077\/cover.png?nonce=0200441654792fa8359b34a300910b4d&x-oss-process=style\/templateapi","updatetime":"1704185833","height":1280,"width":720,"video":"http:\/\/rdfile.oss-cn-hangzhou.aliyuncs.com\/filemanage\/e069b36c568d909f\/templateapi\/16485222132077\/video.mp4?nonce=0200441654792fa8359b34a300910b4d","sort":0,"version":150,"cover2":"","appkey":"init","duration":0,"extra":{},"polyglot":{"en":"Famous painting eyes"},"category":"0","audit":0,"is_ugc":0,"text_need":0,"picture_need":0,"video_need":1,"type":"templateapi"},{"id":"1014687","ufid":"76706977","name":"13\u79d2\u7ed3\u5a5a","file":"http:\/\/rdfile.oss-cn-hangzhou.aliyuncs.com\/filemanage\/e069b36c568d909f\/templateapi\/16481993845725\/file.zip?nonce=7925832d7a7d2610b8a4a670828df038","cover":"http:\/\/rdfile.oss-cn-hangzhou.aliyuncs.com\/filemanage\/e069b36c568d909f\/templateapi\/16481993845725\/cover.png?nonce=7925832d7a7d2610b8a4a670828df038&x-oss-process=style\/templateapi","updatetime":"1704185832","height":1280,"width":720,"video":"http:\/\/rdfile.oss-cn-hangzhou.aliyuncs.com\/filemanage\/e069b36c568d909f\/templateapi\/16481993845725\/video.mp4?nonce=7925832d7a7d2610b8a4a670828df038","sort":0,"version":150,"cover2":"","appkey":"init","duration":0,"extra":{},"polyglot":{"en":"Get married in 13 seconds"},"category":"0","audit":0,"is_ugc":0,"text_need":0,"picture_need":0,"video_need":9,"type":"templateapi"},{"id":"1014684","ufid":"54967148","name":"\u751f\u6d3b\u4e0d\u7b80\u5355","file":"http:\/\/rdfile.oss-cn-hangzhou.aliyuncs.com\/filemanage\/e069b36c568d909f\/templateapi\/16481797671880\/file.zip?nonce=68fea774c6ce67cf8ebb7cc1df20b6bf","cover":"http:\/\/rdfile.oss-cn-hangzhou.aliyuncs.com\/filemanage\/e069b36c568d909f\/templateapi\/16481797671880\/cover.png?nonce=68fea774c6ce67cf8ebb7cc1df20b6bf&x-oss-process=style\/templateapi","updatetime":"1704185831","height":1280,"width":720,"video":"http:\/\/rdfile.oss-cn-hangzhou.aliyuncs.com\/filemanage\/e069b36c568d909f\/templateapi\/16481797671880\/video.mp4?nonce=68fea774c6ce67cf8ebb7cc1df20b6bf","sort":0,"version":150,"cover2":"","appkey":"init","duration":0,"extra":{},"polyglot":{"en":"Life is not simple"},"category":"0","audit":0,"is_ugc":0,"text_need":0,"picture_need":0,"video_need":2,"type":"templateapi"},{"id":"1014682","ufid":"48447660","name":"\u6e05\u660e","file":"http:\/\/rdfile.oss-cn-hangzhou.aliyuncs.com\/filemanage\/e069b36c568d909f\/templateapi\/16481728925883\/file.zip?nonce=68fea774c6ce67cf8ebb7cc1df20b6bf","cover":"http:\/\/rdfile.oss-cn-hangzhou.aliyuncs.com\/filemanage\/e069b36c568d909f\/templateapi\/16481728925883\/cover.png?nonce=68fea774c6ce67cf8ebb7cc1df20b6bf&x-oss-process=style\/templateapi","updatetime":"1704185831","height":1280,"width":720,"video":"http:\/\/rdfile.oss-cn-hangzhou.aliyuncs.com\/filemanage\/e069b36c568d909f\/templateapi\/16481728925883\/video.mp4?nonce=68fea774c6ce67cf8ebb7cc1df20b6bf","sort":0,"version":150,"cover2":"","appkey":"init","duration":0,"extra":{},"polyglot":{"en":"Qingming"},"category":"0","audit":0,"is_ugc":0,"text_need":0,"picture_need":3,"video_need":0,"type":"templateapi"},{"id":"1014677","ufid":"32367715","name":"\u9a6c\u4e0a\u611a\u4eba\u8282","file":"http:\/\/rdfile.oss-cn-hangzhou.aliyuncs.com\/filemanage\/e069b36c568d909f\/templateapi\/16481075392394\/file.zip?nonce=68fea774c6ce67cf8ebb7cc1df20b6bf","cover":"http:\/\/rdfile.oss-cn-hangzhou.aliyuncs.com\/filemanage\/e069b36c568d909f\/templateapi\/16481075392394\/cover.png?nonce=68fea774c6ce67cf8ebb7cc1df20b6bf&x-oss-process=style\/templateapi","updatetime":"1704185831","height":1280,"width":720,"video":"http:\/\/rdfile.oss-cn-hangzhou.aliyuncs.com\/filemanage\/e069b36c568d909f\/templateapi\/16481075392394\/video.mp4?nonce=68fea774c6ce67cf8ebb7cc1df20b6bf","sort":0,"version":150,"cover2":"","appkey":"init","duration":0,"extra":{},"polyglot":{"en":"It"},"category":"0","audit":0,"is_ugc":0,"text_need":0,"picture_need":2,"video_need":0,"type":"templateapi"},{"id":"1014676","ufid":"10523314","name":"\u522b\u8ba9\u6211\u8fc7\u611a\u4eba\u8282","file":"http:\/\/rdfile.oss-cn-hangzhou.aliyuncs.com\/filemanage\/e069b36c568d909f\/templateapi\/16480937112687\/file.zip?nonce=68fea774c6ce67cf8ebb7cc1df20b6bf","cover":"http:\/\/rdfile.oss-cn-hangzhou.aliyuncs.com\/filemanage\/e069b36c568d909f\/templateapi\/16480937112687\/cover.png?nonce=68fea774c6ce67cf8ebb7cc1df20b6bf&x-oss-process=style\/templateapi","updatetime":"1704185831","height":1280,"width":720,"video":"http:\/\/rdfile.oss-cn-hangzhou.aliyuncs.com\/filemanage\/e069b36c568d909f\/templateapi\/16480937112687\/video.mp4?nonce=68fea774c6ce67cf8ebb7cc1df20b6bf","sort":0,"version":150,"cover2":"","appkey":"init","duration":0,"extra":{},"polyglot":{"en":"Don"},"category":"0","audit":0,"is_ugc":0,"text_need":0,"picture_need":2,"video_need":0,"type":"templateapi"},{"id":"1014654","ufid":"25448725","name":"\u624b\u7ed8\u76f8\u518c","file":"http:\/\/rdfile.oss-cn-hangzhou.aliyuncs.com\/filemanage\/e069b36c568d909f\/templateapi\/16480303938241\/file.zip?nonce=f15a8573ab78e88b0a5142877746f4b4","cover":"http:\/\/rdfile.oss-cn-hangzhou.aliyuncs.com\/filemanage\/e069b36c568d909f\/templateapi\/16480303938241\/cover.png?nonce=f15a8573ab78e88b0a5142877746f4b4&x-oss-process=style\/templateapi","updatetime":"1704185827","height":633,"width":737,"video":"http:\/\/rdfile.oss-cn-hangzhou.aliyuncs.com\/filemanage\/e069b36c568d909f\/templateapi\/16480303938241\/video.mp4?nonce=f15a8573ab78e88b0a5142877746f4b4","sort":0,"version":150,"cover2":"","appkey":"init","duration":0,"extra":{},"polyglot":{"en":"Hand drawn photo album"},"category":"0","audit":0,"is_ugc":0,"text_need":0,"picture_need":1,"video_need":0,"type":"templateapi"}]}}