{"code":0,"msg":"success","data":{"total":636,"per_page":10,"current_page":10,"last_page":64,"data":[{"id":"1016524","ufid":"88954755","name":"\u9b54\u6cd5\u836f\u6c34 \u97f3\u4e50\u5b57\u5e55","file":"http:\/\/rdfile.oss-cn-hangzhou.aliyuncs.com\/filemanage\/e069b36c568d909f\/templateapi\/16691052114404\/file.zip?nonce=7c1bfc6ea802138b407dd7d44781a525","cover":"http:\/\/rdfile.oss-cn-hangzhou.aliyuncs.com\/filemanage\/e069b36c568d909f\/templateapi\/16691052114404\/cover.webp?nonce=7c1bfc6ea802138b407dd7d44781a525","updatetime":"1704185988","height":1080,"width":1920,"video":"http:\/\/rdfile.oss-cn-hangzhou.aliyuncs.com\/filemanage\/e069b36c568d909f\/templateapi\/16691052114404\/video.mp4?nonce=7c1bfc6ea802138b407dd7d44781a525","sort":0,"version":154,"cover2":"","appkey":"init","duration":0,"extra":{},"polyglot":{"en":"Magic potion music subtitles"},"category":"0","audit":0,"is_ugc":0,"text_need":0,"picture_need":0,"video_need":10,"type":"templateapi"},{"id":"1016512","ufid":"96608534","name":"\u7fa4\u9752\uff0c\u70ed\u95e8\u97f3\u4e50\u5361\u70b9","file":"http:\/\/rdfile.oss-cn-hangzhou.aliyuncs.com\/filemanage\/e069b36c568d909f\/templateapi\/16690255817287\/file.zip?nonce=0b26f18f125ab5f8f8f6215cf9e7a3cc","cover":"http:\/\/rdfile.oss-cn-hangzhou.aliyuncs.com\/filemanage\/e069b36c568d909f\/templateapi\/16690255817287\/cover.webp?nonce=0b26f18f125ab5f8f8f6215cf9e7a3cc","updatetime":"1704185987","height":1748,"width":983,"video":"http:\/\/rdfile.oss-cn-hangzhou.aliyuncs.com\/filemanage\/e069b36c568d909f\/templateapi\/16690255817287\/video.mp4?nonce=0b26f18f125ab5f8f8f6215cf9e7a3cc","sort":0,"version":155,"cover2":"","appkey":"init","duration":0,"extra":{},"polyglot":{"en":"Right time Ultramarine Hot Music"},"category":"0","audit":0,"is_ugc":0,"text_need":0,"picture_need":16,"video_need":2,"type":"templateapi"},{"id":"1016509","ufid":"10198233","name":"\u82e5\u662f\u660e\u4ed4\u8f7d  \u97f3\u4e50\u5b57\u5e55","file":"http:\/\/rdfile.oss-cn-hangzhou.aliyuncs.com\/filemanage\/e069b36c568d909f\/templateapi\/16690240037063\/file.zip?nonce=b8a84092fd47ce91a7984cdce44b75d8","cover":"http:\/\/rdfile.oss-cn-hangzhou.aliyuncs.com\/filemanage\/e069b36c568d909f\/templateapi\/16690240037063\/cover.webp?nonce=b8a84092fd47ce91a7984cdce44b75d8","updatetime":"1704185986","height":1080,"width":1920,"video":"http:\/\/rdfile.oss-cn-hangzhou.aliyuncs.com\/filemanage\/e069b36c568d909f\/templateapi\/16690240037063\/video.mp4?nonce=b8a84092fd47ce91a7984cdce44b75d8","sort":0,"version":154,"cover2":"","appkey":"init","duration":0,"extra":{},"polyglot":{"en":"If it were Ming Zaizai music subtitles"},"category":"0","audit":0,"is_ugc":0,"text_need":0,"picture_need":0,"video_need":9,"type":"templateapi"},{"id":"1016502","ufid":"38779114","name":"\u5c11\u5e74\u611f\u5361\u70b9","file":"http:\/\/rdfile.oss-cn-hangzhou.aliyuncs.com\/filemanage\/e069b36c568d909f\/templateapi\/16690093751119\/file.zip?nonce=c8b5bd682f166613665b4d78efdc70b9","cover":"http:\/\/rdfile.oss-cn-hangzhou.aliyuncs.com\/filemanage\/e069b36c568d909f\/templateapi\/16690093751119\/cover.webp?nonce=c8b5bd682f166613665b4d78efdc70b9","updatetime":"1704185985","height":1225,"width":689,"video":"http:\/\/rdfile.oss-cn-hangzhou.aliyuncs.com\/filemanage\/e069b36c568d909f\/templateapi\/16690093751119\/video.mp4?nonce=c8b5bd682f166613665b4d78efdc70b9","sort":0,"version":154,"cover2":"","appkey":"init","duration":0,"extra":{},"polyglot":{"en":"Right time Youthful feeling"},"category":"0","audit":0,"is_ugc":0,"text_need":0,"picture_need":0,"video_need":5,"type":"templateapi"},{"id":"1016500","ufid":"41844477","name":"\u624b\u673a\u6a2a\u5c4f\u89c6\u9891\u73a9\u6cd5","file":"http:\/\/rdfile.oss-cn-hangzhou.aliyuncs.com\/filemanage\/e069b36c568d909f\/templateapi\/16687653351181\/file.zip?nonce=c8b5bd682f166613665b4d78efdc70b9","cover":"http:\/\/rdfile.oss-cn-hangzhou.aliyuncs.com\/filemanage\/e069b36c568d909f\/templateapi\/16687653351181\/cover.webp?nonce=c8b5bd682f166613665b4d78efdc70b9","updatetime":"1704185985","height":608,"width":1080,"video":"http:\/\/rdfile.oss-cn-hangzhou.aliyuncs.com\/filemanage\/e069b36c568d909f\/templateapi\/16687653351181\/video.mp4?nonce=c8b5bd682f166613665b4d78efdc70b9","sort":0,"version":154,"cover2":"","appkey":"init","duration":0,"extra":{},"polyglot":{"en":"Mobile phone horizontal screen video gameplay"},"category":"0","audit":0,"is_ugc":0,"text_need":0,"picture_need":0,"video_need":1,"type":"templateapi"},{"id":"1016499","ufid":"98180631","name":"\u76f8\u518c\u6076\u641e","file":"http:\/\/rdfile.oss-cn-hangzhou.aliyuncs.com\/filemanage\/e069b36c568d909f\/templateapi\/16687633171587\/file.zip?nonce=c8b5bd682f166613665b4d78efdc70b9","cover":"http:\/\/rdfile.oss-cn-hangzhou.aliyuncs.com\/filemanage\/e069b36c568d909f\/templateapi\/16687633171587\/cover.webp?nonce=c8b5bd682f166613665b4d78efdc70b9","updatetime":"1704185985","height":1060,"width":596,"video":"http:\/\/rdfile.oss-cn-hangzhou.aliyuncs.com\/filemanage\/e069b36c568d909f\/templateapi\/16687633171587\/video.mp4?nonce=c8b5bd682f166613665b4d78efdc70b9","sort":0,"version":155,"cover2":"","appkey":"init","duration":0,"extra":{},"polyglot":{"en":"Album parody"},"category":"0","audit":0,"is_ugc":0,"text_need":0,"picture_need":0,"video_need":1,"type":"templateapi"},{"id":"1016495","ufid":"94944487","name":"\u7ea2\u5986","file":"http:\/\/rdfile.oss-cn-hangzhou.aliyuncs.com\/filemanage\/e069b36c568d909f\/templateapi\/16687514024300\/file.zip?nonce=c8b5bd682f166613665b4d78efdc70b9","cover":"http:\/\/rdfile.oss-cn-hangzhou.aliyuncs.com\/filemanage\/e069b36c568d909f\/templateapi\/16687514024300\/cover.webp?nonce=c8b5bd682f166613665b4d78efdc70b9","updatetime":"1704185985","height":1748,"width":983,"video":"http:\/\/rdfile.oss-cn-hangzhou.aliyuncs.com\/filemanage\/e069b36c568d909f\/templateapi\/16687514024300\/video.mp4?nonce=c8b5bd682f166613665b4d78efdc70b9","sort":0,"version":155,"cover2":"","appkey":"init","duration":0,"extra":{},"polyglot":{"en":"Make up"},"category":"0","audit":0,"is_ugc":0,"text_need":0,"picture_need":0,"video_need":6,"type":"templateapi"},{"id":"1016493","ufid":"97206204","name":"\u7fbd\u6bdb\u7403\u53ec\u5524\u70df\u82b1","file":"http:\/\/rdfile.oss-cn-hangzhou.aliyuncs.com\/filemanage\/e069b36c568d909f\/templateapi\/16687416731231\/file.zip?nonce=c8b5bd682f166613665b4d78efdc70b9","cover":"http:\/\/rdfile.oss-cn-hangzhou.aliyuncs.com\/filemanage\/e069b36c568d909f\/templateapi\/16687416731231\/cover.webp?nonce=c8b5bd682f166613665b4d78efdc70b9","updatetime":"1704185985","height":1224,"width":689,"video":"http:\/\/rdfile.oss-cn-hangzhou.aliyuncs.com\/filemanage\/e069b36c568d909f\/templateapi\/16687416731231\/video.mp4?nonce=c8b5bd682f166613665b4d78efdc70b9","sort":0,"version":154,"cover2":"","appkey":"init","duration":0,"extra":{},"polyglot":{"en":"Badminton summons fireworks"},"category":"0","audit":0,"is_ugc":0,"text_need":0,"picture_need":1,"video_need":2,"type":"templateapi"},{"id":"1016491","ufid":"72082250","name":"\u97e9\u8bed\u70ed\u6b4c\u7b80\u6613\u821e\u8e48","file":"http:\/\/rdfile.oss-cn-hangzhou.aliyuncs.com\/filemanage\/e069b36c568d909f\/templateapi\/16686804575530\/file.zip?nonce=82ff07cd2c739adf8be4385ba2d753ff","cover":"http:\/\/rdfile.oss-cn-hangzhou.aliyuncs.com\/filemanage\/e069b36c568d909f\/templateapi\/16686804575530\/cover.webp?nonce=82ff07cd2c739adf8be4385ba2d753ff","updatetime":"1704185984","height":1225,"width":689,"video":"http:\/\/rdfile.oss-cn-hangzhou.aliyuncs.com\/filemanage\/e069b36c568d909f\/templateapi\/16686804575530\/video.mp4?nonce=82ff07cd2c739adf8be4385ba2d753ff","sort":0,"version":154,"cover2":"","appkey":"6ecb39f1c12f1a35","duration":0,"extra":{},"polyglot":{"en":"Korean Hot Songs and Simple Dances"},"category":"0","audit":0,"is_ugc":0,"text_need":0,"picture_need":0,"video_need":1,"type":"templateapi"},{"id":"1016487","ufid":"70512027","name":"\u4eba\u7269\u5206\u5c4f\u51fa\u573a","file":"http:\/\/rdfile.oss-cn-hangzhou.aliyuncs.com\/filemanage\/e069b36c568d909f\/templateapi\/16686750428733\/file.zip?nonce=82ff07cd2c739adf8be4385ba2d753ff","cover":"http:\/\/rdfile.oss-cn-hangzhou.aliyuncs.com\/filemanage\/e069b36c568d909f\/templateapi\/16686750428733\/cover.webp?nonce=82ff07cd2c739adf8be4385ba2d753ff","updatetime":"1704185984","height":607,"width":1080,"video":"http:\/\/rdfile.oss-cn-hangzhou.aliyuncs.com\/filemanage\/e069b36c568d909f\/templateapi\/16686750428733\/video.mp4?nonce=82ff07cd2c739adf8be4385ba2d753ff","sort":0,"version":155,"cover2":"","appkey":"init","duration":0,"extra":{},"polyglot":{"en":"Characters appear in split screen"},"category":"0","audit":0,"is_ugc":0,"text_need":0,"picture_need":5,"video_need":0,"type":"templateapi"}]}}