{"code":0,"msg":"success","data":{"total":173,"per_page":10,"current_page":10,"last_page":18,"data":[{"id":"1013075","ufid":"72350030","name":"\u4e00\u4e2a\u955c\u5934\u4e00\u53e5\u6b4c\u8bcd","file":"http:\/\/rdfile.oss-cn-hangzhou.aliyuncs.com\/filemanage\/e069b36c568d909f\/templateapi\/16413477459438\/file.zip?nonce=2a8d7a1538c20b3b428c357f18db6bb6","cover":"http:\/\/rdfile.oss-cn-hangzhou.aliyuncs.com\/filemanage\/e069b36c568d909f\/templateapi\/16413477459438\/cover.png?nonce=2a8d7a1538c20b3b428c357f18db6bb6&x-oss-process=style\/templateapi","updatetime":"1684895196","height":1232,"width":693,"video":"http:\/\/rdfile.oss-cn-hangzhou.aliyuncs.com\/filemanage\/e069b36c568d909f\/templateapi\/16413477459438\/video.mp4?nonce=2a8d7a1538c20b3b428c357f18db6bb6","sort":100,"version":150,"cover2":"","appkey":"init","duration":0,"extra":{},"polyglot":[],"category":"0","audit":0,"is_ugc":0,"text_need":3,"picture_need":1,"video_need":0,"type":"templateapi"},{"id":"1013074","ufid":"39084250","name":"\u65e9\u5b89","file":"http:\/\/rdfile.oss-cn-hangzhou.aliyuncs.com\/filemanage\/e069b36c568d909f\/templateapi\/16412644813240\/file.zip?nonce=fe2c0c7dd4c9ab2b742ec80306dd124f","cover":"http:\/\/rdfile.oss-cn-hangzhou.aliyuncs.com\/filemanage\/e069b36c568d909f\/templateapi\/16412644813240\/cover.png?nonce=fe2c0c7dd4c9ab2b742ec80306dd124f&x-oss-process=style\/templateapi","updatetime":"1684913863","height":1231,"width":693,"video":"http:\/\/rdfile.oss-cn-hangzhou.aliyuncs.com\/filemanage\/e069b36c568d909f\/templateapi\/16412644813240\/video.mp4?nonce=fe2c0c7dd4c9ab2b742ec80306dd124f","sort":100,"version":150,"cover2":"","appkey":"init","duration":0,"extra":{},"polyglot":[],"category":"0","audit":0,"is_ugc":0,"text_need":5,"picture_need":1,"video_need":0,"type":"templateapi"},{"id":"1015837","ufid":"98482302","name":"\u7f8e\u4eba\u5982\u753b","file":"http:\/\/rdfile.oss-cn-hangzhou.aliyuncs.com\/filemanage\/e069b36c568d909f\/templateapi\/16602084806896\/file.zip?nonce=faf1d216801db988b08435c44d1e02e6","cover":"http:\/\/rdfile.oss-cn-hangzhou.aliyuncs.com\/filemanage\/e069b36c568d909f\/templateapi\/16602084806896\/cover.webp?nonce=faf1d216801db988b08435c44d1e02e6","updatetime":"1684898037","height":607,"width":1080,"video":"http:\/\/rdfile.oss-cn-hangzhou.aliyuncs.com\/filemanage\/e069b36c568d909f\/templateapi\/16602084806896\/video.mp4?nonce=faf1d216801db988b08435c44d1e02e6","sort":0,"version":153,"cover2":"","appkey":"init","duration":0,"extra":{},"polyglot":[],"category":"0","audit":0,"is_ugc":0,"text_need":2,"picture_need":10,"video_need":0,"type":"templateapi"},{"id":"1015779","ufid":"37189629","name":"\u76f8\u518c\u6ed1\u52a8","file":"http:\/\/rdfile.oss-cn-hangzhou.aliyuncs.com\/filemanage\/e069b36c568d909f\/templateapi\/16596910322866\/file.zip?nonce=d4c6ef239fddf691c259851b5822f4c0","cover":"http:\/\/rdfile.oss-cn-hangzhou.aliyuncs.com\/filemanage\/e069b36c568d909f\/templateapi\/16596910322866\/cover.webp?nonce=d4c6ef239fddf691c259851b5822f4c0","updatetime":"1684898060","height":720,"width":720,"video":"http:\/\/rdfile.oss-cn-hangzhou.aliyuncs.com\/filemanage\/e069b36c568d909f\/templateapi\/16596910322866\/video.mp4?nonce=d4c6ef239fddf691c259851b5822f4c0","sort":0,"version":153,"cover2":"","appkey":"init","duration":0,"extra":{},"polyglot":[],"category":"0","audit":0,"is_ugc":0,"text_need":0,"picture_need":0,"video_need":9,"type":"templateapi"},{"id":"1013111","ufid":"35845604","name":"\u65e0\u60c5\u7684\u60c5\u4e66","file":"http:\/\/rdfile.oss-cn-hangzhou.aliyuncs.com\/filemanage\/e069b36c568d909f\/templateapi\/16419765296200\/file.zip?nonce=43b4dc4f5894a2e46b581ac5222c8f0c","cover":"http:\/\/rdfile.oss-cn-hangzhou.aliyuncs.com\/filemanage\/e069b36c568d909f\/templateapi\/16419765296200\/cover.png?nonce=43b4dc4f5894a2e46b581ac5222c8f0c&x-oss-process=style\/templateapi","updatetime":"1684898298","height":720,"width":1280,"video":"http:\/\/rdfile.oss-cn-hangzhou.aliyuncs.com\/filemanage\/e069b36c568d909f\/templateapi\/16419765296200\/video.mp4?nonce=43b4dc4f5894a2e46b581ac5222c8f0c","sort":100,"version":150,"cover2":"","appkey":"init","duration":0,"extra":{},"polyglot":[],"category":"0","audit":0,"is_ugc":0,"text_need":0,"picture_need":0,"video_need":22,"type":"templateapi"},{"id":"1012915","ufid":"19309063","name":"\u5feb\u4e50\u8282\u594f\u5361\u70b9","file":"http:\/\/rdfile.oss-cn-hangzhou.aliyuncs.com\/filemanage\/e069b36c568d909f\/templateapi\/16384160177978\/file.zip?nonce=aaf29004edfee8057acfaacc413f1372","cover":"http:\/\/rdfile.oss-cn-hangzhou.aliyuncs.com\/filemanage\/e069b36c568d909f\/templateapi\/16384160177978\/cover.png?nonce=aaf29004edfee8057acfaacc413f1372&x-oss-process=style\/templateapi","updatetime":"1684913413","height":1230,"width":692,"video":"http:\/\/rdfile.oss-cn-hangzhou.aliyuncs.com\/filemanage\/e069b36c568d909f\/templateapi\/16384160177978\/video.mp4?nonce=aaf29004edfee8057acfaacc413f1372","sort":100,"version":149,"cover2":"","appkey":"init","duration":0,"extra":{},"polyglot":[],"category":"0","audit":0,"is_ugc":0,"text_need":6,"picture_need":14,"video_need":0,"type":"templateapi"},{"id":"1012982","ufid":"85433287","name":"\u9047\u89c1\u4f60\u6211\u5f88\u559c\u6b22","file":"http:\/\/rdfile.oss-cn-hangzhou.aliyuncs.com\/filemanage\/e069b36c568d909f\/templateapi\/16399708663496\/file.zip?nonce=dbce253f031799d0fecd226c9d452e60","cover":"http:\/\/rdfile.oss-cn-hangzhou.aliyuncs.com\/filemanage\/e069b36c568d909f\/templateapi\/16399708663496\/cover.png?nonce=dbce253f031799d0fecd226c9d452e60&x-oss-process=style\/templateapi","updatetime":"1684895223","height":1230,"width":692,"video":"http:\/\/rdfile.oss-cn-hangzhou.aliyuncs.com\/filemanage\/e069b36c568d909f\/templateapi\/16399708663496\/video.mp4?nonce=dbce253f031799d0fecd226c9d452e60","sort":100,"version":150,"cover2":"","appkey":"init","duration":0,"extra":{},"polyglot":[],"category":"0","audit":0,"is_ugc":0,"text_need":2,"picture_need":1,"video_need":0,"type":"templateapi"},{"id":"1012951","ufid":"18819035","name":"\u968f\u8bb0","file":"http:\/\/rdfile.oss-cn-hangzhou.aliyuncs.com\/filemanage\/e069b36c568d909f\/templateapi\/16391283221931\/file.zip?nonce=3a049bc09f89ebb4b1c7f0689d57b442","cover":"http:\/\/rdfile.oss-cn-hangzhou.aliyuncs.com\/filemanage\/e069b36c568d909f\/templateapi\/16391283221931\/cover.png?nonce=3a049bc09f89ebb4b1c7f0689d57b442&x-oss-process=style\/templateapi","updatetime":"1684895236","height":1230,"width":692,"video":"http:\/\/rdfile.oss-cn-hangzhou.aliyuncs.com\/filemanage\/e069b36c568d909f\/templateapi\/16391283221931\/video.mp4?nonce=3a049bc09f89ebb4b1c7f0689d57b442","sort":100,"version":149,"cover2":"","appkey":"init","duration":0,"extra":{},"polyglot":[],"category":"0","audit":0,"is_ugc":0,"text_need":3,"picture_need":3,"video_need":0,"type":"templateapi"},{"id":"1015547","ufid":"80557616","name":"\u91cd\u53e0\u6c1b\u56f4\u7167\u7247","file":"http:\/\/rdfile.oss-cn-hangzhou.aliyuncs.com\/filemanage\/e069b36c568d909f\/templateapi\/16565561225640\/file.zip?nonce=16555b1d316f6f3043ba675abc480d68","cover":"http:\/\/rdfile.oss-cn-hangzhou.aliyuncs.com\/filemanage\/e069b36c568d909f\/templateapi\/16565561225640\/cover.webp?nonce=16555b1d316f6f3043ba675abc480d68","updatetime":"1684898225","height":1230,"width":692,"video":"http:\/\/rdfile.oss-cn-hangzhou.aliyuncs.com\/filemanage\/e069b36c568d909f\/templateapi\/16565561225640\/video.mp4?nonce=16555b1d316f6f3043ba675abc480d68","sort":0,"version":153,"cover2":"","appkey":"init","duration":0,"extra":{},"polyglot":[],"category":"0","audit":0,"is_ugc":0,"text_need":0,"picture_need":3,"video_need":0,"type":"templateapi"},{"id":"1015543","ufid":"63009176","name":"\u6e29\u67d4\u7684\u7167\u7247\u914d\u7099\u70ed\u7684\u6b4c","file":"http:\/\/rdfile.oss-cn-hangzhou.aliyuncs.com\/filemanage\/e069b36c568d909f\/templateapi\/16564948051134\/file.zip?nonce=2086336dcd9b938221db600772e17b76","cover":"http:\/\/rdfile.oss-cn-hangzhou.aliyuncs.com\/filemanage\/e069b36c568d909f\/templateapi\/16564948051134\/cover.webp?nonce=2086336dcd9b938221db600772e17b76","updatetime":"1684912200","height":1060,"width":596,"video":"http:\/\/rdfile.oss-cn-hangzhou.aliyuncs.com\/filemanage\/e069b36c568d909f\/templateapi\/16564948051134\/video.mp4?nonce=2086336dcd9b938221db600772e17b76","sort":0,"version":153,"cover2":"","appkey":"init","duration":0,"extra":{},"polyglot":[],"category":"0","audit":0,"is_ugc":0,"text_need":0,"picture_need":0,"video_need":1,"type":"templateapi"}]}}