{"code":0,"msg":"success","data":{"total":636,"per_page":10,"current_page":51,"last_page":64,"data":[{"id":"1012333","ufid":"41618277","name":"\u5f53\u4f60\u770b\u7740\u6211","file":"http:\/\/rdfile.oss-cn-hangzhou.aliyuncs.com\/filemanage\/e069b36c568d909f\/templateapi\/16304851117783\/file.zip?nonce=6115d929970e9219283df7f1b264ab20","cover":"http:\/\/rdfile.oss-cn-hangzhou.aliyuncs.com\/filemanage\/e069b36c568d909f\/templateapi\/16304851117783\/cover.png?nonce=6115d929970e9219283df7f1b264ab20&x-oss-process=style\/templateapi","updatetime":"1684914028","height":1080,"width":607,"video":"http:\/\/rdfile.oss-cn-hangzhou.aliyuncs.com\/filemanage\/e069b36c568d909f\/templateapi\/16304851117783\/video.mp4?nonce=6115d929970e9219283df7f1b264ab20","sort":100,"version":147,"cover2":"","appkey":"init","duration":0,"extra":{},"polyglot":[],"category":"0","audit":0,"is_ugc":0,"text_need":0,"picture_need":0,"video_need":3,"type":"templateapi"},{"id":"1012332","ufid":"24163101","name":"\u4f60\u6700\u76f8\u4fe1\u4ec0\u4e48","file":"http:\/\/rdfile.oss-cn-hangzhou.aliyuncs.com\/filemanage\/e069b36c568d909f\/templateapi\/16304847027166\/file.zip?nonce=cfcd208495d565ef66e7dff9f98764da","cover":"http:\/\/rdfile.oss-cn-hangzhou.aliyuncs.com\/filemanage\/e069b36c568d909f\/templateapi\/16304847027166\/cover.png?nonce=cfcd208495d565ef66e7dff9f98764da&x-oss-process=style\/templateapi","updatetime":"0","height":1080,"width":606,"video":"http:\/\/rdfile.oss-cn-hangzhou.aliyuncs.com\/filemanage\/e069b36c568d909f\/templateapi\/16304847027166\/video.mp4?nonce=cfcd208495d565ef66e7dff9f98764da","sort":100,"version":147,"cover2":"","appkey":"init","duration":0,"extra":{},"polyglot":[],"category":"0","audit":0,"is_ugc":0,"text_need":0,"picture_need":3,"video_need":0,"type":"templateapi"},{"id":"1012330","ufid":"59663074","name":"\u5370\u8c61","file":"http:\/\/rdfile.oss-cn-hangzhou.aliyuncs.com\/filemanage\/e069b36c568d909f\/templateapi\/16304838409180\/file.zip?nonce=909248856f1615ab7edd5a901a3c3611","cover":"http:\/\/rdfile.oss-cn-hangzhou.aliyuncs.com\/filemanage\/e069b36c568d909f\/templateapi\/16304838409180\/cover.png?nonce=909248856f1615ab7edd5a901a3c3611&x-oss-process=style\/templateapi","updatetime":"1684914955","height":1080,"width":1920,"video":"http:\/\/rdfile.oss-cn-hangzhou.aliyuncs.com\/filemanage\/e069b36c568d909f\/templateapi\/16304838409180\/video.mp4?nonce=909248856f1615ab7edd5a901a3c3611","sort":100,"version":147,"cover2":"","appkey":"init","duration":0,"extra":{},"polyglot":[],"category":"0","audit":0,"is_ugc":0,"text_need":0,"picture_need":0,"video_need":10,"type":"templateapi"},{"id":"1012329","ufid":"66507170","name":"\u4e00\u675f\u5149","file":"http:\/\/rdfile.oss-cn-hangzhou.aliyuncs.com\/filemanage\/e069b36c568d909f\/templateapi\/16304832206375\/file.zip?nonce=cfcd208495d565ef66e7dff9f98764da","cover":"http:\/\/rdfile.oss-cn-hangzhou.aliyuncs.com\/filemanage\/e069b36c568d909f\/templateapi\/16304832206375\/cover.png?nonce=cfcd208495d565ef66e7dff9f98764da&x-oss-process=style\/templateapi","updatetime":"0","height":1080,"width":607,"video":"http:\/\/rdfile.oss-cn-hangzhou.aliyuncs.com\/filemanage\/e069b36c568d909f\/templateapi\/16304832206375\/video.mp4?nonce=cfcd208495d565ef66e7dff9f98764da","sort":100,"version":147,"cover2":"","appkey":"init","duration":0,"extra":{},"polyglot":[],"category":"0","audit":0,"is_ugc":0,"text_need":0,"picture_need":3,"video_need":0,"type":"templateapi"},{"id":"1012313","ufid":"40869212","name":"\u5f00\u5fc3\u4e07\u5c81","file":"http:\/\/rdfile.oss-cn-hangzhou.aliyuncs.com\/filemanage\/e069b36c568d909f\/templateapi\/16304811797351\/file.zip?nonce=cfcd208495d565ef66e7dff9f98764da","cover":"http:\/\/rdfile.oss-cn-hangzhou.aliyuncs.com\/filemanage\/e069b36c568d909f\/templateapi\/16304811797351\/cover.png?nonce=cfcd208495d565ef66e7dff9f98764da&x-oss-process=style\/templateapi","updatetime":"0","height":1080,"width":607,"video":"http:\/\/rdfile.oss-cn-hangzhou.aliyuncs.com\/filemanage\/e069b36c568d909f\/templateapi\/16304811797351\/video.mp4?nonce=cfcd208495d565ef66e7dff9f98764da","sort":100,"version":147,"cover2":"","appkey":"init","duration":0,"extra":{},"polyglot":[],"category":"0","audit":0,"is_ugc":0,"text_need":0,"picture_need":0,"video_need":1,"type":"templateapi"},{"id":"1012312","ufid":"16764519","name":"\u6700\u8fd1\u72b6\u6001","file":"http:\/\/rdfile.oss-cn-hangzhou.aliyuncs.com\/filemanage\/e069b36c568d909f\/templateapi\/16304796022591\/file.zip?nonce=cfcd208495d565ef66e7dff9f98764da","cover":"http:\/\/rdfile.oss-cn-hangzhou.aliyuncs.com\/filemanage\/e069b36c568d909f\/templateapi\/16304796022591\/cover.png?nonce=cfcd208495d565ef66e7dff9f98764da&x-oss-process=style\/templateapi","updatetime":"0","height":1080,"width":607,"video":"http:\/\/rdfile.oss-cn-hangzhou.aliyuncs.com\/filemanage\/e069b36c568d909f\/templateapi\/16304796022591\/video.mp4?nonce=cfcd208495d565ef66e7dff9f98764da","sort":100,"version":147,"cover2":"","appkey":"init","duration":0,"extra":{},"polyglot":[],"category":"0","audit":0,"is_ugc":0,"text_need":0,"picture_need":2,"video_need":0,"type":"templateapi"},{"id":"1012311","ufid":"12944261","name":"\u4e2d\u79cb\u8282\u5feb\u4e50","file":"http:\/\/rdfile.oss-cn-hangzhou.aliyuncs.com\/filemanage\/e069b36c568d909f\/templateapi\/16304792605582\/file.zip?nonce=cfcd208495d565ef66e7dff9f98764da","cover":"http:\/\/rdfile.oss-cn-hangzhou.aliyuncs.com\/filemanage\/e069b36c568d909f\/templateapi\/16304792605582\/cover.png?nonce=cfcd208495d565ef66e7dff9f98764da&x-oss-process=style\/templateapi","updatetime":"0","height":960,"width":540,"video":"http:\/\/rdfile.oss-cn-hangzhou.aliyuncs.com\/filemanage\/e069b36c568d909f\/templateapi\/16304792605582\/video.mp4?nonce=cfcd208495d565ef66e7dff9f98764da","sort":100,"version":147,"cover2":"","appkey":"init","duration":0,"extra":{},"polyglot":[],"category":"0","audit":0,"is_ugc":0,"text_need":0,"picture_need":0,"video_need":4,"type":"templateapi"},{"id":"1012310","ufid":"46632329","name":"\u4e00\u751f\u6709\u4f60","file":"http:\/\/rdfile.oss-cn-hangzhou.aliyuncs.com\/filemanage\/e069b36c568d909f\/templateapi\/16304788869003\/file.zip?nonce=cfcd208495d565ef66e7dff9f98764da","cover":"http:\/\/rdfile.oss-cn-hangzhou.aliyuncs.com\/filemanage\/e069b36c568d909f\/templateapi\/16304788869003\/cover.png?nonce=cfcd208495d565ef66e7dff9f98764da&x-oss-process=style\/templateapi","updatetime":"0","height":1280,"width":720,"video":"http:\/\/rdfile.oss-cn-hangzhou.aliyuncs.com\/filemanage\/e069b36c568d909f\/templateapi\/16304788869003\/video.mp4?nonce=cfcd208495d565ef66e7dff9f98764da","sort":100,"version":147,"cover2":"","appkey":"init","duration":0,"extra":{},"polyglot":[],"category":"0","audit":0,"is_ugc":0,"text_need":0,"picture_need":0,"video_need":4,"type":"templateapi"},{"id":"1012309","ufid":"88180284","name":"\u62a0\u50cf","file":"http:\/\/rdfile.oss-cn-hangzhou.aliyuncs.com\/filemanage\/e069b36c568d909f\/templateapi\/16304716065154\/file.zip?nonce=cfcd208495d565ef66e7dff9f98764da","cover":"http:\/\/rdfile.oss-cn-hangzhou.aliyuncs.com\/filemanage\/e069b36c568d909f\/templateapi\/16304716065154\/cover.png?nonce=cfcd208495d565ef66e7dff9f98764da&x-oss-process=style\/templateapi","updatetime":"0","height":1080,"width":607,"video":"http:\/\/rdfile.oss-cn-hangzhou.aliyuncs.com\/filemanage\/e069b36c568d909f\/templateapi\/16304716065154\/video.mp4?nonce=cfcd208495d565ef66e7dff9f98764da","sort":100,"version":147,"cover2":"","appkey":"init","duration":0,"extra":{},"polyglot":[],"category":"0","audit":0,"is_ugc":0,"text_need":0,"picture_need":5,"video_need":0,"type":"templateapi"},{"id":"1012307","ufid":"36089988","name":"Happy birthday","file":"http:\/\/rdfile.oss-cn-hangzhou.aliyuncs.com\/filemanage\/e069b36c568d909f\/templateapi\/16304705963566\/file.zip?nonce=cfcd208495d565ef66e7dff9f98764da","cover":"http:\/\/rdfile.oss-cn-hangzhou.aliyuncs.com\/filemanage\/e069b36c568d909f\/templateapi\/16304705963566\/cover.png?nonce=cfcd208495d565ef66e7dff9f98764da&x-oss-process=style\/templateapi","updatetime":"0","height":1080,"width":607,"video":"http:\/\/rdfile.oss-cn-hangzhou.aliyuncs.com\/filemanage\/e069b36c568d909f\/templateapi\/16304705963566\/video.mp4?nonce=cfcd208495d565ef66e7dff9f98764da","sort":100,"version":147,"cover2":"","appkey":"init","duration":0,"extra":{},"polyglot":[],"category":"0","audit":0,"is_ugc":0,"text_need":0,"picture_need":0,"video_need":11,"type":"templateapi"}]}}