{"code":0,"msg":"success","data":{"total":636,"per_page":10,"current_page":23,"last_page":64,"data":[{"id":"1016141","ufid":"73084735","name":"\u5bfb\u4eba\u542f\u4e8b","file":"http:\/\/rdfile.oss-cn-hangzhou.aliyuncs.com\/filemanage\/e069b36c568d909f\/templateapi\/16653965965285\/file.zip?nonce=2b715790f1428a5b5a403fa7346a61f7","cover":"http:\/\/rdfile.oss-cn-hangzhou.aliyuncs.com\/filemanage\/e069b36c568d909f\/templateapi\/16653965965285\/cover.webp?nonce=2b715790f1428a5b5a403fa7346a61f7","updatetime":"1704185946","height":607,"width":1080,"video":"http:\/\/rdfile.oss-cn-hangzhou.aliyuncs.com\/filemanage\/e069b36c568d909f\/templateapi\/16653965965285\/video.mp4?nonce=2b715790f1428a5b5a403fa7346a61f7","sort":0,"version":153,"cover2":"","appkey":"init","duration":0,"extra":{},"polyglot":{"en":"Search notices"},"category":"0","audit":0,"is_ugc":0,"text_need":2,"picture_need":2,"video_need":0,"type":"templateapi"},{"id":"1016136","ufid":"40421641","name":"\u6211\u4e0d\u8981\u518d\u60f3\u4f60","file":"http:\/\/rdfile.oss-cn-hangzhou.aliyuncs.com\/filemanage\/e069b36c568d909f\/templateapi\/16653925743721\/file.zip?nonce=aa46bf68424f8ff99962983a0a00bcf0","cover":"http:\/\/rdfile.oss-cn-hangzhou.aliyuncs.com\/filemanage\/e069b36c568d909f\/templateapi\/16653925743721\/cover.webp?nonce=aa46bf68424f8ff99962983a0a00bcf0","updatetime":"1704185945","height":1080,"width":1440,"video":"http:\/\/rdfile.oss-cn-hangzhou.aliyuncs.com\/filemanage\/e069b36c568d909f\/templateapi\/16653925743721\/video.mp4?nonce=aa46bf68424f8ff99962983a0a00bcf0","sort":0,"version":153,"cover2":"","appkey":"init","duration":0,"extra":{},"polyglot":{"en":"I don"},"category":"0","audit":0,"is_ugc":0,"text_need":0,"picture_need":0,"video_need":2,"type":"templateapi"},{"id":"1016135","ufid":"24094250","name":"\u5165\u79cb\u4e86","file":"http:\/\/rdfile.oss-cn-hangzhou.aliyuncs.com\/filemanage\/e069b36c568d909f\/templateapi\/16653920697317\/file.zip?nonce=aa46bf68424f8ff99962983a0a00bcf0","cover":"http:\/\/rdfile.oss-cn-hangzhou.aliyuncs.com\/filemanage\/e069b36c568d909f\/templateapi\/16653920697317\/cover.webp?nonce=aa46bf68424f8ff99962983a0a00bcf0","updatetime":"1704185945","height":1236,"width":727,"video":"http:\/\/rdfile.oss-cn-hangzhou.aliyuncs.com\/filemanage\/e069b36c568d909f\/templateapi\/16653920697317\/video.mp4?nonce=aa46bf68424f8ff99962983a0a00bcf0","sort":0,"version":153,"cover2":"","appkey":"init","duration":0,"extra":{},"polyglot":{"en":"It"},"category":"0","audit":0,"is_ugc":0,"text_need":6,"picture_need":1,"video_need":0,"type":"templateapi"},{"id":"1016125","ufid":"85886107","name":"\u625b\u9ebb\u888b\u5361\u70b9","file":"http:\/\/rdfile.oss-cn-hangzhou.aliyuncs.com\/filemanage\/e069b36c568d909f\/templateapi\/16653042534511\/file.zip?nonce=3a544b317a67939b63c2216e661d3195","cover":"http:\/\/rdfile.oss-cn-hangzhou.aliyuncs.com\/filemanage\/e069b36c568d909f\/templateapi\/16653042534511\/cover.webp?nonce=3a544b317a67939b63c2216e661d3195","updatetime":"1704185944","height":1280,"width":720,"video":"http:\/\/rdfile.oss-cn-hangzhou.aliyuncs.com\/filemanage\/e069b36c568d909f\/templateapi\/16653042534511\/video.mp4?nonce=3a544b317a67939b63c2216e661d3195","sort":0,"version":153,"cover2":"","appkey":"init","duration":0,"extra":{},"polyglot":{"en":"Right time Carrying sacks"},"category":"0","audit":0,"is_ugc":0,"text_need":0,"picture_need":0,"video_need":13,"type":"templateapi"},{"id":"1016124","ufid":"28445622","name":"Ilikethat\u5361\u70b9\u53d8\u88c5","file":"http:\/\/rdfile.oss-cn-hangzhou.aliyuncs.com\/filemanage\/e069b36c568d909f\/templateapi\/16653039827408\/file.zip?nonce=3a544b317a67939b63c2216e661d3195","cover":"http:\/\/rdfile.oss-cn-hangzhou.aliyuncs.com\/filemanage\/e069b36c568d909f\/templateapi\/16653039827408\/cover.webp?nonce=3a544b317a67939b63c2216e661d3195","updatetime":"1704185944","height":1920,"width":1080,"video":"http:\/\/rdfile.oss-cn-hangzhou.aliyuncs.com\/filemanage\/e069b36c568d909f\/templateapi\/16653039827408\/video.mp4?nonce=3a544b317a67939b63c2216e661d3195","sort":0,"version":153,"cover2":"","appkey":"init","duration":0,"extra":{},"polyglot":{"en":"Right time Ilikethat crossdressing"},"category":"0","audit":0,"is_ugc":0,"text_need":0,"picture_need":0,"video_need":3,"type":"templateapi"},{"id":"1016110","ufid":"25021559","name":"\u624b\u52bf\u5361\u70b9\u53d8\u88c5","file":"http:\/\/rdfile.oss-cn-hangzhou.aliyuncs.com\/filemanage\/e069b36c568d909f\/templateapi\/16652855919783\/file.zip?nonce=3a544b317a67939b63c2216e661d3195","cover":"http:\/\/rdfile.oss-cn-hangzhou.aliyuncs.com\/filemanage\/e069b36c568d909f\/templateapi\/16652855919783\/cover.webp?nonce=3a544b317a67939b63c2216e661d3195","updatetime":"1704185944","height":1280,"width":720,"video":"http:\/\/rdfile.oss-cn-hangzhou.aliyuncs.com\/filemanage\/e069b36c568d909f\/templateapi\/16652855919783\/video.mp4?nonce=3a544b317a67939b63c2216e661d3195","sort":0,"version":153,"cover2":"","appkey":"init","duration":0,"extra":{},"polyglot":{"en":"Right time Gesture crossdressing"},"category":"0","audit":0,"is_ugc":0,"text_need":0,"picture_need":0,"video_need":2,"type":"templateapi"},{"id":"1016098","ufid":"18412138","name":"\u821e\u8e48\u53d8\u88c5","file":"http:\/\/rdfile.oss-cn-hangzhou.aliyuncs.com\/filemanage\/e069b36c568d909f\/templateapi\/16652207895771\/file.zip?nonce=30549805d637b2a65eac621b3119e0ec","cover":"http:\/\/rdfile.oss-cn-hangzhou.aliyuncs.com\/filemanage\/e069b36c568d909f\/templateapi\/16652207895771\/cover.webp?nonce=30549805d637b2a65eac621b3119e0ec","updatetime":"1704185943","height":1920,"width":1080,"video":"http:\/\/rdfile.oss-cn-hangzhou.aliyuncs.com\/filemanage\/e069b36c568d909f\/templateapi\/16652207895771\/video.mp4?nonce=30549805d637b2a65eac621b3119e0ec","sort":0,"version":153,"cover2":"","appkey":"init","duration":0,"extra":{},"polyglot":{"en":"Dance drag"},"category":"0","audit":0,"is_ugc":0,"text_need":0,"picture_need":0,"video_need":2,"type":"templateapi"},{"id":"1016097","ufid":"12945317","name":"\u7529\u624b\u53d8\u88c5","file":"http:\/\/rdfile.oss-cn-hangzhou.aliyuncs.com\/filemanage\/e069b36c568d909f\/templateapi\/16652176808998\/file.zip?nonce=30549805d637b2a65eac621b3119e0ec","cover":"http:\/\/rdfile.oss-cn-hangzhou.aliyuncs.com\/filemanage\/e069b36c568d909f\/templateapi\/16652176808998\/cover.webp?nonce=30549805d637b2a65eac621b3119e0ec","updatetime":"1704185943","height":1920,"width":1080,"video":"http:\/\/rdfile.oss-cn-hangzhou.aliyuncs.com\/filemanage\/e069b36c568d909f\/templateapi\/16652176808998\/video.mp4?nonce=30549805d637b2a65eac621b3119e0ec","sort":0,"version":153,"cover2":"","appkey":"6ecb39f1c12f1a35","duration":0,"extra":{},"polyglot":{"en":"Hands-off and cross-dressing"},"category":"0","audit":0,"is_ugc":0,"text_need":0,"picture_need":0,"video_need":2,"type":"templateapi"},{"id":"1016094","ufid":"42371637","name":"\u624b\u52bf\u53d8\u88c5","file":"http:\/\/rdfile.oss-cn-hangzhou.aliyuncs.com\/filemanage\/e069b36c568d909f\/templateapi\/16652149335397\/file.zip?nonce=30549805d637b2a65eac621b3119e0ec","cover":"http:\/\/rdfile.oss-cn-hangzhou.aliyuncs.com\/filemanage\/e069b36c568d909f\/templateapi\/16652149335397\/cover.webp?nonce=30549805d637b2a65eac621b3119e0ec","updatetime":"1704185943","height":1920,"width":1080,"video":"http:\/\/rdfile.oss-cn-hangzhou.aliyuncs.com\/filemanage\/e069b36c568d909f\/templateapi\/16652149335397\/video.mp4?nonce=30549805d637b2a65eac621b3119e0ec","sort":0,"version":153,"cover2":"","appkey":"6ecb39f1c12f1a35","duration":0,"extra":{},"polyglot":{"en":"Gesture crossdressing"},"category":"0","audit":0,"is_ugc":0,"text_need":0,"picture_need":0,"video_need":2,"type":"templateapi"},{"id":"1016068","ufid":"61789035","name":"\u7f8e\u62cd\u6e05\u7eaf\u98ce","file":"http:\/\/rdfile.oss-cn-hangzhou.aliyuncs.com\/filemanage\/e069b36c568d909f\/templateapi\/16643602359150\/file.zip?nonce=1fdb19b06a150559e2963111a174296e","cover":"http:\/\/rdfile.oss-cn-hangzhou.aliyuncs.com\/filemanage\/e069b36c568d909f\/templateapi\/16643602359150\/cover.webp?nonce=1fdb19b06a150559e2963111a174296e","updatetime":"1704185939","height":1225,"width":689,"video":"http:\/\/rdfile.oss-cn-hangzhou.aliyuncs.com\/filemanage\/e069b36c568d909f\/templateapi\/16643602359150\/video.mp4?nonce=1fdb19b06a150559e2963111a174296e","sort":0,"version":153,"cover2":"","appkey":"init","duration":0,"extra":{},"polyglot":{"en":"Meipai pure style"},"category":"0","audit":0,"is_ugc":0,"text_need":0,"picture_need":0,"video_need":4,"type":"templateapi"}]}}