{"code":0,"msg":"success","data":{"total":636,"per_page":10,"current_page":51,"last_page":64,"data":[{"id":"1012333","ufid":"41618277","name":"\u5f53\u4f60\u770b\u7740\u6211","file":"http:\/\/rdfile.oss-cn-hangzhou.aliyuncs.com\/filemanage\/e069b36c568d909f\/templateapi\/16304851117783\/file.zip?nonce=2ce9d90311b94b6c862e0612318304f2","cover":"http:\/\/rdfile.oss-cn-hangzhou.aliyuncs.com\/filemanage\/e069b36c568d909f\/templateapi\/16304851117783\/cover.png?nonce=2ce9d90311b94b6c862e0612318304f2&x-oss-process=style\/templateapi","updatetime":"1704185708","height":1080,"width":607,"video":"http:\/\/rdfile.oss-cn-hangzhou.aliyuncs.com\/filemanage\/e069b36c568d909f\/templateapi\/16304851117783\/video.mp4?nonce=2ce9d90311b94b6c862e0612318304f2","sort":100,"version":147,"cover2":"","appkey":"init","duration":0,"extra":{},"polyglot":{"en":"When you look at me"},"category":"0","audit":0,"is_ugc":0,"text_need":0,"picture_need":0,"video_need":3,"type":"templateapi"},{"id":"1012332","ufid":"24163101","name":"\u4f60\u6700\u76f8\u4fe1\u4ec0\u4e48","file":"http:\/\/rdfile.oss-cn-hangzhou.aliyuncs.com\/filemanage\/e069b36c568d909f\/templateapi\/16304847027166\/file.zip?nonce=2ce9d90311b94b6c862e0612318304f2","cover":"http:\/\/rdfile.oss-cn-hangzhou.aliyuncs.com\/filemanage\/e069b36c568d909f\/templateapi\/16304847027166\/cover.png?nonce=2ce9d90311b94b6c862e0612318304f2&x-oss-process=style\/templateapi","updatetime":"1704185708","height":1080,"width":606,"video":"http:\/\/rdfile.oss-cn-hangzhou.aliyuncs.com\/filemanage\/e069b36c568d909f\/templateapi\/16304847027166\/video.mp4?nonce=2ce9d90311b94b6c862e0612318304f2","sort":100,"version":147,"cover2":"","appkey":"init","duration":0,"extra":{},"polyglot":{"en":"What do you believe most"},"category":"0","audit":0,"is_ugc":0,"text_need":0,"picture_need":3,"video_need":0,"type":"templateapi"},{"id":"1012330","ufid":"59663074","name":"\u5370\u8c61","file":"http:\/\/rdfile.oss-cn-hangzhou.aliyuncs.com\/filemanage\/e069b36c568d909f\/templateapi\/16304838409180\/file.zip?nonce=f01394368a24eeaabdd855655669e0b7","cover":"http:\/\/rdfile.oss-cn-hangzhou.aliyuncs.com\/filemanage\/e069b36c568d909f\/templateapi\/16304838409180\/cover.png?nonce=f01394368a24eeaabdd855655669e0b7&x-oss-process=style\/templateapi","updatetime":"1704185707","height":1080,"width":1920,"video":"http:\/\/rdfile.oss-cn-hangzhou.aliyuncs.com\/filemanage\/e069b36c568d909f\/templateapi\/16304838409180\/video.mp4?nonce=f01394368a24eeaabdd855655669e0b7","sort":100,"version":147,"cover2":"","appkey":"init","duration":0,"extra":{},"polyglot":{"en":"Impression"},"category":"0","audit":0,"is_ugc":0,"text_need":0,"picture_need":0,"video_need":10,"type":"templateapi"},{"id":"1012329","ufid":"66507170","name":"\u4e00\u675f\u5149","file":"http:\/\/rdfile.oss-cn-hangzhou.aliyuncs.com\/filemanage\/e069b36c568d909f\/templateapi\/16304832206375\/file.zip?nonce=f01394368a24eeaabdd855655669e0b7","cover":"http:\/\/rdfile.oss-cn-hangzhou.aliyuncs.com\/filemanage\/e069b36c568d909f\/templateapi\/16304832206375\/cover.png?nonce=f01394368a24eeaabdd855655669e0b7&x-oss-process=style\/templateapi","updatetime":"1704185707","height":1080,"width":607,"video":"http:\/\/rdfile.oss-cn-hangzhou.aliyuncs.com\/filemanage\/e069b36c568d909f\/templateapi\/16304832206375\/video.mp4?nonce=f01394368a24eeaabdd855655669e0b7","sort":100,"version":147,"cover2":"","appkey":"init","duration":0,"extra":{},"polyglot":{"en":"Beam of light"},"category":"0","audit":0,"is_ugc":0,"text_need":0,"picture_need":3,"video_need":0,"type":"templateapi"},{"id":"1012313","ufid":"40869212","name":"\u5f00\u5fc3\u4e07\u5c81","file":"http:\/\/rdfile.oss-cn-hangzhou.aliyuncs.com\/filemanage\/e069b36c568d909f\/templateapi\/16304811797351\/file.zip?nonce=79b9c94f3bdb9229f89081d45f3325cd","cover":"http:\/\/rdfile.oss-cn-hangzhou.aliyuncs.com\/filemanage\/e069b36c568d909f\/templateapi\/16304811797351\/cover.png?nonce=79b9c94f3bdb9229f89081d45f3325cd&x-oss-process=style\/templateapi","updatetime":"1704185705","height":1080,"width":607,"video":"http:\/\/rdfile.oss-cn-hangzhou.aliyuncs.com\/filemanage\/e069b36c568d909f\/templateapi\/16304811797351\/video.mp4?nonce=79b9c94f3bdb9229f89081d45f3325cd","sort":100,"version":147,"cover2":"","appkey":"init","duration":0,"extra":{},"polyglot":{"en":"Long live happiness"},"category":"0","audit":0,"is_ugc":0,"text_need":0,"picture_need":0,"video_need":1,"type":"templateapi"},{"id":"1012312","ufid":"16764519","name":"\u6700\u8fd1\u72b6\u6001","file":"http:\/\/rdfile.oss-cn-hangzhou.aliyuncs.com\/filemanage\/e069b36c568d909f\/templateapi\/16304796022591\/file.zip?nonce=79b9c94f3bdb9229f89081d45f3325cd","cover":"http:\/\/rdfile.oss-cn-hangzhou.aliyuncs.com\/filemanage\/e069b36c568d909f\/templateapi\/16304796022591\/cover.png?nonce=79b9c94f3bdb9229f89081d45f3325cd&x-oss-process=style\/templateapi","updatetime":"1704185705","height":1080,"width":607,"video":"http:\/\/rdfile.oss-cn-hangzhou.aliyuncs.com\/filemanage\/e069b36c568d909f\/templateapi\/16304796022591\/video.mp4?nonce=79b9c94f3bdb9229f89081d45f3325cd","sort":100,"version":147,"cover2":"","appkey":"init","duration":0,"extra":{},"polyglot":{"en":"Recent status"},"category":"0","audit":0,"is_ugc":0,"text_need":0,"picture_need":2,"video_need":0,"type":"templateapi"},{"id":"1012311","ufid":"12944261","name":"\u4e2d\u79cb\u8282\u5feb\u4e50","file":"http:\/\/rdfile.oss-cn-hangzhou.aliyuncs.com\/filemanage\/e069b36c568d909f\/templateapi\/16304792605582\/file.zip?nonce=57f4a920cc8f79a5130d62f0a5c54bec","cover":"http:\/\/rdfile.oss-cn-hangzhou.aliyuncs.com\/filemanage\/e069b36c568d909f\/templateapi\/16304792605582\/cover.png?nonce=57f4a920cc8f79a5130d62f0a5c54bec&x-oss-process=style\/templateapi","updatetime":"1704185704","height":960,"width":540,"video":"http:\/\/rdfile.oss-cn-hangzhou.aliyuncs.com\/filemanage\/e069b36c568d909f\/templateapi\/16304792605582\/video.mp4?nonce=57f4a920cc8f79a5130d62f0a5c54bec","sort":100,"version":147,"cover2":"","appkey":"init","duration":0,"extra":{},"polyglot":{"en":"Happy mid-Autumn Festival"},"category":"0","audit":0,"is_ugc":0,"text_need":0,"picture_need":0,"video_need":4,"type":"templateapi"},{"id":"1012310","ufid":"46632329","name":"\u4e00\u751f\u6709\u4f60","file":"http:\/\/rdfile.oss-cn-hangzhou.aliyuncs.com\/filemanage\/e069b36c568d909f\/templateapi\/16304788869003\/file.zip?nonce=57f4a920cc8f79a5130d62f0a5c54bec","cover":"http:\/\/rdfile.oss-cn-hangzhou.aliyuncs.com\/filemanage\/e069b36c568d909f\/templateapi\/16304788869003\/cover.png?nonce=57f4a920cc8f79a5130d62f0a5c54bec&x-oss-process=style\/templateapi","updatetime":"1704185704","height":1280,"width":720,"video":"http:\/\/rdfile.oss-cn-hangzhou.aliyuncs.com\/filemanage\/e069b36c568d909f\/templateapi\/16304788869003\/video.mp4?nonce=57f4a920cc8f79a5130d62f0a5c54bec","sort":100,"version":147,"cover2":"","appkey":"init","duration":0,"extra":{},"polyglot":{"en":"Lifetime with you"},"category":"0","audit":0,"is_ugc":0,"text_need":0,"picture_need":0,"video_need":4,"type":"templateapi"},{"id":"1012309","ufid":"88180284","name":"\u62a0\u50cf","file":"http:\/\/rdfile.oss-cn-hangzhou.aliyuncs.com\/filemanage\/e069b36c568d909f\/templateapi\/16304716065154\/file.zip?nonce=57f4a920cc8f79a5130d62f0a5c54bec","cover":"http:\/\/rdfile.oss-cn-hangzhou.aliyuncs.com\/filemanage\/e069b36c568d909f\/templateapi\/16304716065154\/cover.png?nonce=57f4a920cc8f79a5130d62f0a5c54bec&x-oss-process=style\/templateapi","updatetime":"1704185704","height":1080,"width":607,"video":"http:\/\/rdfile.oss-cn-hangzhou.aliyuncs.com\/filemanage\/e069b36c568d909f\/templateapi\/16304716065154\/video.mp4?nonce=57f4a920cc8f79a5130d62f0a5c54bec","sort":100,"version":147,"cover2":"","appkey":"init","duration":0,"extra":{},"polyglot":{"en":"Keying"},"category":"0","audit":0,"is_ugc":0,"text_need":0,"picture_need":5,"video_need":0,"type":"templateapi"},{"id":"1012307","ufid":"36089988","name":"Happy birthday","file":"http:\/\/rdfile.oss-cn-hangzhou.aliyuncs.com\/filemanage\/e069b36c568d909f\/templateapi\/16304705963566\/file.zip?nonce=57f4a920cc8f79a5130d62f0a5c54bec","cover":"http:\/\/rdfile.oss-cn-hangzhou.aliyuncs.com\/filemanage\/e069b36c568d909f\/templateapi\/16304705963566\/cover.png?nonce=57f4a920cc8f79a5130d62f0a5c54bec&x-oss-process=style\/templateapi","updatetime":"1704185704","height":1080,"width":607,"video":"http:\/\/rdfile.oss-cn-hangzhou.aliyuncs.com\/filemanage\/e069b36c568d909f\/templateapi\/16304705963566\/video.mp4?nonce=57f4a920cc8f79a5130d62f0a5c54bec","sort":100,"version":147,"cover2":"","appkey":"init","duration":0,"extra":{},"polyglot":{"en":"Happy birthday"},"category":"0","audit":0,"is_ugc":0,"text_need":0,"picture_need":0,"video_need":11,"type":"templateapi"}]}}