{"code":0,"msg":"success","data":{"total":84,"per_page":10,"current_page":6,"last_page":9,"data":[{"id":"1015357","ufid":"40240130","name":"\u5c01\u9762\u76f8\u518c","file":"http:\/\/rdfile.oss-cn-hangzhou.aliyuncs.com\/filemanage\/e069b36c568d909f\/templateapi\/16552768823910\/file.zip?nonce=3fbaab19cf05d98097fd78094e07cc6c","cover":"http:\/\/rdfile.oss-cn-hangzhou.aliyuncs.com\/filemanage\/e069b36c568d909f\/templateapi\/16552768823910\/cover.webp?nonce=3fbaab19cf05d98097fd78094e07cc6c","updatetime":"1684898239","height":1280,"width":720,"video":"http:\/\/rdfile.oss-cn-hangzhou.aliyuncs.com\/filemanage\/e069b36c568d909f\/templateapi\/16552768823910\/video.mp4?nonce=3fbaab19cf05d98097fd78094e07cc6c","sort":0,"version":153,"cover2":"","appkey":"init","duration":0,"extra":{},"polyglot":[],"category":"0","audit":0,"is_ugc":0,"text_need":0,"picture_need":0,"video_need":9,"type":"templateapi"},{"id":"1015219","ufid":"21396900","name":"\u6ed1\u52a8\u76f8\u518c","file":"http:\/\/rdfile.oss-cn-hangzhou.aliyuncs.com\/filemanage\/e069b36c568d909f\/templateapi\/16534627521969\/file.zip?nonce=1e4ef6c4d16ed1731d523a72b32cf62e","cover":"http:\/\/rdfile.oss-cn-hangzhou.aliyuncs.com\/filemanage\/e069b36c568d909f\/templateapi\/16534627521969\/cover.webp?nonce=1e4ef6c4d16ed1731d523a72b32cf62e","updatetime":"1684898107","height":607,"width":1080,"video":"http:\/\/rdfile.oss-cn-hangzhou.aliyuncs.com\/filemanage\/e069b36c568d909f\/templateapi\/16534627521969\/video.mp4?nonce=1e4ef6c4d16ed1731d523a72b32cf62e","sort":0,"version":153,"cover2":"","appkey":"init","duration":0,"extra":{},"polyglot":[],"category":"0","audit":0,"is_ugc":0,"text_need":0,"picture_need":0,"video_need":3,"type":"templateapi"},{"id":"1015175","ufid":"41101900","name":"3D\u7acb\u4f53\u611f\u7535\u5f71\u843d\u5e55","file":"http:\/\/rdfile.oss-cn-hangzhou.aliyuncs.com\/filemanage\/e069b36c568d909f\/templateapi\/16529498849370\/file.zip?nonce=7bf07a85cdf71b66c125e60ccd31ce07","cover":"http:\/\/rdfile.oss-cn-hangzhou.aliyuncs.com\/filemanage\/e069b36c568d909f\/templateapi\/16529498849370\/cover.webp?nonce=7bf07a85cdf71b66c125e60ccd31ce07","updatetime":"1684898091","height":915,"width":1080,"video":"http:\/\/rdfile.oss-cn-hangzhou.aliyuncs.com\/filemanage\/e069b36c568d909f\/templateapi\/16529498849370\/video.mp4?nonce=7bf07a85cdf71b66c125e60ccd31ce07","sort":0,"version":153,"cover2":"","appkey":"init","duration":0,"extra":{},"polyglot":[],"category":"0","audit":0,"is_ugc":0,"text_need":0,"picture_need":0,"video_need":1,"type":"templateapi"},{"id":"1014869","ufid":"66758773","name":"\u7167\u7247\u96c6","file":"http:\/\/rdfile.oss-cn-hangzhou.aliyuncs.com\/filemanage\/e069b36c568d909f\/templateapi\/16505076146950\/file.zip?nonce=5f1930e8c0119f24ccf39e5680ed87d4","cover":"http:\/\/rdfile.oss-cn-hangzhou.aliyuncs.com\/filemanage\/e069b36c568d909f\/templateapi\/16505076146950\/cover.webp?nonce=5f1930e8c0119f24ccf39e5680ed87d4","updatetime":"1684896979","height":720,"width":1280,"video":"http:\/\/rdfile.oss-cn-hangzhou.aliyuncs.com\/filemanage\/e069b36c568d909f\/templateapi\/16505076146950\/video.mp4?nonce=5f1930e8c0119f24ccf39e5680ed87d4","sort":0,"version":152,"cover2":"","appkey":"init","duration":0,"extra":{},"polyglot":[],"category":"0","audit":0,"is_ugc":0,"text_need":0,"picture_need":28,"video_need":0,"type":"templateapi"},{"id":"1014861","ufid":"78795370","name":"\u6625\u6696\u82b1\u5f00","file":"http:\/\/rdfile.oss-cn-hangzhou.aliyuncs.com\/filemanage\/e069b36c568d909f\/templateapi\/16503610057266\/file.zip?nonce=91e984065d96e0a2c6e81aa3badf2ff5","cover":"http:\/\/rdfile.oss-cn-hangzhou.aliyuncs.com\/filemanage\/e069b36c568d909f\/templateapi\/16503610057266\/cover.webp?nonce=91e984065d96e0a2c6e81aa3badf2ff5","updatetime":"1684896795","height":633,"width":356,"video":"http:\/\/rdfile.oss-cn-hangzhou.aliyuncs.com\/filemanage\/e069b36c568d909f\/templateapi\/16503610057266\/video.mp4?nonce=91e984065d96e0a2c6e81aa3badf2ff5","sort":0,"version":152,"cover2":"","appkey":"init","duration":0,"extra":{},"polyglot":[],"category":"0","audit":0,"is_ugc":0,"text_need":0,"picture_need":0,"video_need":2,"type":"templateapi"},{"id":"1014757","ufid":"19424693","name":"3D\u52a8\u6001\u7167\u7247","file":"http:\/\/rdfile.oss-cn-hangzhou.aliyuncs.com\/filemanage\/e069b36c568d909f\/templateapi\/16493849387540\/file.zip?nonce=751e3fd6954a04d2839e867b5e486dd9","cover":"http:\/\/rdfile.oss-cn-hangzhou.aliyuncs.com\/filemanage\/e069b36c568d909f\/templateapi\/16493849387540\/cover.png?nonce=751e3fd6954a04d2839e867b5e486dd9&x-oss-process=style\/templateapi","updatetime":"1684910552","height":1254,"width":720,"video":"http:\/\/rdfile.oss-cn-hangzhou.aliyuncs.com\/filemanage\/e069b36c568d909f\/templateapi\/16493849387540\/video.mp4?nonce=751e3fd6954a04d2839e867b5e486dd9","sort":0,"version":150,"cover2":"","appkey":"init","duration":0,"extra":{},"polyglot":[],"category":"0","audit":0,"is_ugc":0,"text_need":0,"picture_need":2,"video_need":0,"type":"templateapi"},{"id":"1014721","ufid":"33188148","name":"\u6625\u6696\u82b1\u5f00","file":"http:\/\/rdfile.oss-cn-hangzhou.aliyuncs.com\/filemanage\/e069b36c568d909f\/templateapi\/16487113775094\/file.zip?nonce=4cab87ae080c77b744e0af6b17861b68","cover":"http:\/\/rdfile.oss-cn-hangzhou.aliyuncs.com\/filemanage\/e069b36c568d909f\/templateapi\/16487113775094\/cover.png?nonce=4cab87ae080c77b744e0af6b17861b68&x-oss-process=style\/templateapi","updatetime":"1684897327","height":720,"width":1280,"video":"http:\/\/rdfile.oss-cn-hangzhou.aliyuncs.com\/filemanage\/e069b36c568d909f\/templateapi\/16487113775094\/video.mp4?nonce=4cab87ae080c77b744e0af6b17861b68","sort":0,"version":150,"cover2":"","appkey":"init","duration":0,"extra":{},"polyglot":[],"category":"0","audit":0,"is_ugc":0,"text_need":0,"picture_need":0,"video_need":6,"type":"templateapi"},{"id":"1013207","ufid":"28801211","name":"\u4e91","file":"http:\/\/rdfile.oss-cn-hangzhou.aliyuncs.com\/filemanage\/e069b36c568d909f\/templateapi\/16429361308319\/file.zip?nonce=a44c2982fb73260a0f8017547c26274b","cover":"http:\/\/rdfile.oss-cn-hangzhou.aliyuncs.com\/filemanage\/e069b36c568d909f\/templateapi\/16429361308319\/cover.png?nonce=a44c2982fb73260a0f8017547c26274b&x-oss-process=style\/templateapi","updatetime":"1684912058","height":1230,"width":692,"video":"http:\/\/rdfile.oss-cn-hangzhou.aliyuncs.com\/filemanage\/e069b36c568d909f\/templateapi\/16429361308319\/video.mp4?nonce=a44c2982fb73260a0f8017547c26274b","sort":0,"version":149,"cover2":"","appkey":"init","duration":0,"extra":{},"polyglot":[],"category":"0","audit":0,"is_ugc":0,"text_need":0,"picture_need":0,"video_need":9,"type":"templateapi"},{"id":"1013090","ufid":"60416827","name":"\u6a2a\u5411\u6eda\u52a8\u76f8\u518c","file":"http:\/\/rdfile.oss-cn-hangzhou.aliyuncs.com\/filemanage\/e069b36c568d909f\/templateapi\/16417988523913\/file.zip?nonce=8e7939d810509ef6b36182b8d1eb5f17","cover":"http:\/\/rdfile.oss-cn-hangzhou.aliyuncs.com\/filemanage\/e069b36c568d909f\/templateapi\/16417988523913\/cover.png?nonce=8e7939d810509ef6b36182b8d1eb5f17&x-oss-process=style\/templateapi","updatetime":"1684914381","height":1080,"width":1920,"video":"http:\/\/rdfile.oss-cn-hangzhou.aliyuncs.com\/filemanage\/e069b36c568d909f\/templateapi\/16417988523913\/video.mp4?nonce=8e7939d810509ef6b36182b8d1eb5f17","sort":100,"version":150,"cover2":"","appkey":"init","duration":0,"extra":{},"polyglot":[],"category":"0","audit":0,"is_ugc":0,"text_need":0,"picture_need":0,"video_need":4,"type":"templateapi"},{"id":"1012916","ufid":"29768126","name":"\u65c5\u884cVlog","file":"http:\/\/rdfile.oss-cn-hangzhou.aliyuncs.com\/filemanage\/e069b36c568d909f\/templateapi\/16384328289338\/file.zip?nonce=29dfbd25fa3dc77667dd469a3b6e50d8","cover":"http:\/\/rdfile.oss-cn-hangzhou.aliyuncs.com\/filemanage\/e069b36c568d909f\/templateapi\/16384328289338\/cover.png?nonce=29dfbd25fa3dc77667dd469a3b6e50d8&x-oss-process=style\/templateapi","updatetime":"1684913397","height":1230,"width":692,"video":"http:\/\/rdfile.oss-cn-hangzhou.aliyuncs.com\/filemanage\/e069b36c568d909f\/templateapi\/16384328289338\/video.mp4?nonce=29dfbd25fa3dc77667dd469a3b6e50d8","sort":100,"version":149,"cover2":"","appkey":"init","duration":0,"extra":{},"polyglot":[],"category":"0","audit":0,"is_ugc":0,"text_need":0,"picture_need":0,"video_need":5,"type":"templateapi"}]}}