{"code":0,"msg":"success","data":{"total":189,"per_page":10,"current_page":6,"last_page":19,"data":[{"id":"1015457","ufid":"70958740","name":"\u4eba\u7269\u7c92\u5b50\u6d88\u6563","file":"http:\/\/rdfile.oss-cn-hangzhou.aliyuncs.com\/filemanage\/e069b36c568d909f\/templateapi\/16560362803490\/file.zip?nonce=cfcd208495d565ef66e7dff9f98764da","cover":"http:\/\/rdfile.oss-cn-hangzhou.aliyuncs.com\/filemanage\/e069b36c568d909f\/templateapi\/16560362803490\/cover.webp?nonce=cfcd208495d565ef66e7dff9f98764da","updatetime":"0","height":1284,"width":854,"video":"http:\/\/rdfile.oss-cn-hangzhou.aliyuncs.com\/filemanage\/e069b36c568d909f\/templateapi\/16560362803490\/video.mp4?nonce=cfcd208495d565ef66e7dff9f98764da","sort":0,"version":153,"cover2":"","appkey":"init","duration":0,"extra":{},"polyglot":[],"category":"0","audit":0,"is_ugc":0,"text_need":0,"picture_need":0,"video_need":1,"type":"templateapi"},{"id":"1015456","ufid":"43966966","name":"\u52a8\u753b\u7247\u5c3e\u52a0\u5173\u6ce8","file":"http:\/\/rdfile.oss-cn-hangzhou.aliyuncs.com\/filemanage\/e069b36c568d909f\/templateapi\/16559743304400\/file.zip?nonce=001cf459f8056b198947f4d5da8b0b45","cover":"http:\/\/rdfile.oss-cn-hangzhou.aliyuncs.com\/filemanage\/e069b36c568d909f\/templateapi\/16559743304400\/cover.webp?nonce=001cf459f8056b198947f4d5da8b0b45","updatetime":"1684912213","height":1058,"width":595,"video":"http:\/\/rdfile.oss-cn-hangzhou.aliyuncs.com\/filemanage\/e069b36c568d909f\/templateapi\/16559743304400\/video.mp4?nonce=001cf459f8056b198947f4d5da8b0b45","sort":0,"version":153,"cover2":"","appkey":"init","duration":0,"extra":{},"polyglot":[],"category":"0","audit":0,"is_ugc":0,"text_need":1,"picture_need":0,"video_need":1,"type":"templateapi"},{"id":"1015389","ufid":"64748034","name":"\u4e13\u5c5e\u64ad\u653e\u5668","file":"http:\/\/rdfile.oss-cn-hangzhou.aliyuncs.com\/filemanage\/e069b36c568d909f\/templateapi\/16557820493793\/file.zip?nonce=be33aba62995f41d68ee66c425a5a7b5","cover":"http:\/\/rdfile.oss-cn-hangzhou.aliyuncs.com\/filemanage\/e069b36c568d909f\/templateapi\/16557820493793\/cover.webp?nonce=be33aba62995f41d68ee66c425a5a7b5","updatetime":"1684914363","height":607,"width":1080,"video":"http:\/\/rdfile.oss-cn-hangzhou.aliyuncs.com\/filemanage\/e069b36c568d909f\/templateapi\/16557820493793\/video.mp4?nonce=be33aba62995f41d68ee66c425a5a7b5","sort":0,"version":153,"cover2":"","appkey":"init","duration":0,"extra":{},"polyglot":[],"category":"0","audit":0,"is_ugc":0,"text_need":0,"picture_need":0,"video_need":3,"type":"templateapi"},{"id":"1015385","ufid":"74986696","name":"\u9ed1\u767d\u5f71\u5b50\u4f34\u821e\uff08\u4ec5\u652f\u6301\u7eff\u5e55\u7d20\u6750\uff09","file":"http:\/\/rdfile.oss-cn-hangzhou.aliyuncs.com\/filemanage\/e069b36c568d909f\/templateapi\/16554615192798\/file.zip?nonce=0be82114f9bbdb116a74b1928393304f","cover":"http:\/\/rdfile.oss-cn-hangzhou.aliyuncs.com\/filemanage\/e069b36c568d909f\/templateapi\/16554615192798\/cover.webp?nonce=0be82114f9bbdb116a74b1928393304f","updatetime":"1684912375","height":612,"width":1080,"video":"http:\/\/rdfile.oss-cn-hangzhou.aliyuncs.com\/filemanage\/e069b36c568d909f\/templateapi\/16554615192798\/video.mp4?nonce=0be82114f9bbdb116a74b1928393304f","sort":0,"version":153,"cover2":"","appkey":"init","duration":0,"extra":{},"polyglot":[],"category":"0","audit":0,"is_ugc":0,"text_need":0,"picture_need":0,"video_need":3,"type":"templateapi"},{"id":"1015383","ufid":"66009345","name":"\u9ed1\u767d\u5f71\u5b50\u821e\uff08\u62a0\u4eba\u50cf\u7248\uff09","file":"http:\/\/rdfile.oss-cn-hangzhou.aliyuncs.com\/filemanage\/e069b36c568d909f\/templateapi\/16554540959621\/file.zip?nonce=58f4790f1e937b7b9c0f853ff29703e6","cover":"http:\/\/rdfile.oss-cn-hangzhou.aliyuncs.com\/filemanage\/e069b36c568d909f\/templateapi\/16554540959621\/cover.webp?nonce=58f4790f1e937b7b9c0f853ff29703e6","updatetime":"1684912382","height":612,"width":1080,"video":"http:\/\/rdfile.oss-cn-hangzhou.aliyuncs.com\/filemanage\/e069b36c568d909f\/templateapi\/16554540959621\/video.mp4?nonce=58f4790f1e937b7b9c0f853ff29703e6","sort":0,"version":153,"cover2":"","appkey":"init","duration":0,"extra":{},"polyglot":[],"category":"0","audit":0,"is_ugc":0,"text_need":0,"picture_need":0,"video_need":3,"type":"templateapi"},{"id":"1015381","ufid":"26787394","name":"\u4eba\u50cf\u7eff\u5e55\u5236\u4f5c","file":"http:\/\/rdfile.oss-cn-hangzhou.aliyuncs.com\/filemanage\/e069b36c568d909f\/templateapi\/16554534584248\/file.zip?nonce=187fdc30e89bf3617e08b190ee14262b","cover":"http:\/\/rdfile.oss-cn-hangzhou.aliyuncs.com\/filemanage\/e069b36c568d909f\/templateapi\/16554534584248\/cover.webp?nonce=187fdc30e89bf3617e08b190ee14262b","updatetime":"1684896927","height":1060,"width":596,"video":"http:\/\/rdfile.oss-cn-hangzhou.aliyuncs.com\/filemanage\/e069b36c568d909f\/templateapi\/16554534584248\/video.mp4?nonce=187fdc30e89bf3617e08b190ee14262b","sort":0,"version":153,"cover2":"","appkey":"init","duration":0,"extra":{},"polyglot":[],"category":"0","audit":0,"is_ugc":0,"text_need":0,"picture_need":0,"video_need":1,"type":"templateapi"},{"id":"1015370","ufid":"65828303","name":"\u76db\u653e\u7684\u82b1","file":"http:\/\/rdfile.oss-cn-hangzhou.aliyuncs.com\/filemanage\/e069b36c568d909f\/templateapi\/16552861198325\/file.zip?nonce=cfcd208495d565ef66e7dff9f98764da","cover":"http:\/\/rdfile.oss-cn-hangzhou.aliyuncs.com\/filemanage\/e069b36c568d909f\/templateapi\/16552861198325\/cover.webp?nonce=cfcd208495d565ef66e7dff9f98764da","updatetime":"0","height":1281,"width":720,"video":"http:\/\/rdfile.oss-cn-hangzhou.aliyuncs.com\/filemanage\/e069b36c568d909f\/templateapi\/16552861198325\/video.mp4?nonce=cfcd208495d565ef66e7dff9f98764da","sort":0,"version":153,"cover2":"","appkey":"init","duration":0,"extra":{},"polyglot":[],"category":"0","audit":0,"is_ugc":0,"text_need":0,"picture_need":0,"video_need":1,"type":"templateapi"},{"id":"1015369","ufid":"46013972","name":"\u8499\u7248\u521b\u610f\u51fa\u573a","file":"http:\/\/rdfile.oss-cn-hangzhou.aliyuncs.com\/filemanage\/e069b36c568d909f\/templateapi\/16552848888955\/file.zip?nonce=184ca61ca2cc1ccd15f596cb888b47bf","cover":"http:\/\/rdfile.oss-cn-hangzhou.aliyuncs.com\/filemanage\/e069b36c568d909f\/templateapi\/16552848888955\/cover.webp?nonce=184ca61ca2cc1ccd15f596cb888b47bf","updatetime":"1684912469","height":1059,"width":765,"video":"http:\/\/rdfile.oss-cn-hangzhou.aliyuncs.com\/filemanage\/e069b36c568d909f\/templateapi\/16552848888955\/video.mp4?nonce=184ca61ca2cc1ccd15f596cb888b47bf","sort":0,"version":153,"cover2":"","appkey":"init","duration":0,"extra":{},"polyglot":[],"category":"0","audit":0,"is_ugc":0,"text_need":0,"picture_need":9,"video_need":0,"type":"templateapi"},{"id":"1015347","ufid":"76371423","name":"\u653e\u5927\u955c\u6362\u88c5","file":"http:\/\/rdfile.oss-cn-hangzhou.aliyuncs.com\/filemanage\/e069b36c568d909f\/templateapi\/16551737623222\/file.zip?nonce=cfcd208495d565ef66e7dff9f98764da","cover":"http:\/\/rdfile.oss-cn-hangzhou.aliyuncs.com\/filemanage\/e069b36c568d909f\/templateapi\/16551737623222\/cover.webp?nonce=cfcd208495d565ef66e7dff9f98764da","updatetime":"0","height":1280,"width":720,"video":"http:\/\/rdfile.oss-cn-hangzhou.aliyuncs.com\/filemanage\/e069b36c568d909f\/templateapi\/16551737623222\/video.mp4?nonce=cfcd208495d565ef66e7dff9f98764da","sort":0,"version":153,"cover2":"","appkey":"init","duration":0,"extra":{},"polyglot":[],"category":"0","audit":0,"is_ugc":0,"text_need":0,"picture_need":0,"video_need":2,"type":"templateapi"},{"id":"1015345","ufid":"96042841","name":"\u97f3\u4e50\u8fdb\u5ea6\u6761","file":"http:\/\/rdfile.oss-cn-hangzhou.aliyuncs.com\/filemanage\/e069b36c568d909f\/templateapi\/16551695297862\/file.zip?nonce=cfcd208495d565ef66e7dff9f98764da","cover":"http:\/\/rdfile.oss-cn-hangzhou.aliyuncs.com\/filemanage\/e069b36c568d909f\/templateapi\/16551695297862\/cover.webp?nonce=cfcd208495d565ef66e7dff9f98764da","updatetime":"0","height":625,"width":1111,"video":"http:\/\/rdfile.oss-cn-hangzhou.aliyuncs.com\/filemanage\/e069b36c568d909f\/templateapi\/16551695297862\/video.mp4?nonce=cfcd208495d565ef66e7dff9f98764da","sort":0,"version":153,"cover2":"","appkey":"init","duration":0,"extra":{},"polyglot":[],"category":"0","audit":0,"is_ugc":0,"text_need":4,"picture_need":0,"video_need":1,"type":"templateapi"}]}}