{"code":0,"msg":"success","data":{"total":636,"per_page":10,"current_page":6,"last_page":64,"data":[{"id":"1016846","ufid":"52523748","name":"\u9152\u7cbe\u8fc7\u654f\u7684\u5e05\u54e5","file":"http:\/\/rdfile.oss-cn-hangzhou.aliyuncs.com\/filemanage\/e069b36c568d909f\/templateapi\/16715322156548\/file.zip?nonce=4ec1f2e2a7e2ac5e2f9896695e1d3a7f","cover":"http:\/\/rdfile.oss-cn-hangzhou.aliyuncs.com\/filemanage\/e069b36c568d909f\/templateapi\/16715322156548\/cover.webp?nonce=4ec1f2e2a7e2ac5e2f9896695e1d3a7f","updatetime":"1704186007","height":1920,"width":1080,"video":"http:\/\/rdfile.oss-cn-hangzhou.aliyuncs.com\/filemanage\/e069b36c568d909f\/templateapi\/16715322156548\/video.mp4?nonce=4ec1f2e2a7e2ac5e2f9896695e1d3a7f","sort":0,"version":157,"cover2":"","appkey":"init","duration":0,"extra":{},"polyglot":{"en":"Handsome guy with alcohol allergy"},"category":"0","audit":0,"is_ugc":0,"text_need":0,"picture_need":0,"video_need":1,"type":"templateapi"},{"id":"1016841","ufid":"26349016","name":"\u4e0b\u96ea\u7279\u6548","file":"http:\/\/rdfile.oss-cn-hangzhou.aliyuncs.com\/filemanage\/e069b36c568d909f\/templateapi\/16715282554309\/file.zip?nonce=4ec1f2e2a7e2ac5e2f9896695e1d3a7f","cover":"http:\/\/rdfile.oss-cn-hangzhou.aliyuncs.com\/filemanage\/e069b36c568d909f\/templateapi\/16715282554309\/cover.webp?nonce=4ec1f2e2a7e2ac5e2f9896695e1d3a7f","updatetime":"1704186007","height":1058,"width":595,"video":"http:\/\/rdfile.oss-cn-hangzhou.aliyuncs.com\/filemanage\/e069b36c568d909f\/templateapi\/16715282554309\/video.mp4?nonce=4ec1f2e2a7e2ac5e2f9896695e1d3a7f","sort":0,"version":155,"cover2":"","appkey":"init","duration":0,"extra":{},"polyglot":{"en":"Snow effects"},"category":"0","audit":0,"is_ugc":0,"text_need":0,"picture_need":0,"video_need":1,"type":"templateapi"},{"id":"1016836","ufid":"85232949","name":"\u65e5\u843d\u6162\u52a8\u4f5c\u53d8\u8272","file":"http:\/\/rdfile.oss-cn-hangzhou.aliyuncs.com\/filemanage\/e069b36c568d909f\/templateapi\/16714427662384\/file.zip?nonce=be08db9e6beb23998850b7d024a00c83","cover":"http:\/\/rdfile.oss-cn-hangzhou.aliyuncs.com\/filemanage\/e069b36c568d909f\/templateapi\/16714427662384\/cover.webp?nonce=be08db9e6beb23998850b7d024a00c83","updatetime":"1704186006","height":1920,"width":1080,"video":"http:\/\/rdfile.oss-cn-hangzhou.aliyuncs.com\/filemanage\/e069b36c568d909f\/templateapi\/16714427662384\/video.mp4?nonce=be08db9e6beb23998850b7d024a00c83","sort":0,"version":157,"cover2":"","appkey":"init","duration":0,"extra":{},"polyglot":{"en":"Sunset slow motion color changing"},"category":"0","audit":0,"is_ugc":0,"text_need":0,"picture_need":0,"video_need":1,"type":"templateapi"},{"id":"1016833","ufid":"80241868","name":"\u5706\u5f62\u626b\u63cf\u8f6c\u573a","file":"http:\/\/rdfile.oss-cn-hangzhou.aliyuncs.com\/filemanage\/e069b36c568d909f\/templateapi\/16714232411079\/file.zip?nonce=be08db9e6beb23998850b7d024a00c83","cover":"http:\/\/rdfile.oss-cn-hangzhou.aliyuncs.com\/filemanage\/e069b36c568d909f\/templateapi\/16714232411079\/cover.webp?nonce=be08db9e6beb23998850b7d024a00c83","updatetime":"1704186006","height":607,"width":1080,"video":"http:\/\/rdfile.oss-cn-hangzhou.aliyuncs.com\/filemanage\/e069b36c568d909f\/templateapi\/16714232411079\/video.mp4?nonce=be08db9e6beb23998850b7d024a00c83","sort":0,"version":155,"cover2":"","appkey":"init","duration":0,"extra":{},"polyglot":{"en":"Circular scan transition"},"category":"0","audit":0,"is_ugc":0,"text_need":0,"picture_need":0,"video_need":4,"type":"templateapi"},{"id":"1016825","ufid":"45299896","name":"\u6d41\u661f\u5212\u8fc7","file":"http:\/\/rdfile.oss-cn-hangzhou.aliyuncs.com\/filemanage\/e069b36c568d909f\/templateapi\/16711824979108\/file.zip?nonce=24938d36816f16aee9c0861f7b48f91b","cover":"http:\/\/rdfile.oss-cn-hangzhou.aliyuncs.com\/filemanage\/e069b36c568d909f\/templateapi\/16711824979108\/cover.webp?nonce=24938d36816f16aee9c0861f7b48f91b","updatetime":"1704186005","height":607,"width":1080,"video":"http:\/\/rdfile.oss-cn-hangzhou.aliyuncs.com\/filemanage\/e069b36c568d909f\/templateapi\/16711824979108\/video.mp4?nonce=24938d36816f16aee9c0861f7b48f91b","sort":0,"version":155,"cover2":"","appkey":"init","duration":0,"extra":{},"polyglot":{"en":"Meteor passing by"},"category":"0","audit":0,"is_ugc":0,"text_need":0,"picture_need":2,"video_need":0,"type":"templateapi"},{"id":"1016823","ufid":"62548466","name":"\u624b\u673a\u53d6\u666f\u73a9\u6cd5","file":"http:\/\/rdfile.oss-cn-hangzhou.aliyuncs.com\/filemanage\/e069b36c568d909f\/templateapi\/16710977616227\/file.zip?nonce=24938d36816f16aee9c0861f7b48f91b","cover":"http:\/\/rdfile.oss-cn-hangzhou.aliyuncs.com\/filemanage\/e069b36c568d909f\/templateapi\/16710977616227\/cover.webp?nonce=24938d36816f16aee9c0861f7b48f91b","updatetime":"1704186005","height":1060,"width":596,"video":"http:\/\/rdfile.oss-cn-hangzhou.aliyuncs.com\/filemanage\/e069b36c568d909f\/templateapi\/16710977616227\/video.mp4?nonce=24938d36816f16aee9c0861f7b48f91b","sort":0,"version":155,"cover2":"","appkey":"init","duration":0,"extra":{},"polyglot":{"en":"Mobile phone viewing method"},"category":"0","audit":0,"is_ugc":0,"text_need":0,"picture_need":0,"video_need":2,"type":"templateapi"},{"id":"1016705","ufid":"38835372","name":"\u9759\u5f85\u65f6\u5149","file":"http:\/\/rdfile.oss-cn-hangzhou.aliyuncs.com\/filemanage\/e069b36c568d909f\/templateapi\/16710144149424\/file.zip?nonce=24938d36816f16aee9c0861f7b48f91b","cover":"http:\/\/rdfile.oss-cn-hangzhou.aliyuncs.com\/filemanage\/e069b36c568d909f\/templateapi\/16710144149424\/cover.webp?nonce=24938d36816f16aee9c0861f7b48f91b","updatetime":"1704186005","height":1060,"width":596,"video":"http:\/\/rdfile.oss-cn-hangzhou.aliyuncs.com\/filemanage\/e069b36c568d909f\/templateapi\/16710144149424\/video.mp4?nonce=24938d36816f16aee9c0861f7b48f91b","sort":0,"version":155,"cover2":"","appkey":"init","duration":0,"extra":{},"polyglot":{"en":"Wait for time"},"category":"0","audit":0,"is_ugc":0,"text_need":1,"picture_need":0,"video_need":1,"type":"templateapi"},{"id":"1016701","ufid":"86671130","name":"\u52a8\u611f\u7167\u7247\u5361\u70b9","file":"http:\/\/rdfile.oss-cn-hangzhou.aliyuncs.com\/filemanage\/e069b36c568d909f\/templateapi\/16709259122247\/file.zip?nonce=398c87b8864407c434c78e96091d2059","cover":"http:\/\/rdfile.oss-cn-hangzhou.aliyuncs.com\/filemanage\/e069b36c568d909f\/templateapi\/16709259122247\/cover.webp?nonce=398c87b8864407c434c78e96091d2059","updatetime":"1704186004","height":1920,"width":1080,"video":"http:\/\/rdfile.oss-cn-hangzhou.aliyuncs.com\/filemanage\/e069b36c568d909f\/templateapi\/16709259122247\/video.mp4?nonce=398c87b8864407c434c78e96091d2059","sort":0,"version":157,"cover2":"","appkey":"init","duration":0,"extra":{},"polyglot":{"en":"Right time dynamic photos"},"category":"0","audit":0,"is_ugc":0,"text_need":0,"picture_need":0,"video_need":5,"type":"templateapi"},{"id":"1016700","ufid":"24390097","name":"\u5bff\u53f8\u5e7f\u544a","file":"http:\/\/rdfile.oss-cn-hangzhou.aliyuncs.com\/filemanage\/e069b36c568d909f\/templateapi\/16709250913882\/file.zip?nonce=398c87b8864407c434c78e96091d2059","cover":"http:\/\/rdfile.oss-cn-hangzhou.aliyuncs.com\/filemanage\/e069b36c568d909f\/templateapi\/16709250913882\/cover.webp?nonce=398c87b8864407c434c78e96091d2059","updatetime":"1704186004","height":608,"width":1080,"video":"http:\/\/rdfile.oss-cn-hangzhou.aliyuncs.com\/filemanage\/e069b36c568d909f\/templateapi\/16709250913882\/video.mp4?nonce=398c87b8864407c434c78e96091d2059","sort":0,"version":155,"cover2":"","appkey":"init","duration":0,"extra":{},"polyglot":{"en":"Sushi advertising"},"category":"0","audit":0,"is_ugc":0,"text_need":2,"picture_need":0,"video_need":0,"type":"templateapi"},{"id":"1016697","ufid":"23603760","name":"\u6d77\u5e02\u8703\u697c\u7684\u7ae5\u8bdd \u97f3\u4e50\u5361\u70b9","file":"http:\/\/rdfile.oss-cn-hangzhou.aliyuncs.com\/filemanage\/e069b36c568d909f\/templateapi\/16708382113342\/file.zip?nonce=23d485e3442f519f8feb12eb61ee95b5","cover":"http:\/\/rdfile.oss-cn-hangzhou.aliyuncs.com\/filemanage\/e069b36c568d909f\/templateapi\/16708382113342\/cover.webp?nonce=23d485e3442f519f8feb12eb61ee95b5","updatetime":"1704186003","height":1920,"width":1080,"video":"http:\/\/rdfile.oss-cn-hangzhou.aliyuncs.com\/filemanage\/e069b36c568d909f\/templateapi\/16708382113342\/video.mp4?nonce=23d485e3442f519f8feb12eb61ee95b5","sort":0,"version":157,"cover2":"","appkey":"init","duration":0,"extra":{},"polyglot":{"en":"Mirage Fairy Tale Music Card Point"},"category":"0","audit":0,"is_ugc":0,"text_need":0,"picture_need":0,"video_need":10,"type":"templateapi"}]}}