{"code":0,"msg":"success","data":{"total":173,"per_page":10,"current_page":6,"last_page":18,"data":[{"id":"1014970","ufid":"62064932","name":"\u5e7c\u513f\u56ed\u6bd5\u4e1a\u5b63","file":"http:\/\/rdfile.oss-cn-hangzhou.aliyuncs.com\/filemanage\/e069b36c568d909f\/templateapi\/16518290141542\/file.zip?nonce=bc69b6e102f0d6bfb3ab25b40375bdd5","cover":"http:\/\/rdfile.oss-cn-hangzhou.aliyuncs.com\/filemanage\/e069b36c568d909f\/templateapi\/16518290141542\/cover.webp?nonce=bc69b6e102f0d6bfb3ab25b40375bdd5","updatetime":"1704185859","height":1280,"width":720,"video":"http:\/\/rdfile.oss-cn-hangzhou.aliyuncs.com\/filemanage\/e069b36c568d909f\/templateapi\/16518290141542\/video.mp4?nonce=bc69b6e102f0d6bfb3ab25b40375bdd5","sort":0,"version":153,"cover2":"","appkey":"init","duration":0,"extra":{},"polyglot":{"en":"Kindergarten Graduation Season"},"category":"0","audit":0,"is_ugc":0,"text_need":0,"picture_need":0,"video_need":10,"type":"templateapi"},{"id":"1012380","ufid":"37476535","name":"\u5404\u79d1\u8001\u5e08\u8bf4","file":"http:\/\/rdfile.oss-cn-hangzhou.aliyuncs.com\/filemanage\/e069b36c568d909f\/templateapi\/16316732258522\/file.zip?nonce=95503314f5846dfe1720eab02f036822","cover":"http:\/\/rdfile.oss-cn-hangzhou.aliyuncs.com\/filemanage\/e069b36c568d909f\/templateapi\/16316732258522\/cover.png?nonce=95503314f5846dfe1720eab02f036822&x-oss-process=style\/templateapi","updatetime":"1704185713","height":1280,"width":720,"video":"http:\/\/rdfile.oss-cn-hangzhou.aliyuncs.com\/filemanage\/e069b36c568d909f\/templateapi\/16316732258522\/video.mp4?nonce=95503314f5846dfe1720eab02f036822","sort":100,"version":148,"cover2":"","appkey":"init","duration":0,"extra":{},"polyglot":{"en":"Teachers of various subjects said"},"category":"0","audit":0,"is_ugc":0,"text_need":25,"picture_need":8,"video_need":0,"type":"templateapi"},{"id":"1016349","ufid":"30718064","name":"\u597d\u597d\u7231\u81ea\u5df1","file":"http:\/\/rdfile.oss-cn-hangzhou.aliyuncs.com\/filemanage\/e069b36c568d909f\/templateapi\/16673751049281\/file.zip?nonce=8fb4779c7ae8fde8fd671013b4a6100f","cover":"http:\/\/rdfile.oss-cn-hangzhou.aliyuncs.com\/filemanage\/e069b36c568d909f\/templateapi\/16673751049281\/cover.webp?nonce=8fb4779c7ae8fde8fd671013b4a6100f","updatetime":"1704185971","height":1746,"width":983,"video":"http:\/\/rdfile.oss-cn-hangzhou.aliyuncs.com\/filemanage\/e069b36c568d909f\/templateapi\/16673751049281\/video.mp4?nonce=8fb4779c7ae8fde8fd671013b4a6100f","sort":0,"version":155,"cover2":"","appkey":"init","duration":0,"extra":{},"polyglot":{"en":"Love yourself"},"category":"0","audit":0,"is_ugc":0,"text_need":0,"picture_need":10,"video_need":0,"type":"templateapi"},{"id":"1016346","ufid":"88525341","name":"\u5907\u5fd8\u5f55","file":"http:\/\/rdfile.oss-cn-hangzhou.aliyuncs.com\/filemanage\/e069b36c568d909f\/templateapi\/16673708561063\/file.zip?nonce=8fb4779c7ae8fde8fd671013b4a6100f","cover":"http:\/\/rdfile.oss-cn-hangzhou.aliyuncs.com\/filemanage\/e069b36c568d909f\/templateapi\/16673708561063\/cover.webp?nonce=8fb4779c7ae8fde8fd671013b4a6100f","updatetime":"1704185971","height":1748,"width":1005,"video":"http:\/\/rdfile.oss-cn-hangzhou.aliyuncs.com\/filemanage\/e069b36c568d909f\/templateapi\/16673708561063\/video.mp4?nonce=8fb4779c7ae8fde8fd671013b4a6100f","sort":0,"version":154,"cover2":"","appkey":"init","duration":0,"extra":{},"polyglot":{"en":"Memo"},"category":"0","audit":0,"is_ugc":0,"text_need":1,"picture_need":0,"video_need":2,"type":"templateapi"},{"id":"1016180","ufid":"90096902","name":"\u624b\u5199\u4fe1","file":"http:\/\/rdfile.oss-cn-hangzhou.aliyuncs.com\/filemanage\/e069b36c568d909f\/templateapi\/16656558725104\/file.zip?nonce=511d8a1b14e59423d807dd88c80e823e","cover":"http:\/\/rdfile.oss-cn-hangzhou.aliyuncs.com\/filemanage\/e069b36c568d909f\/templateapi\/16656558725104\/cover.webp?nonce=511d8a1b14e59423d807dd88c80e823e","updatetime":"1704185951","height":1059,"width":795,"video":"http:\/\/rdfile.oss-cn-hangzhou.aliyuncs.com\/filemanage\/e069b36c568d909f\/templateapi\/16656558725104\/video.mp4?nonce=511d8a1b14e59423d807dd88c80e823e","sort":0,"version":153,"cover2":"","appkey":"init","duration":0,"extra":{},"polyglot":{"en":"Handwritten letter"},"category":"0","audit":0,"is_ugc":0,"text_need":2,"picture_need":0,"video_need":1,"type":"templateapi"},{"id":"1016135","ufid":"24094250","name":"\u5165\u79cb\u4e86","file":"http:\/\/rdfile.oss-cn-hangzhou.aliyuncs.com\/filemanage\/e069b36c568d909f\/templateapi\/16653920697317\/file.zip?nonce=aa46bf68424f8ff99962983a0a00bcf0","cover":"http:\/\/rdfile.oss-cn-hangzhou.aliyuncs.com\/filemanage\/e069b36c568d909f\/templateapi\/16653920697317\/cover.webp?nonce=aa46bf68424f8ff99962983a0a00bcf0","updatetime":"1704185945","height":1236,"width":727,"video":"http:\/\/rdfile.oss-cn-hangzhou.aliyuncs.com\/filemanage\/e069b36c568d909f\/templateapi\/16653920697317\/video.mp4?nonce=aa46bf68424f8ff99962983a0a00bcf0","sort":0,"version":153,"cover2":"","appkey":"init","duration":0,"extra":{},"polyglot":{"en":"It"},"category":"0","audit":0,"is_ugc":0,"text_need":6,"picture_need":1,"video_need":0,"type":"templateapi"},{"id":"1016124","ufid":"28445622","name":"Ilikethat\u5361\u70b9\u53d8\u88c5","file":"http:\/\/rdfile.oss-cn-hangzhou.aliyuncs.com\/filemanage\/e069b36c568d909f\/templateapi\/16653039827408\/file.zip?nonce=3a544b317a67939b63c2216e661d3195","cover":"http:\/\/rdfile.oss-cn-hangzhou.aliyuncs.com\/filemanage\/e069b36c568d909f\/templateapi\/16653039827408\/cover.webp?nonce=3a544b317a67939b63c2216e661d3195","updatetime":"1704185944","height":1920,"width":1080,"video":"http:\/\/rdfile.oss-cn-hangzhou.aliyuncs.com\/filemanage\/e069b36c568d909f\/templateapi\/16653039827408\/video.mp4?nonce=3a544b317a67939b63c2216e661d3195","sort":0,"version":153,"cover2":"","appkey":"init","duration":0,"extra":{},"polyglot":{"en":"Right time Ilikethat crossdressing"},"category":"0","audit":0,"is_ugc":0,"text_need":0,"picture_need":0,"video_need":3,"type":"templateapi"},{"id":"1016110","ufid":"25021559","name":"\u624b\u52bf\u5361\u70b9\u53d8\u88c5","file":"http:\/\/rdfile.oss-cn-hangzhou.aliyuncs.com\/filemanage\/e069b36c568d909f\/templateapi\/16652855919783\/file.zip?nonce=3a544b317a67939b63c2216e661d3195","cover":"http:\/\/rdfile.oss-cn-hangzhou.aliyuncs.com\/filemanage\/e069b36c568d909f\/templateapi\/16652855919783\/cover.webp?nonce=3a544b317a67939b63c2216e661d3195","updatetime":"1704185944","height":1280,"width":720,"video":"http:\/\/rdfile.oss-cn-hangzhou.aliyuncs.com\/filemanage\/e069b36c568d909f\/templateapi\/16652855919783\/video.mp4?nonce=3a544b317a67939b63c2216e661d3195","sort":0,"version":153,"cover2":"","appkey":"init","duration":0,"extra":{},"polyglot":{"en":"Right time Gesture crossdressing"},"category":"0","audit":0,"is_ugc":0,"text_need":0,"picture_need":0,"video_need":2,"type":"templateapi"},{"id":"1015149","ufid":"57882475","name":"NBA\u5f0f\u751f\u65e5\u5feb\u4e50","file":"http:\/\/rdfile.oss-cn-hangzhou.aliyuncs.com\/filemanage\/e069b36c568d909f\/templateapi\/16526735375404\/file.zip?nonce=75034065b34cc5cc5364efec6e8b2938","cover":"http:\/\/rdfile.oss-cn-hangzhou.aliyuncs.com\/filemanage\/e069b36c568d909f\/templateapi\/16526735375404\/cover.webp?nonce=75034065b34cc5cc5364efec6e8b2938","updatetime":"1704185865","height":1280,"width":720,"video":"http:\/\/rdfile.oss-cn-hangzhou.aliyuncs.com\/filemanage\/e069b36c568d909f\/templateapi\/16526735375404\/video.mp4?nonce=75034065b34cc5cc5364efec6e8b2938","sort":0,"version":153,"cover2":"","appkey":"init","duration":0,"extra":{},"polyglot":{"en":"Happy birthday NBA style"},"category":"0","audit":0,"is_ugc":0,"text_need":0,"picture_need":0,"video_need":1,"type":"templateapi"},{"id":"1013061","ufid":"14658755","name":"\u8de8\u5e74\u6587\u6848","file":"http:\/\/rdfile.oss-cn-hangzhou.aliyuncs.com\/filemanage\/e069b36c568d909f\/templateapi\/16407722385506\/file.zip?nonce=3878fe3741efa85d6d1717a8ae0065a8","cover":"http:\/\/rdfile.oss-cn-hangzhou.aliyuncs.com\/filemanage\/e069b36c568d909f\/templateapi\/16407722385506\/cover.png?nonce=3878fe3741efa85d6d1717a8ae0065a8&x-oss-process=style\/templateapi","updatetime":"1704185742","height":1231,"width":693,"video":"http:\/\/rdfile.oss-cn-hangzhou.aliyuncs.com\/filemanage\/e069b36c568d909f\/templateapi\/16407722385506\/video.mp4?nonce=3878fe3741efa85d6d1717a8ae0065a8","sort":100,"version":150,"cover2":"","appkey":"init","duration":0,"extra":{},"polyglot":{"en":"New Year"},"category":"0","audit":0,"is_ugc":0,"text_need":0,"picture_need":0,"video_need":0,"type":"templateapi"}]}}