{"code":0,"msg":"success","data":{"total":636,"per_page":10,"current_page":43,"last_page":64,"data":[{"id":"1013092","ufid":"87433445","name":"\u7a97\u53e3\u5361\u70b9","file":"http:\/\/rdfile.oss-cn-hangzhou.aliyuncs.com\/filemanage\/e069b36c568d909f\/templateapi\/16418044365215\/file.zip?nonce=cfcd208495d565ef66e7dff9f98764da","cover":"http:\/\/rdfile.oss-cn-hangzhou.aliyuncs.com\/filemanage\/e069b36c568d909f\/templateapi\/16418044365215\/cover.png?nonce=cfcd208495d565ef66e7dff9f98764da&x-oss-process=style\/templateapi","updatetime":"0","height":1080,"width":1920,"video":"http:\/\/rdfile.oss-cn-hangzhou.aliyuncs.com\/filemanage\/e069b36c568d909f\/templateapi\/16418044365215\/video.mp4?nonce=cfcd208495d565ef66e7dff9f98764da","sort":100,"version":150,"cover2":"","appkey":"init","duration":0,"extra":{},"polyglot":[],"category":"0","audit":0,"is_ugc":0,"text_need":0,"picture_need":0,"video_need":14,"type":"templateapi"},{"id":"1013090","ufid":"60416827","name":"\u6a2a\u5411\u6eda\u52a8\u76f8\u518c","file":"http:\/\/rdfile.oss-cn-hangzhou.aliyuncs.com\/filemanage\/e069b36c568d909f\/templateapi\/16417988523913\/file.zip?nonce=8e7939d810509ef6b36182b8d1eb5f17","cover":"http:\/\/rdfile.oss-cn-hangzhou.aliyuncs.com\/filemanage\/e069b36c568d909f\/templateapi\/16417988523913\/cover.png?nonce=8e7939d810509ef6b36182b8d1eb5f17&x-oss-process=style\/templateapi","updatetime":"1684914381","height":1080,"width":1920,"video":"http:\/\/rdfile.oss-cn-hangzhou.aliyuncs.com\/filemanage\/e069b36c568d909f\/templateapi\/16417988523913\/video.mp4?nonce=8e7939d810509ef6b36182b8d1eb5f17","sort":100,"version":150,"cover2":"","appkey":"init","duration":0,"extra":{},"polyglot":[],"category":"0","audit":0,"is_ugc":0,"text_need":0,"picture_need":0,"video_need":4,"type":"templateapi"},{"id":"1013088","ufid":"60639518","name":"\u6d41\u52a8\u7167\u7247","file":"http:\/\/rdfile.oss-cn-hangzhou.aliyuncs.com\/filemanage\/e069b36c568d909f\/templateapi\/16415440158402\/file.zip?nonce=cfcd208495d565ef66e7dff9f98764da","cover":"http:\/\/rdfile.oss-cn-hangzhou.aliyuncs.com\/filemanage\/e069b36c568d909f\/templateapi\/16415440158402\/cover.png?nonce=cfcd208495d565ef66e7dff9f98764da&x-oss-process=style\/templateapi","updatetime":"0","height":1280,"width":720,"video":"http:\/\/rdfile.oss-cn-hangzhou.aliyuncs.com\/filemanage\/e069b36c568d909f\/templateapi\/16415440158402\/video.mp4?nonce=cfcd208495d565ef66e7dff9f98764da","sort":100,"version":150,"cover2":"","appkey":"init","duration":0,"extra":{},"polyglot":[],"category":"0","audit":0,"is_ugc":0,"text_need":0,"picture_need":0,"video_need":10,"type":"templateapi"},{"id":"1013087","ufid":"27922351","name":"\u5e0c\u533a\u67ef\u514b","file":"http:\/\/rdfile.oss-cn-hangzhou.aliyuncs.com\/filemanage\/e069b36c568d909f\/templateapi\/16415228822174\/file.zip?nonce=cfcd208495d565ef66e7dff9f98764da","cover":"http:\/\/rdfile.oss-cn-hangzhou.aliyuncs.com\/filemanage\/e069b36c568d909f\/templateapi\/16415228822174\/cover.png?nonce=cfcd208495d565ef66e7dff9f98764da&x-oss-process=style\/templateapi","updatetime":"0","height":1230,"width":692,"video":"http:\/\/rdfile.oss-cn-hangzhou.aliyuncs.com\/filemanage\/e069b36c568d909f\/templateapi\/16415228822174\/video.mp4?nonce=cfcd208495d565ef66e7dff9f98764da","sort":100,"version":150,"cover2":"","appkey":"init","duration":0,"extra":{},"polyglot":[],"category":"0","audit":0,"is_ugc":0,"text_need":4,"picture_need":2,"video_need":0,"type":"templateapi"},{"id":"1013084","ufid":"39109117","name":"2022\u5e73\u5b89\u559c\u4e50","file":"http:\/\/rdfile.oss-cn-hangzhou.aliyuncs.com\/filemanage\/e069b36c568d909f\/templateapi\/16414572931335\/file.zip?nonce=cfcd208495d565ef66e7dff9f98764da","cover":"http:\/\/rdfile.oss-cn-hangzhou.aliyuncs.com\/filemanage\/e069b36c568d909f\/templateapi\/16414572931335\/cover.png?nonce=cfcd208495d565ef66e7dff9f98764da&x-oss-process=style\/templateapi","updatetime":"0","height":1280,"width":720,"video":"http:\/\/rdfile.oss-cn-hangzhou.aliyuncs.com\/filemanage\/e069b36c568d909f\/templateapi\/16414572931335\/video.mp4?nonce=cfcd208495d565ef66e7dff9f98764da","sort":100,"version":150,"cover2":"","appkey":"init","duration":0,"extra":{},"polyglot":[],"category":"0","audit":0,"is_ugc":0,"text_need":0,"picture_need":0,"video_need":2,"type":"templateapi"},{"id":"1013075","ufid":"72350030","name":"\u4e00\u4e2a\u955c\u5934\u4e00\u53e5\u6b4c\u8bcd","file":"http:\/\/rdfile.oss-cn-hangzhou.aliyuncs.com\/filemanage\/e069b36c568d909f\/templateapi\/16413477459438\/file.zip?nonce=2a8d7a1538c20b3b428c357f18db6bb6","cover":"http:\/\/rdfile.oss-cn-hangzhou.aliyuncs.com\/filemanage\/e069b36c568d909f\/templateapi\/16413477459438\/cover.png?nonce=2a8d7a1538c20b3b428c357f18db6bb6&x-oss-process=style\/templateapi","updatetime":"1684895196","height":1232,"width":693,"video":"http:\/\/rdfile.oss-cn-hangzhou.aliyuncs.com\/filemanage\/e069b36c568d909f\/templateapi\/16413477459438\/video.mp4?nonce=2a8d7a1538c20b3b428c357f18db6bb6","sort":100,"version":150,"cover2":"","appkey":"init","duration":0,"extra":{},"polyglot":[],"category":"0","audit":0,"is_ugc":0,"text_need":3,"picture_need":1,"video_need":0,"type":"templateapi"},{"id":"1013074","ufid":"39084250","name":"\u65e9\u5b89","file":"http:\/\/rdfile.oss-cn-hangzhou.aliyuncs.com\/filemanage\/e069b36c568d909f\/templateapi\/16412644813240\/file.zip?nonce=fe2c0c7dd4c9ab2b742ec80306dd124f","cover":"http:\/\/rdfile.oss-cn-hangzhou.aliyuncs.com\/filemanage\/e069b36c568d909f\/templateapi\/16412644813240\/cover.png?nonce=fe2c0c7dd4c9ab2b742ec80306dd124f&x-oss-process=style\/templateapi","updatetime":"1684913863","height":1231,"width":693,"video":"http:\/\/rdfile.oss-cn-hangzhou.aliyuncs.com\/filemanage\/e069b36c568d909f\/templateapi\/16412644813240\/video.mp4?nonce=fe2c0c7dd4c9ab2b742ec80306dd124f","sort":100,"version":150,"cover2":"","appkey":"init","duration":0,"extra":{},"polyglot":[],"category":"0","audit":0,"is_ugc":0,"text_need":5,"picture_need":1,"video_need":0,"type":"templateapi"},{"id":"1013063","ufid":"87971006","name":"2021\u56de\u5fc6\u5f55","file":"http:\/\/rdfile.oss-cn-hangzhou.aliyuncs.com\/filemanage\/e069b36c568d909f\/templateapi\/16408456758377\/file.zip?nonce=cfcd208495d565ef66e7dff9f98764da","cover":"http:\/\/rdfile.oss-cn-hangzhou.aliyuncs.com\/filemanage\/e069b36c568d909f\/templateapi\/16408456758377\/cover.png?nonce=cfcd208495d565ef66e7dff9f98764da&x-oss-process=style\/templateapi","updatetime":"0","height":1230,"width":692,"video":"http:\/\/rdfile.oss-cn-hangzhou.aliyuncs.com\/filemanage\/e069b36c568d909f\/templateapi\/16408456758377\/video.mp4?nonce=cfcd208495d565ef66e7dff9f98764da","sort":100,"version":150,"cover2":"","appkey":"init","duration":0,"extra":{},"polyglot":[],"category":"0","audit":0,"is_ugc":0,"text_need":22,"picture_need":33,"video_need":0,"type":"templateapi"},{"id":"1013061","ufid":"14658755","name":"\u8de8\u5e74\u6587\u6848","file":"http:\/\/rdfile.oss-cn-hangzhou.aliyuncs.com\/filemanage\/e069b36c568d909f\/templateapi\/16407722385506\/file.zip?nonce=bb257eb557c3dac4a8e024f68199233e","cover":"http:\/\/rdfile.oss-cn-hangzhou.aliyuncs.com\/filemanage\/e069b36c568d909f\/templateapi\/16407722385506\/cover.png?nonce=bb257eb557c3dac4a8e024f68199233e&x-oss-process=style\/templateapi","updatetime":"1684895210","height":1231,"width":693,"video":"http:\/\/rdfile.oss-cn-hangzhou.aliyuncs.com\/filemanage\/e069b36c568d909f\/templateapi\/16407722385506\/video.mp4?nonce=bb257eb557c3dac4a8e024f68199233e","sort":100,"version":150,"cover2":"","appkey":"init","duration":0,"extra":{},"polyglot":[],"category":"0","audit":0,"is_ugc":0,"text_need":0,"picture_need":0,"video_need":0,"type":"templateapi"},{"id":"1013057","ufid":"28118727","name":"K2021\u6b21\u5217\u8f66\u5373\u5c06\u5230\u7ad9","file":"http:\/\/rdfile.oss-cn-hangzhou.aliyuncs.com\/filemanage\/e069b36c568d909f\/templateapi\/16407517039579\/file.zip?nonce=cfcd208495d565ef66e7dff9f98764da","cover":"http:\/\/rdfile.oss-cn-hangzhou.aliyuncs.com\/filemanage\/e069b36c568d909f\/templateapi\/16407517039579\/cover.png?nonce=cfcd208495d565ef66e7dff9f98764da&x-oss-process=style\/templateapi","updatetime":"0","height":1230,"width":692,"video":"http:\/\/rdfile.oss-cn-hangzhou.aliyuncs.com\/filemanage\/e069b36c568d909f\/templateapi\/16407517039579\/video.mp4?nonce=cfcd208495d565ef66e7dff9f98764da","sort":100,"version":150,"cover2":"","appkey":"init","duration":0,"extra":{},"polyglot":[],"category":"0","audit":0,"is_ugc":0,"text_need":17,"picture_need":8,"video_need":0,"type":"templateapi"}]}}