{"code":0,"msg":"success","data":{"total":283,"per_page":20,"current_page":9,"last_page":15,"data":[{"id":"1024267","ufid":"46592321","name":"\u9a6c\u620f\u56e2\u6e38\u620fbgm","file":"http:\/\/rdfile.oss-cn-hangzhou.aliyuncs.com\/filemanage\/init\/audio\/46592321.mp3?nonce=0ea4d175b4889858d5f8b12a54f16caf","cover":"","updatetime":"1697698242","height":0,"width":0,"video":"","sort":0,"version":157,"cover2":"","appkey":"init","duration":18,"extra":{},"polyglot":[],"category":"40610022,","audit":0,"is_ugc":0,"type":"audio"},{"id":"1024266","ufid":"56608361","name":"\u9ebb\u8fa3\u6bdb\u86cb","file":"http:\/\/rdfile.oss-cn-hangzhou.aliyuncs.com\/filemanage\/init\/audio\/56608361.mp3?nonce=0ea4d175b4889858d5f8b12a54f16caf","cover":"","updatetime":"1697698242","height":0,"width":0,"video":"","sort":0,"version":157,"cover2":"","appkey":"init","duration":11,"extra":{},"polyglot":[],"category":"40610022,","audit":0,"is_ugc":0,"type":"audio"},{"id":"1024265","ufid":"17626096","name":"\u9ebb\u70e6\u5927\u5bb6\u5e2e\u6211\u770b\u770b\u7b2c\u4e00\u5370\u8c61","file":"http:\/\/rdfile.oss-cn-hangzhou.aliyuncs.com\/filemanage\/init\/audio\/17626096.mp3?nonce=c4fbd93752f122fce0e185cec7617409","cover":"","updatetime":"1697698241","height":0,"width":0,"video":"","sort":0,"version":157,"cover2":"","appkey":"init","duration":5,"extra":{},"polyglot":[],"category":"40610022,","audit":0,"is_ugc":0,"type":"audio"},{"id":"1024264","ufid":"13998439","name":"\u94c3\u82bd \u518d\u89c1\u54af","file":"http:\/\/rdfile.oss-cn-hangzhou.aliyuncs.com\/filemanage\/init\/audio\/13998439.mp3?nonce=c4fbd93752f122fce0e185cec7617409","cover":"","updatetime":"1697698241","height":0,"width":0,"video":"","sort":0,"version":157,"cover2":"","appkey":"init","duration":2,"extra":{},"polyglot":[],"category":"40610022,","audit":0,"is_ugc":0,"type":"audio"},{"id":"1024263","ufid":"86717001","name":"\u94c3\u82bd \u6765\u73a9\u5427","file":"http:\/\/rdfile.oss-cn-hangzhou.aliyuncs.com\/filemanage\/init\/audio\/86717001.mp3?nonce=c4fbd93752f122fce0e185cec7617409","cover":"","updatetime":"1697698241","height":0,"width":0,"video":"","sort":0,"version":157,"cover2":"","appkey":"init","duration":2,"extra":{},"polyglot":[],"category":"40610022,","audit":0,"is_ugc":0,"type":"audio"},{"id":"1024262","ufid":"79235947","name":"\u94c3\u82bd \u8fd8\u597d\u5417","file":"http:\/\/rdfile.oss-cn-hangzhou.aliyuncs.com\/filemanage\/init\/audio\/79235947.mp3?nonce=c4fbd93752f122fce0e185cec7617409","cover":"","updatetime":"1697698241","height":0,"width":0,"video":"","sort":0,"version":157,"cover2":"","appkey":"init","duration":2,"extra":{},"polyglot":[],"category":"40610022,","audit":0,"is_ugc":0,"type":"audio"},{"id":"1024261","ufid":"94765468","name":"\u94c3\u82bd \u5f88\u6e29\u67d4 \u559c\u6b22","file":"http:\/\/rdfile.oss-cn-hangzhou.aliyuncs.com\/filemanage\/init\/audio\/94765468.mp3?nonce=c4fbd93752f122fce0e185cec7617409","cover":"","updatetime":"1697698241","height":0,"width":0,"video":"","sort":0,"version":157,"cover2":"","appkey":"init","duration":3,"extra":{},"polyglot":[],"category":"40610022,","audit":0,"is_ugc":0,"type":"audio"},{"id":"1024260","ufid":"63530707","name":"\u94c3\u82bd \u597d\u5389\u5bb3","file":"http:\/\/rdfile.oss-cn-hangzhou.aliyuncs.com\/filemanage\/init\/audio\/63530707.mp3?nonce=1f2902fe3a15f0c0e73bd18dc5853ea2","cover":"","updatetime":"1697698240","height":0,"width":0,"video":"","sort":0,"version":157,"cover2":"","appkey":"init","duration":2,"extra":{},"polyglot":[],"category":"40610022,","audit":0,"is_ugc":0,"type":"audio"},{"id":"1024259","ufid":"20771175","name":"\u96f6\u4ef6\u82f1\u8bed","file":"http:\/\/rdfile.oss-cn-hangzhou.aliyuncs.com\/filemanage\/init\/audio\/20771175.mp3?nonce=1f2902fe3a15f0c0e73bd18dc5853ea2","cover":"","updatetime":"1697698240","height":0,"width":0,"video":"","sort":0,"version":157,"cover2":"","appkey":"init","duration":14,"extra":{},"polyglot":[],"category":"40610022,","audit":0,"is_ugc":0,"type":"audio"},{"id":"1024258","ufid":"76701817","name":"\u4e24\u4e2a\u6708\u6ca1\u51fa\u95e8","file":"http:\/\/rdfile.oss-cn-hangzhou.aliyuncs.com\/filemanage\/init\/audio\/76701817.mp3?nonce=1f2902fe3a15f0c0e73bd18dc5853ea2","cover":"","updatetime":"1697698240","height":0,"width":0,"video":"","sort":0,"version":157,"cover2":"","appkey":"init","duration":6,"extra":{},"polyglot":[],"category":"40610022,","audit":0,"is_ugc":0,"type":"audio"},{"id":"1024257","ufid":"75743134","name":"\u8138\u90fd\u4e0d\u8981\u4e86","file":"http:\/\/rdfile.oss-cn-hangzhou.aliyuncs.com\/filemanage\/init\/audio\/75743134.mp3?nonce=1f2902fe3a15f0c0e73bd18dc5853ea2","cover":"","updatetime":"1697698240","height":0,"width":0,"video":"","sort":0,"version":157,"cover2":"","appkey":"init","duration":11,"extra":{},"polyglot":[],"category":"40610022,","audit":0,"is_ugc":0,"type":"audio"},{"id":"1024256","ufid":"27920368","name":"\u5389\u4e0d\u5389\u5bb3\u4f60\u5764\u54e5","file":"http:\/\/rdfile.oss-cn-hangzhou.aliyuncs.com\/filemanage\/init\/audio\/27920368.mp3?nonce=eed291fd731807d97bffd81e1ebec3e3","cover":"","updatetime":"1697698295","height":0,"width":0,"video":"","sort":0,"version":157,"cover2":"","appkey":"init","duration":2,"extra":{},"polyglot":[],"category":"40610022,","audit":0,"is_ugc":0,"type":"audio"},{"id":"1024255","ufid":"48763533","name":"\u674e\u5b8f\u4f1f \u5594\u66e6\u559d\u566a","file":"http:\/\/rdfile.oss-cn-hangzhou.aliyuncs.com\/filemanage\/init\/audio\/48763533.mp3?nonce=f4fe935c286cfa3f66dcc3553f6db360","cover":"","updatetime":"1697698239","height":0,"width":0,"video":"","sort":0,"version":157,"cover2":"","appkey":"init","duration":2,"extra":{},"polyglot":[],"category":"40610022,","audit":0,"is_ugc":0,"type":"audio"},{"id":"1024254","ufid":"77105161","name":"\u8001\u9f20mm DJ","file":"http:\/\/rdfile.oss-cn-hangzhou.aliyuncs.com\/filemanage\/init\/audio\/77105161.mp3?nonce=f4fe935c286cfa3f66dcc3553f6db360","cover":"","updatetime":"1697698239","height":0,"width":0,"video":"","sort":0,"version":157,"cover2":"","appkey":"init","duration":35,"extra":{},"polyglot":[],"category":"40610022,","audit":0,"is_ugc":0,"type":"audio"},{"id":"1024253","ufid":"39650383","name":"\u8001\u516d\u8fdb\u884c\u66f2","file":"http:\/\/rdfile.oss-cn-hangzhou.aliyuncs.com\/filemanage\/init\/audio\/39650383.mp3?nonce=294a71b3bbefc7a8ae8c837085ef00b1","cover":"","updatetime":"1697698294","height":0,"width":0,"video":"","sort":0,"version":157,"cover2":"","appkey":"init","duration":64,"extra":{},"polyglot":[],"category":"40610022,","audit":0,"is_ugc":0,"type":"audio"},{"id":"1024252","ufid":"55348314","name":"\u8001\u516d\u5904\u5211\u66f2","file":"http:\/\/rdfile.oss-cn-hangzhou.aliyuncs.com\/filemanage\/init\/audio\/55348314.mp3?nonce=294a71b3bbefc7a8ae8c837085ef00b1","cover":"","updatetime":"1697698294","height":0,"width":0,"video":"","sort":0,"version":157,"cover2":"","appkey":"init","duration":41,"extra":{},"polyglot":[],"category":"40610022,","audit":0,"is_ugc":0,"type":"audio"},{"id":"1024251","ufid":"59504375","name":"\u52b3\u529b\u58eb\u8fdb\u884c\u66f2 \u7334\u54e5\u5904\u5211\u66f2","file":"http:\/\/rdfile.oss-cn-hangzhou.aliyuncs.com\/filemanage\/init\/audio\/59504375.mp3?nonce=d683a701cc79c34066e1f6c170d12554","cover":"","updatetime":"1697698238","height":0,"width":0,"video":"","sort":0,"version":157,"cover2":"","appkey":"init","duration":31,"extra":{},"polyglot":[],"category":"40610022,","audit":0,"is_ugc":0,"type":"audio"},{"id":"1024250","ufid":"52448808","name":"\u6765\u4e86\u8001\u5f1f","file":"http:\/\/rdfile.oss-cn-hangzhou.aliyuncs.com\/filemanage\/init\/audio\/52448808.mp3?nonce=294a71b3bbefc7a8ae8c837085ef00b1","cover":"","updatetime":"1697698294","height":0,"width":0,"video":"","sort":0,"version":157,"cover2":"","appkey":"init","duration":1,"extra":{},"polyglot":[],"category":"40610022,","audit":0,"is_ugc":0,"type":"audio"},{"id":"1024249","ufid":"87305827","name":"\u6765\u5c06\u53ef\u7559\u59d3\u540d\uff0c\u5e38\u5c71\u8d75\u5b50\u9f99","file":"http:\/\/rdfile.oss-cn-hangzhou.aliyuncs.com\/filemanage\/init\/audio\/87305827.mp3?nonce=d683a701cc79c34066e1f6c170d12554","cover":"","updatetime":"1697698238","height":0,"width":0,"video":"","sort":0,"version":157,"cover2":"","appkey":"init","duration":5,"extra":{},"polyglot":[],"category":"40610022,","audit":0,"is_ugc":0,"type":"audio"},{"id":"1024248","ufid":"77506643","name":"\u5feb\u4e50\u6307\u5357","file":"http:\/\/rdfile.oss-cn-hangzhou.aliyuncs.com\/filemanage\/init\/audio\/77506643.mp3?nonce=d683a701cc79c34066e1f6c170d12554","cover":"","updatetime":"1697698238","height":0,"width":0,"video":"","sort":0,"version":157,"cover2":"","appkey":"init","duration":17,"extra":{},"polyglot":[],"category":"40610022,","audit":0,"is_ugc":0,"type":"audio"}]}}