{"code":0,"msg":"success","data":{"total":636,"per_page":10,"current_page":50,"last_page":64,"data":[{"id":"1012347","ufid":"20403245","name":"\u8fd9\u4e2b\u5934\u4e0d\u662f\u8d85\u4eba","file":"http:\/\/rdfile.oss-cn-hangzhou.aliyuncs.com\/filemanage\/e069b36c568d909f\/templateapi\/16305688412011\/file.zip?nonce=84d41dc0aab0ab539884ad99ddf3c75a","cover":"http:\/\/rdfile.oss-cn-hangzhou.aliyuncs.com\/filemanage\/e069b36c568d909f\/templateapi\/16305688412011\/cover.png?nonce=84d41dc0aab0ab539884ad99ddf3c75a&x-oss-process=style\/templateapi","updatetime":"1704185710","height":1080,"width":607,"video":"http:\/\/rdfile.oss-cn-hangzhou.aliyuncs.com\/filemanage\/e069b36c568d909f\/templateapi\/16305688412011\/video.mp4?nonce=84d41dc0aab0ab539884ad99ddf3c75a","sort":100,"version":147,"cover2":"","appkey":"init","duration":0,"extra":{},"polyglot":{"en":"This girl is not superman"},"category":"0","audit":0,"is_ugc":0,"text_need":0,"picture_need":0,"video_need":3,"type":"templateapi"},{"id":"1012346","ufid":"42255643","name":"\u5149\u5f71\u80cc\u540e","file":"http:\/\/rdfile.oss-cn-hangzhou.aliyuncs.com\/filemanage\/e069b36c568d909f\/templateapi\/16305683802253\/file.zip?nonce=84d41dc0aab0ab539884ad99ddf3c75a","cover":"http:\/\/rdfile.oss-cn-hangzhou.aliyuncs.com\/filemanage\/e069b36c568d909f\/templateapi\/16305683802253\/cover.png?nonce=84d41dc0aab0ab539884ad99ddf3c75a&x-oss-process=style\/templateapi","updatetime":"1704185710","height":1080,"width":607,"video":"http:\/\/rdfile.oss-cn-hangzhou.aliyuncs.com\/filemanage\/e069b36c568d909f\/templateapi\/16305683802253\/video.mp4?nonce=84d41dc0aab0ab539884ad99ddf3c75a","sort":100,"version":147,"cover2":"","appkey":"init","duration":0,"extra":{},"polyglot":{"en":"Behind the light and shadow"},"category":"0","audit":0,"is_ugc":0,"text_need":0,"picture_need":3,"video_need":0,"type":"templateapi"},{"id":"1012345","ufid":"99040294","name":"\u80c3\u75bc\u4f60","file":"http:\/\/rdfile.oss-cn-hangzhou.aliyuncs.com\/filemanage\/e069b36c568d909f\/templateapi\/16305679398691\/file.zip?nonce=84d41dc0aab0ab539884ad99ddf3c75a","cover":"http:\/\/rdfile.oss-cn-hangzhou.aliyuncs.com\/filemanage\/e069b36c568d909f\/templateapi\/16305679398691\/cover.png?nonce=84d41dc0aab0ab539884ad99ddf3c75a&x-oss-process=style\/templateapi","updatetime":"1704185710","height":1080,"width":606,"video":"http:\/\/rdfile.oss-cn-hangzhou.aliyuncs.com\/filemanage\/e069b36c568d909f\/templateapi\/16305679398691\/video.mp4?nonce=84d41dc0aab0ab539884ad99ddf3c75a","sort":100,"version":147,"cover2":"","appkey":"init","duration":0,"extra":{},"polyglot":{"en":"Stomach hurts you"},"category":"0","audit":0,"is_ugc":0,"text_need":0,"picture_need":2,"video_need":0,"type":"templateapi"},{"id":"1012343","ufid":"22883152","name":"\u641e\u7b11\u7236\u5b50","file":"http:\/\/rdfile.oss-cn-hangzhou.aliyuncs.com\/filemanage\/e069b36c568d909f\/templateapi\/16305674875132\/file.zip?nonce=40f4dcaf0108d42f7688b3538ab4e9ea","cover":"http:\/\/rdfile.oss-cn-hangzhou.aliyuncs.com\/filemanage\/e069b36c568d909f\/templateapi\/16305674875132\/cover.png?nonce=40f4dcaf0108d42f7688b3538ab4e9ea&x-oss-process=style\/templateapi","updatetime":"1704185709","height":1080,"width":606,"video":"http:\/\/rdfile.oss-cn-hangzhou.aliyuncs.com\/filemanage\/e069b36c568d909f\/templateapi\/16305674875132\/video.mp4?nonce=40f4dcaf0108d42f7688b3538ab4e9ea","sort":100,"version":147,"cover2":"","appkey":"init","duration":0,"extra":{},"polyglot":{"en":"Funny father and son"},"category":"0","audit":0,"is_ugc":0,"text_need":0,"picture_need":14,"video_need":0,"type":"templateapi"},{"id":"1012342","ufid":"10309377","name":"\u7236\u7231\u5982\u5c71","file":"http:\/\/rdfile.oss-cn-hangzhou.aliyuncs.com\/filemanage\/e069b36c568d909f\/templateapi\/16305667531191\/file.zip?nonce=40f4dcaf0108d42f7688b3538ab4e9ea","cover":"http:\/\/rdfile.oss-cn-hangzhou.aliyuncs.com\/filemanage\/e069b36c568d909f\/templateapi\/16305667531191\/cover.png?nonce=40f4dcaf0108d42f7688b3538ab4e9ea&x-oss-process=style\/templateapi","updatetime":"1704185709","height":1080,"width":607,"video":"http:\/\/rdfile.oss-cn-hangzhou.aliyuncs.com\/filemanage\/e069b36c568d909f\/templateapi\/16305667531191\/video.mp4?nonce=40f4dcaf0108d42f7688b3538ab4e9ea","sort":100,"version":147,"cover2":"","appkey":"init","duration":0,"extra":{},"polyglot":{"en":"Father as a mountain"},"category":"0","audit":0,"is_ugc":0,"text_need":0,"picture_need":0,"video_need":4,"type":"templateapi"},{"id":"1012340","ufid":"14383228","name":"\u522b\u627e\u6211\u501f\u94b1","file":"http:\/\/rdfile.oss-cn-hangzhou.aliyuncs.com\/filemanage\/e069b36c568d909f\/templateapi\/16305651138748\/file.zip?nonce=40f4dcaf0108d42f7688b3538ab4e9ea","cover":"http:\/\/rdfile.oss-cn-hangzhou.aliyuncs.com\/filemanage\/e069b36c568d909f\/templateapi\/16305651138748\/cover.png?nonce=40f4dcaf0108d42f7688b3538ab4e9ea&x-oss-process=style\/templateapi","updatetime":"1704185709","height":1080,"width":719,"video":"http:\/\/rdfile.oss-cn-hangzhou.aliyuncs.com\/filemanage\/e069b36c568d909f\/templateapi\/16305651138748\/video.mp4?nonce=40f4dcaf0108d42f7688b3538ab4e9ea","sort":100,"version":147,"cover2":"","appkey":"init","duration":0,"extra":{},"polyglot":{"en":"Don"},"category":"0","audit":0,"is_ugc":0,"text_need":0,"picture_need":14,"video_need":0,"type":"templateapi"},{"id":"1012339","ufid":"25063876","name":"\u590d\u53e4\u5f71\u7247","file":"http:\/\/rdfile.oss-cn-hangzhou.aliyuncs.com\/filemanage\/e069b36c568d909f\/templateapi\/16305581766052\/file.zip?nonce=40f4dcaf0108d42f7688b3538ab4e9ea","cover":"http:\/\/rdfile.oss-cn-hangzhou.aliyuncs.com\/filemanage\/e069b36c568d909f\/templateapi\/16305581766052\/cover.png?nonce=40f4dcaf0108d42f7688b3538ab4e9ea&x-oss-process=style\/templateapi","updatetime":"1704185709","height":1080,"width":1920,"video":"http:\/\/rdfile.oss-cn-hangzhou.aliyuncs.com\/filemanage\/e069b36c568d909f\/templateapi\/16305581766052\/video.mp4?nonce=40f4dcaf0108d42f7688b3538ab4e9ea","sort":100,"version":147,"cover2":"","appkey":"init","duration":0,"extra":{},"polyglot":{"en":"Retro videos"},"category":"0","audit":0,"is_ugc":0,"text_need":0,"picture_need":0,"video_need":12,"type":"templateapi"},{"id":"1012338","ufid":"75482160","name":"\u5361\u70b9","file":"http:\/\/rdfile.oss-cn-hangzhou.aliyuncs.com\/filemanage\/e069b36c568d909f\/templateapi\/16305569363138\/file.zip?nonce=40f4dcaf0108d42f7688b3538ab4e9ea","cover":"http:\/\/rdfile.oss-cn-hangzhou.aliyuncs.com\/filemanage\/e069b36c568d909f\/templateapi\/16305569363138\/cover.png?nonce=40f4dcaf0108d42f7688b3538ab4e9ea&x-oss-process=style\/templateapi","updatetime":"1704185709","height":1080,"width":718,"video":"http:\/\/rdfile.oss-cn-hangzhou.aliyuncs.com\/filemanage\/e069b36c568d909f\/templateapi\/16305569363138\/video.mp4?nonce=40f4dcaf0108d42f7688b3538ab4e9ea","sort":100,"version":147,"cover2":"","appkey":"init","duration":0,"extra":{},"polyglot":{"en":"Right time"},"category":"0","audit":0,"is_ugc":0,"text_need":0,"picture_need":16,"video_need":0,"type":"templateapi"},{"id":"1012337","ufid":"95118343","name":"\u706b\u67aa\u5361\u70b9","file":"http:\/\/rdfile.oss-cn-hangzhou.aliyuncs.com\/filemanage\/e069b36c568d909f\/templateapi\/16305563051884\/file.zip?nonce=40f4dcaf0108d42f7688b3538ab4e9ea","cover":"http:\/\/rdfile.oss-cn-hangzhou.aliyuncs.com\/filemanage\/e069b36c568d909f\/templateapi\/16305563051884\/cover.png?nonce=40f4dcaf0108d42f7688b3538ab4e9ea&x-oss-process=style\/templateapi","updatetime":"1704185709","height":1080,"width":607,"video":"http:\/\/rdfile.oss-cn-hangzhou.aliyuncs.com\/filemanage\/e069b36c568d909f\/templateapi\/16305563051884\/video.mp4?nonce=40f4dcaf0108d42f7688b3538ab4e9ea","sort":100,"version":147,"cover2":"","appkey":"init","duration":0,"extra":{},"polyglot":{"en":"Right time musket"},"category":"0","audit":0,"is_ugc":0,"text_need":0,"picture_need":2,"video_need":0,"type":"templateapi"},{"id":"1012336","ufid":"65340191","name":"\u767e\u6218\u6210\u8bd7","file":"http:\/\/rdfile.oss-cn-hangzhou.aliyuncs.com\/filemanage\/e069b36c568d909f\/templateapi\/16305518035841\/file.zip?nonce=2ce9d90311b94b6c862e0612318304f2","cover":"http:\/\/rdfile.oss-cn-hangzhou.aliyuncs.com\/filemanage\/e069b36c568d909f\/templateapi\/16305518035841\/cover.png?nonce=2ce9d90311b94b6c862e0612318304f2&x-oss-process=style\/templateapi","updatetime":"1704185708","height":1080,"width":606,"video":"http:\/\/rdfile.oss-cn-hangzhou.aliyuncs.com\/filemanage\/e069b36c568d909f\/templateapi\/16305518035841\/video.mp4?nonce=2ce9d90311b94b6c862e0612318304f2","sort":100,"version":147,"cover2":"","appkey":"init","duration":0,"extra":{},"polyglot":{"en":"A hundred battles become a poem"},"category":"0","audit":0,"is_ugc":0,"text_need":0,"picture_need":32,"video_need":0,"type":"templateapi"}]}}