{"code":0,"msg":"success","data":{"total":283,"per_page":20,"current_page":10,"last_page":15,"data":[{"id":"1024247","ufid":"44263510","name":"\u5feb\u4e50\u547c\u547c\u547c","file":"http:\/\/rdfile.oss-cn-hangzhou.aliyuncs.com\/filemanage\/init\/audio\/44263510.mp3?nonce=d683a701cc79c34066e1f6c170d12554","cover":"","updatetime":"1697698238","height":0,"width":0,"video":"","sort":0,"version":157,"cover2":"","appkey":"init","duration":10,"extra":{},"polyglot":[],"category":"40610022,","audit":0,"is_ugc":0,"type":"audio"},{"id":"1024246","ufid":"20620839","name":"\u5938\u6211\u5440\u59d0\u59d0","file":"http:\/\/rdfile.oss-cn-hangzhou.aliyuncs.com\/filemanage\/init\/audio\/20620839.mp3?nonce=355c6bbdd8c26676c769e627a4358924","cover":"","updatetime":"1697698237","height":0,"width":0,"video":"","sort":0,"version":157,"cover2":"","appkey":"init","duration":1,"extra":{},"polyglot":[],"category":"40610022,","audit":0,"is_ugc":0,"type":"audio"},{"id":"1024245","ufid":"39999744","name":"\u54ed\u5c3c\u5409\u74e6","file":"http:\/\/rdfile.oss-cn-hangzhou.aliyuncs.com\/filemanage\/init\/audio\/39999744.mp3?nonce=355c6bbdd8c26676c769e627a4358924","cover":"","updatetime":"1697698237","height":0,"width":0,"video":"","sort":0,"version":157,"cover2":"","appkey":"init","duration":10,"extra":{},"polyglot":[],"category":"40610022,","audit":0,"is_ugc":0,"type":"audio"},{"id":"1024244","ufid":"82602376","name":"\u6050\u9f99\u6297\u72fc\u7537\u7f8e\u58f0\u7248","file":"http:\/\/rdfile.oss-cn-hangzhou.aliyuncs.com\/filemanage\/init\/audio\/82602376.mp3?nonce=355c6bbdd8c26676c769e627a4358924","cover":"","updatetime":"1697698237","height":0,"width":0,"video":"","sort":0,"version":157,"cover2":"","appkey":"init","duration":13,"extra":{},"polyglot":[],"category":"40610022,","audit":0,"is_ugc":0,"type":"audio"},{"id":"1024243","ufid":"32772139","name":"\u6050\u9f99\u6297\u72fc","file":"http:\/\/rdfile.oss-cn-hangzhou.aliyuncs.com\/filemanage\/init\/audio\/32772139.mp3?nonce=355c6bbdd8c26676c769e627a4358924","cover":"","updatetime":"1697698237","height":0,"width":0,"video":"","sort":0,"version":157,"cover2":"","appkey":"init","duration":29,"extra":{},"polyglot":[],"category":"40610022,","audit":0,"is_ugc":0,"type":"audio"},{"id":"1024242","ufid":"72641254","name":"\u7a7a\u4e2d\u5361\u5e26\u821eBGM","file":"http:\/\/rdfile.oss-cn-hangzhou.aliyuncs.com\/filemanage\/init\/audio\/72641254.mp3?nonce=871f721290244033b4f05942e3857c9f","cover":"","updatetime":"1697698236","height":0,"width":0,"video":"","sort":0,"version":157,"cover2":"","appkey":"init","duration":17,"extra":{},"polyglot":[],"category":"40610022,","audit":0,"is_ugc":0,"type":"audio"},{"id":"1024241","ufid":"54412965","name":"\u7a7a\u5427\u54c7","file":"http:\/\/rdfile.oss-cn-hangzhou.aliyuncs.com\/filemanage\/init\/audio\/54412965.mp3?nonce=4baa8d885bb036ffdf30c72ffe557680","cover":"","updatetime":"1697698293","height":0,"width":0,"video":"","sort":0,"version":157,"cover2":"","appkey":"init","duration":1,"extra":{},"polyglot":[],"category":"40610022,","audit":0,"is_ugc":0,"type":"audio"},{"id":"1024240","ufid":"81537583","name":"\u53ef\u9882\u732b\u732b","file":"http:\/\/rdfile.oss-cn-hangzhou.aliyuncs.com\/filemanage\/init\/audio\/81537583.mp3?nonce=871f721290244033b4f05942e3857c9f","cover":"","updatetime":"1697698236","height":0,"width":0,"video":"","sort":0,"version":157,"cover2":"","appkey":"init","duration":20,"extra":{},"polyglot":[],"category":"40610022,","audit":0,"is_ugc":0,"type":"audio"},{"id":"1024239","ufid":"95129131","name":"\u53ef\u80fd\u662f\u6708\u4eae\u4e0d\u4f1a\u7728\u773c","file":"http:\/\/rdfile.oss-cn-hangzhou.aliyuncs.com\/filemanage\/init\/audio\/95129131.mp3?nonce=871f721290244033b4f05942e3857c9f","cover":"","updatetime":"1697698236","height":0,"width":0,"video":"","sort":0,"version":157,"cover2":"","appkey":"init","duration":15,"extra":{},"polyglot":[],"category":"40610022,","audit":0,"is_ugc":0,"type":"audio"},{"id":"1024238","ufid":"28590053","name":"\u53ef\u8fbe\u9e2dBGM","file":"http:\/\/rdfile.oss-cn-hangzhou.aliyuncs.com\/filemanage\/init\/audio\/28590053.mp3?nonce=871f721290244033b4f05942e3857c9f","cover":"","updatetime":"1697698236","height":0,"width":0,"video":"","sort":0,"version":157,"cover2":"","appkey":"init","duration":25,"extra":{},"polyglot":[],"category":"40610022,","audit":0,"is_ugc":0,"type":"audio"},{"id":"1024237","ufid":"64883669","name":"\u5496\u5561\u4f60\u51b2\u4e0d\u51b2","file":"http:\/\/rdfile.oss-cn-hangzhou.aliyuncs.com\/filemanage\/init\/audio\/64883669.mp3?nonce=3f6c9e3e9506574fea8b38a68910d49c","cover":"","updatetime":"1697698235","height":0,"width":0,"video":"","sort":0,"version":157,"cover2":"","appkey":"init","duration":31,"extra":{},"polyglot":[],"category":"40610022,","audit":0,"is_ugc":0,"type":"audio"},{"id":"1024236","ufid":"74401973","name":"\u7edd\u4ea4\u5427\u95fa\u871c","file":"http:\/\/rdfile.oss-cn-hangzhou.aliyuncs.com\/filemanage\/init\/audio\/74401973.mp3?nonce=3f6c9e3e9506574fea8b38a68910d49c","cover":"","updatetime":"1697698235","height":0,"width":0,"video":"","sort":0,"version":157,"cover2":"","appkey":"init","duration":13,"extra":{},"polyglot":[],"category":"40610022,","audit":0,"is_ugc":0,"type":"audio"},{"id":"1024235","ufid":"51405438","name":"\u5c45\u7136\u6709\u52a8\u7269\u628a\u7eb8\u7247\u5f53\u6210\u5f02\u6027","file":"http:\/\/rdfile.oss-cn-hangzhou.aliyuncs.com\/filemanage\/init\/audio\/51405438.mp3?nonce=3f6c9e3e9506574fea8b38a68910d49c","cover":"","updatetime":"1697698235","height":0,"width":0,"video":"","sort":0,"version":157,"cover2":"","appkey":"init","duration":3,"extra":{},"polyglot":[],"category":"40610022,","audit":0,"is_ugc":0,"type":"audio"},{"id":"1024234","ufid":"48388245","name":"\u5c31\u8fd9","file":"http:\/\/rdfile.oss-cn-hangzhou.aliyuncs.com\/filemanage\/init\/audio\/48388245.mp3?nonce=3f6c9e3e9506574fea8b38a68910d49c","cover":"","updatetime":"1697698235","height":0,"width":0,"video":"","sort":0,"version":157,"cover2":"","appkey":"init","duration":2,"extra":{},"polyglot":[],"category":"40610022,","audit":0,"is_ugc":0,"type":"audio"},{"id":"1024233","ufid":"67184658","name":"\u4eca\u5929\u661f\u671f\u56db\u660e\u5929\u661f\u671f\u4e94","file":"http:\/\/rdfile.oss-cn-hangzhou.aliyuncs.com\/filemanage\/init\/audio\/67184658.mp3?nonce=86d962eceb0a244735301f7039a4ec5c","cover":"","updatetime":"1697698234","height":0,"width":0,"video":"","sort":0,"version":157,"cover2":"","appkey":"init","duration":7,"extra":{},"polyglot":[],"category":"40610022,","audit":0,"is_ugc":0,"type":"audio"},{"id":"1024232","ufid":"40113868","name":"\u4eca\u5e74\u51ac\u5929\u5f88\u51b7","file":"http:\/\/rdfile.oss-cn-hangzhou.aliyuncs.com\/filemanage\/init\/audio\/40113868.mp3?nonce=86d962eceb0a244735301f7039a4ec5c","cover":"","updatetime":"1697698234","height":0,"width":0,"video":"","sort":0,"version":157,"cover2":"","appkey":"init","duration":7,"extra":{},"polyglot":[],"category":"40610022,","audit":0,"is_ugc":0,"type":"audio"},{"id":"1024231","ufid":"91620118","name":"\u63a5\u5316\u53d1\u5361\u70b9","file":"http:\/\/rdfile.oss-cn-hangzhou.aliyuncs.com\/filemanage\/init\/audio\/91620118.mp3?nonce=6736cd8492e911795469b7db82adef9c","cover":"","updatetime":"1697698292","height":0,"width":0,"video":"","sort":0,"version":157,"cover2":"","appkey":"init","duration":23,"extra":{},"polyglot":[],"category":"40610022,","audit":0,"is_ugc":0,"type":"audio"},{"id":"1024230","ufid":"61915721","name":"\u5251\u9b54\u593a\u820d\u739b\u5361\u5df4\u5361","file":"http:\/\/rdfile.oss-cn-hangzhou.aliyuncs.com\/filemanage\/init\/audio\/61915721.mp3?nonce=86d962eceb0a244735301f7039a4ec5c","cover":"","updatetime":"1697698234","height":0,"width":0,"video":"","sort":0,"version":157,"cover2":"","appkey":"init","duration":18,"extra":{},"polyglot":[],"category":"40610022,","audit":0,"is_ugc":0,"type":"audio"},{"id":"1024229","ufid":"54223020","name":"\u52a0\u6cb9!","file":"http:\/\/rdfile.oss-cn-hangzhou.aliyuncs.com\/filemanage\/init\/audio\/54223020.mp3?nonce=86d962eceb0a244735301f7039a4ec5c","cover":"","updatetime":"1697698234","height":0,"width":0,"video":"","sort":0,"version":157,"cover2":"","appkey":"init","duration":11,"extra":{},"polyglot":[],"category":"40610022,","audit":0,"is_ugc":0,"type":"audio"},{"id":"1024228","ufid":"11765036","name":"\u5bb6\u65cf\u5404\u884c\u4e1a\u6253\u5de5\u8bb0","file":"http:\/\/rdfile.oss-cn-hangzhou.aliyuncs.com\/filemanage\/init\/audio\/11765036.mp3?nonce=d88ebf7d1c07344efde2e79903867703","cover":"","updatetime":"1697698233","height":0,"width":0,"video":"","sort":0,"version":157,"cover2":"","appkey":"init","duration":15,"extra":{},"polyglot":[],"category":"40610022,","audit":0,"is_ugc":0,"type":"audio"}]}}