{
    "code": 0,
    "msg": "success",
    "data": {
        "total": 28,
        "per_page": 10,
        "current_page": 1,
        "last_page": 3,
        "data": [
            {
                "id": "1023202",
                "ufid": "51376740",
                "name": "Morandi 1001",
                "file": "http://rdfile.oss-cn-hangzhou.aliyuncs.com/filemanage/init/filter_cube/51376740/file.cube?nonce=f1aa42dd4e8a0b4c5216d92fbc257227",
                "cover": "http://rdfile.oss-cn-hangzhou.aliyuncs.com/filemanage/init/filter_cube/51376740/cover.png?nonce=f1aa42dd4e8a0b4c5216d92fbc257227",
                "updatetime": "1709197087",
                "height": 0,
                "width": 0,
                "video": "",
                "sort": 1001,
                "version": 164,
                "cover2": "http://rdfile.oss-cn-hangzhou.aliyuncs.com/filemanage/init/filter_cube/51376740/cover2.png?nonce=f1aa42dd4e8a0b4c5216d92fbc257227",
                "appkey": "init",
                "duration": 0,
                "extra": {},
                "polyglot": {
                    "en": "Morandi 1001"
                },
                "category": "10491141,",
                "audit": 0,
                "is_ugc": 0,
                "type": "filter_cube"
            },
            {
                "id": "1023203",
                "ufid": "71513114",
                "name": "Morandi 1002",
                "file": "http://rdfile.oss-cn-hangzhou.aliyuncs.com/filemanage/init/filter_cube/71513114/file.cube?nonce=4bb3822ba20c8ab2ede76743ad8e30ee",
                "cover": "http://rdfile.oss-cn-hangzhou.aliyuncs.com/filemanage/init/filter_cube/71513114/cover.png?nonce=4bb3822ba20c8ab2ede76743ad8e30ee",
                "updatetime": "1709197089",
                "height": 0,
                "width": 0,
                "video": "",
                "sort": 1002,
                "version": 164,
                "cover2": "http://rdfile.oss-cn-hangzhou.aliyuncs.com/filemanage/init/filter_cube/71513114/cover2.png?nonce=4bb3822ba20c8ab2ede76743ad8e30ee",
                "appkey": "init",
                "duration": 0,
                "extra": {},
                "polyglot": {
                    "en": "Morandi 1002"
                },
                "category": "10491141,",
                "audit": 0,
                "is_ugc": 0,
                "type": "filter_cube"
            },
            {
                "id": "1023204",
                "ufid": "68891120",
                "name": "Morandi 1003",
                "file": "http://rdfile.oss-cn-hangzhou.aliyuncs.com/filemanage/init/filter_cube/68891120/file.cube?nonce=50ec57a2f2c50adbfbce6b0b2387283b",
                "cover": "http://rdfile.oss-cn-hangzhou.aliyuncs.com/filemanage/init/filter_cube/68891120/cover.png?nonce=50ec57a2f2c50adbfbce6b0b2387283b",
                "updatetime": "1709197090",
                "height": 0,
                "width": 0,
                "video": "",
                "sort": 1003,
                "version": 164,
                "cover2": "http://rdfile.oss-cn-hangzhou.aliyuncs.com/filemanage/init/filter_cube/68891120/cover2.png?nonce=50ec57a2f2c50adbfbce6b0b2387283b",
                "appkey": "init",
                "duration": 0,
                "extra": {},
                "polyglot": {
                    "en": "Morandi 1003"
                },
                "category": "10491141,",
                "audit": 0,
                "is_ugc": 0,
                "type": "filter_cube"
            },
            {
                "id": "1023205",
                "ufid": "90076366",
                "name": "Morandi 1004",
                "file": "http://rdfile.oss-cn-hangzhou.aliyuncs.com/filemanage/init/filter_cube/90076366/file.cube?nonce=7691568c5e7e7c1fd82bfb7b4107e585",
                "cover": "http://rdfile.oss-cn-hangzhou.aliyuncs.com/filemanage/init/filter_cube/90076366/cover.png?nonce=7691568c5e7e7c1fd82bfb7b4107e585",
                "updatetime": "1709197092",
                "height": 0,
                "width": 0,
                "video": "",
                "sort": 1004,
                "version": 164,
                "cover2": "http://rdfile.oss-cn-hangzhou.aliyuncs.com/filemanage/init/filter_cube/90076366/cover2.png?nonce=7691568c5e7e7c1fd82bfb7b4107e585",
                "appkey": "init",
                "duration": 0,
                "extra": {},
                "polyglot": {
                    "en": "Morandi 1004"
                },
                "category": "10491141,",
                "audit": 0,
                "is_ugc": 0,
                "type": "filter_cube"
            },
            {
                "id": "1023206",
                "ufid": "43757699",
                "name": "Morandi 1005",
                "file": "http://rdfile.oss-cn-hangzhou.aliyuncs.com/filemanage/init/filter_cube/43757699/file.cube?nonce=7c5c4308f1537563120af77bc32a3520",
                "cover": "http://rdfile.oss-cn-hangzhou.aliyuncs.com/filemanage/init/filter_cube/43757699/cover.png?nonce=7c5c4308f1537563120af77bc32a3520",
                "updatetime": "1709197093",
                "height": 0,
                "width": 0,
                "video": "",
                "sort": 1005,
                "version": 164,
                "cover2": "http://rdfile.oss-cn-hangzhou.aliyuncs.com/filemanage/init/filter_cube/43757699/cover2.png?nonce=7c5c4308f1537563120af77bc32a3520",
                "appkey": "init",
                "duration": 0,
                "extra": {},
                "polyglot": {
                    "en": "Morandi 1005"
                },
                "category": "10491141,",
                "audit": 0,
                "is_ugc": 0,
                "type": "filter_cube"
            },
            {
                "id": "1023207",
                "ufid": "75890798",
                "name": "Morandi 1006",
                "file": "http://rdfile.oss-cn-hangzhou.aliyuncs.com/filemanage/init/filter_cube/75890798/file.cube?nonce=0974b107f725d71fbcf78b0c7c771316",
                "cover": "http://rdfile.oss-cn-hangzhou.aliyuncs.com/filemanage/init/filter_cube/75890798/cover.png?nonce=0974b107f725d71fbcf78b0c7c771316",
                "updatetime": "1709197096",
                "height": 0,
                "width": 0,
                "video": "",
                "sort": 1006,
                "version": 164,
                "cover2": "http://rdfile.oss-cn-hangzhou.aliyuncs.com/filemanage/init/filter_cube/75890798/cover2.png?nonce=0974b107f725d71fbcf78b0c7c771316",
                "appkey": "init",
                "duration": 0,
                "extra": {},
                "polyglot": {
                    "en": "Morandi 1006"
                },
                "category": "10491141,",
                "audit": 0,
                "is_ugc": 0,
                "type": "filter_cube"
            },
            {
                "id": "1023208",
                "ufid": "74064448",
                "name": "Morandi 1007",
                "file": "http://rdfile.oss-cn-hangzhou.aliyuncs.com/filemanage/init/filter_cube/74064448/file.cube?nonce=8c4ee607e2952e3c72362c34e29be5bd",
                "cover": "http://rdfile.oss-cn-hangzhou.aliyuncs.com/filemanage/init/filter_cube/74064448/cover.png?nonce=8c4ee607e2952e3c72362c34e29be5bd",
                "updatetime": "1709197098",
                "height": 0,
                "width": 0,
                "video": "",
                "sort": 1007,
                "version": 164,
                "cover2": "http://rdfile.oss-cn-hangzhou.aliyuncs.com/filemanage/init/filter_cube/74064448/cover2.png?nonce=8c4ee607e2952e3c72362c34e29be5bd",
                "appkey": "init",
                "duration": 0,
                "extra": {},
                "polyglot": {
                    "en": "Morandi 1007"
                },
                "category": "10491141,",
                "audit": 0,
                "is_ugc": 0,
                "type": "filter_cube"
            },
            {
                "id": "1023209",
                "ufid": "28055419",
                "name": "Morandi 1008",
                "file": "http://rdfile.oss-cn-hangzhou.aliyuncs.com/filemanage/init/filter_cube/28055419/file.cube?nonce=d58b6b6313636b3c25c1213afe14931e",
                "cover": "http://rdfile.oss-cn-hangzhou.aliyuncs.com/filemanage/init/filter_cube/28055419/cover.png?nonce=d58b6b6313636b3c25c1213afe14931e",
                "updatetime": "1709197099",
                "height": 0,
                "width": 0,
                "video": "",
                "sort": 1008,
                "version": 164,
                "cover2": "http://rdfile.oss-cn-hangzhou.aliyuncs.com/filemanage/init/filter_cube/28055419/cover2.png?nonce=d58b6b6313636b3c25c1213afe14931e",
                "appkey": "init",
                "duration": 0,
                "extra": {},
                "polyglot": {
                    "en": "Morandi 1008"
                },
                "category": "10491141,",
                "audit": 0,
                "is_ugc": 0,
                "type": "filter_cube"
            },
            {
                "id": "1023210",
                "ufid": "73521477",
                "name": "Morandi 1009",
                "file": "http://rdfile.oss-cn-hangzhou.aliyuncs.com/filemanage/init/filter_cube/73521477/file.cube?nonce=654785887a585b24249f0fa633e96f39",
                "cover": "http://rdfile.oss-cn-hangzhou.aliyuncs.com/filemanage/init/filter_cube/73521477/cover.png?nonce=654785887a585b24249f0fa633e96f39",
                "updatetime": "1709197101",
                "height": 0,
                "width": 0,
                "video": "",
                "sort": 1009,
                "version": 164,
                "cover2": "http://rdfile.oss-cn-hangzhou.aliyuncs.com/filemanage/init/filter_cube/73521477/cover2.png?nonce=654785887a585b24249f0fa633e96f39",
                "appkey": "init",
                "duration": 0,
                "extra": {},
                "polyglot": {
                    "en": "Morandi 1009"
                },
                "category": "10491141,",
                "audit": 0,
                "is_ugc": 0,
                "type": "filter_cube"
            },
            {
                "id": "1023211",
                "ufid": "28451210",
                "name": "Morandi 1010",
                "file": "http://rdfile.oss-cn-hangzhou.aliyuncs.com/filemanage/init/filter_cube/28451210/file.cube?nonce=a774482d6dd8ece9bbfda2c848bd72c3",
                "cover": "http://rdfile.oss-cn-hangzhou.aliyuncs.com/filemanage/init/filter_cube/28451210/cover.png?nonce=a774482d6dd8ece9bbfda2c848bd72c3",
                "updatetime": "1709197103",
                "height": 0,
                "width": 0,
                "video": "",
                "sort": 1010,
                "version": 164,
                "cover2": "http://rdfile.oss-cn-hangzhou.aliyuncs.com/filemanage/init/filter_cube/28451210/cover2.png?nonce=a774482d6dd8ece9bbfda2c848bd72c3",
                "appkey": "init",
                "duration": 0,
                "extra": {},
                "polyglot": {
                    "en": "Morandi 1010"
                },
                "category": "10491141,",
                "audit": 0,
                "is_ugc": 0,
                "type": "filter_cube"
            }
        ]
    }
}