{
    "code": 0,
    "msg": "success",
    "data": {
        "total": 15,
        "per_page": 10,
        "current_page": 1,
        "last_page": 2,
        "data": [
            {
                "id": "1022697",
                "ufid": "14045092",
                "name": "Orange Night 001",
                "file": "http://rdfile.oss-cn-hangzhou.aliyuncs.com/filemanage/init/filter_cube/14045092/file.cube?nonce=4ddaca3d7f608bac83247d617d1d0d68",
                "cover": "http://rdfile.oss-cn-hangzhou.aliyuncs.com/filemanage/init/filter_cube/14045092/cover.png?nonce=4ddaca3d7f608bac83247d617d1d0d68",
                "updatetime": "1704688727",
                "height": 0,
                "width": 0,
                "video": "",
                "sort": 1,
                "version": 164,
                "cover2": "http://rdfile.oss-cn-hangzhou.aliyuncs.com/filemanage/init/filter_cube/14045092/cover2.png?nonce=4ddaca3d7f608bac83247d617d1d0d68",
                "appkey": "init",
                "duration": 0,
                "extra": {},
                "polyglot": {
                    "en": "Orange Night 001"
                },
                "category": "12544332,",
                "audit": 0,
                "is_ugc": 0,
                "type": "filter_cube"
            },
            {
                "id": "1022698",
                "ufid": "95899627",
                "name": "Orange Night 002",
                "file": "http://rdfile.oss-cn-hangzhou.aliyuncs.com/filemanage/init/filter_cube/95899627/file.cube?nonce=4ddaca3d7f608bac83247d617d1d0d68",
                "cover": "http://rdfile.oss-cn-hangzhou.aliyuncs.com/filemanage/init/filter_cube/95899627/cover.png?nonce=4ddaca3d7f608bac83247d617d1d0d68",
                "updatetime": "1704688727",
                "height": 0,
                "width": 0,
                "video": "",
                "sort": 2,
                "version": 164,
                "cover2": "http://rdfile.oss-cn-hangzhou.aliyuncs.com/filemanage/init/filter_cube/95899627/cover2.png?nonce=4ddaca3d7f608bac83247d617d1d0d68",
                "appkey": "init",
                "duration": 0,
                "extra": {},
                "polyglot": {
                    "en": "Orange Night 002"
                },
                "category": "12544332,",
                "audit": 0,
                "is_ugc": 0,
                "type": "filter_cube"
            },
            {
                "id": "1022699",
                "ufid": "53883695",
                "name": "Orange Night 003",
                "file": "http://rdfile.oss-cn-hangzhou.aliyuncs.com/filemanage/init/filter_cube/53883695/file.cube?nonce=82a1a5a26cbdac78dafe1ddb3a90efc2",
                "cover": "http://rdfile.oss-cn-hangzhou.aliyuncs.com/filemanage/init/filter_cube/53883695/cover.png?nonce=82a1a5a26cbdac78dafe1ddb3a90efc2",
                "updatetime": "1704688728",
                "height": 0,
                "width": 0,
                "video": "",
                "sort": 3,
                "version": 164,
                "cover2": "http://rdfile.oss-cn-hangzhou.aliyuncs.com/filemanage/init/filter_cube/53883695/cover2.png?nonce=82a1a5a26cbdac78dafe1ddb3a90efc2",
                "appkey": "init",
                "duration": 0,
                "extra": {},
                "polyglot": {
                    "en": "Orange Night 003"
                },
                "category": "12544332,",
                "audit": 0,
                "is_ugc": 0,
                "type": "filter_cube"
            },
            {
                "id": "1022700",
                "ufid": "56584092",
                "name": "Orange Night 004",
                "file": "http://rdfile.oss-cn-hangzhou.aliyuncs.com/filemanage/init/filter_cube/56584092/file.cube?nonce=82a1a5a26cbdac78dafe1ddb3a90efc2",
                "cover": "http://rdfile.oss-cn-hangzhou.aliyuncs.com/filemanage/init/filter_cube/56584092/cover.png?nonce=82a1a5a26cbdac78dafe1ddb3a90efc2",
                "updatetime": "1704688728",
                "height": 0,
                "width": 0,
                "video": "",
                "sort": 4,
                "version": 164,
                "cover2": "http://rdfile.oss-cn-hangzhou.aliyuncs.com/filemanage/init/filter_cube/56584092/cover2.png?nonce=82a1a5a26cbdac78dafe1ddb3a90efc2",
                "appkey": "init",
                "duration": 0,
                "extra": {},
                "polyglot": {
                    "en": "Orange Night 004"
                },
                "category": "12544332,",
                "audit": 0,
                "is_ugc": 0,
                "type": "filter_cube"
            },
            {
                "id": "1022701",
                "ufid": "50971497",
                "name": "Orange Night 005",
                "file": "http://rdfile.oss-cn-hangzhou.aliyuncs.com/filemanage/init/filter_cube/50971497/file.cube?nonce=82a1a5a26cbdac78dafe1ddb3a90efc2",
                "cover": "http://rdfile.oss-cn-hangzhou.aliyuncs.com/filemanage/init/filter_cube/50971497/cover.png?nonce=82a1a5a26cbdac78dafe1ddb3a90efc2",
                "updatetime": "1704688728",
                "height": 0,
                "width": 0,
                "video": "",
                "sort": 5,
                "version": 164,
                "cover2": "http://rdfile.oss-cn-hangzhou.aliyuncs.com/filemanage/init/filter_cube/50971497/cover2.png?nonce=82a1a5a26cbdac78dafe1ddb3a90efc2",
                "appkey": "init",
                "duration": 0,
                "extra": {},
                "polyglot": {
                    "en": "Orange Night 005"
                },
                "category": "12544332,",
                "audit": 0,
                "is_ugc": 0,
                "type": "filter_cube"
            },
            {
                "id": "1022702",
                "ufid": "54621756",
                "name": "Orange Night 006",
                "file": "http://rdfile.oss-cn-hangzhou.aliyuncs.com/filemanage/init/filter_cube/54621756/file.cube?nonce=82a1a5a26cbdac78dafe1ddb3a90efc2",
                "cover": "http://rdfile.oss-cn-hangzhou.aliyuncs.com/filemanage/init/filter_cube/54621756/cover.png?nonce=82a1a5a26cbdac78dafe1ddb3a90efc2",
                "updatetime": "1704688728",
                "height": 0,
                "width": 0,
                "video": "",
                "sort": 6,
                "version": 164,
                "cover2": "http://rdfile.oss-cn-hangzhou.aliyuncs.com/filemanage/init/filter_cube/54621756/cover2.png?nonce=82a1a5a26cbdac78dafe1ddb3a90efc2",
                "appkey": "init",
                "duration": 0,
                "extra": {},
                "polyglot": {
                    "en": "Orange Night 006"
                },
                "category": "12544332,",
                "audit": 0,
                "is_ugc": 0,
                "type": "filter_cube"
            },
            {
                "id": "1022703",
                "ufid": "24401468",
                "name": "Orange Night 007",
                "file": "http://rdfile.oss-cn-hangzhou.aliyuncs.com/filemanage/init/filter_cube/24401468/file.cube?nonce=82a1a5a26cbdac78dafe1ddb3a90efc2",
                "cover": "http://rdfile.oss-cn-hangzhou.aliyuncs.com/filemanage/init/filter_cube/24401468/cover.png?nonce=82a1a5a26cbdac78dafe1ddb3a90efc2",
                "updatetime": "1704688728",
                "height": 0,
                "width": 0,
                "video": "",
                "sort": 7,
                "version": 164,
                "cover2": "http://rdfile.oss-cn-hangzhou.aliyuncs.com/filemanage/init/filter_cube/24401468/cover2.png?nonce=82a1a5a26cbdac78dafe1ddb3a90efc2",
                "appkey": "init",
                "duration": 0,
                "extra": {},
                "polyglot": {
                    "en": "Orange Night 007"
                },
                "category": "12544332,",
                "audit": 0,
                "is_ugc": 0,
                "type": "filter_cube"
            },
            {
                "id": "1022704",
                "ufid": "29008590",
                "name": "Orange Night 008",
                "file": "http://rdfile.oss-cn-hangzhou.aliyuncs.com/filemanage/init/filter_cube/29008590/file.cube?nonce=82a1a5a26cbdac78dafe1ddb3a90efc2",
                "cover": "http://rdfile.oss-cn-hangzhou.aliyuncs.com/filemanage/init/filter_cube/29008590/cover.png?nonce=82a1a5a26cbdac78dafe1ddb3a90efc2",
                "updatetime": "1704688728",
                "height": 0,
                "width": 0,
                "video": "",
                "sort": 8,
                "version": 164,
                "cover2": "http://rdfile.oss-cn-hangzhou.aliyuncs.com/filemanage/init/filter_cube/29008590/cover2.png?nonce=82a1a5a26cbdac78dafe1ddb3a90efc2",
                "appkey": "init",
                "duration": 0,
                "extra": {},
                "polyglot": {
                    "en": "Orange Night 008"
                },
                "category": "12544332,",
                "audit": 0,
                "is_ugc": 0,
                "type": "filter_cube"
            },
            {
                "id": "1022705",
                "ufid": "46281729",
                "name": "Orange Night 009",
                "file": "http://rdfile.oss-cn-hangzhou.aliyuncs.com/filemanage/init/filter_cube/46281729/file.cube?nonce=466b6e816bac80323b7b422f5cd6a8fc",
                "cover": "http://rdfile.oss-cn-hangzhou.aliyuncs.com/filemanage/init/filter_cube/46281729/cover.png?nonce=466b6e816bac80323b7b422f5cd6a8fc",
                "updatetime": "1704688729",
                "height": 0,
                "width": 0,
                "video": "",
                "sort": 9,
                "version": 164,
                "cover2": "http://rdfile.oss-cn-hangzhou.aliyuncs.com/filemanage/init/filter_cube/46281729/cover2.png?nonce=466b6e816bac80323b7b422f5cd6a8fc",
                "appkey": "init",
                "duration": 0,
                "extra": {},
                "polyglot": {
                    "en": "Orange Night 009"
                },
                "category": "12544332,",
                "audit": 0,
                "is_ugc": 0,
                "type": "filter_cube"
            },
            {
                "id": "1022706",
                "ufid": "41737624",
                "name": "Orange Night 010",
                "file": "http://rdfile.oss-cn-hangzhou.aliyuncs.com/filemanage/init/filter_cube/41737624/file.cube?nonce=466b6e816bac80323b7b422f5cd6a8fc",
                "cover": "http://rdfile.oss-cn-hangzhou.aliyuncs.com/filemanage/init/filter_cube/41737624/cover.png?nonce=466b6e816bac80323b7b422f5cd6a8fc",
                "updatetime": "1704688729",
                "height": 0,
                "width": 0,
                "video": "",
                "sort": 10,
                "version": 164,
                "cover2": "http://rdfile.oss-cn-hangzhou.aliyuncs.com/filemanage/init/filter_cube/41737624/cover2.png?nonce=466b6e816bac80323b7b422f5cd6a8fc",
                "appkey": "init",
                "duration": 0,
                "extra": {},
                "polyglot": {
                    "en": "Orange Night 010"
                },
                "category": "12544332,",
                "audit": 0,
                "is_ugc": 0,
                "type": "filter_cube"
            }
        ]
    }
}