{
    "code": 0,
    "msg": "success",
    "data": {
        "total": 12,
        "per_page": 10,
        "current_page": 1,
        "last_page": 2,
        "data": [
            {
                "id": "1023271",
                "ufid": "37567250",
                "name": "Emotion 001",
                "file": "http://rdfile.oss-cn-hangzhou.aliyuncs.com/filemanage/init/filter_cube/37567250/file.cube?nonce=580d97a0adede1069e41a9e6521b62e0",
                "cover": "http://rdfile.oss-cn-hangzhou.aliyuncs.com/filemanage/init/filter_cube/37567250/cover.png?nonce=580d97a0adede1069e41a9e6521b62e0",
                "updatetime": "1704688832",
                "height": 0,
                "width": 0,
                "video": "",
                "sort": 1,
                "version": 164,
                "cover2": "http://rdfile.oss-cn-hangzhou.aliyuncs.com/filemanage/init/filter_cube/37567250/cover2.png?nonce=580d97a0adede1069e41a9e6521b62e0",
                "appkey": "init",
                "duration": 0,
                "extra": {},
                "polyglot": {
                    "en": "Emotion 001"
                },
                "category": "25649002,",
                "audit": 0,
                "is_ugc": 0,
                "type": "filter_cube"
            },
            {
                "id": "1023272",
                "ufid": "49847373",
                "name": "Emotion 002",
                "file": "http://rdfile.oss-cn-hangzhou.aliyuncs.com/filemanage/init/filter_cube/49847373/file.cube?nonce=580d97a0adede1069e41a9e6521b62e0",
                "cover": "http://rdfile.oss-cn-hangzhou.aliyuncs.com/filemanage/init/filter_cube/49847373/cover.png?nonce=580d97a0adede1069e41a9e6521b62e0",
                "updatetime": "1704688832",
                "height": 0,
                "width": 0,
                "video": "",
                "sort": 2,
                "version": 164,
                "cover2": "http://rdfile.oss-cn-hangzhou.aliyuncs.com/filemanage/init/filter_cube/49847373/cover2.png?nonce=580d97a0adede1069e41a9e6521b62e0",
                "appkey": "init",
                "duration": 0,
                "extra": {},
                "polyglot": {
                    "en": "Emotion 002"
                },
                "category": "25649002,",
                "audit": 0,
                "is_ugc": 0,
                "type": "filter_cube"
            },
            {
                "id": "1023273",
                "ufid": "17167948",
                "name": "Emotion 003",
                "file": "http://rdfile.oss-cn-hangzhou.aliyuncs.com/filemanage/init/filter_cube/17167948/file.cube?nonce=580d97a0adede1069e41a9e6521b62e0",
                "cover": "http://rdfile.oss-cn-hangzhou.aliyuncs.com/filemanage/init/filter_cube/17167948/cover.png?nonce=580d97a0adede1069e41a9e6521b62e0",
                "updatetime": "1704688832",
                "height": 0,
                "width": 0,
                "video": "",
                "sort": 3,
                "version": 164,
                "cover2": "http://rdfile.oss-cn-hangzhou.aliyuncs.com/filemanage/init/filter_cube/17167948/cover2.png?nonce=580d97a0adede1069e41a9e6521b62e0",
                "appkey": "init",
                "duration": 0,
                "extra": {},
                "polyglot": {
                    "en": "Emotion 003"
                },
                "category": "25649002,",
                "audit": 0,
                "is_ugc": 0,
                "type": "filter_cube"
            },
            {
                "id": "1023274",
                "ufid": "20396823",
                "name": "Emotion 004",
                "file": "http://rdfile.oss-cn-hangzhou.aliyuncs.com/filemanage/init/filter_cube/20396823/file.cube?nonce=580d97a0adede1069e41a9e6521b62e0",
                "cover": "http://rdfile.oss-cn-hangzhou.aliyuncs.com/filemanage/init/filter_cube/20396823/cover.png?nonce=580d97a0adede1069e41a9e6521b62e0",
                "updatetime": "1704688832",
                "height": 0,
                "width": 0,
                "video": "",
                "sort": 4,
                "version": 164,
                "cover2": "http://rdfile.oss-cn-hangzhou.aliyuncs.com/filemanage/init/filter_cube/20396823/cover2.png?nonce=580d97a0adede1069e41a9e6521b62e0",
                "appkey": "init",
                "duration": 0,
                "extra": {},
                "polyglot": {
                    "en": "Emotion 004"
                },
                "category": "25649002,",
                "audit": 0,
                "is_ugc": 0,
                "type": "filter_cube"
            },
            {
                "id": "1023275",
                "ufid": "45109815",
                "name": "Emotion 005",
                "file": "http://rdfile.oss-cn-hangzhou.aliyuncs.com/filemanage/init/filter_cube/45109815/file.cube?nonce=580d97a0adede1069e41a9e6521b62e0",
                "cover": "http://rdfile.oss-cn-hangzhou.aliyuncs.com/filemanage/init/filter_cube/45109815/cover.png?nonce=580d97a0adede1069e41a9e6521b62e0",
                "updatetime": "1704688832",
                "height": 0,
                "width": 0,
                "video": "",
                "sort": 5,
                "version": 164,
                "cover2": "http://rdfile.oss-cn-hangzhou.aliyuncs.com/filemanage/init/filter_cube/45109815/cover2.png?nonce=580d97a0adede1069e41a9e6521b62e0",
                "appkey": "init",
                "duration": 0,
                "extra": {},
                "polyglot": {
                    "en": "Emotion 005"
                },
                "category": "25649002,",
                "audit": 0,
                "is_ugc": 0,
                "type": "filter_cube"
            },
            {
                "id": "1023276",
                "ufid": "59285563",
                "name": "Emotion 006",
                "file": "http://rdfile.oss-cn-hangzhou.aliyuncs.com/filemanage/init/filter_cube/59285563/file.cube?nonce=2fd59058b906649af4202b247266be17",
                "cover": "http://rdfile.oss-cn-hangzhou.aliyuncs.com/filemanage/init/filter_cube/59285563/cover.png?nonce=2fd59058b906649af4202b247266be17",
                "updatetime": "1704688833",
                "height": 0,
                "width": 0,
                "video": "",
                "sort": 6,
                "version": 164,
                "cover2": "http://rdfile.oss-cn-hangzhou.aliyuncs.com/filemanage/init/filter_cube/59285563/cover2.png?nonce=2fd59058b906649af4202b247266be17",
                "appkey": "init",
                "duration": 0,
                "extra": {},
                "polyglot": {
                    "en": "Emotion 006"
                },
                "category": "25649002,",
                "audit": 0,
                "is_ugc": 0,
                "type": "filter_cube"
            },
            {
                "id": "1023277",
                "ufid": "39392863",
                "name": "Emotion 007",
                "file": "http://rdfile.oss-cn-hangzhou.aliyuncs.com/filemanage/init/filter_cube/39392863/file.cube?nonce=2fd59058b906649af4202b247266be17",
                "cover": "http://rdfile.oss-cn-hangzhou.aliyuncs.com/filemanage/init/filter_cube/39392863/cover.png?nonce=2fd59058b906649af4202b247266be17",
                "updatetime": "1704688833",
                "height": 0,
                "width": 0,
                "video": "",
                "sort": 7,
                "version": 164,
                "cover2": "http://rdfile.oss-cn-hangzhou.aliyuncs.com/filemanage/init/filter_cube/39392863/cover2.png?nonce=2fd59058b906649af4202b247266be17",
                "appkey": "init",
                "duration": 0,
                "extra": {},
                "polyglot": {
                    "en": "Emotion 007"
                },
                "category": "25649002,",
                "audit": 0,
                "is_ugc": 0,
                "type": "filter_cube"
            },
            {
                "id": "1023278",
                "ufid": "55426592",
                "name": "Emotion 008",
                "file": "http://rdfile.oss-cn-hangzhou.aliyuncs.com/filemanage/init/filter_cube/55426592/file.cube?nonce=2fd59058b906649af4202b247266be17",
                "cover": "http://rdfile.oss-cn-hangzhou.aliyuncs.com/filemanage/init/filter_cube/55426592/cover.png?nonce=2fd59058b906649af4202b247266be17",
                "updatetime": "1704688833",
                "height": 0,
                "width": 0,
                "video": "",
                "sort": 8,
                "version": 164,
                "cover2": "http://rdfile.oss-cn-hangzhou.aliyuncs.com/filemanage/init/filter_cube/55426592/cover2.png?nonce=2fd59058b906649af4202b247266be17",
                "appkey": "init",
                "duration": 0,
                "extra": {},
                "polyglot": {
                    "en": "Emotion 008"
                },
                "category": "25649002,",
                "audit": 0,
                "is_ugc": 0,
                "type": "filter_cube"
            },
            {
                "id": "1023279",
                "ufid": "81035219",
                "name": "Emotion 009",
                "file": "http://rdfile.oss-cn-hangzhou.aliyuncs.com/filemanage/init/filter_cube/81035219/file.cube?nonce=2fd59058b906649af4202b247266be17",
                "cover": "http://rdfile.oss-cn-hangzhou.aliyuncs.com/filemanage/init/filter_cube/81035219/cover.png?nonce=2fd59058b906649af4202b247266be17",
                "updatetime": "1704688833",
                "height": 0,
                "width": 0,
                "video": "",
                "sort": 9,
                "version": 164,
                "cover2": "http://rdfile.oss-cn-hangzhou.aliyuncs.com/filemanage/init/filter_cube/81035219/cover2.png?nonce=2fd59058b906649af4202b247266be17",
                "appkey": "init",
                "duration": 0,
                "extra": {},
                "polyglot": {
                    "en": "Emotion 009"
                },
                "category": "25649002,",
                "audit": 0,
                "is_ugc": 0,
                "type": "filter_cube"
            },
            {
                "id": "1023280",
                "ufid": "17917692",
                "name": "Emotion 010",
                "file": "http://rdfile.oss-cn-hangzhou.aliyuncs.com/filemanage/init/filter_cube/17917692/file.cube?nonce=2fd59058b906649af4202b247266be17",
                "cover": "http://rdfile.oss-cn-hangzhou.aliyuncs.com/filemanage/init/filter_cube/17917692/cover.png?nonce=2fd59058b906649af4202b247266be17",
                "updatetime": "1704688833",
                "height": 0,
                "width": 0,
                "video": "",
                "sort": 10,
                "version": 164,
                "cover2": "http://rdfile.oss-cn-hangzhou.aliyuncs.com/filemanage/init/filter_cube/17917692/cover2.png?nonce=2fd59058b906649af4202b247266be17",
                "appkey": "init",
                "duration": 0,
                "extra": {},
                "polyglot": {
                    "en": "Emotion 010"
                },
                "category": "25649002,",
                "audit": 0,
                "is_ugc": 0,
                "type": "filter_cube"
            }
        ]
    }
}