{
    "code": 0,
    "msg": "success",
    "data": {
        "total": 11,
        "per_page": 10,
        "current_page": 1,
        "last_page": 2,
        "data": [
            {
                "id": "1022845",
                "ufid": "83960677",
                "name": "Black gold 001",
                "file": "https://raw.githubusercontent.com/sjianji/Magic-Cut/refs/heads/main/data/fiter_cube/26597975/1022845/file.cube",
                "cover": "https://raw.githubusercontent.com/sjianji/Magic-Cut/refs/heads/main/data/fiter_cube/26597975/1022845/cover.png",
                "updatetime": "1704688754",
                "height": 0,
                "width": 0,
                "video": "",
                "sort": 1,
                "version": 164,
                "cover2": "https://raw.githubusercontent.com/sjianji/Magic-Cut/refs/heads/main/data/fiter_cube/26597975/1022845/cover2.png",
                "appkey": "init",
                "duration": 0,
                "extra": {},
                "polyglot": {
                    "en": "Black gold 001"
                },
                "category": "26597975,",
                "audit": 0,
                "is_ugc": 0,
                "type": "filter_cube"
            },
            {
                "id": "1022846",
                "ufid": "40795245",
                "name": "Black gold 002",
                "file": "https://raw.githubusercontent.com/sjianji/Magic-Cut/refs/heads/main/data/fiter_cube/26597975/1022846/file.cube",
                "cover": "https://raw.githubusercontent.com/sjianji/Magic-Cut/refs/heads/main/data/fiter_cube/26597975/1022846/cover.png",
                "updatetime": "1704688754",
                "height": 0,
                "width": 0,
                "video": "",
                "sort": 2,
                "version": 164,
                "cover2": "https://raw.githubusercontent.com/sjianji/Magic-Cut/refs/heads/main/data/fiter_cube/26597975/1022846/cover2.png",
                "appkey": "init",
                "duration": 0,
                "extra": {},
                "polyglot": {
                    "en": "Black gold 002"
                },
                "category": "26597975,",
                "audit": 0,
                "is_ugc": 0,
                "type": "filter_cube"
            },
            {
                "id": "1022847",
                "ufid": "63560355",
                "name": "Black gold 003",
                "file": "https://raw.githubusercontent.com/sjianji/Magic-Cut/refs/heads/main/data/fiter_cube/26597975/1022847/file.cube",
                "cover": "https://raw.githubusercontent.com/sjianji/Magic-Cut/refs/heads/main/data/fiter_cube/26597975/1022847/cover.png",
                "updatetime": "1704688754",
                "height": 0,
                "width": 0,
                "video": "",
                "sort": 3,
                "version": 164,
                "cover2": "https://raw.githubusercontent.com/sjianji/Magic-Cut/refs/heads/main/data/fiter_cube/26597975/1022847/cover2.png",
                "appkey": "init",
                "duration": 0,
                "extra": {},
                "polyglot": {
                    "en": "Black gold 003"
                },
                "category": "26597975,",
                "audit": 0,
                "is_ugc": 0,
                "type": "filter_cube"
            },
            {
                "id": "1022848",
                "ufid": "21234795",
                "name": "Black gold 004",
                "file": "https://raw.githubusercontent.com/sjianji/Magic-Cut/refs/heads/main/data/fiter_cube/26597975/1022848/file.cube",
                "cover": "https://raw.githubusercontent.com/sjianji/Magic-Cut/refs/heads/main/data/fiter_cube/26597975/1022848/cover.png",
                "updatetime": "1704688755",
                "height": 0,
                "width": 0,
                "video": "",
                "sort": 4,
                "version": 164,
                "cover2": "https://raw.githubusercontent.com/sjianji/Magic-Cut/refs/heads/main/data/fiter_cube/26597975/1022848/cover2.png",
                "appkey": "init",
                "duration": 0,
                "extra": {},
                "polyglot": {
                    "en": "Black gold 004"
                },
                "category": "26597975,",
                "audit": 0,
                "is_ugc": 0,
                "type": "filter_cube"
            },
            {
                "id": "1022849",
                "ufid": "91502133",
                "name": "Black gold 005",
                "file": "https://raw.githubusercontent.com/sjianji/Magic-Cut/refs/heads/main/data/fiter_cube/26597975/1022849/file.cube",
                "cover": "https://raw.githubusercontent.com/sjianji/Magic-Cut/refs/heads/main/data/fiter_cube/26597975/1022849/cover.png",
                "updatetime": "1704688755",
                "height": 0,
                "width": 0,
                "video": "",
                "sort": 5,
                "version": 164,
                "cover2": "https://raw.githubusercontent.com/sjianji/Magic-Cut/refs/heads/main/data/fiter_cube/26597975/1022849/cover2.png",
                "appkey": "init",
                "duration": 0,
                "extra": {},
                "polyglot": {
                    "en": "Black gold 005"
                },
                "category": "26597975,",
                "audit": 0,
                "is_ugc": 0,
                "type": "filter_cube"
            },
            {
                "id": "1022850",
                "ufid": "50133435",
                "name": "Black gold 006",
                "file": "https://raw.githubusercontent.com/sjianji/Magic-Cut/refs/heads/main/data/fiter_cube/26597975/1022850/file.cube",
                "cover": "https://raw.githubusercontent.com/sjianji/Magic-Cut/refs/heads/main/data/fiter_cube/26597975/1022850/cover.png",
                "updatetime": "1704688755",
                "height": 0,
                "width": 0,
                "video": "",
                "sort": 6,
                "version": 164,
                "cover2": "https://raw.githubusercontent.com/sjianji/Magic-Cut/refs/heads/main/data/fiter_cube/26597975/1022850/cover2.png",
                "appkey": "init",
                "duration": 0,
                "extra": {},
                "polyglot": {
                    "en": "Black gold 006"
                },
                "category": "26597975,",
                "audit": 0,
                "is_ugc": 0,
                "type": "filter_cube"
            },
            {
                "id": "1022851",
                "ufid": "86895280",
                "name": "Black gold 007",
                "file": "https://raw.githubusercontent.com/sjianji/Magic-Cut/refs/heads/main/data/fiter_cube/26597975/1022851/file.cube",
                "cover": "https://raw.githubusercontent.com/sjianji/Magic-Cut/refs/heads/main/data/fiter_cube/26597975/1022851/cover.png",
                "updatetime": "1704688755",
                "height": 0,
                "width": 0,
                "video": "",
                "sort": 7,
                "version": 164,
                "cover2": "https://raw.githubusercontent.com/sjianji/Magic-Cut/refs/heads/main/data/fiter_cube/26597975/1022851/cover2.png",
                "appkey": "init",
                "duration": 0,
                "extra": {},
                "polyglot": {
                    "en": "Black gold 007"
                },
                "category": "26597975,",
                "audit": 0,
                "is_ugc": 0,
                "type": "filter_cube"
            },
            {
                "id": "1022852",
                "ufid": "56374355",
                "name": "Black gold 008",
                "file": "https://raw.githubusercontent.com/sjianji/Magic-Cut/refs/heads/main/data/fiter_cube/26597975/1022852/file.cube",
                "cover": "https://raw.githubusercontent.com/sjianji/Magic-Cut/refs/heads/main/data/fiter_cube/26597975/1022852/cover.png",
                "updatetime": "1704688755",
                "height": 0,
                "width": 0,
                "video": "",
                "sort": 8,
                "version": 164,
                "cover2": "https://raw.githubusercontent.com/sjianji/Magic-Cut/refs/heads/main/data/fiter_cube/26597975/1022852/cover2.png",
                "appkey": "init",
                "duration": 0,
                "extra": {},
                "polyglot": {
                    "en": "Black gold 008"
                },
                "category": "26597975,",
                "audit": 0,
                "is_ugc": 0,
                "type": "filter_cube"
            },
            {
                "id": "1022853",
                "ufid": "37438527",
                "name": "Black gold 009",
                "file": "https://raw.githubusercontent.com/sjianji/Magic-Cut/refs/heads/main/data/fiter_cube/26597975/1022853/file.cube",
                "cover": "https://raw.githubusercontent.com/sjianji/Magic-Cut/refs/heads/main/data/fiter_cube/26597975/1022853/cover.png",
                "updatetime": "1704688756",
                "height": 0,
                "width": 0,
                "video": "",
                "sort": 9,
                "version": 164,
                "cover2": "https://raw.githubusercontent.com/sjianji/Magic-Cut/refs/heads/main/data/fiter_cube/26597975/1022853/cover2.png",
                "appkey": "init",
                "duration": 0,
                "extra": {},
                "polyglot": {
                    "en": "Black gold 009"
                },
                "category": "26597975,",
                "audit": 0,
                "is_ugc": 0,
                "type": "filter_cube"
            },
            {
                "id": "1022854",
                "ufid": "19865564",
                "name": "Black gold 010",
                "file": "https://raw.githubusercontent.com/sjianji/Magic-Cut/refs/heads/main/data/fiter_cube/26597975/1022854/file.cube",
                "cover": "https://raw.githubusercontent.com/sjianji/Magic-Cut/refs/heads/main/data/fiter_cube/26597975/1022854/cover.png",
                "updatetime": "1704688756",
                "height": 0,
                "width": 0,
                "video": "",
                "sort": 10,
                "version": 164,
                "cover2": "https://raw.githubusercontent.com/sjianji/Magic-Cut/refs/heads/main/data/fiter_cube/26597975/1022854/cover2.png",
                "appkey": "init",
                "duration": 0,
                "extra": {},
                "polyglot": {
                    "en": "Black gold 010"
                },
                "category": "26597975,",
                "audit": 0,
                "is_ugc": 0,
                "type": "filter_cube"
            }
        ]
    }
}