{
    "code": 0,
    "msg": "success",
    "data": {
        "total": 21,
        "per_page": 10,
        "current_page": 1,
        "last_page": 3,
        "data": [
            {
                "id": "1023162",
                "ufid": "11456224",
                "name": "Fantasy 001",
                "file": "https://raw.githubusercontent.com/sjianji/Magic-Cut/refs/heads/main/data/fiter_cube/28334299/1023162/file.cube",
                "cover": "https://raw.githubusercontent.com/sjianji/Magic-Cut/refs/heads/main/data/fiter_cube/28334299/1023162/cover.png",
                "updatetime": "1704688812",
                "height": 0,
                "width": 0,
                "video": "",
                "sort": 1,
                "version": 164,
                "cover2": "https://raw.githubusercontent.com/sjianji/Magic-Cut/refs/heads/main/data/fiter_cube/28334299/1023162/cover2.png",
                "appkey": "init",
                "duration": 0,
                "extra": {},
                "polyglot": {
                    "en": "Fantasy 001"
                },
                "category": "28334299,",
                "audit": 0,
                "is_ugc": 0,
                "type": "filter_cube"
            },
            {
                "id": "1023163",
                "ufid": "38276688",
                "name": "Fantasy 002",
                "file": "https://raw.githubusercontent.com/sjianji/Magic-Cut/refs/heads/main/data/fiter_cube/28334299/1023163/file.cube",
                "cover": "https://raw.githubusercontent.com/sjianji/Magic-Cut/refs/heads/main/data/fiter_cube/28334299/1023163/cover.png",
                "updatetime": "1704688812",
                "height": 0,
                "width": 0,
                "video": "",
                "sort": 2,
                "version": 164,
                "cover2": "https://raw.githubusercontent.com/sjianji/Magic-Cut/refs/heads/main/data/fiter_cube/28334299/1023163/cover2.png",
                "appkey": "init",
                "duration": 0,
                "extra": {},
                "polyglot": {
                    "en": "Fantasy 002"
                },
                "category": "28334299,",
                "audit": 0,
                "is_ugc": 0,
                "type": "filter_cube"
            },
            {
                "id": "1023164",
                "ufid": "77781930",
                "name": "Fantasy 003",
                "file": "https://raw.githubusercontent.com/sjianji/Magic-Cut/refs/heads/main/data/fiter_cube/28334299/1023164/file.cube",
                "cover": "https://raw.githubusercontent.com/sjianji/Magic-Cut/refs/heads/main/data/fiter_cube/28334299/1023164/cover.png",
                "updatetime": "1704688812",
                "height": 0,
                "width": 0,
                "video": "",
                "sort": 3,
                "version": 164,
                "cover2": "https://raw.githubusercontent.com/sjianji/Magic-Cut/refs/heads/main/data/fiter_cube/28334299/1023164/cover2.png",
                "appkey": "init",
                "duration": 0,
                "extra": {},
                "polyglot": {
                    "en": "Fantasy 003"
                },
                "category": "28334299,",
                "audit": 0,
                "is_ugc": 0,
                "type": "filter_cube"
            },
            {
                "id": "1023165",
                "ufid": "15559257",
                "name": "Fantasy 004",
                "file": "https://raw.githubusercontent.com/sjianji/Magic-Cut/refs/heads/main/data/fiter_cube/28334299/1023165/file.cube",
                "cover": "https://raw.githubusercontent.com/sjianji/Magic-Cut/refs/heads/main/data/fiter_cube/28334299/1023165/cover.png",
                "updatetime": "1704688812",
                "height": 0,
                "width": 0,
                "video": "",
                "sort": 4,
                "version": 164,
                "cover2": "https://raw.githubusercontent.com/sjianji/Magic-Cut/refs/heads/main/data/fiter_cube/28334299/1023165/cover2.png",
                "appkey": "init",
                "duration": 0,
                "extra": {},
                "polyglot": {
                    "en": "Fantasy 004"
                },
                "category": "28334299,",
                "audit": 0,
                "is_ugc": 0,
                "type": "filter_cube"
            },
            {
                "id": "1023166",
                "ufid": "10468926",
                "name": "Fantasy 005",
                "file": "https://raw.githubusercontent.com/sjianji/Magic-Cut/refs/heads/main/data/fiter_cube/28334299/1023166/file.cube",
                "cover": "https://raw.githubusercontent.com/sjianji/Magic-Cut/refs/heads/main/data/fiter_cube/28334299/1023166/cover.png",
                "updatetime": "1704688813",
                "height": 0,
                "width": 0,
                "video": "",
                "sort": 5,
                "version": 164,
                "cover2": "https://raw.githubusercontent.com/sjianji/Magic-Cut/refs/heads/main/data/fiter_cube/28334299/1023166/cover2.png",
                "appkey": "init",
                "duration": 0,
                "extra": {},
                "polyglot": {
                    "en": "Fantasy 005"
                },
                "category": "28334299,",
                "audit": 0,
                "is_ugc": 0,
                "type": "filter_cube"
            },
            {
                "id": "1023167",
                "ufid": "40184025",
                "name": "Fantasy 006",
                "file": "https://raw.githubusercontent.com/sjianji/Magic-Cut/refs/heads/main/data/fiter_cube/28334299/1023167/file.cube",
                "cover": "https://raw.githubusercontent.com/sjianji/Magic-Cut/refs/heads/main/data/fiter_cube/28334299/1023167/cover.png",
                "updatetime": "1704688813",
                "height": 0,
                "width": 0,
                "video": "",
                "sort": 6,
                "version": 164,
                "cover2": "https://raw.githubusercontent.com/sjianji/Magic-Cut/refs/heads/main/data/fiter_cube/28334299/1023167/cover2.png",
                "appkey": "init",
                "duration": 0,
                "extra": {},
                "polyglot": {
                    "en": "Fantasy 006"
                },
                "category": "28334299,",
                "audit": 0,
                "is_ugc": 0,
                "type": "filter_cube"
            },
            {
                "id": "1023168",
                "ufid": "91485102",
                "name": "Fantasy 007",
                "file": "https://raw.githubusercontent.com/sjianji/Magic-Cut/refs/heads/main/data/fiter_cube/28334299/1023168/file.cube",
                "cover": "https://raw.githubusercontent.com/sjianji/Magic-Cut/refs/heads/main/data/fiter_cube/28334299/1023168/cover.png",
                "updatetime": "1704688813",
                "height": 0,
                "width": 0,
                "video": "",
                "sort": 7,
                "version": 164,
                "cover2": "https://raw.githubusercontent.com/sjianji/Magic-Cut/refs/heads/main/data/fiter_cube/28334299/1023168/cover2.png",
                "appkey": "init",
                "duration": 0,
                "extra": {},
                "polyglot": {
                    "en": "Fantasy 007"
                },
                "category": "28334299,",
                "audit": 0,
                "is_ugc": 0,
                "type": "filter_cube"
            },
            {
                "id": "1023169",
                "ufid": "42059063",
                "name": "Fantasy 008",
                "file": "https://raw.githubusercontent.com/sjianji/Magic-Cut/refs/heads/main/data/fiter_cube/28334299/1023169/file.cube",
                "cover": "https://raw.githubusercontent.com/sjianji/Magic-Cut/refs/heads/main/data/fiter_cube/28334299/1023169/cover.png",
                "updatetime": "1704688813",
                "height": 0,
                "width": 0,
                "video": "",
                "sort": 8,
                "version": 164,
                "cover2": "https://raw.githubusercontent.com/sjianji/Magic-Cut/refs/heads/main/data/fiter_cube/28334299/1023169/cover2.png",
                "appkey": "init",
                "duration": 0,
                "extra": {},
                "polyglot": {
                    "en": "Fantasy 008"
                },
                "category": "28334299,",
                "audit": 0,
                "is_ugc": 0,
                "type": "filter_cube"
            },
            {
                "id": "1023170",
                "ufid": "49763577",
                "name": "Fantasy 009",
                "file": "https://raw.githubusercontent.com/sjianji/Magic-Cut/refs/heads/main/data/fiter_cube/28334299/1023170/file.cube",
                "cover": "https://raw.githubusercontent.com/sjianji/Magic-Cut/refs/heads/main/data/fiter_cube/28334299/1023170/cover.png",
                "updatetime": "1704688813",
                "height": 0,
                "width": 0,
                "video": "",
                "sort": 9,
                "version": 164,
                "cover2": "https://raw.githubusercontent.com/sjianji/Magic-Cut/refs/heads/main/data/fiter_cube/28334299/1023170/cover2.png",
                "appkey": "init",
                "duration": 0,
                "extra": {},
                "polyglot": {
                    "en": "Fantasy 009"
                },
                "category": "28334299,",
                "audit": 0,
                "is_ugc": 0,
                "type": "filter_cube"
            },
            {
                "id": "1023171",
                "ufid": "80375391",
                "name": "Fantasy 010",
                "file": "https://raw.githubusercontent.com/sjianji/Magic-Cut/refs/heads/main/data/fiter_cube/28334299/1023171/file.cube",
                "cover": "https://raw.githubusercontent.com/sjianji/Magic-Cut/refs/heads/main/data/fiter_cube/28334299/1023171/cover.png",
                "updatetime": "1704688813",
                "height": 0,
                "width": 0,
                "video": "",
                "sort": 10,
                "version": 164,
                "cover2": "https://raw.githubusercontent.com/sjianji/Magic-Cut/refs/heads/main/data/fiter_cube/28334299/1023171/cover2.png",
                "appkey": "init",
                "duration": 0,
                "extra": {},
                "polyglot": {
                    "en": "Fantasy 010"
                },
                "category": "28334299,",
                "audit": 0,
                "is_ugc": 0,
                "type": "filter_cube"
            }
        ]
    }
}