{
    "code": 0,
    "msg": "success",
    "data": {
        "total": 15,
        "per_page": 10,
        "current_page": 1,
        "last_page": 2,
        "data": [
            {
                "id": "1022856",
                "ufid": "23758860",
                "name": "Gray blue 001",
                "file": "http://rdfile.oss-cn-hangzhou.aliyuncs.com/filemanage/init/filter_cube/23758860/file.cube?nonce=28fa95c1eb89667ca88046c56492c81d",
                "cover": "http://rdfile.oss-cn-hangzhou.aliyuncs.com/filemanage/init/filter_cube/23758860/cover.png?nonce=28fa95c1eb89667ca88046c56492c81d",
                "updatetime": "1704688756",
                "height": 0,
                "width": 0,
                "video": "",
                "sort": 1,
                "version": 164,
                "cover2": "http://rdfile.oss-cn-hangzhou.aliyuncs.com/filemanage/init/filter_cube/23758860/cover2.png?nonce=28fa95c1eb89667ca88046c56492c81d",
                "appkey": "init",
                "duration": 0,
                "extra": {},
                "polyglot": {
                    "en": "Gray blue 001"
                },
                "category": "29797953,",
                "audit": 0,
                "is_ugc": 0,
                "type": "filter_cube"
            },
            {
                "id": "1022857",
                "ufid": "96071531",
                "name": "Gray blue 002",
                "file": "http://rdfile.oss-cn-hangzhou.aliyuncs.com/filemanage/init/filter_cube/96071531/file.cube?nonce=28fa95c1eb89667ca88046c56492c81d",
                "cover": "http://rdfile.oss-cn-hangzhou.aliyuncs.com/filemanage/init/filter_cube/96071531/cover.png?nonce=28fa95c1eb89667ca88046c56492c81d",
                "updatetime": "1704688756",
                "height": 0,
                "width": 0,
                "video": "",
                "sort": 2,
                "version": 164,
                "cover2": "http://rdfile.oss-cn-hangzhou.aliyuncs.com/filemanage/init/filter_cube/96071531/cover2.png?nonce=28fa95c1eb89667ca88046c56492c81d",
                "appkey": "init",
                "duration": 0,
                "extra": {},
                "polyglot": {
                    "en": "Gray blue 002"
                },
                "category": "29797953,",
                "audit": 0,
                "is_ugc": 0,
                "type": "filter_cube"
            },
            {
                "id": "1022858",
                "ufid": "46434756",
                "name": "Gray blue 003",
                "file": "http://rdfile.oss-cn-hangzhou.aliyuncs.com/filemanage/init/filter_cube/46434756/file.cube?nonce=779ff1e2d815b774d5cf88b4ea7ef90e",
                "cover": "http://rdfile.oss-cn-hangzhou.aliyuncs.com/filemanage/init/filter_cube/46434756/cover.png?nonce=779ff1e2d815b774d5cf88b4ea7ef90e",
                "updatetime": "1704688757",
                "height": 0,
                "width": 0,
                "video": "",
                "sort": 3,
                "version": 164,
                "cover2": "http://rdfile.oss-cn-hangzhou.aliyuncs.com/filemanage/init/filter_cube/46434756/cover2.png?nonce=779ff1e2d815b774d5cf88b4ea7ef90e",
                "appkey": "init",
                "duration": 0,
                "extra": {},
                "polyglot": {
                    "en": "Gray blue 003"
                },
                "category": "29797953,",
                "audit": 0,
                "is_ugc": 0,
                "type": "filter_cube"
            },
            {
                "id": "1022859",
                "ufid": "31605390",
                "name": "Gray blue 004",
                "file": "http://rdfile.oss-cn-hangzhou.aliyuncs.com/filemanage/init/filter_cube/31605390/file.cube?nonce=779ff1e2d815b774d5cf88b4ea7ef90e",
                "cover": "http://rdfile.oss-cn-hangzhou.aliyuncs.com/filemanage/init/filter_cube/31605390/cover.png?nonce=779ff1e2d815b774d5cf88b4ea7ef90e",
                "updatetime": "1704688757",
                "height": 0,
                "width": 0,
                "video": "",
                "sort": 4,
                "version": 164,
                "cover2": "http://rdfile.oss-cn-hangzhou.aliyuncs.com/filemanage/init/filter_cube/31605390/cover2.png?nonce=779ff1e2d815b774d5cf88b4ea7ef90e",
                "appkey": "init",
                "duration": 0,
                "extra": {},
                "polyglot": {
                    "en": "Gray blue 004"
                },
                "category": "29797953,",
                "audit": 0,
                "is_ugc": 0,
                "type": "filter_cube"
            },
            {
                "id": "1022860",
                "ufid": "37451931",
                "name": "Gray blue 005",
                "file": "http://rdfile.oss-cn-hangzhou.aliyuncs.com/filemanage/init/filter_cube/37451931/file.cube?nonce=779ff1e2d815b774d5cf88b4ea7ef90e",
                "cover": "http://rdfile.oss-cn-hangzhou.aliyuncs.com/filemanage/init/filter_cube/37451931/cover.png?nonce=779ff1e2d815b774d5cf88b4ea7ef90e",
                "updatetime": "1704688757",
                "height": 0,
                "width": 0,
                "video": "",
                "sort": 5,
                "version": 164,
                "cover2": "http://rdfile.oss-cn-hangzhou.aliyuncs.com/filemanage/init/filter_cube/37451931/cover2.png?nonce=779ff1e2d815b774d5cf88b4ea7ef90e",
                "appkey": "init",
                "duration": 0,
                "extra": {},
                "polyglot": {
                    "en": "Gray blue 005"
                },
                "category": "29797953,",
                "audit": 0,
                "is_ugc": 0,
                "type": "filter_cube"
            },
            {
                "id": "1022861",
                "ufid": "32570348",
                "name": "Gray blue 006",
                "file": "http://rdfile.oss-cn-hangzhou.aliyuncs.com/filemanage/init/filter_cube/32570348/file.cube?nonce=779ff1e2d815b774d5cf88b4ea7ef90e",
                "cover": "http://rdfile.oss-cn-hangzhou.aliyuncs.com/filemanage/init/filter_cube/32570348/cover.png?nonce=779ff1e2d815b774d5cf88b4ea7ef90e",
                "updatetime": "1704688757",
                "height": 0,
                "width": 0,
                "video": "",
                "sort": 6,
                "version": 164,
                "cover2": "http://rdfile.oss-cn-hangzhou.aliyuncs.com/filemanage/init/filter_cube/32570348/cover2.png?nonce=779ff1e2d815b774d5cf88b4ea7ef90e",
                "appkey": "init",
                "duration": 0,
                "extra": {},
                "polyglot": {
                    "en": "Gray blue 006"
                },
                "category": "29797953,",
                "audit": 0,
                "is_ugc": 0,
                "type": "filter_cube"
            },
            {
                "id": "1022862",
                "ufid": "85730397",
                "name": "Gray blue 007",
                "file": "http://rdfile.oss-cn-hangzhou.aliyuncs.com/filemanage/init/filter_cube/85730397/file.cube?nonce=779ff1e2d815b774d5cf88b4ea7ef90e",
                "cover": "http://rdfile.oss-cn-hangzhou.aliyuncs.com/filemanage/init/filter_cube/85730397/cover.png?nonce=779ff1e2d815b774d5cf88b4ea7ef90e",
                "updatetime": "1704688757",
                "height": 0,
                "width": 0,
                "video": "",
                "sort": 7,
                "version": 164,
                "cover2": "http://rdfile.oss-cn-hangzhou.aliyuncs.com/filemanage/init/filter_cube/85730397/cover2.png?nonce=779ff1e2d815b774d5cf88b4ea7ef90e",
                "appkey": "init",
                "duration": 0,
                "extra": {},
                "polyglot": {
                    "en": "Gray blue 007"
                },
                "category": "29797953,",
                "audit": 0,
                "is_ugc": 0,
                "type": "filter_cube"
            },
            {
                "id": "1022863",
                "ufid": "71896675",
                "name": "Gray blue 008",
                "file": "http://rdfile.oss-cn-hangzhou.aliyuncs.com/filemanage/init/filter_cube/71896675/file.cube?nonce=779ff1e2d815b774d5cf88b4ea7ef90e",
                "cover": "http://rdfile.oss-cn-hangzhou.aliyuncs.com/filemanage/init/filter_cube/71896675/cover.png?nonce=779ff1e2d815b774d5cf88b4ea7ef90e",
                "updatetime": "1704688757",
                "height": 0,
                "width": 0,
                "video": "",
                "sort": 8,
                "version": 164,
                "cover2": "http://rdfile.oss-cn-hangzhou.aliyuncs.com/filemanage/init/filter_cube/71896675/cover2.png?nonce=779ff1e2d815b774d5cf88b4ea7ef90e",
                "appkey": "init",
                "duration": 0,
                "extra": {},
                "polyglot": {
                    "en": "Gray blue 008"
                },
                "category": "29797953,",
                "audit": 0,
                "is_ugc": 0,
                "type": "filter_cube"
            },
            {
                "id": "1022864",
                "ufid": "80459942",
                "name": "Gray blue 009",
                "file": "http://rdfile.oss-cn-hangzhou.aliyuncs.com/filemanage/init/filter_cube/80459942/file.cube?nonce=77a87c1c24e9f8c3fd5cf802b865ff6a",
                "cover": "http://rdfile.oss-cn-hangzhou.aliyuncs.com/filemanage/init/filter_cube/80459942/cover.png?nonce=77a87c1c24e9f8c3fd5cf802b865ff6a",
                "updatetime": "1704688758",
                "height": 0,
                "width": 0,
                "video": "",
                "sort": 9,
                "version": 164,
                "cover2": "http://rdfile.oss-cn-hangzhou.aliyuncs.com/filemanage/init/filter_cube/80459942/cover2.png?nonce=77a87c1c24e9f8c3fd5cf802b865ff6a",
                "appkey": "init",
                "duration": 0,
                "extra": {},
                "polyglot": {
                    "en": "Gray blue 009"
                },
                "category": "29797953,",
                "audit": 0,
                "is_ugc": 0,
                "type": "filter_cube"
            },
            {
                "id": "1022865",
                "ufid": "97464183",
                "name": "Gray blue 010",
                "file": "http://rdfile.oss-cn-hangzhou.aliyuncs.com/filemanage/init/filter_cube/97464183/file.cube?nonce=77a87c1c24e9f8c3fd5cf802b865ff6a",
                "cover": "http://rdfile.oss-cn-hangzhou.aliyuncs.com/filemanage/init/filter_cube/97464183/cover.png?nonce=77a87c1c24e9f8c3fd5cf802b865ff6a",
                "updatetime": "1704688758",
                "height": 0,
                "width": 0,
                "video": "",
                "sort": 10,
                "version": 164,
                "cover2": "http://rdfile.oss-cn-hangzhou.aliyuncs.com/filemanage/init/filter_cube/97464183/cover2.png?nonce=77a87c1c24e9f8c3fd5cf802b865ff6a",
                "appkey": "init",
                "duration": 0,
                "extra": {},
                "polyglot": {
                    "en": "Gray blue 010"
                },
                "category": "29797953,",
                "audit": 0,
                "is_ugc": 0,
                "type": "filter_cube"
            }
        ]
    }
}