{
    "code": 0,
    "msg": "success",
    "data": {
        "total": 18,
        "per_page": 10,
        "current_page": 1,
        "last_page": 2,
        "data": [
            {
                "id": "1023021",
                "ufid": "84530462",
                "name": "Street Photography 001",
                "file": "http://rdfile.oss-cn-hangzhou.aliyuncs.com/filemanage/init/filter_cube/84530462/file.cube?nonce=8a44af23d5f2695282b6107013b2e611",
                "cover": "http://rdfile.oss-cn-hangzhou.aliyuncs.com/filemanage/init/filter_cube/84530462/cover.png?nonce=8a44af23d5f2695282b6107013b2e611",
                "updatetime": "1704688786",
                "height": 0,
                "width": 0,
                "video": "",
                "sort": 1,
                "version": 164,
                "cover2": "http://rdfile.oss-cn-hangzhou.aliyuncs.com/filemanage/init/filter_cube/84530462/cover2.png?nonce=8a44af23d5f2695282b6107013b2e611",
                "appkey": "init",
                "duration": 0,
                "extra": {},
                "polyglot": {
                    "en": "Street Photography 001"
                },
                "category": "52608991,",
                "audit": 0,
                "is_ugc": 0,
                "type": "filter_cube"
            },
            {
                "id": "1023022",
                "ufid": "60171143",
                "name": "Street Photography 002",
                "file": "http://rdfile.oss-cn-hangzhou.aliyuncs.com/filemanage/init/filter_cube/60171143/file.cube?nonce=8a44af23d5f2695282b6107013b2e611",
                "cover": "http://rdfile.oss-cn-hangzhou.aliyuncs.com/filemanage/init/filter_cube/60171143/cover.png?nonce=8a44af23d5f2695282b6107013b2e611",
                "updatetime": "1704688786",
                "height": 0,
                "width": 0,
                "video": "",
                "sort": 2,
                "version": 164,
                "cover2": "http://rdfile.oss-cn-hangzhou.aliyuncs.com/filemanage/init/filter_cube/60171143/cover2.png?nonce=8a44af23d5f2695282b6107013b2e611",
                "appkey": "init",
                "duration": 0,
                "extra": {},
                "polyglot": {
                    "en": "Street Photography 002"
                },
                "category": "52608991,",
                "audit": 0,
                "is_ugc": 0,
                "type": "filter_cube"
            },
            {
                "id": "1023023",
                "ufid": "68396921",
                "name": "Street Photography 003",
                "file": "http://rdfile.oss-cn-hangzhou.aliyuncs.com/filemanage/init/filter_cube/68396921/file.cube?nonce=8a44af23d5f2695282b6107013b2e611",
                "cover": "http://rdfile.oss-cn-hangzhou.aliyuncs.com/filemanage/init/filter_cube/68396921/cover.png?nonce=8a44af23d5f2695282b6107013b2e611",
                "updatetime": "1704688786",
                "height": 0,
                "width": 0,
                "video": "",
                "sort": 3,
                "version": 164,
                "cover2": "http://rdfile.oss-cn-hangzhou.aliyuncs.com/filemanage/init/filter_cube/68396921/cover2.png?nonce=8a44af23d5f2695282b6107013b2e611",
                "appkey": "init",
                "duration": 0,
                "extra": {},
                "polyglot": {
                    "en": "Street Photography 003"
                },
                "category": "52608991,",
                "audit": 0,
                "is_ugc": 0,
                "type": "filter_cube"
            },
            {
                "id": "1023024",
                "ufid": "56985574",
                "name": "Street Photography 004",
                "file": "http://rdfile.oss-cn-hangzhou.aliyuncs.com/filemanage/init/filter_cube/56985574/file.cube?nonce=8a44af23d5f2695282b6107013b2e611",
                "cover": "http://rdfile.oss-cn-hangzhou.aliyuncs.com/filemanage/init/filter_cube/56985574/cover.png?nonce=8a44af23d5f2695282b6107013b2e611",
                "updatetime": "1704688786",
                "height": 0,
                "width": 0,
                "video": "",
                "sort": 4,
                "version": 164,
                "cover2": "http://rdfile.oss-cn-hangzhou.aliyuncs.com/filemanage/init/filter_cube/56985574/cover2.png?nonce=8a44af23d5f2695282b6107013b2e611",
                "appkey": "init",
                "duration": 0,
                "extra": {},
                "polyglot": {
                    "en": "Street Photography 004"
                },
                "category": "52608991,",
                "audit": 0,
                "is_ugc": 0,
                "type": "filter_cube"
            },
            {
                "id": "1023025",
                "ufid": "90603770",
                "name": "Street Photography 005",
                "file": "http://rdfile.oss-cn-hangzhou.aliyuncs.com/filemanage/init/filter_cube/90603770/file.cube?nonce=8a44af23d5f2695282b6107013b2e611",
                "cover": "http://rdfile.oss-cn-hangzhou.aliyuncs.com/filemanage/init/filter_cube/90603770/cover.png?nonce=8a44af23d5f2695282b6107013b2e611",
                "updatetime": "1704688786",
                "height": 0,
                "width": 0,
                "video": "",
                "sort": 5,
                "version": 164,
                "cover2": "http://rdfile.oss-cn-hangzhou.aliyuncs.com/filemanage/init/filter_cube/90603770/cover2.png?nonce=8a44af23d5f2695282b6107013b2e611",
                "appkey": "init",
                "duration": 0,
                "extra": {},
                "polyglot": {
                    "en": "Street Photography 005"
                },
                "category": "52608991,",
                "audit": 0,
                "is_ugc": 0,
                "type": "filter_cube"
            },
            {
                "id": "1023026",
                "ufid": "88140196",
                "name": "Street Photography 006",
                "file": "http://rdfile.oss-cn-hangzhou.aliyuncs.com/filemanage/init/filter_cube/88140196/file.cube?nonce=8d699221f4e7ac040a0361f4047db6e3",
                "cover": "http://rdfile.oss-cn-hangzhou.aliyuncs.com/filemanage/init/filter_cube/88140196/cover.png?nonce=8d699221f4e7ac040a0361f4047db6e3",
                "updatetime": "1704688787",
                "height": 0,
                "width": 0,
                "video": "",
                "sort": 6,
                "version": 164,
                "cover2": "http://rdfile.oss-cn-hangzhou.aliyuncs.com/filemanage/init/filter_cube/88140196/cover2.png?nonce=8d699221f4e7ac040a0361f4047db6e3",
                "appkey": "init",
                "duration": 0,
                "extra": {},
                "polyglot": {
                    "en": "Street Photography 006"
                },
                "category": "52608991,",
                "audit": 0,
                "is_ugc": 0,
                "type": "filter_cube"
            },
            {
                "id": "1023027",
                "ufid": "99161719",
                "name": "Street Photography 007",
                "file": "http://rdfile.oss-cn-hangzhou.aliyuncs.com/filemanage/init/filter_cube/99161719/file.cube?nonce=8d699221f4e7ac040a0361f4047db6e3",
                "cover": "http://rdfile.oss-cn-hangzhou.aliyuncs.com/filemanage/init/filter_cube/99161719/cover.png?nonce=8d699221f4e7ac040a0361f4047db6e3",
                "updatetime": "1704688787",
                "height": 0,
                "width": 0,
                "video": "",
                "sort": 7,
                "version": 164,
                "cover2": "http://rdfile.oss-cn-hangzhou.aliyuncs.com/filemanage/init/filter_cube/99161719/cover2.png?nonce=8d699221f4e7ac040a0361f4047db6e3",
                "appkey": "init",
                "duration": 0,
                "extra": {},
                "polyglot": {
                    "en": "Street Photography 007"
                },
                "category": "52608991,",
                "audit": 0,
                "is_ugc": 0,
                "type": "filter_cube"
            },
            {
                "id": "1023028",
                "ufid": "88646097",
                "name": "Street Photography 008",
                "file": "http://rdfile.oss-cn-hangzhou.aliyuncs.com/filemanage/init/filter_cube/88646097/file.cube?nonce=8d699221f4e7ac040a0361f4047db6e3",
                "cover": "http://rdfile.oss-cn-hangzhou.aliyuncs.com/filemanage/init/filter_cube/88646097/cover.png?nonce=8d699221f4e7ac040a0361f4047db6e3",
                "updatetime": "1704688787",
                "height": 0,
                "width": 0,
                "video": "",
                "sort": 8,
                "version": 164,
                "cover2": "http://rdfile.oss-cn-hangzhou.aliyuncs.com/filemanage/init/filter_cube/88646097/cover2.png?nonce=8d699221f4e7ac040a0361f4047db6e3",
                "appkey": "init",
                "duration": 0,
                "extra": {},
                "polyglot": {
                    "en": "Street Photography 008"
                },
                "category": "52608991,",
                "audit": 0,
                "is_ugc": 0,
                "type": "filter_cube"
            },
            {
                "id": "1023029",
                "ufid": "54160937",
                "name": "Street Photography 009",
                "file": "http://rdfile.oss-cn-hangzhou.aliyuncs.com/filemanage/init/filter_cube/54160937/file.cube?nonce=8d699221f4e7ac040a0361f4047db6e3",
                "cover": "http://rdfile.oss-cn-hangzhou.aliyuncs.com/filemanage/init/filter_cube/54160937/cover.png?nonce=8d699221f4e7ac040a0361f4047db6e3",
                "updatetime": "1704688787",
                "height": 0,
                "width": 0,
                "video": "",
                "sort": 9,
                "version": 164,
                "cover2": "http://rdfile.oss-cn-hangzhou.aliyuncs.com/filemanage/init/filter_cube/54160937/cover2.png?nonce=8d699221f4e7ac040a0361f4047db6e3",
                "appkey": "init",
                "duration": 0,
                "extra": {},
                "polyglot": {
                    "en": "Street Photography 009"
                },
                "category": "52608991,",
                "audit": 0,
                "is_ugc": 0,
                "type": "filter_cube"
            },
            {
                "id": "1023030",
                "ufid": "55402188",
                "name": "Street Photography 010",
                "file": "http://rdfile.oss-cn-hangzhou.aliyuncs.com/filemanage/init/filter_cube/55402188/file.cube?nonce=8d699221f4e7ac040a0361f4047db6e3",
                "cover": "http://rdfile.oss-cn-hangzhou.aliyuncs.com/filemanage/init/filter_cube/55402188/cover.png?nonce=8d699221f4e7ac040a0361f4047db6e3",
                "updatetime": "1704688787",
                "height": 0,
                "width": 0,
                "video": "",
                "sort": 10,
                "version": 164,
                "cover2": "http://rdfile.oss-cn-hangzhou.aliyuncs.com/filemanage/init/filter_cube/55402188/cover2.png?nonce=8d699221f4e7ac040a0361f4047db6e3",
                "appkey": "init",
                "duration": 0,
                "extra": {},
                "polyglot": {
                    "en": "Street Photography 010"
                },
                "category": "52608991,",
                "audit": 0,
                "is_ugc": 0,
                "type": "filter_cube"
            }
        ]
    }
}