{
    "code": 0,
    "msg": "success",
    "data": {
        "total": 19,
        "per_page": 10,
        "current_page": 1,
        "last_page": 2,
        "data": [
            {
                "id": "1023183",
                "ufid": "45887476",
                "name": "Bright 001",
                "file": "http://rdfile.oss-cn-hangzhou.aliyuncs.com/filemanage/init/filter_cube/45887476/file.cube?nonce=569f78544c21c8e0f2be33c30dbe0890",
                "cover": "http://rdfile.oss-cn-hangzhou.aliyuncs.com/filemanage/init/filter_cube/45887476/cover.png?nonce=569f78544c21c8e0f2be33c30dbe0890",
                "updatetime": "1704688816",
                "height": 0,
                "width": 0,
                "video": "",
                "sort": 1,
                "version": 164,
                "cover2": "http://rdfile.oss-cn-hangzhou.aliyuncs.com/filemanage/init/filter_cube/45887476/cover2.png?nonce=569f78544c21c8e0f2be33c30dbe0890",
                "appkey": "init",
                "duration": 0,
                "extra": {},
                "polyglot": {
                    "en": "Bright 001"
                },
                "category": "55192441,",
                "audit": 0,
                "is_ugc": 0,
                "type": "filter_cube"
            },
            {
                "id": "1023184",
                "ufid": "24844266",
                "name": "Bright 002",
                "file": "http://rdfile.oss-cn-hangzhou.aliyuncs.com/filemanage/init/filter_cube/24844266/file.cube?nonce=569f78544c21c8e0f2be33c30dbe0890",
                "cover": "http://rdfile.oss-cn-hangzhou.aliyuncs.com/filemanage/init/filter_cube/24844266/cover.png?nonce=569f78544c21c8e0f2be33c30dbe0890",
                "updatetime": "1704688816",
                "height": 0,
                "width": 0,
                "video": "",
                "sort": 2,
                "version": 164,
                "cover2": "http://rdfile.oss-cn-hangzhou.aliyuncs.com/filemanage/init/filter_cube/24844266/cover2.png?nonce=569f78544c21c8e0f2be33c30dbe0890",
                "appkey": "init",
                "duration": 0,
                "extra": {},
                "polyglot": {
                    "en": "Bright 002"
                },
                "category": "55192441,",
                "audit": 0,
                "is_ugc": 0,
                "type": "filter_cube"
            },
            {
                "id": "1023185",
                "ufid": "60932509",
                "name": "Bright 003",
                "file": "http://rdfile.oss-cn-hangzhou.aliyuncs.com/filemanage/init/filter_cube/60932509/file.cube?nonce=569f78544c21c8e0f2be33c30dbe0890",
                "cover": "http://rdfile.oss-cn-hangzhou.aliyuncs.com/filemanage/init/filter_cube/60932509/cover.png?nonce=569f78544c21c8e0f2be33c30dbe0890",
                "updatetime": "1704688816",
                "height": 0,
                "width": 0,
                "video": "",
                "sort": 3,
                "version": 164,
                "cover2": "http://rdfile.oss-cn-hangzhou.aliyuncs.com/filemanage/init/filter_cube/60932509/cover2.png?nonce=569f78544c21c8e0f2be33c30dbe0890",
                "appkey": "init",
                "duration": 0,
                "extra": {},
                "polyglot": {
                    "en": "Bright 003"
                },
                "category": "55192441,",
                "audit": 0,
                "is_ugc": 0,
                "type": "filter_cube"
            },
            {
                "id": "1023186",
                "ufid": "50838271",
                "name": "Bright 004",
                "file": "http://rdfile.oss-cn-hangzhou.aliyuncs.com/filemanage/init/filter_cube/50838271/file.cube?nonce=569f78544c21c8e0f2be33c30dbe0890",
                "cover": "http://rdfile.oss-cn-hangzhou.aliyuncs.com/filemanage/init/filter_cube/50838271/cover.png?nonce=569f78544c21c8e0f2be33c30dbe0890",
                "updatetime": "1704688816",
                "height": 0,
                "width": 0,
                "video": "",
                "sort": 4,
                "version": 164,
                "cover2": "http://rdfile.oss-cn-hangzhou.aliyuncs.com/filemanage/init/filter_cube/50838271/cover2.png?nonce=569f78544c21c8e0f2be33c30dbe0890",
                "appkey": "init",
                "duration": 0,
                "extra": {},
                "polyglot": {
                    "en": "Bright 004"
                },
                "category": "55192441,",
                "audit": 0,
                "is_ugc": 0,
                "type": "filter_cube"
            },
            {
                "id": "1023187",
                "ufid": "53429931",
                "name": "Bright 005",
                "file": "http://rdfile.oss-cn-hangzhou.aliyuncs.com/filemanage/init/filter_cube/53429931/file.cube?nonce=569f78544c21c8e0f2be33c30dbe0890",
                "cover": "http://rdfile.oss-cn-hangzhou.aliyuncs.com/filemanage/init/filter_cube/53429931/cover.png?nonce=569f78544c21c8e0f2be33c30dbe0890",
                "updatetime": "1704688816",
                "height": 0,
                "width": 0,
                "video": "",
                "sort": 5,
                "version": 164,
                "cover2": "http://rdfile.oss-cn-hangzhou.aliyuncs.com/filemanage/init/filter_cube/53429931/cover2.png?nonce=569f78544c21c8e0f2be33c30dbe0890",
                "appkey": "init",
                "duration": 0,
                "extra": {},
                "polyglot": {
                    "en": "Bright 005"
                },
                "category": "55192441,",
                "audit": 0,
                "is_ugc": 0,
                "type": "filter_cube"
            },
            {
                "id": "1023188",
                "ufid": "44283466",
                "name": "Bright 006",
                "file": "http://rdfile.oss-cn-hangzhou.aliyuncs.com/filemanage/init/filter_cube/44283466/file.cube?nonce=301cc70117071a78e4eabd52edbc8dea",
                "cover": "http://rdfile.oss-cn-hangzhou.aliyuncs.com/filemanage/init/filter_cube/44283466/cover.png?nonce=301cc70117071a78e4eabd52edbc8dea",
                "updatetime": "1704688817",
                "height": 0,
                "width": 0,
                "video": "",
                "sort": 6,
                "version": 164,
                "cover2": "http://rdfile.oss-cn-hangzhou.aliyuncs.com/filemanage/init/filter_cube/44283466/cover2.png?nonce=301cc70117071a78e4eabd52edbc8dea",
                "appkey": "init",
                "duration": 0,
                "extra": {},
                "polyglot": {
                    "en": "Bright 006"
                },
                "category": "55192441,",
                "audit": 0,
                "is_ugc": 0,
                "type": "filter_cube"
            },
            {
                "id": "1023189",
                "ufid": "92266533",
                "name": "Bright 007",
                "file": "http://rdfile.oss-cn-hangzhou.aliyuncs.com/filemanage/init/filter_cube/92266533/file.cube?nonce=301cc70117071a78e4eabd52edbc8dea",
                "cover": "http://rdfile.oss-cn-hangzhou.aliyuncs.com/filemanage/init/filter_cube/92266533/cover.png?nonce=301cc70117071a78e4eabd52edbc8dea",
                "updatetime": "1704688817",
                "height": 0,
                "width": 0,
                "video": "",
                "sort": 7,
                "version": 164,
                "cover2": "http://rdfile.oss-cn-hangzhou.aliyuncs.com/filemanage/init/filter_cube/92266533/cover2.png?nonce=301cc70117071a78e4eabd52edbc8dea",
                "appkey": "init",
                "duration": 0,
                "extra": {},
                "polyglot": {
                    "en": "Bright 007"
                },
                "category": "55192441,",
                "audit": 0,
                "is_ugc": 0,
                "type": "filter_cube"
            },
            {
                "id": "1023190",
                "ufid": "85978931",
                "name": "Bright 008",
                "file": "http://rdfile.oss-cn-hangzhou.aliyuncs.com/filemanage/init/filter_cube/85978931/file.cube?nonce=301cc70117071a78e4eabd52edbc8dea",
                "cover": "http://rdfile.oss-cn-hangzhou.aliyuncs.com/filemanage/init/filter_cube/85978931/cover.png?nonce=301cc70117071a78e4eabd52edbc8dea",
                "updatetime": "1704688817",
                "height": 0,
                "width": 0,
                "video": "",
                "sort": 8,
                "version": 164,
                "cover2": "http://rdfile.oss-cn-hangzhou.aliyuncs.com/filemanage/init/filter_cube/85978931/cover2.png?nonce=301cc70117071a78e4eabd52edbc8dea",
                "appkey": "init",
                "duration": 0,
                "extra": {},
                "polyglot": {
                    "en": "Bright 008"
                },
                "category": "55192441,",
                "audit": 0,
                "is_ugc": 0,
                "type": "filter_cube"
            },
            {
                "id": "1023191",
                "ufid": "99355325",
                "name": "Bright 009",
                "file": "http://rdfile.oss-cn-hangzhou.aliyuncs.com/filemanage/init/filter_cube/99355325/file.cube?nonce=301cc70117071a78e4eabd52edbc8dea",
                "cover": "http://rdfile.oss-cn-hangzhou.aliyuncs.com/filemanage/init/filter_cube/99355325/cover.png?nonce=301cc70117071a78e4eabd52edbc8dea",
                "updatetime": "1704688817",
                "height": 0,
                "width": 0,
                "video": "",
                "sort": 9,
                "version": 164,
                "cover2": "http://rdfile.oss-cn-hangzhou.aliyuncs.com/filemanage/init/filter_cube/99355325/cover2.png?nonce=301cc70117071a78e4eabd52edbc8dea",
                "appkey": "init",
                "duration": 0,
                "extra": {},
                "polyglot": {
                    "en": "Bright 009"
                },
                "category": "55192441,",
                "audit": 0,
                "is_ugc": 0,
                "type": "filter_cube"
            },
            {
                "id": "1023192",
                "ufid": "83005595",
                "name": "Bright 010",
                "file": "http://rdfile.oss-cn-hangzhou.aliyuncs.com/filemanage/init/filter_cube/83005595/file.cube?nonce=301cc70117071a78e4eabd52edbc8dea",
                "cover": "http://rdfile.oss-cn-hangzhou.aliyuncs.com/filemanage/init/filter_cube/83005595/cover.png?nonce=301cc70117071a78e4eabd52edbc8dea",
                "updatetime": "1704688817",
                "height": 0,
                "width": 0,
                "video": "",
                "sort": 10,
                "version": 164,
                "cover2": "http://rdfile.oss-cn-hangzhou.aliyuncs.com/filemanage/init/filter_cube/83005595/cover2.png?nonce=301cc70117071a78e4eabd52edbc8dea",
                "appkey": "init",
                "duration": 0,
                "extra": {},
                "polyglot": {
                    "en": "Bright 010"
                },
                "category": "55192441,",
                "audit": 0,
                "is_ugc": 0,
                "type": "filter_cube"
            }
        ]
    }
}