{
    "code": 0,
    "msg": "success",
    "data": {
        "total": 25,
        "per_page": 10,
        "current_page": 1,
        "last_page": 3,
        "data": [
            {
                "id": "1022642",
                "ufid": "14389955",
                "name": "ins001",
                "file": "https://raw.githubusercontent.com/sjianji/Magic-Cut/refs/heads/main/data/fiter_cube/65184230/1022642/file.cube",
                "cover": "https://raw.githubusercontent.com/sjianji/Magic-Cut/refs/heads/main/data/fiter_cube/65184230/1022642/cover.png",
                "updatetime": "1698976559",
                "height": 0,
                "width": 0,
                "video": "",
                "sort": 1,
                "version": 164,
                "cover2": "https://raw.githubusercontent.com/sjianji/Magic-Cut/refs/heads/main/data/fiter_cube/65184230/1022642/cover2.png",
                "appkey": "init",
                "duration": 0,
                "extra": {},
                "polyglot": [],
                "category": "65184230,",
                "audit": 0,
                "is_ugc": 0,
                "type": "filter_cube"
            },
            {
                "id": "1022643",
                "ufid": "20624212",
                "name": "ins002",
                "file": "https://raw.githubusercontent.com/sjianji/Magic-Cut/refs/heads/main/data/fiter_cube/65184230/1022643/file.cube",
                "cover": "https://raw.githubusercontent.com/sjianji/Magic-Cut/refs/heads/main/data/fiter_cube/65184230/1022643/cover.png",
                "updatetime": "1698976559",
                "height": 0,
                "width": 0,
                "video": "",
                "sort": 2,
                "version": 164,
                "cover2": "https://raw.githubusercontent.com/sjianji/Magic-Cut/refs/heads/main/data/fiter_cube/65184230/1022643/cover2.png",
                "appkey": "init",
                "duration": 0,
                "extra": {},
                "polyglot": [],
                "category": "65184230,",
                "audit": 0,
                "is_ugc": 0,
                "type": "filter_cube"
            },
            {
                "id": "1022644",
                "ufid": "79766899",
                "name": "ins003",
                "file": "https://raw.githubusercontent.com/sjianji/Magic-Cut/refs/heads/main/data/fiter_cube/65184230/1022644/file.cube",
                "cover": "https://raw.githubusercontent.com/sjianji/Magic-Cut/refs/heads/main/data/fiter_cube/65184230/1022644/cover.png",
                "updatetime": "1698976559",
                "height": 0,
                "width": 0,
                "video": "",
                "sort": 3,
                "version": 164,
                "cover2": "https://raw.githubusercontent.com/sjianji/Magic-Cut/refs/heads/main/data/fiter_cube/65184230/1022644/cover2.png",
                "appkey": "init",
                "duration": 0,
                "extra": {},
                "polyglot": [],
                "category": "65184230,",
                "audit": 0,
                "is_ugc": 0,
                "type": "filter_cube"
            },
            {
                "id": "1022645",
                "ufid": "41404573",
                "name": "ins004",
                "file": "https://raw.githubusercontent.com/sjianji/Magic-Cut/refs/heads/main/data/fiter_cube/65184230/1022645/file.cube",
                "cover": "https://raw.githubusercontent.com/sjianji/Magic-Cut/refs/heads/main/data/fiter_cube/65184230/1022645/cover.png",
                "updatetime": "1698976559",
                "height": 0,
                "width": 0,
                "video": "",
                "sort": 4,
                "version": 164,
                "cover2": "https://raw.githubusercontent.com/sjianji/Magic-Cut/refs/heads/main/data/fiter_cube/65184230/1022645/cover2.png",
                "appkey": "init",
                "duration": 0,
                "extra": {},
                "polyglot": [],
                "category": "65184230,",
                "audit": 0,
                "is_ugc": 0,
                "type": "filter_cube"
            },
            {
                "id": "1022646",
                "ufid": "92595913",
                "name": "ins005",
                "file": "https://raw.githubusercontent.com/sjianji/Magic-Cut/refs/heads/main/data/fiter_cube/65184230/1022646/file.cube",
                "cover": "https://raw.githubusercontent.com/sjianji/Magic-Cut/refs/heads/main/data/fiter_cube/65184230/1022646/cover.png",
                "updatetime": "1698976559",
                "height": 0,
                "width": 0,
                "video": "",
                "sort": 5,
                "version": 164,
                "cover2": "https://raw.githubusercontent.com/sjianji/Magic-Cut/refs/heads/main/data/fiter_cube/65184230/1022646/cover2.png",
                "appkey": "init",
                "duration": 0,
                "extra": {},
                "polyglot": [],
                "category": "65184230,",
                "audit": 0,
                "is_ugc": 0,
                "type": "filter_cube"
            },
            {
                "id": "1022647",
                "ufid": "29636914",
                "name": "ins006",
                "file": "https://raw.githubusercontent.com/sjianji/Magic-Cut/refs/heads/main/data/fiter_cube/65184230/1022647/file.cube",
                "cover": "https://raw.githubusercontent.com/sjianji/Magic-Cut/refs/heads/main/data/fiter_cube/65184230/1022647/cover.png",
                "updatetime": "1698976559",
                "height": 0,
                "width": 0,
                "video": "",
                "sort": 6,
                "version": 164,
                "cover2": "https://raw.githubusercontent.com/sjianji/Magic-Cut/refs/heads/main/data/fiter_cube/65184230/1022647/cover2.png",
                "appkey": "init",
                "duration": 0,
                "extra": {},
                "polyglot": [],
                "category": "65184230,",
                "audit": 0,
                "is_ugc": 0,
                "type": "filter_cube"
            },
            {
                "id": "1022648",
                "ufid": "81574236",
                "name": "ins007",
                "file": "https://raw.githubusercontent.com/sjianji/Magic-Cut/refs/heads/main/data/fiter_cube/65184230/1022648/file.cube",
                "cover": "https://raw.githubusercontent.com/sjianji/Magic-Cut/refs/heads/main/data/fiter_cube/65184230/1022648/cover.png",
                "updatetime": "1698976559",
                "height": 0,
                "width": 0,
                "video": "",
                "sort": 7,
                "version": 164,
                "cover2": "https://raw.githubusercontent.com/sjianji/Magic-Cut/refs/heads/main/data/fiter_cube/65184230/1022648/cover2.png",
                "appkey": "init",
                "duration": 0,
                "extra": {},
                "polyglot": [],
                "category": "65184230,",
                "audit": 0,
                "is_ugc": 0,
                "type": "filter_cube"
            },
            {
                "id": "1022649",
                "ufid": "65108645",
                "name": "ins008",
                "file": "https://raw.githubusercontent.com/sjianji/Magic-Cut/refs/heads/main/data/fiter_cube/65184230/1022649/file.cube",
                "cover": "https://raw.githubusercontent.com/sjianji/Magic-Cut/refs/heads/main/data/fiter_cube/65184230/1022649/cover.png",
                "updatetime": "1698976559",
                "height": 0,
                "width": 0,
                "video": "",
                "sort": 8,
                "version": 164,
                "cover2": "https://raw.githubusercontent.com/sjianji/Magic-Cut/refs/heads/main/data/fiter_cube/65184230/1022649/cover2.png",
                "appkey": "init",
                "duration": 0,
                "extra": {},
                "polyglot": [],
                "category": "65184230,",
                "audit": 0,
                "is_ugc": 0,
                "type": "filter_cube"
            },
            {
                "id": "1022650",
                "ufid": "38004829",
                "name": "ins009",
                "file": "https://raw.githubusercontent.com/sjianji/Magic-Cut/refs/heads/main/data/fiter_cube/65184230/1022650/file.cube",
                "cover": "https://raw.githubusercontent.com/sjianji/Magic-Cut/refs/heads/main/data/fiter_cube/65184230/1022650/cover.png",
                "updatetime": "1698976559",
                "height": 0,
                "width": 0,
                "video": "",
                "sort": 9,
                "version": 164,
                "cover2": "https://raw.githubusercontent.com/sjianji/Magic-Cut/refs/heads/main/data/fiter_cube/65184230/1022650/cover2.png",
                "appkey": "init",
                "duration": 0,
                "extra": {},
                "polyglot": [],
                "category": "65184230,",
                "audit": 0,
                "is_ugc": 0,
                "type": "filter_cube"
            },
            {
                "id": "1022651",
                "ufid": "68931555",
                "name": "ins010",
                "file": "https://raw.githubusercontent.com/sjianji/Magic-Cut/refs/heads/main/data/fiter_cube/65184230/1022651/file.cube",
                "cover": "https://raw.githubusercontent.com/sjianji/Magic-Cut/refs/heads/main/data/fiter_cube/65184230/1022651/cover.png",
                "updatetime": "1698976559",
                "height": 0,
                "width": 0,
                "video": "",
                "sort": 10,
                "version": 164,
                "cover2": "https://raw.githubusercontent.com/sjianji/Magic-Cut/refs/heads/main/data/fiter_cube/65184230/1022651/cover2.png",
                "appkey": "init",
                "duration": 0,
                "extra": {},
                "polyglot": [],
                "category": "65184230,",
                "audit": 0,
                "is_ugc": 0,
                "type": "filter_cube"
            }
        ]
    }
}