{
    "code": 0,
    "msg": "success",
    "data": {
        "total": 109,
        "per_page": 10,
        "current_page": 1,
        "last_page": 11,
        "data": [
            {
                "id": "1023283",
                "ufid": "95123669",
                "name": "Japanese 001",
                "file": "https://raw.githubusercontent.com/sjianji/Magic-Cut/refs/heads/main/data/fiter_cube/67355442/1023283/file.cube",
                "cover": "https://raw.githubusercontent.com/sjianji/Magic-Cut/refs/heads/main/data/fiter_cube/67355442/1023283/cover.png",
                "updatetime": "1704688834",
                "height": 0,
                "width": 0,
                "video": "",
                "sort": 1,
                "version": 164,
                "cover2": "https://raw.githubusercontent.com/sjianji/Magic-Cut/refs/heads/main/data/fiter_cube/67355442/1023283/cover2.png",
                "appkey": "init",
                "duration": 0,
                "extra": {},
                "polyglot": {
                    "en": "Japanese 001"
                },
                "category": "67355442,",
                "audit": 0,
                "is_ugc": 0,
                "type": "filter_cube"
            },
            {
                "id": "1023284",
                "ufid": "80931438",
                "name": "Japanese 002",
                "file": "https://raw.githubusercontent.com/sjianji/Magic-Cut/refs/heads/main/data/fiter_cube/67355442/1023284/file.cube",
                "cover": "https://raw.githubusercontent.com/sjianji/Magic-Cut/refs/heads/main/data/fiter_cube/67355442/1023284/cover.png",
                "updatetime": "1704688834",
                "height": 0,
                "width": 0,
                "video": "",
                "sort": 2,
                "version": 164,
                "cover2": "https://raw.githubusercontent.com/sjianji/Magic-Cut/refs/heads/main/data/fiter_cube/67355442/1023284/cover2.png",
                "appkey": "init",
                "duration": 0,
                "extra": {},
                "polyglot": {
                    "en": "Japanese 002"
                },
                "category": "67355442,",
                "audit": 0,
                "is_ugc": 0,
                "type": "filter_cube"
            },
            {
                "id": "1023285",
                "ufid": "39757427",
                "name": "Japanese 003",
                "file": "https://raw.githubusercontent.com/sjianji/Magic-Cut/refs/heads/main/data/fiter_cube/67355442/1023285/file.cube",
                "cover": "https://raw.githubusercontent.com/sjianji/Magic-Cut/refs/heads/main/data/fiter_cube/67355442/1023285/cover.png",
                "updatetime": "1704688834",
                "height": 0,
                "width": 0,
                "video": "",
                "sort": 3,
                "version": 164,
                "cover2": "https://raw.githubusercontent.com/sjianji/Magic-Cut/refs/heads/main/data/fiter_cube/67355442/1023285/cover2.png",
                "appkey": "init",
                "duration": 0,
                "extra": {},
                "polyglot": {
                    "en": "Japanese 003"
                },
                "category": "67355442,",
                "audit": 0,
                "is_ugc": 0,
                "type": "filter_cube"
            },
            {
                "id": "1023286",
                "ufid": "71068614",
                "name": "Japanese 004",
                "file": "https://raw.githubusercontent.com/sjianji/Magic-Cut/refs/heads/main/data/fiter_cube/67355442/1023286/file.cube",
                "cover": "https://raw.githubusercontent.com/sjianji/Magic-Cut/refs/heads/main/data/fiter_cube/67355442/1023286/cover.png",
                "updatetime": "1704688834",
                "height": 0,
                "width": 0,
                "video": "",
                "sort": 4,
                "version": 164,
                "cover2": "https://raw.githubusercontent.com/sjianji/Magic-Cut/refs/heads/main/data/fiter_cube/67355442/1023286/cover2.png",
                "appkey": "init",
                "duration": 0,
                "extra": {},
                "polyglot": {
                    "en": "Japanese 004"
                },
                "category": "67355442,",
                "audit": 0,
                "is_ugc": 0,
                "type": "filter_cube"
            },
            {
                "id": "1023287",
                "ufid": "21622575",
                "name": "Japanese 005",
                "file": "https://raw.githubusercontent.com/sjianji/Magic-Cut/refs/heads/main/data/fiter_cube/67355442/1023287/file.cube",
                "cover": "https://raw.githubusercontent.com/sjianji/Magic-Cut/refs/heads/main/data/fiter_cube/67355442/1023287/cover.png",
                "updatetime": "1704688835",
                "height": 0,
                "width": 0,
                "video": "",
                "sort": 5,
                "version": 164,
                "cover2": "https://raw.githubusercontent.com/sjianji/Magic-Cut/refs/heads/main/data/fiter_cube/67355442/1023287/cover2.png",
                "appkey": "init",
                "duration": 0,
                "extra": {},
                "polyglot": {
                    "en": "Japanese 005"
                },
                "category": "67355442,",
                "audit": 0,
                "is_ugc": 0,
                "type": "filter_cube"
            },
            {
                "id": "1023288",
                "ufid": "39337079",
                "name": "Japanese 006",
                "file": "https://raw.githubusercontent.com/sjianji/Magic-Cut/refs/heads/main/data/fiter_cube/67355442/1023288/file.cube",
                "cover": "https://raw.githubusercontent.com/sjianji/Magic-Cut/refs/heads/main/data/fiter_cube/67355442/1023288/cover.png",
                "updatetime": "1704688835",
                "height": 0,
                "width": 0,
                "video": "",
                "sort": 6,
                "version": 164,
                "cover2": "https://raw.githubusercontent.com/sjianji/Magic-Cut/refs/heads/main/data/fiter_cube/67355442/1023288/cover2.png",
                "appkey": "init",
                "duration": 0,
                "extra": {},
                "polyglot": {
                    "en": "Japanese 006"
                },
                "category": "67355442,",
                "audit": 0,
                "is_ugc": 0,
                "type": "filter_cube"
            },
            {
                "id": "1023289",
                "ufid": "70958703",
                "name": "Japanese 007",
                "file": "https://raw.githubusercontent.com/sjianji/Magic-Cut/refs/heads/main/data/fiter_cube/67355442/1023289/file.cube",
                "cover": "https://raw.githubusercontent.com/sjianji/Magic-Cut/refs/heads/main/data/fiter_cube/67355442/1023289/cover.png",
                "updatetime": "1704688835",
                "height": 0,
                "width": 0,
                "video": "",
                "sort": 7,
                "version": 164,
                "cover2": "https://raw.githubusercontent.com/sjianji/Magic-Cut/refs/heads/main/data/fiter_cube/67355442/1023289/cover2.png",
                "appkey": "init",
                "duration": 0,
                "extra": {},
                "polyglot": {
                    "en": "Japanese 007"
                },
                "category": "67355442,",
                "audit": 0,
                "is_ugc": 0,
                "type": "filter_cube"
            },
            {
                "id": "1023290",
                "ufid": "33056624",
                "name": "Japanese 008",
                "file": "https://raw.githubusercontent.com/sjianji/Magic-Cut/refs/heads/main/data/fiter_cube/67355442/1023290/file.cube",
                "cover": "https://raw.githubusercontent.com/sjianji/Magic-Cut/refs/heads/main/data/fiter_cube/67355442/1023290/cover.png",
                "updatetime": "1704688835",
                "height": 0,
                "width": 0,
                "video": "",
                "sort": 8,
                "version": 164,
                "cover2": "https://raw.githubusercontent.com/sjianji/Magic-Cut/refs/heads/main/data/fiter_cube/67355442/1023290/cover2.png",
                "appkey": "init",
                "duration": 0,
                "extra": {},
                "polyglot": {
                    "en": "Japanese 008"
                },
                "category": "67355442,",
                "audit": 0,
                "is_ugc": 0,
                "type": "filter_cube"
            },
            {
                "id": "1023291",
                "ufid": "86516211",
                "name": "Japanese 009",
                "file": "https://raw.githubusercontent.com/sjianji/Magic-Cut/refs/heads/main/data/fiter_cube/67355442/1023291/file.cube",
                "cover": "https://raw.githubusercontent.com/sjianji/Magic-Cut/refs/heads/main/data/fiter_cube/67355442/1023291/cover.png",
                "updatetime": "1704688835",
                "height": 0,
                "width": 0,
                "video": "",
                "sort": 9,
                "version": 164,
                "cover2": "https://raw.githubusercontent.com/sjianji/Magic-Cut/refs/heads/main/data/fiter_cube/67355442/1023291/cover2.png",
                "appkey": "init",
                "duration": 0,
                "extra": {},
                "polyglot": {
                    "en": "Japanese 009"
                },
                "category": "67355442,",
                "audit": 0,
                "is_ugc": 0,
                "type": "filter_cube"
            },
            {
                "id": "1023292",
                "ufid": "16026459",
                "name": "Japanese 010",
                "file": "https://raw.githubusercontent.com/sjianji/Magic-Cut/refs/heads/main/data/fiter_cube/67355442/1023292/file.cube",
                "cover": "https://raw.githubusercontent.com/sjianji/Magic-Cut/refs/heads/main/data/fiter_cube/67355442/1023292/cover.png",
                "updatetime": "1704688836",
                "height": 0,
                "width": 0,
                "video": "",
                "sort": 10,
                "version": 164,
                "cover2": "https://raw.githubusercontent.com/sjianji/Magic-Cut/refs/heads/main/data/fiter_cube/67355442/1023292/cover2.png",
                "appkey": "init",
                "duration": 0,
                "extra": {},
                "polyglot": {
                    "en": "Japanese 010"
                },
                "category": "67355442,",
                "audit": 0,
                "is_ugc": 0,
                "type": "filter_cube"
            }
        ]
    }
}