{
    "code": 0,
    "msg": "success",
    "data": {
        "total": 15,
        "per_page": 10,
        "current_page": 1,
        "last_page": 2,
        "data": [
            {
                "id": "1023048",
                "ufid": "11702889",
                "name": "Coffee 001",
                "file": "https://raw.githubusercontent.com/sjianji/Magic-Cut/refs/heads/main/data/fiter_cube/69180065/1023048/file.cube",
                "cover": "https://raw.githubusercontent.com/sjianji/Magic-Cut/refs/heads/main/data/fiter_cube/69180065/1023048/cover.png",
                "updatetime": "1704688791",
                "height": 0,
                "width": 0,
                "video": "",
                "sort": 1,
                "version": 164,
                "cover2": "https://raw.githubusercontent.com/sjianji/Magic-Cut/refs/heads/main/data/fiter_cube/69180065/1023048/cover2.png",
                "appkey": "init",
                "duration": 0,
                "extra": {},
                "polyglot": {
                    "en": "Coffee 001"
                },
                "category": "69180065,",
                "audit": 0,
                "is_ugc": 0,
                "type": "filter_cube"
            },
            {
                "id": "1023049",
                "ufid": "64809600",
                "name": "Coffee 002",
                "file": "https://raw.githubusercontent.com/sjianji/Magic-Cut/refs/heads/main/data/fiter_cube/69180065/1023049/file.cube",
                "cover": "https://raw.githubusercontent.com/sjianji/Magic-Cut/refs/heads/main/data/fiter_cube/69180065/1023049/cover.png",
                "updatetime": "1704688791",
                "height": 0,
                "width": 0,
                "video": "",
                "sort": 2,
                "version": 164,
                "cover2": "https://raw.githubusercontent.com/sjianji/Magic-Cut/refs/heads/main/data/fiter_cube/69180065/1023049/cover2.png",
                "appkey": "init",
                "duration": 0,
                "extra": {},
                "polyglot": {
                    "en": "Coffee 002"
                },
                "category": "69180065,",
                "audit": 0,
                "is_ugc": 0,
                "type": "filter_cube"
            },
            {
                "id": "1023050",
                "ufid": "27379306",
                "name": "Coffee 003",
                "file": "https://raw.githubusercontent.com/sjianji/Magic-Cut/refs/heads/main/data/fiter_cube/69180065/1023050/file.cube",
                "cover": "https://raw.githubusercontent.com/sjianji/Magic-Cut/refs/heads/main/data/fiter_cube/69180065/1023050/cover.png",
                "updatetime": "1704688791",
                "height": 0,
                "width": 0,
                "video": "",
                "sort": 3,
                "version": 164,
                "cover2": "https://raw.githubusercontent.com/sjianji/Magic-Cut/refs/heads/main/data/fiter_cube/69180065/1023050/cover2.png",
                "appkey": "init",
                "duration": 0,
                "extra": {},
                "polyglot": {
                    "en": "Coffee 003"
                },
                "category": "69180065,",
                "audit": 0,
                "is_ugc": 0,
                "type": "filter_cube"
            },
            {
                "id": "1023051",
                "ufid": "36979535",
                "name": "Coffee 004",
                "file": "https://raw.githubusercontent.com/sjianji/Magic-Cut/refs/heads/main/data/fiter_cube/69180065/1023051/file.cube",
                "cover": "https://raw.githubusercontent.com/sjianji/Magic-Cut/refs/heads/main/data/fiter_cube/69180065/1023051/cover.png",
                "updatetime": "1704688791",
                "height": 0,
                "width": 0,
                "video": "",
                "sort": 4,
                "version": 164,
                "cover2": "https://raw.githubusercontent.com/sjianji/Magic-Cut/refs/heads/main/data/fiter_cube/69180065/1023051/cover2.png",
                "appkey": "init",
                "duration": 0,
                "extra": {},
                "polyglot": {
                    "en": "Coffee 004"
                },
                "category": "69180065,",
                "audit": 0,
                "is_ugc": 0,
                "type": "filter_cube"
            },
            {
                "id": "1023052",
                "ufid": "80387093",
                "name": "Coffee 005",
                "file": "https://raw.githubusercontent.com/sjianji/Magic-Cut/refs/heads/main/data/fiter_cube/69180065/1023052/file.cube",
                "cover": "https://raw.githubusercontent.com/sjianji/Magic-Cut/refs/heads/main/data/fiter_cube/69180065/1023052/cover.png",
                "updatetime": "1704688792",
                "height": 0,
                "width": 0,
                "video": "",
                "sort": 5,
                "version": 164,
                "cover2": "https://raw.githubusercontent.com/sjianji/Magic-Cut/refs/heads/main/data/fiter_cube/69180065/1023052/cover2.png",
                "appkey": "init",
                "duration": 0,
                "extra": {},
                "polyglot": {
                    "en": "Coffee 005"
                },
                "category": "69180065,",
                "audit": 0,
                "is_ugc": 0,
                "type": "filter_cube"
            },
            {
                "id": "1023053",
                "ufid": "66290559",
                "name": "Coffee 006",
                "file": "https://raw.githubusercontent.com/sjianji/Magic-Cut/refs/heads/main/data/fiter_cube/69180065/1023053/file.cube",
                "cover": "https://raw.githubusercontent.com/sjianji/Magic-Cut/refs/heads/main/data/fiter_cube/69180065/1023053/cover.png",
                "updatetime": "1704688792",
                "height": 0,
                "width": 0,
                "video": "",
                "sort": 6,
                "version": 164,
                "cover2": "https://raw.githubusercontent.com/sjianji/Magic-Cut/refs/heads/main/data/fiter_cube/69180065/1023053/cover2.png",
                "appkey": "init",
                "duration": 0,
                "extra": {},
                "polyglot": {
                    "en": "Coffee 006"
                },
                "category": "69180065,",
                "audit": 0,
                "is_ugc": 0,
                "type": "filter_cube"
            },
            {
                "id": "1023054",
                "ufid": "21656980",
                "name": "Coffee 007",
                "file": "https://raw.githubusercontent.com/sjianji/Magic-Cut/refs/heads/main/data/fiter_cube/69180065/1023054/file.cube",
                "cover": "https://raw.githubusercontent.com/sjianji/Magic-Cut/refs/heads/main/data/fiter_cube/69180065/1023054/cover.png",
                "updatetime": "1704688792",
                "height": 0,
                "width": 0,
                "video": "",
                "sort": 7,
                "version": 164,
                "cover2": "https://raw.githubusercontent.com/sjianji/Magic-Cut/refs/heads/main/data/fiter_cube/69180065/1023054/cover2.png",
                "appkey": "init",
                "duration": 0,
                "extra": {},
                "polyglot": {
                    "en": "Coffee 007"
                },
                "category": "69180065,",
                "audit": 0,
                "is_ugc": 0,
                "type": "filter_cube"
            },
            {
                "id": "1023055",
                "ufid": "42052853",
                "name": "Coffee 008",
                "file": "https://raw.githubusercontent.com/sjianji/Magic-Cut/refs/heads/main/data/fiter_cube/69180065/1023055/file.cube",
                "cover": "https://raw.githubusercontent.com/sjianji/Magic-Cut/refs/heads/main/data/fiter_cube/69180065/1023055/cover.png",
                "updatetime": "1704688792",
                "height": 0,
                "width": 0,
                "video": "",
                "sort": 8,
                "version": 164,
                "cover2": "https://raw.githubusercontent.com/sjianji/Magic-Cut/refs/heads/main/data/fiter_cube/69180065/1023055/cover2.png",
                "appkey": "init",
                "duration": 0,
                "extra": {},
                "polyglot": {
                    "en": "Coffee 008"
                },
                "category": "69180065,",
                "audit": 0,
                "is_ugc": 0,
                "type": "filter_cube"
            },
            {
                "id": "1023056",
                "ufid": "18266046",
                "name": "Coffee 009",
                "file": "https://raw.githubusercontent.com/sjianji/Magic-Cut/refs/heads/main/data/fiter_cube/69180065/1023056/file.cube",
                "cover": "https://raw.githubusercontent.com/sjianji/Magic-Cut/refs/heads/main/data/fiter_cube/69180065/1023056/cover.png",
                "updatetime": "1704688792",
                "height": 0,
                "width": 0,
                "video": "",
                "sort": 9,
                "version": 164,
                "cover2": "https://raw.githubusercontent.com/sjianji/Magic-Cut/refs/heads/main/data/fiter_cube/69180065/1023056/cover2.png",
                "appkey": "init",
                "duration": 0,
                "extra": {},
                "polyglot": {
                    "en": "Coffee 009"
                },
                "category": "69180065,",
                "audit": 0,
                "is_ugc": 0,
                "type": "filter_cube"
            },
            {
                "id": "1023057",
                "ufid": "86055337",
                "name": "Coffee 010",
                "file": "https://raw.githubusercontent.com/sjianji/Magic-Cut/refs/heads/main/data/fiter_cube/69180065/1023057/file.cube",
                "cover": "https://raw.githubusercontent.com/sjianji/Magic-Cut/refs/heads/main/data/fiter_cube/69180065/1023057/cover.png",
                "updatetime": "1704688792",
                "height": 0,
                "width": 0,
                "video": "",
                "sort": 10,
                "version": 164,
                "cover2": "https://raw.githubusercontent.com/sjianji/Magic-Cut/refs/heads/main/data/fiter_cube/69180065/1023057/cover2.png",
                "appkey": "init",
                "duration": 0,
                "extra": {},
                "polyglot": {
                    "en": "Coffee 010"
                },
                "category": "69180065,",
                "audit": 0,
                "is_ugc": 0,
                "type": "filter_cube"
            }
        ]
    }
}