{
    "code": 0,
    "msg": "success",
    "data": {
        "total": 54,
        "per_page": 10,
        "current_page": 1,
        "last_page": 6,
        "data": [
            {
                "id": "1022712",
                "ufid": "12982801",
                "name": "Movie 1001",
                "file": "http://rdfile.oss-cn-hangzhou.aliyuncs.com/filemanage/init/filter_cube/12982801/file.cube?nonce=ce2cbb1036c82b1879b01c5983588605",
                "cover": "http://rdfile.oss-cn-hangzhou.aliyuncs.com/filemanage/init/filter_cube/12982801/cover.png?nonce=ce2cbb1036c82b1879b01c5983588605",
                "updatetime": "1704688730",
                "height": 0,
                "width": 0,
                "video": "",
                "sort": 1001,
                "version": 164,
                "cover2": "http://rdfile.oss-cn-hangzhou.aliyuncs.com/filemanage/init/filter_cube/12982801/cover2.png?nonce=ce2cbb1036c82b1879b01c5983588605",
                "appkey": "init",
                "duration": 0,
                "extra": {},
                "polyglot": {
                    "en": "Movie 1001"
                },
                "category": "72007313,",
                "audit": 0,
                "is_ugc": 0,
                "type": "filter_cube"
            },
            {
                "id": "1022713",
                "ufid": "43229275",
                "name": "Movie 1002",
                "file": "http://rdfile.oss-cn-hangzhou.aliyuncs.com/filemanage/init/filter_cube/43229275/file.cube?nonce=ce2cbb1036c82b1879b01c5983588605",
                "cover": "http://rdfile.oss-cn-hangzhou.aliyuncs.com/filemanage/init/filter_cube/43229275/cover.png?nonce=ce2cbb1036c82b1879b01c5983588605",
                "updatetime": "1704688730",
                "height": 0,
                "width": 0,
                "video": "",
                "sort": 1002,
                "version": 164,
                "cover2": "http://rdfile.oss-cn-hangzhou.aliyuncs.com/filemanage/init/filter_cube/43229275/cover2.png?nonce=ce2cbb1036c82b1879b01c5983588605",
                "appkey": "init",
                "duration": 0,
                "extra": {},
                "polyglot": {
                    "en": "Movie 1002"
                },
                "category": "72007313,",
                "audit": 0,
                "is_ugc": 0,
                "type": "filter_cube"
            },
            {
                "id": "1022714",
                "ufid": "30507281",
                "name": "Movie 1003",
                "file": "http://rdfile.oss-cn-hangzhou.aliyuncs.com/filemanage/init/filter_cube/30507281/file.cube?nonce=ce2cbb1036c82b1879b01c5983588605",
                "cover": "http://rdfile.oss-cn-hangzhou.aliyuncs.com/filemanage/init/filter_cube/30507281/cover.png?nonce=ce2cbb1036c82b1879b01c5983588605",
                "updatetime": "1704688730",
                "height": 0,
                "width": 0,
                "video": "",
                "sort": 1003,
                "version": 164,
                "cover2": "http://rdfile.oss-cn-hangzhou.aliyuncs.com/filemanage/init/filter_cube/30507281/cover2.png?nonce=ce2cbb1036c82b1879b01c5983588605",
                "appkey": "init",
                "duration": 0,
                "extra": {},
                "polyglot": {
                    "en": "Movie 1003"
                },
                "category": "72007313,",
                "audit": 0,
                "is_ugc": 0,
                "type": "filter_cube"
            },
            {
                "id": "1022715",
                "ufid": "51692427",
                "name": "Movie 1004",
                "file": "http://rdfile.oss-cn-hangzhou.aliyuncs.com/filemanage/init/filter_cube/51692427/file.cube?nonce=ce2cbb1036c82b1879b01c5983588605",
                "cover": "http://rdfile.oss-cn-hangzhou.aliyuncs.com/filemanage/init/filter_cube/51692427/cover.png?nonce=ce2cbb1036c82b1879b01c5983588605",
                "updatetime": "1704688730",
                "height": 0,
                "width": 0,
                "video": "",
                "sort": 1004,
                "version": 164,
                "cover2": "http://rdfile.oss-cn-hangzhou.aliyuncs.com/filemanage/init/filter_cube/51692427/cover2.png?nonce=ce2cbb1036c82b1879b01c5983588605",
                "appkey": "init",
                "duration": 0,
                "extra": {},
                "polyglot": {
                    "en": "Movie 1004"
                },
                "category": "72007313,",
                "audit": 0,
                "is_ugc": 0,
                "type": "filter_cube"
            },
            {
                "id": "1022716",
                "ufid": "14463751",
                "name": "Movie 1005",
                "file": "http://rdfile.oss-cn-hangzhou.aliyuncs.com/filemanage/init/filter_cube/14463751/file.cube?nonce=ce2cbb1036c82b1879b01c5983588605",
                "cover": "http://rdfile.oss-cn-hangzhou.aliyuncs.com/filemanage/init/filter_cube/14463751/cover.png?nonce=ce2cbb1036c82b1879b01c5983588605",
                "updatetime": "1704688730",
                "height": 0,
                "width": 0,
                "video": "",
                "sort": 1005,
                "version": 164,
                "cover2": "http://rdfile.oss-cn-hangzhou.aliyuncs.com/filemanage/init/filter_cube/14463751/cover2.png?nonce=ce2cbb1036c82b1879b01c5983588605",
                "appkey": "init",
                "duration": 0,
                "extra": {},
                "polyglot": {
                    "en": "Movie 1005"
                },
                "category": "72007313,",
                "audit": 0,
                "is_ugc": 0,
                "type": "filter_cube"
            },
            {
                "id": "1022717",
                "ufid": "46406859",
                "name": "Movie 1006",
                "file": "http://rdfile.oss-cn-hangzhou.aliyuncs.com/filemanage/init/filter_cube/46406859/file.cube?nonce=6422ccb7ae6b55485f4e683dd35fb535",
                "cover": "http://rdfile.oss-cn-hangzhou.aliyuncs.com/filemanage/init/filter_cube/46406859/cover.png?nonce=6422ccb7ae6b55485f4e683dd35fb535",
                "updatetime": "1704688731",
                "height": 0,
                "width": 0,
                "video": "",
                "sort": 1006,
                "version": 164,
                "cover2": "http://rdfile.oss-cn-hangzhou.aliyuncs.com/filemanage/init/filter_cube/46406859/cover2.png?nonce=6422ccb7ae6b55485f4e683dd35fb535",
                "appkey": "init",
                "duration": 0,
                "extra": {},
                "polyglot": {
                    "en": "Movie 1006"
                },
                "category": "72007313,",
                "audit": 0,
                "is_ugc": 0,
                "type": "filter_cube"
            },
            {
                "id": "1022718",
                "ufid": "46670500",
                "name": "Movie 1007",
                "file": "http://rdfile.oss-cn-hangzhou.aliyuncs.com/filemanage/init/filter_cube/46670500/file.cube?nonce=6422ccb7ae6b55485f4e683dd35fb535",
                "cover": "http://rdfile.oss-cn-hangzhou.aliyuncs.com/filemanage/init/filter_cube/46670500/cover.png?nonce=6422ccb7ae6b55485f4e683dd35fb535",
                "updatetime": "1704688731",
                "height": 0,
                "width": 0,
                "video": "",
                "sort": 1007,
                "version": 164,
                "cover2": "http://rdfile.oss-cn-hangzhou.aliyuncs.com/filemanage/init/filter_cube/46670500/cover2.png?nonce=6422ccb7ae6b55485f4e683dd35fb535",
                "appkey": "init",
                "duration": 0,
                "extra": {},
                "polyglot": {
                    "en": "Movie 1007"
                },
                "category": "72007313,",
                "audit": 0,
                "is_ugc": 0,
                "type": "filter_cube"
            },
            {
                "id": "1022719",
                "ufid": "79661570",
                "name": "Movie 1008",
                "file": "http://rdfile.oss-cn-hangzhou.aliyuncs.com/filemanage/init/filter_cube/79661570/file.cube?nonce=6422ccb7ae6b55485f4e683dd35fb535",
                "cover": "http://rdfile.oss-cn-hangzhou.aliyuncs.com/filemanage/init/filter_cube/79661570/cover.png?nonce=6422ccb7ae6b55485f4e683dd35fb535",
                "updatetime": "1704688731",
                "height": 0,
                "width": 0,
                "video": "",
                "sort": 1008,
                "version": 164,
                "cover2": "http://rdfile.oss-cn-hangzhou.aliyuncs.com/filemanage/init/filter_cube/79661570/cover2.png?nonce=6422ccb7ae6b55485f4e683dd35fb535",
                "appkey": "init",
                "duration": 0,
                "extra": {},
                "polyglot": {
                    "en": "Movie 1008"
                },
                "category": "72007313,",
                "audit": 0,
                "is_ugc": 0,
                "type": "filter_cube"
            },
            {
                "id": "1022720",
                "ufid": "34238538",
                "name": "Movie 1009",
                "file": "http://rdfile.oss-cn-hangzhou.aliyuncs.com/filemanage/init/filter_cube/34238538/file.cube?nonce=6422ccb7ae6b55485f4e683dd35fb535",
                "cover": "http://rdfile.oss-cn-hangzhou.aliyuncs.com/filemanage/init/filter_cube/34238538/cover.png?nonce=6422ccb7ae6b55485f4e683dd35fb535",
                "updatetime": "1704688731",
                "height": 0,
                "width": 0,
                "video": "",
                "sort": 1009,
                "version": 164,
                "cover2": "http://rdfile.oss-cn-hangzhou.aliyuncs.com/filemanage/init/filter_cube/34238538/cover2.png?nonce=6422ccb7ae6b55485f4e683dd35fb535",
                "appkey": "init",
                "duration": 0,
                "extra": {},
                "polyglot": {
                    "en": "Movie 1009"
                },
                "category": "72007313,",
                "audit": 0,
                "is_ugc": 0,
                "type": "filter_cube"
            },
            {
                "id": "1022721",
                "ufid": "79167372",
                "name": "Movie 1010",
                "file": "http://rdfile.oss-cn-hangzhou.aliyuncs.com/filemanage/init/filter_cube/79167372/file.cube?nonce=93a303e0daf8c186b25f9e559a7b5e8c",
                "cover": "http://rdfile.oss-cn-hangzhou.aliyuncs.com/filemanage/init/filter_cube/79167372/cover.png?nonce=93a303e0daf8c186b25f9e559a7b5e8c",
                "updatetime": "1704688732",
                "height": 0,
                "width": 0,
                "video": "",
                "sort": 1010,
                "version": 164,
                "cover2": "http://rdfile.oss-cn-hangzhou.aliyuncs.com/filemanage/init/filter_cube/79167372/cover2.png?nonce=93a303e0daf8c186b25f9e559a7b5e8c",
                "appkey": "init",
                "duration": 0,
                "extra": {},
                "polyglot": {
                    "en": "Movie 1010"
                },
                "category": "72007313,",
                "audit": 0,
                "is_ugc": 0,
                "type": "filter_cube"
            }
        ]
    }
}