{
    "code": 0,
    "msg": "success",
    "data": {
        "total": 80,
        "per_page": 10,
        "current_page": 1,
        "last_page": 8,
        "data": [
            {
                "id": "1023063",
                "ufid": "61265769",
                "name": "Travel Photography 001",
                "file": "http://rdfile.oss-cn-hangzhou.aliyuncs.com/filemanage/init/filter_cube/61265769/file.cube?nonce=1cf9faddcc2a536a694dc69bc71ab948",
                "cover": "http://rdfile.oss-cn-hangzhou.aliyuncs.com/filemanage/init/filter_cube/61265769/cover.png?nonce=1cf9faddcc2a536a694dc69bc71ab948",
                "updatetime": "1704688794",
                "height": 0,
                "width": 0,
                "video": "",
                "sort": 1,
                "version": 164,
                "cover2": "http://rdfile.oss-cn-hangzhou.aliyuncs.com/filemanage/init/filter_cube/61265769/cover2.png?nonce=1cf9faddcc2a536a694dc69bc71ab948",
                "appkey": "init",
                "duration": 0,
                "extra": {},
                "polyglot": {
                    "en": "Travel Photography 001"
                },
                "category": "80369196,",
                "audit": 0,
                "is_ugc": 0,
                "type": "filter_cube"
            },
            {
                "id": "1023064",
                "ufid": "63855429",
                "name": "Travel Photography 002",
                "file": "http://rdfile.oss-cn-hangzhou.aliyuncs.com/filemanage/init/filter_cube/63855429/file.cube?nonce=1cf9faddcc2a536a694dc69bc71ab948",
                "cover": "http://rdfile.oss-cn-hangzhou.aliyuncs.com/filemanage/init/filter_cube/63855429/cover.png?nonce=1cf9faddcc2a536a694dc69bc71ab948",
                "updatetime": "1704688794",
                "height": 0,
                "width": 0,
                "video": "",
                "sort": 2,
                "version": 164,
                "cover2": "http://rdfile.oss-cn-hangzhou.aliyuncs.com/filemanage/init/filter_cube/63855429/cover2.png?nonce=1cf9faddcc2a536a694dc69bc71ab948",
                "appkey": "init",
                "duration": 0,
                "extra": {},
                "polyglot": {
                    "en": "Travel Photography 002"
                },
                "category": "80369196,",
                "audit": 0,
                "is_ugc": 0,
                "type": "filter_cube"
            },
            {
                "id": "1023065",
                "ufid": "54609054",
                "name": "Travel Photography 003",
                "file": "http://rdfile.oss-cn-hangzhou.aliyuncs.com/filemanage/init/filter_cube/54609054/file.cube?nonce=1cf9faddcc2a536a694dc69bc71ab948",
                "cover": "http://rdfile.oss-cn-hangzhou.aliyuncs.com/filemanage/init/filter_cube/54609054/cover.png?nonce=1cf9faddcc2a536a694dc69bc71ab948",
                "updatetime": "1704688794",
                "height": 0,
                "width": 0,
                "video": "",
                "sort": 3,
                "version": 164,
                "cover2": "http://rdfile.oss-cn-hangzhou.aliyuncs.com/filemanage/init/filter_cube/54609054/cover2.png?nonce=1cf9faddcc2a536a694dc69bc71ab948",
                "appkey": "init",
                "duration": 0,
                "extra": {},
                "polyglot": {
                    "en": "Travel Photography 003"
                },
                "category": "80369196,",
                "audit": 0,
                "is_ugc": 0,
                "type": "filter_cube"
            },
            {
                "id": "1023066",
                "ufid": "13693021",
                "name": "Travel Photography 004",
                "file": "http://rdfile.oss-cn-hangzhou.aliyuncs.com/filemanage/init/filter_cube/13693021/file.cube?nonce=1cf9faddcc2a536a694dc69bc71ab948",
                "cover": "http://rdfile.oss-cn-hangzhou.aliyuncs.com/filemanage/init/filter_cube/13693021/cover.png?nonce=1cf9faddcc2a536a694dc69bc71ab948",
                "updatetime": "1704688794",
                "height": 0,
                "width": 0,
                "video": "",
                "sort": 4,
                "version": 164,
                "cover2": "http://rdfile.oss-cn-hangzhou.aliyuncs.com/filemanage/init/filter_cube/13693021/cover2.png?nonce=1cf9faddcc2a536a694dc69bc71ab948",
                "appkey": "init",
                "duration": 0,
                "extra": {},
                "polyglot": {
                    "en": "Travel Photography 004"
                },
                "category": "80369196,",
                "audit": 0,
                "is_ugc": 0,
                "type": "filter_cube"
            },
            {
                "id": "1023067",
                "ufid": "95395428",
                "name": "Travel Photography 005",
                "file": "http://rdfile.oss-cn-hangzhou.aliyuncs.com/filemanage/init/filter_cube/95395428/file.cube?nonce=1cf9faddcc2a536a694dc69bc71ab948",
                "cover": "http://rdfile.oss-cn-hangzhou.aliyuncs.com/filemanage/init/filter_cube/95395428/cover.png?nonce=1cf9faddcc2a536a694dc69bc71ab948",
                "updatetime": "1704688794",
                "height": 0,
                "width": 0,
                "video": "",
                "sort": 5,
                "version": 164,
                "cover2": "http://rdfile.oss-cn-hangzhou.aliyuncs.com/filemanage/init/filter_cube/95395428/cover2.png?nonce=1cf9faddcc2a536a694dc69bc71ab948",
                "appkey": "init",
                "duration": 0,
                "extra": {},
                "polyglot": {
                    "en": "Travel Photography 005"
                },
                "category": "80369196,",
                "audit": 0,
                "is_ugc": 0,
                "type": "filter_cube"
            },
            {
                "id": "1023068",
                "ufid": "19782813",
                "name": "Travel Photography 006",
                "file": "http://rdfile.oss-cn-hangzhou.aliyuncs.com/filemanage/init/filter_cube/19782813/file.cube?nonce=1cf9faddcc2a536a694dc69bc71ab948",
                "cover": "http://rdfile.oss-cn-hangzhou.aliyuncs.com/filemanage/init/filter_cube/19782813/cover.png?nonce=1cf9faddcc2a536a694dc69bc71ab948",
                "updatetime": "1704688794",
                "height": 0,
                "width": 0,
                "video": "",
                "sort": 6,
                "version": 164,
                "cover2": "http://rdfile.oss-cn-hangzhou.aliyuncs.com/filemanage/init/filter_cube/19782813/cover2.png?nonce=1cf9faddcc2a536a694dc69bc71ab948",
                "appkey": "init",
                "duration": 0,
                "extra": {},
                "polyglot": {
                    "en": "Travel Photography 006"
                },
                "category": "80369196,",
                "audit": 0,
                "is_ugc": 0,
                "type": "filter_cube"
            },
            {
                "id": "1023069",
                "ufid": "13431183",
                "name": "Travel Photography 007",
                "file": "http://rdfile.oss-cn-hangzhou.aliyuncs.com/filemanage/init/filter_cube/13431183/file.cube?nonce=bba3afa126ee24a0a16289cb6ea3a84f",
                "cover": "http://rdfile.oss-cn-hangzhou.aliyuncs.com/filemanage/init/filter_cube/13431183/cover.png?nonce=bba3afa126ee24a0a16289cb6ea3a84f",
                "updatetime": "1704688795",
                "height": 0,
                "width": 0,
                "video": "",
                "sort": 7,
                "version": 164,
                "cover2": "http://rdfile.oss-cn-hangzhou.aliyuncs.com/filemanage/init/filter_cube/13431183/cover2.png?nonce=bba3afa126ee24a0a16289cb6ea3a84f",
                "appkey": "init",
                "duration": 0,
                "extra": {},
                "polyglot": {
                    "en": "Travel Photography 007"
                },
                "category": "80369196,",
                "audit": 0,
                "is_ugc": 0,
                "type": "filter_cube"
            },
            {
                "id": "1023070",
                "ufid": "63221995",
                "name": "Travel Photography 008",
                "file": "http://rdfile.oss-cn-hangzhou.aliyuncs.com/filemanage/init/filter_cube/63221995/file.cube?nonce=bba3afa126ee24a0a16289cb6ea3a84f",
                "cover": "http://rdfile.oss-cn-hangzhou.aliyuncs.com/filemanage/init/filter_cube/63221995/cover.png?nonce=bba3afa126ee24a0a16289cb6ea3a84f",
                "updatetime": "1704688795",
                "height": 0,
                "width": 0,
                "video": "",
                "sort": 8,
                "version": 164,
                "cover2": "http://rdfile.oss-cn-hangzhou.aliyuncs.com/filemanage/init/filter_cube/63221995/cover2.png?nonce=bba3afa126ee24a0a16289cb6ea3a84f",
                "appkey": "init",
                "duration": 0,
                "extra": {},
                "polyglot": {
                    "en": "Travel Photography 008"
                },
                "category": "80369196,",
                "audit": 0,
                "is_ugc": 0,
                "type": "filter_cube"
            },
            {
                "id": "1023071",
                "ufid": "78819927",
                "name": "Travel Photography 009",
                "file": "http://rdfile.oss-cn-hangzhou.aliyuncs.com/filemanage/init/filter_cube/78819927/file.cube?nonce=bba3afa126ee24a0a16289cb6ea3a84f",
                "cover": "http://rdfile.oss-cn-hangzhou.aliyuncs.com/filemanage/init/filter_cube/78819927/cover.png?nonce=bba3afa126ee24a0a16289cb6ea3a84f",
                "updatetime": "1704688795",
                "height": 0,
                "width": 0,
                "video": "",
                "sort": 9,
                "version": 164,
                "cover2": "http://rdfile.oss-cn-hangzhou.aliyuncs.com/filemanage/init/filter_cube/78819927/cover2.png?nonce=bba3afa126ee24a0a16289cb6ea3a84f",
                "appkey": "init",
                "duration": 0,
                "extra": {},
                "polyglot": {
                    "en": "Travel Photography 009"
                },
                "category": "80369196,",
                "audit": 0,
                "is_ugc": 0,
                "type": "filter_cube"
            },
            {
                "id": "1023072",
                "ufid": "85001156",
                "name": "Travel Photography 010",
                "file": "http://rdfile.oss-cn-hangzhou.aliyuncs.com/filemanage/init/filter_cube/85001156/file.cube?nonce=bba3afa126ee24a0a16289cb6ea3a84f",
                "cover": "http://rdfile.oss-cn-hangzhou.aliyuncs.com/filemanage/init/filter_cube/85001156/cover.png?nonce=bba3afa126ee24a0a16289cb6ea3a84f",
                "updatetime": "1704688795",
                "height": 0,
                "width": 0,
                "video": "",
                "sort": 10,
                "version": 164,
                "cover2": "http://rdfile.oss-cn-hangzhou.aliyuncs.com/filemanage/init/filter_cube/85001156/cover2.png?nonce=bba3afa126ee24a0a16289cb6ea3a84f",
                "appkey": "init",
                "duration": 0,
                "extra": {},
                "polyglot": {
                    "en": "Travel Photography 010"
                },
                "category": "80369196,",
                "audit": 0,
                "is_ugc": 0,
                "type": "filter_cube"
            }
        ]
    }
}