{
    "code": 0,
    "msg": "success",
    "data": {
        "total": 129,
        "per_page": 10,
        "current_page": 1,
        "last_page": 13,
        "data": [
            {
                "id": "1022871",
                "ufid": "21704679",
                "name": "Wedding 001",
                "file": "http://rdfile.oss-cn-hangzhou.aliyuncs.com/filemanage/init/filter_cube/21704679/file.cube?nonce=05037a2367f65f2eb1a7ade9a3f99c46",
                "cover": "http://rdfile.oss-cn-hangzhou.aliyuncs.com/filemanage/init/filter_cube/21704679/cover.png?nonce=05037a2367f65f2eb1a7ade9a3f99c46",
                "updatetime": "1704688759",
                "height": 0,
                "width": 0,
                "video": "",
                "sort": 1,
                "version": 164,
                "cover2": "http://rdfile.oss-cn-hangzhou.aliyuncs.com/filemanage/init/filter_cube/21704679/cover2.png?nonce=05037a2367f65f2eb1a7ade9a3f99c46",
                "appkey": "init",
                "duration": 0,
                "extra": {},
                "polyglot": {
                    "en": "Wedding 001"
                },
                "category": "89350833,",
                "audit": 0,
                "is_ugc": 0,
                "type": "filter_cube"
            },
            {
                "id": "1022872",
                "ufid": "34301289",
                "name": "Wedding 002",
                "file": "http://rdfile.oss-cn-hangzhou.aliyuncs.com/filemanage/init/filter_cube/34301289/file.cube?nonce=05037a2367f65f2eb1a7ade9a3f99c46",
                "cover": "http://rdfile.oss-cn-hangzhou.aliyuncs.com/filemanage/init/filter_cube/34301289/cover.png?nonce=05037a2367f65f2eb1a7ade9a3f99c46",
                "updatetime": "1704688759",
                "height": 0,
                "width": 0,
                "video": "",
                "sort": 2,
                "version": 164,
                "cover2": "http://rdfile.oss-cn-hangzhou.aliyuncs.com/filemanage/init/filter_cube/34301289/cover2.png?nonce=05037a2367f65f2eb1a7ade9a3f99c46",
                "appkey": "init",
                "duration": 0,
                "extra": {},
                "polyglot": {
                    "en": "Wedding 002"
                },
                "category": "89350833,",
                "audit": 0,
                "is_ugc": 0,
                "type": "filter_cube"
            },
            {
                "id": "1022873",
                "ufid": "22158342",
                "name": "Wedding 003",
                "file": "http://rdfile.oss-cn-hangzhou.aliyuncs.com/filemanage/init/filter_cube/22158342/file.cube?nonce=05037a2367f65f2eb1a7ade9a3f99c46",
                "cover": "http://rdfile.oss-cn-hangzhou.aliyuncs.com/filemanage/init/filter_cube/22158342/cover.png?nonce=05037a2367f65f2eb1a7ade9a3f99c46",
                "updatetime": "1704688759",
                "height": 0,
                "width": 0,
                "video": "",
                "sort": 3,
                "version": 164,
                "cover2": "http://rdfile.oss-cn-hangzhou.aliyuncs.com/filemanage/init/filter_cube/22158342/cover2.png?nonce=05037a2367f65f2eb1a7ade9a3f99c46",
                "appkey": "init",
                "duration": 0,
                "extra": {},
                "polyglot": {
                    "en": "Wedding 003"
                },
                "category": "89350833,",
                "audit": 0,
                "is_ugc": 0,
                "type": "filter_cube"
            },
            {
                "id": "1022874",
                "ufid": "46713725",
                "name": "Wedding 004",
                "file": "http://rdfile.oss-cn-hangzhou.aliyuncs.com/filemanage/init/filter_cube/46713725/file.cube?nonce=05037a2367f65f2eb1a7ade9a3f99c46",
                "cover": "http://rdfile.oss-cn-hangzhou.aliyuncs.com/filemanage/init/filter_cube/46713725/cover.png?nonce=05037a2367f65f2eb1a7ade9a3f99c46",
                "updatetime": "1704688759",
                "height": 0,
                "width": 0,
                "video": "",
                "sort": 4,
                "version": 164,
                "cover2": "http://rdfile.oss-cn-hangzhou.aliyuncs.com/filemanage/init/filter_cube/46713725/cover2.png?nonce=05037a2367f65f2eb1a7ade9a3f99c46",
                "appkey": "init",
                "duration": 0,
                "extra": {},
                "polyglot": {
                    "en": "Wedding 004"
                },
                "category": "89350833,",
                "audit": 0,
                "is_ugc": 0,
                "type": "filter_cube"
            },
            {
                "id": "1022875",
                "ufid": "81853295",
                "name": "Wedding 005",
                "file": "http://rdfile.oss-cn-hangzhou.aliyuncs.com/filemanage/init/filter_cube/81853295/file.cube?nonce=67a03da7d0bfdcdad5d41361ca67039b",
                "cover": "http://rdfile.oss-cn-hangzhou.aliyuncs.com/filemanage/init/filter_cube/81853295/cover.png?nonce=67a03da7d0bfdcdad5d41361ca67039b",
                "updatetime": "1704688760",
                "height": 0,
                "width": 0,
                "video": "",
                "sort": 5,
                "version": 164,
                "cover2": "http://rdfile.oss-cn-hangzhou.aliyuncs.com/filemanage/init/filter_cube/81853295/cover2.png?nonce=67a03da7d0bfdcdad5d41361ca67039b",
                "appkey": "init",
                "duration": 0,
                "extra": {},
                "polyglot": {
                    "en": "Wedding 005"
                },
                "category": "89350833,",
                "audit": 0,
                "is_ugc": 0,
                "type": "filter_cube"
            },
            {
                "id": "1022876",
                "ufid": "15366541",
                "name": "Wedding 006",
                "file": "http://rdfile.oss-cn-hangzhou.aliyuncs.com/filemanage/init/filter_cube/15366541/file.cube?nonce=67a03da7d0bfdcdad5d41361ca67039b",
                "cover": "http://rdfile.oss-cn-hangzhou.aliyuncs.com/filemanage/init/filter_cube/15366541/cover.png?nonce=67a03da7d0bfdcdad5d41361ca67039b",
                "updatetime": "1704688760",
                "height": 0,
                "width": 0,
                "video": "",
                "sort": 6,
                "version": 164,
                "cover2": "http://rdfile.oss-cn-hangzhou.aliyuncs.com/filemanage/init/filter_cube/15366541/cover2.png?nonce=67a03da7d0bfdcdad5d41361ca67039b",
                "appkey": "init",
                "duration": 0,
                "extra": {},
                "polyglot": {
                    "en": "Wedding 006"
                },
                "category": "89350833,",
                "audit": 0,
                "is_ugc": 0,
                "type": "filter_cube"
            },
            {
                "id": "1022877",
                "ufid": "16909438",
                "name": "Wedding 007",
                "file": "http://rdfile.oss-cn-hangzhou.aliyuncs.com/filemanage/init/filter_cube/16909438/file.cube?nonce=67a03da7d0bfdcdad5d41361ca67039b",
                "cover": "http://rdfile.oss-cn-hangzhou.aliyuncs.com/filemanage/init/filter_cube/16909438/cover.png?nonce=67a03da7d0bfdcdad5d41361ca67039b",
                "updatetime": "1704688760",
                "height": 0,
                "width": 0,
                "video": "",
                "sort": 7,
                "version": 164,
                "cover2": "http://rdfile.oss-cn-hangzhou.aliyuncs.com/filemanage/init/filter_cube/16909438/cover2.png?nonce=67a03da7d0bfdcdad5d41361ca67039b",
                "appkey": "init",
                "duration": 0,
                "extra": {},
                "polyglot": {
                    "en": "Wedding 007"
                },
                "category": "89350833,",
                "audit": 0,
                "is_ugc": 0,
                "type": "filter_cube"
            },
            {
                "id": "1022878",
                "ufid": "41459546",
                "name": "Wedding 008",
                "file": "http://rdfile.oss-cn-hangzhou.aliyuncs.com/filemanage/init/filter_cube/41459546/file.cube?nonce=67a03da7d0bfdcdad5d41361ca67039b",
                "cover": "http://rdfile.oss-cn-hangzhou.aliyuncs.com/filemanage/init/filter_cube/41459546/cover.png?nonce=67a03da7d0bfdcdad5d41361ca67039b",
                "updatetime": "1704688760",
                "height": 0,
                "width": 0,
                "video": "",
                "sort": 8,
                "version": 164,
                "cover2": "http://rdfile.oss-cn-hangzhou.aliyuncs.com/filemanage/init/filter_cube/41459546/cover2.png?nonce=67a03da7d0bfdcdad5d41361ca67039b",
                "appkey": "init",
                "duration": 0,
                "extra": {},
                "polyglot": {
                    "en": "Wedding 008"
                },
                "category": "89350833,",
                "audit": 0,
                "is_ugc": 0,
                "type": "filter_cube"
            },
            {
                "id": "1022879",
                "ufid": "88495751",
                "name": "Wedding 009",
                "file": "http://rdfile.oss-cn-hangzhou.aliyuncs.com/filemanage/init/filter_cube/88495751/file.cube?nonce=67a03da7d0bfdcdad5d41361ca67039b",
                "cover": "http://rdfile.oss-cn-hangzhou.aliyuncs.com/filemanage/init/filter_cube/88495751/cover.png?nonce=67a03da7d0bfdcdad5d41361ca67039b",
                "updatetime": "1704688760",
                "height": 0,
                "width": 0,
                "video": "",
                "sort": 9,
                "version": 164,
                "cover2": "http://rdfile.oss-cn-hangzhou.aliyuncs.com/filemanage/init/filter_cube/88495751/cover2.png?nonce=67a03da7d0bfdcdad5d41361ca67039b",
                "appkey": "init",
                "duration": 0,
                "extra": {},
                "polyglot": {
                    "en": "Wedding 009"
                },
                "category": "89350833,",
                "audit": 0,
                "is_ugc": 0,
                "type": "filter_cube"
            },
            {
                "id": "1022880",
                "ufid": "35704831",
                "name": "Wedding 010",
                "file": "http://rdfile.oss-cn-hangzhou.aliyuncs.com/filemanage/init/filter_cube/35704831/file.cube?nonce=72d1a9e97c864841b85b3edefcf2342a",
                "cover": "http://rdfile.oss-cn-hangzhou.aliyuncs.com/filemanage/init/filter_cube/35704831/cover.png?nonce=72d1a9e97c864841b85b3edefcf2342a",
                "updatetime": "1704688761",
                "height": 0,
                "width": 0,
                "video": "",
                "sort": 10,
                "version": 164,
                "cover2": "http://rdfile.oss-cn-hangzhou.aliyuncs.com/filemanage/init/filter_cube/35704831/cover2.png?nonce=72d1a9e97c864841b85b3edefcf2342a",
                "appkey": "init",
                "duration": 0,
                "extra": {},
                "polyglot": {
                    "en": "Wedding 010"
                },
                "category": "89350833,",
                "audit": 0,
                "is_ugc": 0,
                "type": "filter_cube"
            }
        ]
    }
}