{"code":0,"msg":"success","data":{"total":636,"per_page":10,"current_page":32,"last_page":64,"data":[{"id":"1015219","ufid":"21396900","name":"\u6ed1\u52a8\u76f8\u518c","file":"http:\/\/rdfile.oss-cn-hangzhou.aliyuncs.com\/filemanage\/e069b36c568d909f\/templateapi\/16534627521969\/file.zip?nonce=801d7bdb8029fa65a2eab09f92c7de1b","cover":"http:\/\/rdfile.oss-cn-hangzhou.aliyuncs.com\/filemanage\/e069b36c568d909f\/templateapi\/16534627521969\/cover.webp?nonce=801d7bdb8029fa65a2eab09f92c7de1b","updatetime":"1704185869","height":607,"width":1080,"video":"http:\/\/rdfile.oss-cn-hangzhou.aliyuncs.com\/filemanage\/e069b36c568d909f\/templateapi\/16534627521969\/video.mp4?nonce=801d7bdb8029fa65a2eab09f92c7de1b","sort":0,"version":153,"cover2":"","appkey":"init","duration":0,"extra":{},"polyglot":{"en":"Slide album"},"category":"0","audit":0,"is_ugc":0,"text_need":0,"picture_need":0,"video_need":3,"type":"templateapi"},{"id":"1015213","ufid":"88807309","name":"\u6210\u8bed\u62dc\u65b0\u5e74","file":"http:\/\/rdfile.oss-cn-hangzhou.aliyuncs.com\/filemanage\/e069b36c568d909f\/templateapi\/16533855683958\/file.zip?nonce=801d7bdb8029fa65a2eab09f92c7de1b","cover":"http:\/\/rdfile.oss-cn-hangzhou.aliyuncs.com\/filemanage\/e069b36c568d909f\/templateapi\/16533855683958\/cover.webp?nonce=801d7bdb8029fa65a2eab09f92c7de1b","updatetime":"1704185869","height":633,"width":356,"video":"http:\/\/rdfile.oss-cn-hangzhou.aliyuncs.com\/filemanage\/e069b36c568d909f\/templateapi\/16533855683958\/video.mp4?nonce=801d7bdb8029fa65a2eab09f92c7de1b","sort":0,"version":153,"cover2":"","appkey":"init","duration":0,"extra":{},"polyglot":{"en":"Idioms to wish you a happy new year"},"category":"0","audit":0,"is_ugc":0,"text_need":9,"picture_need":0,"video_need":1,"type":"templateapi"},{"id":"1015192","ufid":"71214609","name":"\u9b54\u517d\u4e16\u754c","file":"http:\/\/rdfile.oss-cn-hangzhou.aliyuncs.com\/filemanage\/e069b36c568d909f\/templateapi\/16532719609414\/file.zip?nonce=c7a6f3d9c7990dbcaed60910b85af81e","cover":"http:\/\/rdfile.oss-cn-hangzhou.aliyuncs.com\/filemanage\/e069b36c568d909f\/templateapi\/16532719609414\/cover.webp?nonce=c7a6f3d9c7990dbcaed60910b85af81e","updatetime":"1704185868","height":634,"width":357,"video":"http:\/\/rdfile.oss-cn-hangzhou.aliyuncs.com\/filemanage\/e069b36c568d909f\/templateapi\/16532719609414\/video.mp4?nonce=c7a6f3d9c7990dbcaed60910b85af81e","sort":0,"version":153,"cover2":"","appkey":"init","duration":0,"extra":{},"polyglot":{"en":"World of Warcraft"},"category":"0","audit":0,"is_ugc":0,"text_need":0,"picture_need":1,"video_need":0,"type":"templateapi"},{"id":"1015177","ufid":"33064704","name":"\u5c0f\u9ec4\u4eba","file":"http:\/\/rdfile.oss-cn-hangzhou.aliyuncs.com\/filemanage\/e069b36c568d909f\/templateapi\/16529544291549\/file.zip?nonce=c7a6f3d9c7990dbcaed60910b85af81e","cover":"http:\/\/rdfile.oss-cn-hangzhou.aliyuncs.com\/filemanage\/e069b36c568d909f\/templateapi\/16529544291549\/cover.webp?nonce=c7a6f3d9c7990dbcaed60910b85af81e","updatetime":"1704185868","height":632,"width":356,"video":"http:\/\/rdfile.oss-cn-hangzhou.aliyuncs.com\/filemanage\/e069b36c568d909f\/templateapi\/16529544291549\/video.mp4?nonce=c7a6f3d9c7990dbcaed60910b85af81e","sort":0,"version":153,"cover2":"","appkey":"init","duration":0,"extra":{},"polyglot":{"en":"Minion"},"category":"0","audit":0,"is_ugc":0,"text_need":0,"picture_need":0,"video_need":1,"type":"templateapi"},{"id":"1015175","ufid":"41101900","name":"3D\u7acb\u4f53\u611f\u7535\u5f71\u843d\u5e55","file":"http:\/\/rdfile.oss-cn-hangzhou.aliyuncs.com\/filemanage\/e069b36c568d909f\/templateapi\/16529498849370\/file.zip?nonce=86671793a13746467b6c407fc5c3b9c5","cover":"http:\/\/rdfile.oss-cn-hangzhou.aliyuncs.com\/filemanage\/e069b36c568d909f\/templateapi\/16529498849370\/cover.webp?nonce=86671793a13746467b6c407fc5c3b9c5","updatetime":"1704185867","height":915,"width":1080,"video":"http:\/\/rdfile.oss-cn-hangzhou.aliyuncs.com\/filemanage\/e069b36c568d909f\/templateapi\/16529498849370\/video.mp4?nonce=86671793a13746467b6c407fc5c3b9c5","sort":0,"version":153,"cover2":"","appkey":"init","duration":0,"extra":{},"polyglot":{"en":"3D stereoscopic movie ends"},"category":"0","audit":0,"is_ugc":0,"text_need":0,"picture_need":0,"video_need":1,"type":"templateapi"},{"id":"1015149","ufid":"57882475","name":"NBA\u5f0f\u751f\u65e5\u5feb\u4e50","file":"http:\/\/rdfile.oss-cn-hangzhou.aliyuncs.com\/filemanage\/e069b36c568d909f\/templateapi\/16526735375404\/file.zip?nonce=75034065b34cc5cc5364efec6e8b2938","cover":"http:\/\/rdfile.oss-cn-hangzhou.aliyuncs.com\/filemanage\/e069b36c568d909f\/templateapi\/16526735375404\/cover.webp?nonce=75034065b34cc5cc5364efec6e8b2938","updatetime":"1704185865","height":1280,"width":720,"video":"http:\/\/rdfile.oss-cn-hangzhou.aliyuncs.com\/filemanage\/e069b36c568d909f\/templateapi\/16526735375404\/video.mp4?nonce=75034065b34cc5cc5364efec6e8b2938","sort":0,"version":153,"cover2":"","appkey":"init","duration":0,"extra":{},"polyglot":{"en":"Happy birthday NBA style"},"category":"0","audit":0,"is_ugc":0,"text_need":0,"picture_need":0,"video_need":1,"type":"templateapi"},{"id":"1015143","ufid":"41632886","name":"\u6c34\u6676\u7403","file":"http:\/\/rdfile.oss-cn-hangzhou.aliyuncs.com\/filemanage\/e069b36c568d909f\/templateapi\/16524356234663\/file.zip?nonce=d1008091710823fa93d6af1865289c61","cover":"http:\/\/rdfile.oss-cn-hangzhou.aliyuncs.com\/filemanage\/e069b36c568d909f\/templateapi\/16524356234663\/cover.webp?nonce=d1008091710823fa93d6af1865289c61","updatetime":"1704185864","height":1152,"width":648,"video":"http:\/\/rdfile.oss-cn-hangzhou.aliyuncs.com\/filemanage\/e069b36c568d909f\/templateapi\/16524356234663\/video.mp4?nonce=d1008091710823fa93d6af1865289c61","sort":0,"version":152,"cover2":"","appkey":"init","duration":0,"extra":{},"polyglot":{"en":"Crystal ball"},"category":"0","audit":0,"is_ugc":0,"text_need":0,"picture_need":0,"video_need":5,"type":"templateapi"},{"id":"1015112","ufid":"47297217","name":"\u4eba\u7269\u8dd1\u8fdb\u753b\u4e2d","file":"http:\/\/rdfile.oss-cn-hangzhou.aliyuncs.com\/filemanage\/e069b36c568d909f\/templateapi\/16522625337405\/file.zip?nonce=ea48c98781bf090455bc2607b56e2535","cover":"http:\/\/rdfile.oss-cn-hangzhou.aliyuncs.com\/filemanage\/e069b36c568d909f\/templateapi\/16522625337405\/cover.jpg?nonce=ea48c98781bf090455bc2607b56e2535&x-oss-process=style\/templateapi","updatetime":"1704185862","height":607,"width":1080,"video":"http:\/\/rdfile.oss-cn-hangzhou.aliyuncs.com\/filemanage\/e069b36c568d909f\/templateapi\/16522625337405\/video.mp4?nonce=ea48c98781bf090455bc2607b56e2535","sort":0,"version":152,"cover2":"","appkey":"init","duration":0,"extra":{},"polyglot":{"en":"Characters run into the painting"},"category":"0","audit":0,"is_ugc":0,"text_need":0,"picture_need":0,"video_need":2,"type":"templateapi"},{"id":"1015023","ufid":"17977677","name":"\u6d41\u52a8\u7167\u7247\u5899","file":"http:\/\/rdfile.oss-cn-hangzhou.aliyuncs.com\/filemanage\/e069b36c568d909f\/templateapi\/16522520128476\/file.zip?nonce=38528454008fff224c2802979b988a66","cover":"http:\/\/rdfile.oss-cn-hangzhou.aliyuncs.com\/filemanage\/e069b36c568d909f\/templateapi\/16522520128476\/cover.webp?nonce=38528454008fff224c2802979b988a66","updatetime":"1704185861","height":633,"width":1125,"video":"http:\/\/rdfile.oss-cn-hangzhou.aliyuncs.com\/filemanage\/e069b36c568d909f\/templateapi\/16522520128476\/video.mp4?nonce=38528454008fff224c2802979b988a66","sort":0,"version":152,"cover2":"","appkey":"init","duration":0,"extra":{},"polyglot":{"en":"Mobile photo wall"},"category":"0","audit":0,"is_ugc":0,"text_need":0,"picture_need":12,"video_need":0,"type":"templateapi"},{"id":"1014988","ufid":"16966318","name":"\u611f\u6069\u6bcd\u4eb2\u8282","file":"http:\/\/rdfile.oss-cn-hangzhou.aliyuncs.com\/filemanage\/e069b36c568d909f\/templateapi\/16520822526933\/file.zip?nonce=28315d5bd5a33be548620e468442e3ac","cover":"http:\/\/rdfile.oss-cn-hangzhou.aliyuncs.com\/filemanage\/e069b36c568d909f\/templateapi\/16520822526933\/cover.webp?nonce=28315d5bd5a33be548620e468442e3ac","updatetime":"1704185860","height":1280,"width":720,"video":"http:\/\/rdfile.oss-cn-hangzhou.aliyuncs.com\/filemanage\/e069b36c568d909f\/templateapi\/16520822526933\/video.mp4?nonce=28315d5bd5a33be548620e468442e3ac","sort":0,"version":153,"cover2":"","appkey":"init","duration":0,"extra":{},"polyglot":{"en":"Thanksgiving Mother"},"category":"0","audit":0,"is_ugc":0,"text_need":0,"picture_need":0,"video_need":5,"type":"templateapi"}]}}