{"code":0,"msg":"success","data":{"total":636,"per_page":10,"current_page":21,"last_page":64,"data":[{"id":"1016217","ufid":"59809719","name":"\u6447\u94c3\u53d8\u88c5","file":"http:\/\/rdfile.oss-cn-hangzhou.aliyuncs.com\/filemanage\/e069b36c568d909f\/templateapi\/16661484789755\/file.zip?nonce=3d6d69a49119ebd2c2145bad189a359c","cover":"http:\/\/rdfile.oss-cn-hangzhou.aliyuncs.com\/filemanage\/e069b36c568d909f\/templateapi\/16661484789755\/cover.webp?nonce=3d6d69a49119ebd2c2145bad189a359c","updatetime":"1704185955","height":1280,"width":720,"video":"http:\/\/rdfile.oss-cn-hangzhou.aliyuncs.com\/filemanage\/e069b36c568d909f\/templateapi\/16661484789755\/video.mp4?nonce=3d6d69a49119ebd2c2145bad189a359c","sort":0,"version":153,"cover2":"","appkey":"6ecb39f1c12f1a35","duration":0,"extra":{},"polyglot":{"en":"Rattle Crossdressing"},"category":"0","audit":0,"is_ugc":0,"text_need":0,"picture_need":0,"video_need":3,"type":"templateapi"},{"id":"1016216","ufid":"92653534","name":"Fatal Love \u97f3\u4e50\u5361\u70b9","file":"http:\/\/rdfile.oss-cn-hangzhou.aliyuncs.com\/filemanage\/e069b36c568d909f\/templateapi\/16661483179931\/file.zip?nonce=3d6d69a49119ebd2c2145bad189a359c","cover":"http:\/\/rdfile.oss-cn-hangzhou.aliyuncs.com\/filemanage\/e069b36c568d909f\/templateapi\/16661483179931\/cover.webp?nonce=3d6d69a49119ebd2c2145bad189a359c","updatetime":"1704185955","height":1920,"width":1080,"video":"http:\/\/rdfile.oss-cn-hangzhou.aliyuncs.com\/filemanage\/e069b36c568d909f\/templateapi\/16661483179931\/video.mp4?nonce=3d6d69a49119ebd2c2145bad189a359c","sort":0,"version":153,"cover2":"","appkey":"init","duration":0,"extra":{},"polyglot":{"en":"Right time Fatal Love music"},"category":"0","audit":0,"is_ugc":0,"text_need":0,"picture_need":0,"video_need":9,"type":"templateapi"},{"id":"1016215","ufid":"89270196","name":"hannah\u5361\u70b9","file":"http:\/\/rdfile.oss-cn-hangzhou.aliyuncs.com\/filemanage\/e069b36c568d909f\/templateapi\/16661480803304\/file.zip?nonce=3d6d69a49119ebd2c2145bad189a359c","cover":"http:\/\/rdfile.oss-cn-hangzhou.aliyuncs.com\/filemanage\/e069b36c568d909f\/templateapi\/16661480803304\/cover.webp?nonce=3d6d69a49119ebd2c2145bad189a359c","updatetime":"1704185955","height":1920,"width":1080,"video":"http:\/\/rdfile.oss-cn-hangzhou.aliyuncs.com\/filemanage\/e069b36c568d909f\/templateapi\/16661480803304\/video.mp4?nonce=3d6d69a49119ebd2c2145bad189a359c","sort":0,"version":153,"cover2":"","appkey":"init","duration":0,"extra":{},"polyglot":{"en":"Right time hannah"},"category":"0","audit":0,"is_ugc":0,"text_need":0,"picture_need":0,"video_need":5,"type":"templateapi"},{"id":"1016214","ufid":"68132055","name":"\u52a8\u611f\u56db\u56fe\u5361\u70b9","file":"http:\/\/rdfile.oss-cn-hangzhou.aliyuncs.com\/filemanage\/e069b36c568d909f\/templateapi\/16661479203368\/file.zip?nonce=6072e37a4c9dcf12616e7ab212b6d002","cover":"http:\/\/rdfile.oss-cn-hangzhou.aliyuncs.com\/filemanage\/e069b36c568d909f\/templateapi\/16661479203368\/cover.webp?nonce=6072e37a4c9dcf12616e7ab212b6d002","updatetime":"1704185954","height":1440,"width":1080,"video":"http:\/\/rdfile.oss-cn-hangzhou.aliyuncs.com\/filemanage\/e069b36c568d909f\/templateapi\/16661479203368\/video.mp4?nonce=6072e37a4c9dcf12616e7ab212b6d002","sort":0,"version":153,"cover2":"","appkey":"init","duration":0,"extra":{},"polyglot":{"en":"Right time Dynamic four pictures"},"category":"0","audit":0,"is_ugc":0,"text_need":0,"picture_need":0,"video_need":4,"type":"templateapi"},{"id":"1016213","ufid":"49517061","name":"\u6de1\u6de1\u7684\u63a0\u8fc7\u5361\u70b9","file":"http:\/\/rdfile.oss-cn-hangzhou.aliyuncs.com\/filemanage\/e069b36c568d909f\/templateapi\/16661477468321\/file.zip?nonce=6072e37a4c9dcf12616e7ab212b6d002","cover":"http:\/\/rdfile.oss-cn-hangzhou.aliyuncs.com\/filemanage\/e069b36c568d909f\/templateapi\/16661477468321\/cover.webp?nonce=6072e37a4c9dcf12616e7ab212b6d002","updatetime":"1704185954","height":1225,"width":689,"video":"http:\/\/rdfile.oss-cn-hangzhou.aliyuncs.com\/filemanage\/e069b36c568d909f\/templateapi\/16661477468321\/video.mp4?nonce=6072e37a4c9dcf12616e7ab212b6d002","sort":0,"version":153,"cover2":"","appkey":"init","duration":0,"extra":{},"polyglot":{"en":"Right time Faintly passing by"},"category":"0","audit":0,"is_ugc":0,"text_need":0,"picture_need":0,"video_need":4,"type":"templateapi"},{"id":"1016195","ufid":"42329902","name":"\u6e05\u7eaf\u7f8e\u62cd","file":"http:\/\/rdfile.oss-cn-hangzhou.aliyuncs.com\/filemanage\/e069b36c568d909f\/templateapi\/16659863696619\/file.zip?nonce=2e5f386c339c18cf6c54838f173c1e75","cover":"http:\/\/rdfile.oss-cn-hangzhou.aliyuncs.com\/filemanage\/e069b36c568d909f\/templateapi\/16659863696619\/cover.webp?nonce=2e5f386c339c18cf6c54838f173c1e75","updatetime":"1704185953","height":1920,"width":1080,"video":"http:\/\/rdfile.oss-cn-hangzhou.aliyuncs.com\/filemanage\/e069b36c568d909f\/templateapi\/16659863696619\/video.mp4?nonce=2e5f386c339c18cf6c54838f173c1e75","sort":0,"version":153,"cover2":"","appkey":"init","duration":0,"extra":{},"polyglot":{"en":"Pure and beautiful photos"},"category":"0","audit":0,"is_ugc":0,"text_need":0,"picture_need":0,"video_need":4,"type":"templateapi"},{"id":"1016194","ufid":"97118624","name":"\u6587\u5b57\u52a8\u611f\u5361\u70b9","file":"http:\/\/rdfile.oss-cn-hangzhou.aliyuncs.com\/filemanage\/e069b36c568d909f\/templateapi\/16659778573705\/file.zip?nonce=dddff8e0e570edd4ee5c96924ecb1155","cover":"http:\/\/rdfile.oss-cn-hangzhou.aliyuncs.com\/filemanage\/e069b36c568d909f\/templateapi\/16659778573705\/cover.webp?nonce=dddff8e0e570edd4ee5c96924ecb1155","updatetime":"1704185952","height":1899,"width":1080,"video":"http:\/\/rdfile.oss-cn-hangzhou.aliyuncs.com\/filemanage\/e069b36c568d909f\/templateapi\/16659778573705\/video.mp4?nonce=dddff8e0e570edd4ee5c96924ecb1155","sort":0,"version":153,"cover2":"","appkey":"init","duration":0,"extra":{},"polyglot":{"en":"Right time text dynamic"},"category":"0","audit":0,"is_ugc":0,"text_need":0,"picture_need":0,"video_need":4,"type":"templateapi"},{"id":"1016191","ufid":"59037437","name":"\u9ad8\u51b7\u5fa1\u59d0\u7f8e\u62cd","file":"http:\/\/rdfile.oss-cn-hangzhou.aliyuncs.com\/filemanage\/e069b36c568d909f\/templateapi\/16657405134537\/file.zip?nonce=dddff8e0e570edd4ee5c96924ecb1155","cover":"http:\/\/rdfile.oss-cn-hangzhou.aliyuncs.com\/filemanage\/e069b36c568d909f\/templateapi\/16657405134537\/cover.webp?nonce=dddff8e0e570edd4ee5c96924ecb1155","updatetime":"1704185952","height":1920,"width":1080,"video":"http:\/\/rdfile.oss-cn-hangzhou.aliyuncs.com\/filemanage\/e069b36c568d909f\/templateapi\/16657405134537\/video.mp4?nonce=dddff8e0e570edd4ee5c96924ecb1155","sort":0,"version":153,"cover2":"","appkey":"init","duration":0,"extra":{},"polyglot":{"en":"Beautiful photos of aloof royal sister"},"category":"0","audit":0,"is_ugc":0,"text_need":0,"picture_need":0,"video_need":4,"type":"templateapi"},{"id":"1016187","ufid":"32635384","name":"\u97f3\u4e50\u5361\u70b9\u5c55\u793a","file":"http:\/\/rdfile.oss-cn-hangzhou.aliyuncs.com\/filemanage\/e069b36c568d909f\/templateapi\/16657353559888\/file.zip?nonce=511d8a1b14e59423d807dd88c80e823e","cover":"http:\/\/rdfile.oss-cn-hangzhou.aliyuncs.com\/filemanage\/e069b36c568d909f\/templateapi\/16657353559888\/cover.webp?nonce=511d8a1b14e59423d807dd88c80e823e","updatetime":"1704185951","height":1280,"width":720,"video":"http:\/\/rdfile.oss-cn-hangzhou.aliyuncs.com\/filemanage\/e069b36c568d909f\/templateapi\/16657353559888\/video.mp4?nonce=511d8a1b14e59423d807dd88c80e823e","sort":0,"version":153,"cover2":"","appkey":"init","duration":0,"extra":{},"polyglot":{"en":"Music right time display"},"category":"0","audit":0,"is_ugc":0,"text_need":0,"picture_need":0,"video_need":6,"type":"templateapi"},{"id":"1016182","ufid":"69920756","name":"just beat it\u53d8\u88c5","file":"http:\/\/rdfile.oss-cn-hangzhou.aliyuncs.com\/filemanage\/e069b36c568d909f\/templateapi\/16657311593982\/file.zip?nonce=511d8a1b14e59423d807dd88c80e823e","cover":"http:\/\/rdfile.oss-cn-hangzhou.aliyuncs.com\/filemanage\/e069b36c568d909f\/templateapi\/16657311593982\/cover.webp?nonce=511d8a1b14e59423d807dd88c80e823e","updatetime":"1704185951","height":1280,"width":720,"video":"http:\/\/rdfile.oss-cn-hangzhou.aliyuncs.com\/filemanage\/e069b36c568d909f\/templateapi\/16657311593982\/video.mp4?nonce=511d8a1b14e59423d807dd88c80e823e","sort":0,"version":153,"cover2":"","appkey":"6ecb39f1c12f1a35","duration":0,"extra":{},"polyglot":{"en":"Just beat it crossdressing"},"category":"0","audit":0,"is_ugc":0,"text_need":0,"picture_need":0,"video_need":2,"type":"templateapi"}]}}