{"code":0,"msg":"success","data":{"total":189,"per_page":10,"current_page":1,"last_page":19,"data":[{"id":"1020501","ufid":"36730310","name":"\u7231\u5fc3\u6d82\u9e26","file":"http:\/\/rdfile.oss-cn-hangzhou.aliyuncs.com\/filemanage\/e069b36c568d909f\/templateapi\/16763445431562\/file.zip?nonce=d8e8dcdc82629411678aeadcc54ff8d0","cover":"http:\/\/rdfile.oss-cn-hangzhou.aliyuncs.com\/filemanage\/e069b36c568d909f\/templateapi\/16763445431562\/cover.webp?nonce=d8e8dcdc82629411678aeadcc54ff8d0","updatetime":"1684910909","height":1280,"width":720,"video":"http:\/\/rdfile.oss-cn-hangzhou.aliyuncs.com\/filemanage\/e069b36c568d909f\/templateapi\/16763445431562\/video.mp4?nonce=d8e8dcdc82629411678aeadcc54ff8d0","sort":0,"version":158,"cover2":"","appkey":"init","duration":0,"extra":{},"polyglot":[],"category":"0","audit":0,"is_ugc":0,"text_need":0,"picture_need":1,"video_need":0,"type":"templateapi"},{"id":"1020352","ufid":"75709776","name":"\u9065\u63a7\u53d8\u6362","file":"http:\/\/rdfile.oss-cn-hangzhou.aliyuncs.com\/filemanage\/e069b36c568d909f\/templateapi\/16750628025113\/file.zip?nonce=cfcd208495d565ef66e7dff9f98764da","cover":"http:\/\/rdfile.oss-cn-hangzhou.aliyuncs.com\/filemanage\/e069b36c568d909f\/templateapi\/16750628025113\/cover.webp?nonce=cfcd208495d565ef66e7dff9f98764da","updatetime":"0","height":720,"width":720,"video":"http:\/\/rdfile.oss-cn-hangzhou.aliyuncs.com\/filemanage\/e069b36c568d909f\/templateapi\/16750628025113\/video.mp4?nonce=cfcd208495d565ef66e7dff9f98764da","sort":0,"version":158,"cover2":"","appkey":"init","duration":0,"extra":{},"polyglot":[],"category":"0","audit":0,"is_ugc":0,"text_need":0,"picture_need":9,"video_need":0,"type":"templateapi"},{"id":"1020320","ufid":"92152690","name":"\u6d82\u9e26\u753b\u50cf","file":"http:\/\/rdfile.oss-cn-hangzhou.aliyuncs.com\/filemanage\/e069b36c568d909f\/templateapi\/16735209157225\/file.zip?nonce=cfcd208495d565ef66e7dff9f98764da","cover":"http:\/\/rdfile.oss-cn-hangzhou.aliyuncs.com\/filemanage\/e069b36c568d909f\/templateapi\/16735209157225\/cover.webp?nonce=cfcd208495d565ef66e7dff9f98764da","updatetime":"0","height":1280,"width":720,"video":"http:\/\/rdfile.oss-cn-hangzhou.aliyuncs.com\/filemanage\/e069b36c568d909f\/templateapi\/16735209157225\/video.mp4?nonce=cfcd208495d565ef66e7dff9f98764da","sort":0,"version":158,"cover2":"","appkey":"init","duration":0,"extra":{},"polyglot":[],"category":"0","audit":0,"is_ugc":0,"text_need":0,"picture_need":1,"video_need":0,"type":"templateapi"},{"id":"1019476","ufid":"42091877","name":"\u4f60\u8981\u771f\u957f\u8fd9\u6837\u80fd\u6ca1\u5bf9\u8c61","file":"http:\/\/rdfile.oss-cn-hangzhou.aliyuncs.com\/filemanage\/e069b36c568d909f\/templateapi\/16720498562993\/file.zip?nonce=cfcd208495d565ef66e7dff9f98764da","cover":"http:\/\/rdfile.oss-cn-hangzhou.aliyuncs.com\/filemanage\/e069b36c568d909f\/templateapi\/16720498562993\/cover.webp?nonce=cfcd208495d565ef66e7dff9f98764da","updatetime":"0","height":1920,"width":1080,"video":"http:\/\/rdfile.oss-cn-hangzhou.aliyuncs.com\/filemanage\/e069b36c568d909f\/templateapi\/16720498562993\/video.mp4?nonce=cfcd208495d565ef66e7dff9f98764da","sort":0,"version":158,"cover2":"","appkey":"init","duration":0,"extra":{},"polyglot":[],"category":"0","audit":0,"is_ugc":0,"text_need":0,"picture_need":0,"video_need":1,"type":"templateapi"},{"id":"1019393","ufid":"27209815","name":"\u5e0c\u671b\u6211\u4eec\u90fd\u8d70\u5411\u5e78\u798f","file":"http:\/\/rdfile.oss-cn-hangzhou.aliyuncs.com\/filemanage\/e069b36c568d909f\/templateapi\/16716185706608\/file.zip?nonce=cfcd208495d565ef66e7dff9f98764da","cover":"http:\/\/rdfile.oss-cn-hangzhou.aliyuncs.com\/filemanage\/e069b36c568d909f\/templateapi\/16716185706608\/cover.webp?nonce=cfcd208495d565ef66e7dff9f98764da","updatetime":"0","height":1920,"width":1080,"video":"http:\/\/rdfile.oss-cn-hangzhou.aliyuncs.com\/filemanage\/e069b36c568d909f\/templateapi\/16716185706608\/video.mp4?nonce=cfcd208495d565ef66e7dff9f98764da","sort":0,"version":157,"cover2":"","appkey":"init","duration":0,"extra":{},"polyglot":[],"category":"0","audit":0,"is_ugc":0,"text_need":0,"picture_need":0,"video_need":1,"type":"templateapi"},{"id":"1016833","ufid":"80241868","name":"\u5706\u5f62\u626b\u63cf\u8f6c\u573a","file":"http:\/\/rdfile.oss-cn-hangzhou.aliyuncs.com\/filemanage\/e069b36c568d909f\/templateapi\/16714232411079\/file.zip?nonce=84da45d07bda94274aa84b012e735f51","cover":"http:\/\/rdfile.oss-cn-hangzhou.aliyuncs.com\/filemanage\/e069b36c568d909f\/templateapi\/16714232411079\/cover.webp?nonce=84da45d07bda94274aa84b012e735f51","updatetime":"1684912180","height":607,"width":1080,"video":"http:\/\/rdfile.oss-cn-hangzhou.aliyuncs.com\/filemanage\/e069b36c568d909f\/templateapi\/16714232411079\/video.mp4?nonce=84da45d07bda94274aa84b012e735f51","sort":0,"version":155,"cover2":"","appkey":"init","duration":0,"extra":{},"polyglot":[],"category":"0","audit":0,"is_ugc":0,"text_need":0,"picture_need":0,"video_need":4,"type":"templateapi"},{"id":"1016825","ufid":"45299896","name":"\u6d41\u661f\u5212\u8fc7","file":"http:\/\/rdfile.oss-cn-hangzhou.aliyuncs.com\/filemanage\/e069b36c568d909f\/templateapi\/16711824979108\/file.zip?nonce=8641af04b2703aab755fcc3f66c0a38c","cover":"http:\/\/rdfile.oss-cn-hangzhou.aliyuncs.com\/filemanage\/e069b36c568d909f\/templateapi\/16711824979108\/cover.webp?nonce=8641af04b2703aab755fcc3f66c0a38c","updatetime":"1684897638","height":607,"width":1080,"video":"http:\/\/rdfile.oss-cn-hangzhou.aliyuncs.com\/filemanage\/e069b36c568d909f\/templateapi\/16711824979108\/video.mp4?nonce=8641af04b2703aab755fcc3f66c0a38c","sort":0,"version":155,"cover2":"","appkey":"init","duration":0,"extra":{},"polyglot":[],"category":"0","audit":0,"is_ugc":0,"text_need":0,"picture_need":2,"video_need":0,"type":"templateapi"},{"id":"1016823","ufid":"62548466","name":"\u624b\u673a\u53d6\u666f\u73a9\u6cd5","file":"http:\/\/rdfile.oss-cn-hangzhou.aliyuncs.com\/filemanage\/e069b36c568d909f\/templateapi\/16710977616227\/file.zip?nonce=8e66f03ad66f129ba5308a4538e02413","cover":"http:\/\/rdfile.oss-cn-hangzhou.aliyuncs.com\/filemanage\/e069b36c568d909f\/templateapi\/16710977616227\/cover.webp?nonce=8e66f03ad66f129ba5308a4538e02413","updatetime":"1684897443","height":1060,"width":596,"video":"http:\/\/rdfile.oss-cn-hangzhou.aliyuncs.com\/filemanage\/e069b36c568d909f\/templateapi\/16710977616227\/video.mp4?nonce=8e66f03ad66f129ba5308a4538e02413","sort":0,"version":155,"cover2":"","appkey":"init","duration":0,"extra":{},"polyglot":[],"category":"0","audit":0,"is_ugc":0,"text_need":0,"picture_need":0,"video_need":2,"type":"templateapi"},{"id":"1016673","ufid":"80880844","name":"\u5929\u7a7a\u7279\u6548","file":"http:\/\/rdfile.oss-cn-hangzhou.aliyuncs.com\/filemanage\/e069b36c568d909f\/templateapi\/16702332388767\/file.zip?nonce=327d2d7c24780695617fd09488f737c1","cover":"http:\/\/rdfile.oss-cn-hangzhou.aliyuncs.com\/filemanage\/e069b36c568d909f\/templateapi\/16702332388767\/cover.webp?nonce=327d2d7c24780695617fd09488f737c1","updatetime":"1684897468","height":1059,"width":596,"video":"http:\/\/rdfile.oss-cn-hangzhou.aliyuncs.com\/filemanage\/e069b36c568d909f\/templateapi\/16702332388767\/video.mp4?nonce=327d2d7c24780695617fd09488f737c1","sort":0,"version":155,"cover2":"","appkey":"init","duration":0,"extra":{},"polyglot":[],"category":"0","audit":0,"is_ugc":0,"text_need":0,"picture_need":0,"video_need":1,"type":"templateapi"},{"id":"1016641","ufid":"93821136","name":"\u521b\u610f\u8499\u7248\u8f6c\u573a","file":"http:\/\/rdfile.oss-cn-hangzhou.aliyuncs.com\/filemanage\/e069b36c568d909f\/templateapi\/16698878588388\/file.zip?nonce=cfcd208495d565ef66e7dff9f98764da","cover":"http:\/\/rdfile.oss-cn-hangzhou.aliyuncs.com\/filemanage\/e069b36c568d909f\/templateapi\/16698878588388\/cover.webp?nonce=cfcd208495d565ef66e7dff9f98764da","updatetime":"0","height":1080,"width":1920,"video":"http:\/\/rdfile.oss-cn-hangzhou.aliyuncs.com\/filemanage\/e069b36c568d909f\/templateapi\/16698878588388\/video.mp4?nonce=cfcd208495d565ef66e7dff9f98764da","sort":0,"version":156,"cover2":"","appkey":"init","duration":0,"extra":{},"polyglot":[],"category":"0","audit":0,"is_ugc":0,"text_need":0,"picture_need":0,"video_need":23,"type":"templateapi"}]}}