{"code":0,"msg":"success","data":{"total":15,"per_page":10,"current_page":1,"last_page":2,"data":[{"id":"1021215","ufid":"097c6dac-919c-4185-abd9-be6210324f4e","name":"\u611f\u6069\u6bcd\u4eb2 \u4e3a\u7231\u653e\u4ef7","file":"http:\/\/rdfile.oss-cn-hangzhou.aliyuncs.com\/filemanage\/6ecb39f1c12f1a35\/templateapi\/097c6dac-919c-4185-abd9-be6210324f4e\/file.zip?nonce=a37dc82ac1e7e9110a2faf04cc2a41ab","cover":"http:\/\/rdfile.oss-cn-hangzhou.aliyuncs.com\/filemanage\/6ecb39f1c12f1a35\/templateapi\/097c6dac-919c-4185-abd9-be6210324f4e\/cover.webp?nonce=a37dc82ac1e7e9110a2faf04cc2a41ab","updatetime":"1699610222","height":1060,"width":597,"video":"http:\/\/rdfile.oss-cn-hangzhou.aliyuncs.com\/filemanage\/6ecb39f1c12f1a35\/templateapi\/097c6dac-919c-4185-abd9-be6210324f4e\/video.mp4?nonce=a37dc82ac1e7e9110a2faf04cc2a41ab","sort":0,"version":162,"cover2":"","appkey":"6ecb39f1c12f1a35","duration":0,"extra":{},"polyglot":[],"category":"0","audit":0,"is_ugc":0,"text_need":13,"picture_need":7,"video_need":0,"type":"templateapi"},{"id":"1021208","ufid":"bfd5d2e3-5955-488a-8f65-cbc463532d48","name":"\u6bcd\u4eb2\u8282\u7684\u4e00\u5c01\u4fe1","file":"http:\/\/rdfile.oss-cn-hangzhou.aliyuncs.com\/filemanage\/6ecb39f1c12f1a35\/templateapi\/bfd5d2e3-5955-488a-8f65-cbc463532d48\/file.zip?nonce=43ca7cb4ac0622aa097a04678a5137ae","cover":"http:\/\/rdfile.oss-cn-hangzhou.aliyuncs.com\/filemanage\/6ecb39f1c12f1a35\/templateapi\/bfd5d2e3-5955-488a-8f65-cbc463532d48\/cover.webp?nonce=43ca7cb4ac0622aa097a04678a5137ae","updatetime":"1694422948","height":607,"width":1080,"video":"http:\/\/rdfile.oss-cn-hangzhou.aliyuncs.com\/filemanage\/6ecb39f1c12f1a35\/templateapi\/bfd5d2e3-5955-488a-8f65-cbc463532d48\/video.mp4?nonce=43ca7cb4ac0622aa097a04678a5137ae","sort":0,"version":162,"cover2":"","appkey":"6ecb39f1c12f1a35","duration":0,"extra":{},"polyglot":[],"category":"0","audit":0,"is_ugc":0,"text_need":4,"picture_need":0,"video_need":0,"type":"templateapi"},{"id":"1020864","ufid":"89634ecc-79c1-4f25-ba1d-80f7e057b84d","name":"\u7acb\u590f","file":"http:\/\/rdfile.oss-cn-hangzhou.aliyuncs.com\/filemanage\/6ecb39f1c12f1a35\/templateapi\/89634ecc-79c1-4f25-ba1d-80f7e057b84d\/file.zip?nonce=43ca7cb4ac0622aa097a04678a5137ae","cover":"http:\/\/rdfile.oss-cn-hangzhou.aliyuncs.com\/filemanage\/6ecb39f1c12f1a35\/templateapi\/89634ecc-79c1-4f25-ba1d-80f7e057b84d\/cover.webp?nonce=43ca7cb4ac0622aa097a04678a5137ae","updatetime":"1694422948","height":1059,"width":794,"video":"http:\/\/rdfile.oss-cn-hangzhou.aliyuncs.com\/filemanage\/6ecb39f1c12f1a35\/templateapi\/89634ecc-79c1-4f25-ba1d-80f7e057b84d\/video.mp4?nonce=43ca7cb4ac0622aa097a04678a5137ae","sort":0,"version":162,"cover2":"","appkey":"6ecb39f1c12f1a35","duration":0,"extra":{},"polyglot":[],"category":"0","audit":0,"is_ugc":0,"text_need":1,"picture_need":2,"video_need":0,"type":"templateapi"},{"id":"1020860","ufid":"9b59b615-2960-4f98-8bb3-50f00f8967e8","name":"\u4e94\u56db\u9752\u5e74\u8282","file":"http:\/\/rdfile.oss-cn-hangzhou.aliyuncs.com\/filemanage\/6ecb39f1c12f1a35\/templateapi\/9b59b615-2960-4f98-8bb3-50f00f8967e8\/file.zip?nonce=43ca7cb4ac0622aa097a04678a5137ae","cover":"http:\/\/rdfile.oss-cn-hangzhou.aliyuncs.com\/filemanage\/6ecb39f1c12f1a35\/templateapi\/9b59b615-2960-4f98-8bb3-50f00f8967e8\/cover.webp?nonce=43ca7cb4ac0622aa097a04678a5137ae","updatetime":"1694422948","height":1060,"width":596,"video":"http:\/\/rdfile.oss-cn-hangzhou.aliyuncs.com\/filemanage\/6ecb39f1c12f1a35\/templateapi\/9b59b615-2960-4f98-8bb3-50f00f8967e8\/video.mp4?nonce=43ca7cb4ac0622aa097a04678a5137ae","sort":0,"version":162,"cover2":"","appkey":"6ecb39f1c12f1a35","duration":0,"extra":{},"polyglot":[],"category":"0","audit":0,"is_ugc":0,"text_need":6,"picture_need":0,"video_need":1,"type":"templateapi"},{"id":"1020852","ufid":"65088185-4d16-4922-ac0b-19138a7f404e","name":"\u52b3\u52a8\u6700\u5149\u8363","file":"http:\/\/rdfile.oss-cn-hangzhou.aliyuncs.com\/filemanage\/6ecb39f1c12f1a35\/templateapi\/65088185-4d16-4922-ac0b-19138a7f404e\/file.zip?nonce=43ca7cb4ac0622aa097a04678a5137ae","cover":"http:\/\/rdfile.oss-cn-hangzhou.aliyuncs.com\/filemanage\/6ecb39f1c12f1a35\/templateapi\/65088185-4d16-4922-ac0b-19138a7f404e\/cover.webp?nonce=43ca7cb4ac0622aa097a04678a5137ae","updatetime":"1694422948","height":1058,"width":595,"video":"http:\/\/rdfile.oss-cn-hangzhou.aliyuncs.com\/filemanage\/6ecb39f1c12f1a35\/templateapi\/65088185-4d16-4922-ac0b-19138a7f404e\/video.mp4?nonce=43ca7cb4ac0622aa097a04678a5137ae","sort":0,"version":162,"cover2":"","appkey":"6ecb39f1c12f1a35","duration":0,"extra":{},"polyglot":[],"category":"0","audit":0,"is_ugc":0,"text_need":7,"picture_need":0,"video_need":1,"type":"templateapi"},{"id":"1020851","ufid":"75983d04-f62c-45fa-b49b-61a57166ea30","name":"\u4e94\u4e00\u5047\u671f \u7247\u5934\u8f6c\u573a","file":"http:\/\/rdfile.oss-cn-hangzhou.aliyuncs.com\/filemanage\/6ecb39f1c12f1a35\/templateapi\/75983d04-f62c-45fa-b49b-61a57166ea30\/file.zip?nonce=43ca7cb4ac0622aa097a04678a5137ae","cover":"http:\/\/rdfile.oss-cn-hangzhou.aliyuncs.com\/filemanage\/6ecb39f1c12f1a35\/templateapi\/75983d04-f62c-45fa-b49b-61a57166ea30\/cover.webp?nonce=43ca7cb4ac0622aa097a04678a5137ae","updatetime":"1694422948","height":1060,"width":596,"video":"http:\/\/rdfile.oss-cn-hangzhou.aliyuncs.com\/filemanage\/6ecb39f1c12f1a35\/templateapi\/75983d04-f62c-45fa-b49b-61a57166ea30\/video.mp4?nonce=43ca7cb4ac0622aa097a04678a5137ae","sort":0,"version":162,"cover2":"","appkey":"6ecb39f1c12f1a35","duration":0,"extra":{},"polyglot":[],"category":"0","audit":0,"is_ugc":0,"text_need":0,"picture_need":0,"video_need":1,"type":"templateapi"},{"id":"1020849","ufid":"14968f14-6824-44bb-b344-ea471c1e8fb4","name":"\u9ec4\u9ed1\u76aeHSL\u8c03\u8272\u6cd5","file":"http:\/\/rdfile.oss-cn-hangzhou.aliyuncs.com\/filemanage\/6ecb39f1c12f1a35\/templateapi\/14968f14-6824-44bb-b344-ea471c1e8fb4\/file.zip?nonce=43ca7cb4ac0622aa097a04678a5137ae","cover":"http:\/\/rdfile.oss-cn-hangzhou.aliyuncs.com\/filemanage\/6ecb39f1c12f1a35\/templateapi\/14968f14-6824-44bb-b344-ea471c1e8fb4\/cover.webp?nonce=43ca7cb4ac0622aa097a04678a5137ae","updatetime":"1694422948","height":608,"width":1080,"video":"http:\/\/rdfile.oss-cn-hangzhou.aliyuncs.com\/filemanage\/6ecb39f1c12f1a35\/templateapi\/14968f14-6824-44bb-b344-ea471c1e8fb4\/video.mp4?nonce=43ca7cb4ac0622aa097a04678a5137ae","sort":0,"version":162,"cover2":"","appkey":"6ecb39f1c12f1a35","duration":0,"extra":{},"polyglot":[],"category":"0","audit":0,"is_ugc":0,"text_need":0,"picture_need":0,"video_need":1,"type":"templateapi"},{"id":"1020726","ufid":"42463781","name":"\u8fea\u62dc\u76f8\u6846","file":"http:\/\/rdfile.oss-cn-hangzhou.aliyuncs.com\/filemanage\/e069b36c568d909f\/templateapi\/16787829292002\/file.zip?nonce=cfcd208495d565ef66e7dff9f98764da","cover":"http:\/\/rdfile.oss-cn-hangzhou.aliyuncs.com\/filemanage\/e069b36c568d909f\/templateapi\/16787829292002\/cover.webp?nonce=cfcd208495d565ef66e7dff9f98764da","updatetime":"0","height":1280,"width":720,"video":"http:\/\/rdfile.oss-cn-hangzhou.aliyuncs.com\/filemanage\/e069b36c568d909f\/templateapi\/16787829292002\/video.mp4?nonce=cfcd208495d565ef66e7dff9f98764da","sort":0,"version":161,"cover2":"","appkey":"6ecb39f1c12f1a35","duration":0,"extra":{},"polyglot":[],"category":"0","audit":0,"is_ugc":0,"text_need":0,"picture_need":0,"video_need":1,"type":"templateapi"},{"id":"1016333","ufid":"24998331","name":"\u89e3\u653e\u7891\u5e7f\u544a\u724c","file":"http:\/\/rdfile.oss-cn-hangzhou.aliyuncs.com\/filemanage\/e069b36c568d909f\/templateapi\/16672701552751\/file.zip?nonce=cfcd208495d565ef66e7dff9f98764da","cover":"http:\/\/rdfile.oss-cn-hangzhou.aliyuncs.com\/filemanage\/e069b36c568d909f\/templateapi\/16672701552751\/cover.webp?nonce=cfcd208495d565ef66e7dff9f98764da","updatetime":"0","height":1747,"width":989,"video":"http:\/\/rdfile.oss-cn-hangzhou.aliyuncs.com\/filemanage\/e069b36c568d909f\/templateapi\/16672701552751\/video.mp4?nonce=cfcd208495d565ef66e7dff9f98764da","sort":0,"version":155,"cover2":"","appkey":"6ecb39f1c12f1a35","duration":0,"extra":{},"polyglot":[],"category":"0","audit":0,"is_ugc":0,"text_need":0,"picture_need":0,"video_need":2,"type":"templateapi"},{"id":"1016324","ufid":"15945267","name":"\u5b64\u72ec\u7684\u9cb8\u9c7c","file":"http:\/\/rdfile.oss-cn-hangzhou.aliyuncs.com\/filemanage\/e069b36c568d909f\/templateapi\/16669426283286\/file.zip?nonce=cfcd208495d565ef66e7dff9f98764da","cover":"http:\/\/rdfile.oss-cn-hangzhou.aliyuncs.com\/filemanage\/e069b36c568d909f\/templateapi\/16669426283286\/cover.webp?nonce=cfcd208495d565ef66e7dff9f98764da","updatetime":"0","height":1747,"width":1004,"video":"http:\/\/rdfile.oss-cn-hangzhou.aliyuncs.com\/filemanage\/e069b36c568d909f\/templateapi\/16669426283286\/video.mp4?nonce=cfcd208495d565ef66e7dff9f98764da","sort":0,"version":154,"cover2":"","appkey":"6ecb39f1c12f1a35","duration":0,"extra":{},"polyglot":[],"category":"0","audit":0,"is_ugc":0,"text_need":0,"picture_need":0,"video_need":2,"type":"templateapi"}]}}