{"code":0,"msg":"success","data":{"total":17,"per_page":10,"current_page":1,"last_page":2,"data":[{"id":"1016665","ufid":"71939716","name":"Nobody \u821e\u8e48","file":"http:\/\/rdfile.oss-cn-hangzhou.aliyuncs.com\/filemanage\/e069b36c568d909f\/templateapi\/16699719784788\/file.zip?nonce=cfcd208495d565ef66e7dff9f98764da","cover":"http:\/\/rdfile.oss-cn-hangzhou.aliyuncs.com\/filemanage\/e069b36c568d909f\/templateapi\/16699719784788\/cover.webp?nonce=cfcd208495d565ef66e7dff9f98764da","updatetime":"0","height":1920,"width":1080,"video":"http:\/\/rdfile.oss-cn-hangzhou.aliyuncs.com\/filemanage\/e069b36c568d909f\/templateapi\/16699719784788\/video.mp4?nonce=cfcd208495d565ef66e7dff9f98764da","sort":0,"version":156,"cover2":"","appkey":"6ecb39f1c12f1a35","duration":0,"extra":{},"polyglot":[],"category":"0","audit":0,"is_ugc":0,"text_need":0,"picture_need":0,"video_need":1,"type":"templateapi"},{"id":"1016628","ufid":"31552931","name":"Loveit\u821e\u8e48","file":"http:\/\/rdfile.oss-cn-hangzhou.aliyuncs.com\/filemanage\/e069b36c568d909f\/templateapi\/16698751775073\/file.zip?nonce=cfcd208495d565ef66e7dff9f98764da","cover":"http:\/\/rdfile.oss-cn-hangzhou.aliyuncs.com\/filemanage\/e069b36c568d909f\/templateapi\/16698751775073\/cover.webp?nonce=cfcd208495d565ef66e7dff9f98764da","updatetime":"0","height":1920,"width":1080,"video":"http:\/\/rdfile.oss-cn-hangzhou.aliyuncs.com\/filemanage\/e069b36c568d909f\/templateapi\/16698751775073\/video.mp4?nonce=cfcd208495d565ef66e7dff9f98764da","sort":0,"version":156,"cover2":"","appkey":"6ecb39f1c12f1a35","duration":0,"extra":{},"polyglot":[],"category":"0","audit":0,"is_ugc":0,"text_need":0,"picture_need":0,"video_need":1,"type":"templateapi"},{"id":"1016589","ufid":"83481027","name":"GiGi \u821e\u8e48","file":"http:\/\/rdfile.oss-cn-hangzhou.aliyuncs.com\/filemanage\/e069b36c568d909f\/templateapi\/16696939534452\/file.zip?nonce=cfcd208495d565ef66e7dff9f98764da","cover":"http:\/\/rdfile.oss-cn-hangzhou.aliyuncs.com\/filemanage\/e069b36c568d909f\/templateapi\/16696939534452\/cover.webp?nonce=cfcd208495d565ef66e7dff9f98764da","updatetime":"0","height":1224,"width":689,"video":"http:\/\/rdfile.oss-cn-hangzhou.aliyuncs.com\/filemanage\/e069b36c568d909f\/templateapi\/16696939534452\/video.mp4?nonce=cfcd208495d565ef66e7dff9f98764da","sort":0,"version":156,"cover2":"","appkey":"6ecb39f1c12f1a35","duration":0,"extra":{},"polyglot":[],"category":"0","audit":0,"is_ugc":0,"text_need":0,"picture_need":0,"video_need":1,"type":"templateapi"},{"id":"1016527","ufid":"63480895","name":"\u6885\u5c3c\u8036  \u821e\u8e48\u53d8\u88c5","file":"http:\/\/rdfile.oss-cn-hangzhou.aliyuncs.com\/filemanage\/e069b36c568d909f\/templateapi\/16691102713810\/file.zip?nonce=cfcd208495d565ef66e7dff9f98764da","cover":"http:\/\/rdfile.oss-cn-hangzhou.aliyuncs.com\/filemanage\/e069b36c568d909f\/templateapi\/16691102713810\/cover.webp?nonce=cfcd208495d565ef66e7dff9f98764da","updatetime":"0","height":1224,"width":689,"video":"http:\/\/rdfile.oss-cn-hangzhou.aliyuncs.com\/filemanage\/e069b36c568d909f\/templateapi\/16691102713810\/video.mp4?nonce=cfcd208495d565ef66e7dff9f98764da","sort":0,"version":154,"cover2":"","appkey":"6ecb39f1c12f1a35","duration":0,"extra":{},"polyglot":[],"category":"0","audit":0,"is_ugc":0,"text_need":0,"picture_need":0,"video_need":2,"type":"templateapi"},{"id":"1016491","ufid":"72082250","name":"\u97e9\u8bed\u70ed\u6b4c\u7b80\u6613\u821e\u8e48","file":"http:\/\/rdfile.oss-cn-hangzhou.aliyuncs.com\/filemanage\/e069b36c568d909f\/templateapi\/16686804575530\/file.zip?nonce=cfcd208495d565ef66e7dff9f98764da","cover":"http:\/\/rdfile.oss-cn-hangzhou.aliyuncs.com\/filemanage\/e069b36c568d909f\/templateapi\/16686804575530\/cover.webp?nonce=cfcd208495d565ef66e7dff9f98764da","updatetime":"0","height":1225,"width":689,"video":"http:\/\/rdfile.oss-cn-hangzhou.aliyuncs.com\/filemanage\/e069b36c568d909f\/templateapi\/16686804575530\/video.mp4?nonce=cfcd208495d565ef66e7dff9f98764da","sort":0,"version":154,"cover2":"","appkey":"6ecb39f1c12f1a35","duration":0,"extra":{},"polyglot":[],"category":"0","audit":0,"is_ugc":0,"text_need":0,"picture_need":0,"video_need":1,"type":"templateapi"},{"id":"1016475","ufid":"71633968","name":"\u821e\u8e48\u53d8\u88c52","file":"http:\/\/rdfile.oss-cn-hangzhou.aliyuncs.com\/filemanage\/e069b36c568d909f\/templateapi\/16685792483245\/file.zip?nonce=cfcd208495d565ef66e7dff9f98764da","cover":"http:\/\/rdfile.oss-cn-hangzhou.aliyuncs.com\/filemanage\/e069b36c568d909f\/templateapi\/16685792483245\/cover.webp?nonce=cfcd208495d565ef66e7dff9f98764da","updatetime":"0","height":1224,"width":689,"video":"http:\/\/rdfile.oss-cn-hangzhou.aliyuncs.com\/filemanage\/e069b36c568d909f\/templateapi\/16685792483245\/video.mp4?nonce=cfcd208495d565ef66e7dff9f98764da","sort":0,"version":154,"cover2":"","appkey":"6ecb39f1c12f1a35","duration":0,"extra":{},"polyglot":[],"category":"0","audit":0,"is_ugc":0,"text_need":0,"picture_need":0,"video_need":2,"type":"templateapi"},{"id":"1016471","ufid":"10535667","name":"\u821e\u8e48\u53d8\u88c5","file":"http:\/\/rdfile.oss-cn-hangzhou.aliyuncs.com\/filemanage\/e069b36c568d909f\/templateapi\/16685053305015\/file.zip?nonce=cfcd208495d565ef66e7dff9f98764da","cover":"http:\/\/rdfile.oss-cn-hangzhou.aliyuncs.com\/filemanage\/e069b36c568d909f\/templateapi\/16685053305015\/cover.webp?nonce=cfcd208495d565ef66e7dff9f98764da","updatetime":"0","height":1920,"width":1080,"video":"http:\/\/rdfile.oss-cn-hangzhou.aliyuncs.com\/filemanage\/e069b36c568d909f\/templateapi\/16685053305015\/video.mp4?nonce=cfcd208495d565ef66e7dff9f98764da","sort":0,"version":154,"cover2":"","appkey":"6ecb39f1c12f1a35","duration":0,"extra":{},"polyglot":[],"category":"0","audit":0,"is_ugc":0,"text_need":0,"picture_need":0,"video_need":2,"type":"templateapi"},{"id":"1016461","ufid":"96427082","name":"yummy \u821e\u8e48","file":"http:\/\/rdfile.oss-cn-hangzhou.aliyuncs.com\/filemanage\/e069b36c568d909f\/templateapi\/16684848066191\/file.zip?nonce=cfcd208495d565ef66e7dff9f98764da","cover":"http:\/\/rdfile.oss-cn-hangzhou.aliyuncs.com\/filemanage\/e069b36c568d909f\/templateapi\/16684848066191\/cover.webp?nonce=cfcd208495d565ef66e7dff9f98764da","updatetime":"0","height":1225,"width":689,"video":"http:\/\/rdfile.oss-cn-hangzhou.aliyuncs.com\/filemanage\/e069b36c568d909f\/templateapi\/16684848066191\/video.mp4?nonce=cfcd208495d565ef66e7dff9f98764da","sort":0,"version":154,"cover2":"","appkey":"6ecb39f1c12f1a35","duration":0,"extra":{},"polyglot":[],"category":"0","audit":0,"is_ugc":0,"text_need":0,"picture_need":0,"video_need":1,"type":"templateapi"},{"id":"1016457","ufid":"23261529","name":"\u5fae\u98ce\u6084\u6084 \u624b\u52bf\u821e","file":"http:\/\/rdfile.oss-cn-hangzhou.aliyuncs.com\/filemanage\/e069b36c568d909f\/templateapi\/16684178804726\/file.zip?nonce=cfcd208495d565ef66e7dff9f98764da","cover":"http:\/\/rdfile.oss-cn-hangzhou.aliyuncs.com\/filemanage\/e069b36c568d909f\/templateapi\/16684178804726\/cover.webp?nonce=cfcd208495d565ef66e7dff9f98764da","updatetime":"0","height":1225,"width":689,"video":"http:\/\/rdfile.oss-cn-hangzhou.aliyuncs.com\/filemanage\/e069b36c568d909f\/templateapi\/16684178804726\/video.mp4?nonce=cfcd208495d565ef66e7dff9f98764da","sort":0,"version":154,"cover2":"","appkey":"6ecb39f1c12f1a35","duration":0,"extra":{},"polyglot":[],"category":"0","audit":0,"is_ugc":0,"text_need":0,"picture_need":0,"video_need":1,"type":"templateapi"},{"id":"1016418","ufid":"62902498","name":"\u5929\u4f7f\u624b\u52bf\u821e","file":"http:\/\/rdfile.oss-cn-hangzhou.aliyuncs.com\/filemanage\/e069b36c568d909f\/templateapi\/16683948384682\/file.zip?nonce=cfcd208495d565ef66e7dff9f98764da","cover":"http:\/\/rdfile.oss-cn-hangzhou.aliyuncs.com\/filemanage\/e069b36c568d909f\/templateapi\/16683948384682\/cover.webp?nonce=cfcd208495d565ef66e7dff9f98764da","updatetime":"0","height":1920,"width":1080,"video":"http:\/\/rdfile.oss-cn-hangzhou.aliyuncs.com\/filemanage\/e069b36c568d909f\/templateapi\/16683948384682\/video.mp4?nonce=cfcd208495d565ef66e7dff9f98764da","sort":0,"version":154,"cover2":"","appkey":"6ecb39f1c12f1a35","duration":0,"extra":{},"polyglot":[],"category":"0","audit":0,"is_ugc":0,"text_need":0,"picture_need":0,"video_need":1,"type":"templateapi"}]}}