{"code":0,"msg":"success","data":{"total":56,"per_page":10,"current_page":1,"last_page":6,"data":[{"id":"1020807","ufid":"9f2b8b8f-5871-46ec-ab39-3302e75024d2","name":"\u6625\u9192 \u4e07\u7269\u751f","file":"http:\/\/rdfile.oss-cn-hangzhou.aliyuncs.com\/filemanage\/6ecb39f1c12f1a35\/templateapi\/9f2b8b8f-5871-46ec-ab39-3302e75024d2\/file.zip?nonce=ec005eb853d2a42d6f783e0b6c03c3d3","cover":"http:\/\/rdfile.oss-cn-hangzhou.aliyuncs.com\/filemanage\/6ecb39f1c12f1a35\/templateapi\/9f2b8b8f-5871-46ec-ab39-3302e75024d2\/cover.webp?nonce=ec005eb853d2a42d6f783e0b6c03c3d3","updatetime":"1694422876","height":1060,"width":596,"video":"http:\/\/rdfile.oss-cn-hangzhou.aliyuncs.com\/filemanage\/6ecb39f1c12f1a35\/templateapi\/9f2b8b8f-5871-46ec-ab39-3302e75024d2\/video.mp4?nonce=ec005eb853d2a42d6f783e0b6c03c3d3","sort":0,"version":162,"cover2":"","appkey":"init","duration":0,"extra":{},"polyglot":[],"category":"0","audit":0,"is_ugc":0,"text_need":0,"picture_need":0,"video_need":4,"type":"templateapi"},{"id":"1020697","ufid":"18363898","name":"\u5987\u5973\u8282\u8f93\u5165\u6846","file":"http:\/\/rdfile.oss-cn-hangzhou.aliyuncs.com\/filemanage\/e069b36c568d909f\/templateapi\/16782394472900\/file.zip?nonce=cfcd208495d565ef66e7dff9f98764da","cover":"http:\/\/rdfile.oss-cn-hangzhou.aliyuncs.com\/filemanage\/e069b36c568d909f\/templateapi\/16782394472900\/cover.webp?nonce=cfcd208495d565ef66e7dff9f98764da","updatetime":"0","height":1059,"width":794,"video":"http:\/\/rdfile.oss-cn-hangzhou.aliyuncs.com\/filemanage\/e069b36c568d909f\/templateapi\/16782394472900\/video.mp4?nonce=cfcd208495d565ef66e7dff9f98764da","sort":0,"version":161,"cover2":"","appkey":"init","duration":0,"extra":{},"polyglot":[],"category":"0","audit":0,"is_ugc":0,"text_need":0,"picture_need":0,"video_need":1,"type":"templateapi"},{"id":"1020505","ufid":"33130836","name":"\u60c5\u4eba\u8282\u5e78\u8fd0\u5927\u62bd\u5956","file":"http:\/\/rdfile.oss-cn-hangzhou.aliyuncs.com\/filemanage\/e069b36c568d909f\/templateapi\/16763642533274\/file.zip?nonce=cfcd208495d565ef66e7dff9f98764da","cover":"http:\/\/rdfile.oss-cn-hangzhou.aliyuncs.com\/filemanage\/e069b36c568d909f\/templateapi\/16763642533274\/cover.webp?nonce=cfcd208495d565ef66e7dff9f98764da","updatetime":"0","height":1058,"width":832,"video":"http:\/\/rdfile.oss-cn-hangzhou.aliyuncs.com\/filemanage\/e069b36c568d909f\/templateapi\/16763642533274\/video.mp4?nonce=cfcd208495d565ef66e7dff9f98764da","sort":0,"version":159,"cover2":"","appkey":"init","duration":0,"extra":{},"polyglot":[],"category":"0","audit":0,"is_ugc":0,"text_need":3,"picture_need":0,"video_need":1,"type":"templateapi"},{"id":"1020498","ufid":"43725607","name":"\u7231\u7684\u6545\u4e8b","file":"http:\/\/rdfile.oss-cn-hangzhou.aliyuncs.com\/filemanage\/e069b36c568d909f\/templateapi\/16762756685679\/file.zip?nonce=cfcd208495d565ef66e7dff9f98764da","cover":"http:\/\/rdfile.oss-cn-hangzhou.aliyuncs.com\/filemanage\/e069b36c568d909f\/templateapi\/16762756685679\/cover.webp?nonce=cfcd208495d565ef66e7dff9f98764da","updatetime":"0","height":1060,"width":596,"video":"http:\/\/rdfile.oss-cn-hangzhou.aliyuncs.com\/filemanage\/e069b36c568d909f\/templateapi\/16762756685679\/video.mp4?nonce=cfcd208495d565ef66e7dff9f98764da","sort":0,"version":159,"cover2":"","appkey":"init","duration":0,"extra":{},"polyglot":[],"category":"0","audit":0,"is_ugc":0,"text_need":0,"picture_need":0,"video_need":4,"type":"templateapi"},{"id":"1020299","ufid":"24601062","name":"\u6b22\u559c\u8fc7\u5e74","file":"http:\/\/rdfile.oss-cn-hangzhou.aliyuncs.com\/filemanage\/e069b36c568d909f\/templateapi\/16725337816967\/file.zip?nonce=cfcd208495d565ef66e7dff9f98764da","cover":"http:\/\/rdfile.oss-cn-hangzhou.aliyuncs.com\/filemanage\/e069b36c568d909f\/templateapi\/16725337816967\/cover.webp?nonce=cfcd208495d565ef66e7dff9f98764da","updatetime":"0","height":1556,"width":720,"video":"http:\/\/rdfile.oss-cn-hangzhou.aliyuncs.com\/filemanage\/e069b36c568d909f\/templateapi\/16725337816967\/video.mp4?nonce=cfcd208495d565ef66e7dff9f98764da","sort":0,"version":158,"cover2":"","appkey":"init","duration":0,"extra":{},"polyglot":[],"category":"0","audit":0,"is_ugc":0,"text_need":0,"picture_need":0,"video_need":1,"type":"templateapi"},{"id":"1020297","ufid":"33387118","name":"\u65b0\u5e74\u5feb\u4e502023","file":"http:\/\/rdfile.oss-cn-hangzhou.aliyuncs.com\/filemanage\/e069b36c568d909f\/templateapi\/16724745285377\/file.zip?nonce=cfcd208495d565ef66e7dff9f98764da","cover":"http:\/\/rdfile.oss-cn-hangzhou.aliyuncs.com\/filemanage\/e069b36c568d909f\/templateapi\/16724745285377\/cover.webp?nonce=cfcd208495d565ef66e7dff9f98764da","updatetime":"0","height":1280,"width":720,"video":"http:\/\/rdfile.oss-cn-hangzhou.aliyuncs.com\/filemanage\/e069b36c568d909f\/templateapi\/16724745285377\/video.mp4?nonce=cfcd208495d565ef66e7dff9f98764da","sort":0,"version":158,"cover2":"","appkey":"init","duration":0,"extra":{},"polyglot":[],"category":"0","audit":0,"is_ugc":0,"text_need":0,"picture_need":0,"video_need":1,"type":"templateapi"},{"id":"1019410","ufid":"68563193","name":"\u670b\u53cb\u5708\u9001\u82f9\u679c","file":"http:\/\/rdfile.oss-cn-hangzhou.aliyuncs.com\/filemanage\/e069b36c568d909f\/templateapi\/16717784176090\/file.zip?nonce=e14906b2b7387f37ea056717caf4bda7","cover":"http:\/\/rdfile.oss-cn-hangzhou.aliyuncs.com\/filemanage\/e069b36c568d909f\/templateapi\/16717784176090\/cover.webp?nonce=e14906b2b7387f37ea056717caf4bda7","updatetime":"1684894833","height":1060,"width":596,"video":"http:\/\/rdfile.oss-cn-hangzhou.aliyuncs.com\/filemanage\/e069b36c568d909f\/templateapi\/16717784176090\/video.mp4?nonce=e14906b2b7387f37ea056717caf4bda7","sort":0,"version":158,"cover2":"","appkey":"init","duration":0,"extra":{},"polyglot":[],"category":"0","audit":0,"is_ugc":0,"text_need":3,"picture_need":2,"video_need":0,"type":"templateapi"},{"id":"1019403","ufid":"98275037","name":"\u51ac\u81f3","file":"http:\/\/rdfile.oss-cn-hangzhou.aliyuncs.com\/filemanage\/e069b36c568d909f\/templateapi\/16716805076769\/file.zip?nonce=3dce447006335a57a6849afe5b4c83aa","cover":"http:\/\/rdfile.oss-cn-hangzhou.aliyuncs.com\/filemanage\/e069b36c568d909f\/templateapi\/16716805076769\/cover.webp?nonce=3dce447006335a57a6849afe5b4c83aa","updatetime":"1684893257","height":1058,"width":595,"video":"http:\/\/rdfile.oss-cn-hangzhou.aliyuncs.com\/filemanage\/e069b36c568d909f\/templateapi\/16716805076769\/video.mp4?nonce=3dce447006335a57a6849afe5b4c83aa","sort":0,"version":158,"cover2":"","appkey":"init","duration":0,"extra":{},"polyglot":[],"category":"0","audit":0,"is_ugc":0,"text_need":0,"picture_need":0,"video_need":2,"type":"templateapi"},{"id":"1016583","ufid":"61962998","name":"2022\u5361\u5854\u5c14\u4e16\u754c\u676f\u9884\u544a","file":"http:\/\/rdfile.oss-cn-hangzhou.aliyuncs.com\/filemanage\/e069b36c568d909f\/templateapi\/16696277767363\/file.zip?nonce=cfcd208495d565ef66e7dff9f98764da","cover":"http:\/\/rdfile.oss-cn-hangzhou.aliyuncs.com\/filemanage\/e069b36c568d909f\/templateapi\/16696277767363\/cover.webp?nonce=cfcd208495d565ef66e7dff9f98764da","updatetime":"0","height":607,"width":1080,"video":"http:\/\/rdfile.oss-cn-hangzhou.aliyuncs.com\/filemanage\/e069b36c568d909f\/templateapi\/16696277767363\/video.mp4?nonce=cfcd208495d565ef66e7dff9f98764da","sort":0,"version":155,"cover2":"","appkey":"init","duration":0,"extra":{},"polyglot":[],"category":"0","audit":0,"is_ugc":0,"text_need":2,"picture_need":2,"video_need":0,"type":"templateapi"},{"id":"1016569","ufid":"57858410","name":"\u559c\u5e16","file":"http:\/\/rdfile.oss-cn-hangzhou.aliyuncs.com\/filemanage\/e069b36c568d909f\/templateapi\/16693680638790\/file.zip?nonce=4eff70ab68527a354c67d2787f0475ae","cover":"http:\/\/rdfile.oss-cn-hangzhou.aliyuncs.com\/filemanage\/e069b36c568d909f\/templateapi\/16693680638790\/cover.webp?nonce=4eff70ab68527a354c67d2787f0475ae","updatetime":"1684897939","height":1059,"width":794,"video":"http:\/\/rdfile.oss-cn-hangzhou.aliyuncs.com\/filemanage\/e069b36c568d909f\/templateapi\/16693680638790\/video.mp4?nonce=4eff70ab68527a354c67d2787f0475ae","sort":0,"version":155,"cover2":"","appkey":"init","duration":0,"extra":{},"polyglot":[],"category":"0","audit":0,"is_ugc":0,"text_need":5,"picture_need":2,"video_need":0,"type":"templateapi"}]}}