{"code":0,"msg":"success","data":{"total":22,"per_page":10,"current_page":1,"last_page":3,"data":[{"id":"1020818","ufid":"0849ddd4-8009-47be-809f-dd59b807a830","name":"\u8bb0\u5f55\u751f\u6d3b\u5206\u4eab\u559c\u4e50","file":"http:\/\/rdfile.oss-cn-hangzhou.aliyuncs.com\/filemanage\/6ecb39f1c12f1a35\/templateapi\/0849ddd4-8009-47be-809f-dd59b807a830\/file.zip?nonce=3c93cc489cd65532dd1ccfb7dde1e9c2","cover":"http:\/\/rdfile.oss-cn-hangzhou.aliyuncs.com\/filemanage\/6ecb39f1c12f1a35\/templateapi\/0849ddd4-8009-47be-809f-dd59b807a830\/cover.webp?nonce=3c93cc489cd65532dd1ccfb7dde1e9c2","updatetime":"1694422885","height":1259,"width":943,"video":"http:\/\/rdfile.oss-cn-hangzhou.aliyuncs.com\/filemanage\/6ecb39f1c12f1a35\/templateapi\/0849ddd4-8009-47be-809f-dd59b807a830\/video.mp4?nonce=3c93cc489cd65532dd1ccfb7dde1e9c2","sort":0,"version":162,"cover2":"","appkey":"init","duration":0,"extra":{},"polyglot":[],"category":"0","audit":0,"is_ugc":0,"text_need":4,"picture_need":0,"video_need":1,"type":"templateapi"},{"id":"1020713","ufid":"64787127","name":"\u6625\u65e5\u788e\u7247","file":"http:\/\/rdfile.oss-cn-hangzhou.aliyuncs.com\/filemanage\/e069b36c568d909f\/templateapi\/16786934027114\/file.zip?nonce=8ad93f0d03a2499931efebfa1ea845be","cover":"http:\/\/rdfile.oss-cn-hangzhou.aliyuncs.com\/filemanage\/e069b36c568d909f\/templateapi\/16786934027114\/cover.webp?nonce=8ad93f0d03a2499931efebfa1ea845be","updatetime":"1684914866","height":1746,"width":982,"video":"http:\/\/rdfile.oss-cn-hangzhou.aliyuncs.com\/filemanage\/e069b36c568d909f\/templateapi\/16786934027114\/video.mp4?nonce=8ad93f0d03a2499931efebfa1ea845be","sort":0,"version":161,"cover2":"","appkey":"init","duration":0,"extra":{},"polyglot":[],"category":"0","audit":0,"is_ugc":0,"text_need":4,"picture_need":0,"video_need":18,"type":"templateapi"},{"id":"1020288","ufid":"37763500","name":"\u6211\u76842022","file":"http:\/\/rdfile.oss-cn-hangzhou.aliyuncs.com\/filemanage\/e069b36c568d909f\/templateapi\/16723842143870\/file.zip?nonce=249c0f44f85e81cd9a568869f08bf025","cover":"http:\/\/rdfile.oss-cn-hangzhou.aliyuncs.com\/filemanage\/e069b36c568d909f\/templateapi\/16723842143870\/cover.webp?nonce=249c0f44f85e81cd9a568869f08bf025","updatetime":"1684914859","height":608,"width":1080,"video":"http:\/\/rdfile.oss-cn-hangzhou.aliyuncs.com\/filemanage\/e069b36c568d909f\/templateapi\/16723842143870\/video.mp4?nonce=249c0f44f85e81cd9a568869f08bf025","sort":0,"version":158,"cover2":"","appkey":"init","duration":0,"extra":{},"polyglot":[],"category":"0","audit":0,"is_ugc":0,"text_need":0,"picture_need":1,"video_need":12,"type":"templateapi"},{"id":"1016675","ufid":"39520664","name":"2022\u5e74\u5ea6\u603b\u7ed3","file":"http:\/\/rdfile.oss-cn-hangzhou.aliyuncs.com\/filemanage\/e069b36c568d909f\/templateapi\/16702347837748\/file.zip?nonce=ffd64278f44f800edf50a2b915b24a70","cover":"http:\/\/rdfile.oss-cn-hangzhou.aliyuncs.com\/filemanage\/e069b36c568d909f\/templateapi\/16702347837748\/cover.webp?nonce=ffd64278f44f800edf50a2b915b24a70","updatetime":"1684914872","height":1080,"width":1920,"video":"http:\/\/rdfile.oss-cn-hangzhou.aliyuncs.com\/filemanage\/e069b36c568d909f\/templateapi\/16702347837748\/video.mp4?nonce=ffd64278f44f800edf50a2b915b24a70","sort":0,"version":156,"cover2":"","appkey":"init","duration":0,"extra":{},"polyglot":[],"category":"0","audit":0,"is_ugc":0,"text_need":0,"picture_need":0,"video_need":17,"type":"templateapi"},{"id":"1016666","ufid":"56427868","name":"\u5199\u7ed9\u751f\u6d3b\u7cfb\u4e00\u5c01\u4fe1","file":"http:\/\/rdfile.oss-cn-hangzhou.aliyuncs.com\/filemanage\/e069b36c568d909f\/templateapi\/16699736736823\/file.zip?nonce=e4eba7c03d917e2ce5d7c72a49204de1","cover":"http:\/\/rdfile.oss-cn-hangzhou.aliyuncs.com\/filemanage\/e069b36c568d909f\/templateapi\/16699736736823\/cover.webp?nonce=e4eba7c03d917e2ce5d7c72a49204de1","updatetime":"1684914877","height":608,"width":1080,"video":"http:\/\/rdfile.oss-cn-hangzhou.aliyuncs.com\/filemanage\/e069b36c568d909f\/templateapi\/16699736736823\/video.mp4?nonce=e4eba7c03d917e2ce5d7c72a49204de1","sort":0,"version":155,"cover2":"","appkey":"init","duration":0,"extra":{},"polyglot":[],"category":"0","audit":0,"is_ugc":0,"text_need":3,"picture_need":0,"video_need":5,"type":"templateapi"},{"id":"1016595","ufid":"69351008","name":"\u89c6\u9891\u8fdb\u5ea6\u6761","file":"http:\/\/rdfile.oss-cn-hangzhou.aliyuncs.com\/filemanage\/e069b36c568d909f\/templateapi\/16697204054621\/file.zip?nonce=1567f1c762a30fc6e1d956d13c74f114","cover":"http:\/\/rdfile.oss-cn-hangzhou.aliyuncs.com\/filemanage\/e069b36c568d909f\/templateapi\/16697204054621\/cover.webp?nonce=1567f1c762a30fc6e1d956d13c74f114","updatetime":"1684914888","height":607,"width":1080,"video":"http:\/\/rdfile.oss-cn-hangzhou.aliyuncs.com\/filemanage\/e069b36c568d909f\/templateapi\/16697204054621\/video.mp4?nonce=1567f1c762a30fc6e1d956d13c74f114","sort":0,"version":155,"cover2":"","appkey":"init","duration":0,"extra":{},"polyglot":[],"category":"0","audit":0,"is_ugc":0,"text_need":5,"picture_need":0,"video_need":1,"type":"templateapi"},{"id":"1015993","ufid":"34182248","name":"\u91d1\u79cb\u4e5d\u6708","file":"http:\/\/rdfile.oss-cn-hangzhou.aliyuncs.com\/filemanage\/e069b36c568d909f\/templateapi\/16623718148571\/file.zip?nonce=896ebbad577fa164446124c4f7d7340c","cover":"http:\/\/rdfile.oss-cn-hangzhou.aliyuncs.com\/filemanage\/e069b36c568d909f\/templateapi\/16623718148571\/cover.webp?nonce=896ebbad577fa164446124c4f7d7340c","updatetime":"1684915185","height":1060,"width":596,"video":"http:\/\/rdfile.oss-cn-hangzhou.aliyuncs.com\/filemanage\/e069b36c568d909f\/templateapi\/16623718148571\/video.mp4?nonce=896ebbad577fa164446124c4f7d7340c","sort":0,"version":153,"cover2":"","appkey":"init","duration":0,"extra":{},"polyglot":[],"category":"0","audit":0,"is_ugc":0,"text_need":2,"picture_need":0,"video_need":2,"type":"templateapi"},{"id":"1015548","ufid":"34244045","name":"\u516d\u6708\u518d\u89c1\uff0c\u4e03\u6708\u4f60\u597d","file":"http:\/\/rdfile.oss-cn-hangzhou.aliyuncs.com\/filemanage\/e069b36c568d909f\/templateapi\/16565870651560\/file.zip?nonce=760bf180da0624ca81762e52769e1bab","cover":"http:\/\/rdfile.oss-cn-hangzhou.aliyuncs.com\/filemanage\/e069b36c568d909f\/templateapi\/16565870651560\/cover.webp?nonce=760bf180da0624ca81762e52769e1bab","updatetime":"1684914897","height":1280,"width":720,"video":"http:\/\/rdfile.oss-cn-hangzhou.aliyuncs.com\/filemanage\/e069b36c568d909f\/templateapi\/16565870651560\/video.mp4?nonce=760bf180da0624ca81762e52769e1bab","sort":0,"version":153,"cover2":"","appkey":"init","duration":0,"extra":{},"polyglot":[],"category":"0","audit":0,"is_ugc":0,"text_need":0,"picture_need":0,"video_need":3,"type":"templateapi"},{"id":"1014867","ufid":"62902427","name":"\u8bb0\u5f55\u751f\u6d3b\u788e\u7247","file":"http:\/\/rdfile.oss-cn-hangzhou.aliyuncs.com\/filemanage\/e069b36c568d909f\/templateapi\/16504505903377\/file.zip?nonce=931eee0eaaf07fd7867f2a385e32993b","cover":"http:\/\/rdfile.oss-cn-hangzhou.aliyuncs.com\/filemanage\/e069b36c568d909f\/templateapi\/16504505903377\/cover.png?nonce=931eee0eaaf07fd7867f2a385e32993b&x-oss-process=style\/templateapi","updatetime":"1684914903","height":1170,"width":720,"video":"http:\/\/rdfile.oss-cn-hangzhou.aliyuncs.com\/filemanage\/e069b36c568d909f\/templateapi\/16504505903377\/video.mp4?nonce=931eee0eaaf07fd7867f2a385e32993b","sort":0,"version":152,"cover2":"","appkey":"init","duration":0,"extra":{},"polyglot":[],"category":"0","audit":0,"is_ugc":0,"text_need":0,"picture_need":0,"video_need":7,"type":"templateapi"},{"id":"1014805","ufid":"62541391","name":"\u6eda\u52a8\u76f8\u518c","file":"http:\/\/rdfile.oss-cn-hangzhou.aliyuncs.com\/filemanage\/e069b36c568d909f\/templateapi\/16499236912686\/file.zip?nonce=b753668c7f9e6b9381d21e0cd4740e68","cover":"http:\/\/rdfile.oss-cn-hangzhou.aliyuncs.com\/filemanage\/e069b36c568d909f\/templateapi\/16499236912686\/cover.png?nonce=b753668c7f9e6b9381d21e0cd4740e68&x-oss-process=style\/templateapi","updatetime":"1684914910","height":720,"width":1280,"video":"http:\/\/rdfile.oss-cn-hangzhou.aliyuncs.com\/filemanage\/e069b36c568d909f\/templateapi\/16499236912686\/video.mp4?nonce=b753668c7f9e6b9381d21e0cd4740e68","sort":0,"version":152,"cover2":"","appkey":"init","duration":0,"extra":{},"polyglot":[],"category":"0","audit":0,"is_ugc":0,"text_need":0,"picture_need":0,"video_need":9,"type":"templateapi"}]}}