{"code":0,"msg":"success","data":{"total":636,"per_page":10,"current_page":1,"last_page":64,"data":[{"id":"1021215","ufid":"097c6dac-919c-4185-abd9-be6210324f4e","name":"\u611f\u6069\u6bcd\u4eb2 \u4e3a\u7231\u653e\u4ef7","file":"http:\/\/rdfile.oss-cn-hangzhou.aliyuncs.com\/filemanage\/6ecb39f1c12f1a35\/templateapi\/097c6dac-919c-4185-abd9-be6210324f4e\/file.zip?nonce=99aa1b408fb7878862bf28cd6ec087aa","cover":"http:\/\/rdfile.oss-cn-hangzhou.aliyuncs.com\/filemanage\/6ecb39f1c12f1a35\/templateapi\/097c6dac-919c-4185-abd9-be6210324f4e\/cover.webp?nonce=99aa1b408fb7878862bf28cd6ec087aa","updatetime":"1704186659","height":1060,"width":597,"video":"http:\/\/rdfile.oss-cn-hangzhou.aliyuncs.com\/filemanage\/6ecb39f1c12f1a35\/templateapi\/097c6dac-919c-4185-abd9-be6210324f4e\/video.mp4?nonce=99aa1b408fb7878862bf28cd6ec087aa","sort":0,"version":162,"cover2":"","appkey":"6ecb39f1c12f1a35","duration":0,"extra":{},"polyglot":{"en":"Thank you mother for putting a price on love"},"category":"0","audit":0,"is_ugc":0,"text_need":13,"picture_need":7,"video_need":0,"type":"templateapi"},{"id":"1021208","ufid":"bfd5d2e3-5955-488a-8f65-cbc463532d48","name":"\u6bcd\u4eb2\u8282\u7684\u4e00\u5c01\u4fe1","file":"http:\/\/rdfile.oss-cn-hangzhou.aliyuncs.com\/filemanage\/6ecb39f1c12f1a35\/templateapi\/bfd5d2e3-5955-488a-8f65-cbc463532d48\/file.zip?nonce=99aa1b408fb7878862bf28cd6ec087aa","cover":"http:\/\/rdfile.oss-cn-hangzhou.aliyuncs.com\/filemanage\/6ecb39f1c12f1a35\/templateapi\/bfd5d2e3-5955-488a-8f65-cbc463532d48\/cover.webp?nonce=99aa1b408fb7878862bf28cd6ec087aa","updatetime":"1704186659","height":607,"width":1080,"video":"http:\/\/rdfile.oss-cn-hangzhou.aliyuncs.com\/filemanage\/6ecb39f1c12f1a35\/templateapi\/bfd5d2e3-5955-488a-8f65-cbc463532d48\/video.mp4?nonce=99aa1b408fb7878862bf28cd6ec087aa","sort":0,"version":162,"cover2":"","appkey":"6ecb39f1c12f1a35","duration":0,"extra":{},"polyglot":{"en":"A letter for Mother"},"category":"0","audit":0,"is_ugc":0,"text_need":4,"picture_need":0,"video_need":0,"type":"templateapi"},{"id":"1020864","ufid":"89634ecc-79c1-4f25-ba1d-80f7e057b84d","name":"\u7acb\u590f","file":"http:\/\/rdfile.oss-cn-hangzhou.aliyuncs.com\/filemanage\/6ecb39f1c12f1a35\/templateapi\/89634ecc-79c1-4f25-ba1d-80f7e057b84d\/file.zip?nonce=b344a806e7f5e67b96b5a05a9d93913a","cover":"http:\/\/rdfile.oss-cn-hangzhou.aliyuncs.com\/filemanage\/6ecb39f1c12f1a35\/templateapi\/89634ecc-79c1-4f25-ba1d-80f7e057b84d\/cover.webp?nonce=b344a806e7f5e67b96b5a05a9d93913a","updatetime":"1704186652","height":1059,"width":794,"video":"http:\/\/rdfile.oss-cn-hangzhou.aliyuncs.com\/filemanage\/6ecb39f1c12f1a35\/templateapi\/89634ecc-79c1-4f25-ba1d-80f7e057b84d\/video.mp4?nonce=b344a806e7f5e67b96b5a05a9d93913a","sort":0,"version":162,"cover2":"","appkey":"6ecb39f1c12f1a35","duration":0,"extra":{},"polyglot":{"en":"Beginning of summer"},"category":"0","audit":0,"is_ugc":0,"text_need":1,"picture_need":2,"video_need":0,"type":"templateapi"},{"id":"1020860","ufid":"9b59b615-2960-4f98-8bb3-50f00f8967e8","name":"\u4e94\u56db\u9752\u5e74\u8282","file":"http:\/\/rdfile.oss-cn-hangzhou.aliyuncs.com\/filemanage\/6ecb39f1c12f1a35\/templateapi\/9b59b615-2960-4f98-8bb3-50f00f8967e8\/file.zip?nonce=a8e5e379b9f402e0ef50abb081dafd29","cover":"http:\/\/rdfile.oss-cn-hangzhou.aliyuncs.com\/filemanage\/6ecb39f1c12f1a35\/templateapi\/9b59b615-2960-4f98-8bb3-50f00f8967e8\/cover.webp?nonce=a8e5e379b9f402e0ef50abb081dafd29","updatetime":"1704186651","height":1060,"width":596,"video":"http:\/\/rdfile.oss-cn-hangzhou.aliyuncs.com\/filemanage\/6ecb39f1c12f1a35\/templateapi\/9b59b615-2960-4f98-8bb3-50f00f8967e8\/video.mp4?nonce=a8e5e379b9f402e0ef50abb081dafd29","sort":0,"version":162,"cover2":"","appkey":"6ecb39f1c12f1a35","duration":0,"extra":{},"polyglot":{"en":"Youth Day"},"category":"0","audit":0,"is_ugc":0,"text_need":6,"picture_need":0,"video_need":1,"type":"templateapi"},{"id":"1020852","ufid":"65088185-4d16-4922-ac0b-19138a7f404e","name":"\u52b3\u52a8\u6700\u5149\u8363","file":"http:\/\/rdfile.oss-cn-hangzhou.aliyuncs.com\/filemanage\/6ecb39f1c12f1a35\/templateapi\/65088185-4d16-4922-ac0b-19138a7f404e\/file.zip?nonce=bc5a5294eebd03fd0554a7bc83ba93c0","cover":"http:\/\/rdfile.oss-cn-hangzhou.aliyuncs.com\/filemanage\/6ecb39f1c12f1a35\/templateapi\/65088185-4d16-4922-ac0b-19138a7f404e\/cover.webp?nonce=bc5a5294eebd03fd0554a7bc83ba93c0","updatetime":"1704186650","height":1058,"width":595,"video":"http:\/\/rdfile.oss-cn-hangzhou.aliyuncs.com\/filemanage\/6ecb39f1c12f1a35\/templateapi\/65088185-4d16-4922-ac0b-19138a7f404e\/video.mp4?nonce=bc5a5294eebd03fd0554a7bc83ba93c0","sort":0,"version":162,"cover2":"","appkey":"6ecb39f1c12f1a35","duration":0,"extra":{},"polyglot":{"en":"Labour is the honour"},"category":"0","audit":0,"is_ugc":0,"text_need":7,"picture_need":0,"video_need":1,"type":"templateapi"},{"id":"1020851","ufid":"75983d04-f62c-45fa-b49b-61a57166ea30","name":"\u4e94\u4e00\u5047\u671f \u7247\u5934\u8f6c\u573a","file":"http:\/\/rdfile.oss-cn-hangzhou.aliyuncs.com\/filemanage\/6ecb39f1c12f1a35\/templateapi\/75983d04-f62c-45fa-b49b-61a57166ea30\/file.zip?nonce=bc5a5294eebd03fd0554a7bc83ba93c0","cover":"http:\/\/rdfile.oss-cn-hangzhou.aliyuncs.com\/filemanage\/6ecb39f1c12f1a35\/templateapi\/75983d04-f62c-45fa-b49b-61a57166ea30\/cover.webp?nonce=bc5a5294eebd03fd0554a7bc83ba93c0","updatetime":"1704186650","height":1060,"width":596,"video":"http:\/\/rdfile.oss-cn-hangzhou.aliyuncs.com\/filemanage\/6ecb39f1c12f1a35\/templateapi\/75983d04-f62c-45fa-b49b-61a57166ea30\/video.mp4?nonce=bc5a5294eebd03fd0554a7bc83ba93c0","sort":0,"version":162,"cover2":"","appkey":"6ecb39f1c12f1a35","duration":0,"extra":{},"polyglot":{"en":"May Day holiday opening scene"},"category":"0","audit":0,"is_ugc":0,"text_need":0,"picture_need":0,"video_need":1,"type":"templateapi"},{"id":"1020849","ufid":"14968f14-6824-44bb-b344-ea471c1e8fb4","name":"\u9ec4\u9ed1\u76aeHSL\u8c03\u8272\u6cd5","file":"http:\/\/rdfile.oss-cn-hangzhou.aliyuncs.com\/filemanage\/6ecb39f1c12f1a35\/templateapi\/14968f14-6824-44bb-b344-ea471c1e8fb4\/file.zip?nonce=bc5a5294eebd03fd0554a7bc83ba93c0","cover":"http:\/\/rdfile.oss-cn-hangzhou.aliyuncs.com\/filemanage\/6ecb39f1c12f1a35\/templateapi\/14968f14-6824-44bb-b344-ea471c1e8fb4\/cover.webp?nonce=bc5a5294eebd03fd0554a7bc83ba93c0","updatetime":"1704186650","height":608,"width":1080,"video":"http:\/\/rdfile.oss-cn-hangzhou.aliyuncs.com\/filemanage\/6ecb39f1c12f1a35\/templateapi\/14968f14-6824-44bb-b344-ea471c1e8fb4\/video.mp4?nonce=bc5a5294eebd03fd0554a7bc83ba93c0","sort":0,"version":162,"cover2":"","appkey":"6ecb39f1c12f1a35","duration":0,"extra":{},"polyglot":{"en":"Yellow and black leather HSL color matching method"},"category":"0","audit":0,"is_ugc":0,"text_need":0,"picture_need":0,"video_need":1,"type":"templateapi"},{"id":"1020818","ufid":"0849ddd4-8009-47be-809f-dd59b807a830","name":"\u8bb0\u5f55\u751f\u6d3b\u5206\u4eab\u559c\u4e50","file":"http:\/\/rdfile.oss-cn-hangzhou.aliyuncs.com\/filemanage\/6ecb39f1c12f1a35\/templateapi\/0849ddd4-8009-47be-809f-dd59b807a830\/file.zip?nonce=c775f5cb77e40328587cca4566b59fa6","cover":"http:\/\/rdfile.oss-cn-hangzhou.aliyuncs.com\/filemanage\/6ecb39f1c12f1a35\/templateapi\/0849ddd4-8009-47be-809f-dd59b807a830\/cover.webp?nonce=c775f5cb77e40328587cca4566b59fa6","updatetime":"1704186644","height":1259,"width":943,"video":"http:\/\/rdfile.oss-cn-hangzhou.aliyuncs.com\/filemanage\/6ecb39f1c12f1a35\/templateapi\/0849ddd4-8009-47be-809f-dd59b807a830\/video.mp4?nonce=c775f5cb77e40328587cca4566b59fa6","sort":0,"version":162,"cover2":"","appkey":"init","duration":0,"extra":{},"polyglot":{"en":"Record life and share joy"},"category":"0","audit":0,"is_ugc":0,"text_need":4,"picture_need":0,"video_need":1,"type":"templateapi"},{"id":"1020807","ufid":"9f2b8b8f-5871-46ec-ab39-3302e75024d2","name":"\u6625\u9192 \u4e07\u7269\u751f","file":"http:\/\/rdfile.oss-cn-hangzhou.aliyuncs.com\/filemanage\/6ecb39f1c12f1a35\/templateapi\/9f2b8b8f-5871-46ec-ab39-3302e75024d2\/file.zip?nonce=51e7fa621ed7eed3a7083ce3548677cb","cover":"http:\/\/rdfile.oss-cn-hangzhou.aliyuncs.com\/filemanage\/6ecb39f1c12f1a35\/templateapi\/9f2b8b8f-5871-46ec-ab39-3302e75024d2\/cover.webp?nonce=51e7fa621ed7eed3a7083ce3548677cb","updatetime":"1704186643","height":1060,"width":596,"video":"http:\/\/rdfile.oss-cn-hangzhou.aliyuncs.com\/filemanage\/6ecb39f1c12f1a35\/templateapi\/9f2b8b8f-5871-46ec-ab39-3302e75024d2\/video.mp4?nonce=51e7fa621ed7eed3a7083ce3548677cb","sort":0,"version":162,"cover2":"","appkey":"init","duration":0,"extra":{},"polyglot":{"en":"Spring wakes up and everything comes alive"},"category":"0","audit":0,"is_ugc":0,"text_need":0,"picture_need":0,"video_need":4,"type":"templateapi"},{"id":"1020736","ufid":"47473142","name":"\u592a\u7a7a\u6ed1\u6b65\u4e3e\u724c","file":"http:\/\/rdfile.oss-cn-hangzhou.aliyuncs.com\/filemanage\/e069b36c568d909f\/templateapi\/16787858457811\/file.zip?nonce=a688c77edba0ac1610265cb0c25b9cd8","cover":"http:\/\/rdfile.oss-cn-hangzhou.aliyuncs.com\/filemanage\/e069b36c568d909f\/templateapi\/16787858457811\/cover.webp?nonce=a688c77edba0ac1610265cb0c25b9cd8","updatetime":"1704186641","height":1280,"width":720,"video":"http:\/\/rdfile.oss-cn-hangzhou.aliyuncs.com\/filemanage\/e069b36c568d909f\/templateapi\/16787858457811\/video.mp4?nonce=a688c77edba0ac1610265cb0c25b9cd8","sort":0,"version":161,"cover2":"","appkey":"6ecb39f1c12f1a35","duration":0,"extra":{},"polyglot":{"en":"Space gliding sign"},"category":"0","audit":0,"is_ugc":0,"text_need":0,"picture_need":0,"video_need":0,"type":"templateapi"}]}}