{"code":0,"msg":"success","data":{"total":173,"per_page":10,"current_page":1,"last_page":18,"data":[{"id":"1015349","ufid":"84461164","name":"\u65cb\u8f6c\u6821\u5fbd","file":"http:\/\/rdfile.oss-cn-hangzhou.aliyuncs.com\/filemanage\/e069b36c568d909f\/templateapi\/16551896634480\/file.zip?nonce=ccacd3d523ff2f066b7a8976d29ff7c2","cover":"http:\/\/rdfile.oss-cn-hangzhou.aliyuncs.com\/filemanage\/e069b36c568d909f\/templateapi\/16551896634480\/cover.webp?nonce=ccacd3d523ff2f066b7a8976d29ff7c2","updatetime":"1704185879","height":1059,"width":706,"video":"http:\/\/rdfile.oss-cn-hangzhou.aliyuncs.com\/filemanage\/e069b36c568d909f\/templateapi\/16551896634480\/video.mp4?nonce=ccacd3d523ff2f066b7a8976d29ff7c2","sort":0,"version":153,"cover2":"","appkey":"init","duration":0,"extra":{},"polyglot":{"en":"Rotating school badge"},"category":"0","audit":0,"is_ugc":0,"text_need":0,"picture_need":0,"video_need":2,"type":"templateapi"},{"id":"1020724","ufid":"22167103","name":"\u4e0d\u8d1f\u65f6\u5149","file":"http:\/\/rdfile.oss-cn-hangzhou.aliyuncs.com\/filemanage\/e069b36c568d909f\/templateapi\/16787780065442\/file.zip?nonce=033a08448b44b89ad67ba4fe4e26828c","cover":"http:\/\/rdfile.oss-cn-hangzhou.aliyuncs.com\/filemanage\/e069b36c568d909f\/templateapi\/16787780065442\/cover.webp?nonce=033a08448b44b89ad67ba4fe4e26828c","updatetime":"1704186638","height":1280,"width":720,"video":"http:\/\/rdfile.oss-cn-hangzhou.aliyuncs.com\/filemanage\/e069b36c568d909f\/templateapi\/16787780065442\/video.mp4?nonce=033a08448b44b89ad67ba4fe4e26828c","sort":0,"version":161,"cover2":"","appkey":"init","duration":0,"extra":{},"polyglot":{"en":"Live up to time"},"category":"0","audit":0,"is_ugc":0,"text_need":0,"picture_need":0,"video_need":13,"type":"templateapi"},{"id":"1020669","ufid":"73158771","name":"\u53cc\u5f00\u5c4f\u5f00\u573a\u6548\u679c","file":"http:\/\/rdfile.oss-cn-hangzhou.aliyuncs.com\/filemanage\/e069b36c568d909f\/templateapi\/16777514111713\/file.zip?nonce=361dc9f6ae0f8edcefae1734622ac635","cover":"http:\/\/rdfile.oss-cn-hangzhou.aliyuncs.com\/filemanage\/e069b36c568d909f\/templateapi\/16777514111713\/cover.webp?nonce=361dc9f6ae0f8edcefae1734622ac635","updatetime":"1704186637","height":607,"width":1080,"video":"http:\/\/rdfile.oss-cn-hangzhou.aliyuncs.com\/filemanage\/e069b36c568d909f\/templateapi\/16777514111713\/video.mp4?nonce=361dc9f6ae0f8edcefae1734622ac635","sort":0,"version":159,"cover2":"","appkey":"init","duration":0,"extra":{},"polyglot":{"en":"Double screen opening effect"},"category":"0","audit":0,"is_ugc":0,"text_need":1,"picture_need":0,"video_need":3,"type":"templateapi"},{"id":"1020489","ufid":"83367353","name":"\u8499\u7248\u5173\u952e\u5e27\u5f8b\u52a8\u2014\u5361\u519c\u94a2\u7434\u66f2","file":"http:\/\/rdfile.oss-cn-hangzhou.aliyuncs.com\/filemanage\/e069b36c568d909f\/templateapi\/16760170492818\/file.zip?nonce=8fec54298a549e58619be7b9cbb645fb","cover":"http:\/\/rdfile.oss-cn-hangzhou.aliyuncs.com\/filemanage\/e069b36c568d909f\/templateapi\/16760170492818\/cover.webp?nonce=8fec54298a549e58619be7b9cbb645fb","updatetime":"1704186633","height":607,"width":1080,"video":"http:\/\/rdfile.oss-cn-hangzhou.aliyuncs.com\/filemanage\/e069b36c568d909f\/templateapi\/16760170492818\/video.mp4?nonce=8fec54298a549e58619be7b9cbb645fb","sort":0,"version":159,"cover2":"","appkey":"init","duration":0,"extra":{},"polyglot":{"en":"Mask Keyframe Rhythm\u2014Canon Piano Music"},"category":"0","audit":0,"is_ugc":0,"text_need":0,"picture_need":0,"video_need":1,"type":"templateapi"},{"id":"1019474","ufid":"36690284","name":"\u94a2\u7434\u5361\u70b9","file":"http:\/\/rdfile.oss-cn-hangzhou.aliyuncs.com\/filemanage\/e069b36c568d909f\/templateapi\/16720477857849\/file.zip?nonce=94e0b8f78210ba9b29f3a1b9245f1aae","cover":"http:\/\/rdfile.oss-cn-hangzhou.aliyuncs.com\/filemanage\/e069b36c568d909f\/templateapi\/16720477857849\/cover.webp?nonce=94e0b8f78210ba9b29f3a1b9245f1aae","updatetime":"1704186484","height":607,"width":1080,"video":"http:\/\/rdfile.oss-cn-hangzhou.aliyuncs.com\/filemanage\/e069b36c568d909f\/templateapi\/16720477857849\/video.mp4?nonce=94e0b8f78210ba9b29f3a1b9245f1aae","sort":0,"version":158,"cover2":"","appkey":"init","duration":0,"extra":{},"polyglot":{"en":"Piano stuck"},"category":"0","audit":0,"is_ugc":0,"text_need":1,"picture_need":10,"video_need":1,"type":"templateapi"},{"id":"1020361","ufid":"16678235","name":"\u96a7\u9053\u6a21\u7248","file":"http:\/\/rdfile.oss-cn-hangzhou.aliyuncs.com\/filemanage\/e069b36c568d909f\/templateapi\/16751679138507\/file.zip?nonce=fdc203d9c48451d5d868f41f0f41a47a","cover":"http:\/\/rdfile.oss-cn-hangzhou.aliyuncs.com\/filemanage\/e069b36c568d909f\/templateapi\/16751679138507\/cover.webp?nonce=fdc203d9c48451d5d868f41f0f41a47a","updatetime":"1704186632","height":720,"width":1280,"video":"http:\/\/rdfile.oss-cn-hangzhou.aliyuncs.com\/filemanage\/e069b36c568d909f\/templateapi\/16751679138507\/video.mp4?nonce=fdc203d9c48451d5d868f41f0f41a47a","sort":0,"version":158,"cover2":"","appkey":"init","duration":0,"extra":{},"polyglot":{"en":"Tunnel template"},"category":"0","audit":0,"is_ugc":0,"text_need":0,"picture_need":0,"video_need":5,"type":"templateapi"},{"id":"1016841","ufid":"26349016","name":"\u4e0b\u96ea\u7279\u6548","file":"http:\/\/rdfile.oss-cn-hangzhou.aliyuncs.com\/filemanage\/e069b36c568d909f\/templateapi\/16715282554309\/file.zip?nonce=4ec1f2e2a7e2ac5e2f9896695e1d3a7f","cover":"http:\/\/rdfile.oss-cn-hangzhou.aliyuncs.com\/filemanage\/e069b36c568d909f\/templateapi\/16715282554309\/cover.webp?nonce=4ec1f2e2a7e2ac5e2f9896695e1d3a7f","updatetime":"1704186007","height":1058,"width":595,"video":"http:\/\/rdfile.oss-cn-hangzhou.aliyuncs.com\/filemanage\/e069b36c568d909f\/templateapi\/16715282554309\/video.mp4?nonce=4ec1f2e2a7e2ac5e2f9896695e1d3a7f","sort":0,"version":155,"cover2":"","appkey":"init","duration":0,"extra":{},"polyglot":{"en":"Snow effects"},"category":"0","audit":0,"is_ugc":0,"text_need":0,"picture_need":0,"video_need":1,"type":"templateapi"},{"id":"1020265","ufid":"65411629","name":"\u65b0\u95fb\u8fde\u7ebf","file":"http:\/\/rdfile.oss-cn-hangzhou.aliyuncs.com\/filemanage\/e069b36c568d909f\/templateapi\/16721343422903\/file.zip?nonce=05ff5433c1ac7e8fc87ada34b4c67035","cover":"http:\/\/rdfile.oss-cn-hangzhou.aliyuncs.com\/filemanage\/e069b36c568d909f\/templateapi\/16721343422903\/cover.webp?nonce=05ff5433c1ac7e8fc87ada34b4c67035","updatetime":"1704186624","height":607,"width":1080,"video":"http:\/\/rdfile.oss-cn-hangzhou.aliyuncs.com\/filemanage\/e069b36c568d909f\/templateapi\/16721343422903\/video.mp4?nonce=05ff5433c1ac7e8fc87ada34b4c67035","sort":0,"version":158,"cover2":"","appkey":"init","duration":0,"extra":{},"polyglot":{"en":"Newswire"},"category":"0","audit":0,"is_ugc":0,"text_need":5,"picture_need":2,"video_need":0,"type":"templateapi"},{"id":"1016705","ufid":"38835372","name":"\u9759\u5f85\u65f6\u5149","file":"http:\/\/rdfile.oss-cn-hangzhou.aliyuncs.com\/filemanage\/e069b36c568d909f\/templateapi\/16710144149424\/file.zip?nonce=24938d36816f16aee9c0861f7b48f91b","cover":"http:\/\/rdfile.oss-cn-hangzhou.aliyuncs.com\/filemanage\/e069b36c568d909f\/templateapi\/16710144149424\/cover.webp?nonce=24938d36816f16aee9c0861f7b48f91b","updatetime":"1704186005","height":1060,"width":596,"video":"http:\/\/rdfile.oss-cn-hangzhou.aliyuncs.com\/filemanage\/e069b36c568d909f\/templateapi\/16710144149424\/video.mp4?nonce=24938d36816f16aee9c0861f7b48f91b","sort":0,"version":155,"cover2":"","appkey":"init","duration":0,"extra":{},"polyglot":{"en":"Wait for time"},"category":"0","audit":0,"is_ugc":0,"text_need":1,"picture_need":0,"video_need":1,"type":"templateapi"},{"id":"1019410","ufid":"68563193","name":"\u670b\u53cb\u5708\u9001\u82f9\u679c","file":"http:\/\/rdfile.oss-cn-hangzhou.aliyuncs.com\/filemanage\/e069b36c568d909f\/templateapi\/16717784176090\/file.zip?nonce=92bbb5d310beeee7b7708e02b264da0b","cover":"http:\/\/rdfile.oss-cn-hangzhou.aliyuncs.com\/filemanage\/e069b36c568d909f\/templateapi\/16717784176090\/cover.webp?nonce=92bbb5d310beeee7b7708e02b264da0b","updatetime":"1704186474","height":1060,"width":596,"video":"http:\/\/rdfile.oss-cn-hangzhou.aliyuncs.com\/filemanage\/e069b36c568d909f\/templateapi\/16717784176090\/video.mp4?nonce=92bbb5d310beeee7b7708e02b264da0b","sort":0,"version":158,"cover2":"","appkey":"init","duration":0,"extra":{},"polyglot":{"en":"Send Apple to Moments"},"category":"0","audit":0,"is_ugc":0,"text_need":3,"picture_need":2,"video_need":0,"type":"templateapi"}]}}