{"code":0,"msg":"success","data":{"total":173,"per_page":10,"current_page":14,"last_page":18,"data":[{"id":"1020852","ufid":"65088185-4d16-4922-ac0b-19138a7f404e","name":"\u52b3\u52a8\u6700\u5149\u8363","file":"http:\/\/rdfile.oss-cn-hangzhou.aliyuncs.com\/filemanage\/6ecb39f1c12f1a35\/templateapi\/65088185-4d16-4922-ac0b-19138a7f404e\/file.zip?nonce=43ca7cb4ac0622aa097a04678a5137ae","cover":"http:\/\/rdfile.oss-cn-hangzhou.aliyuncs.com\/filemanage\/6ecb39f1c12f1a35\/templateapi\/65088185-4d16-4922-ac0b-19138a7f404e\/cover.webp?nonce=43ca7cb4ac0622aa097a04678a5137ae","updatetime":"1694422948","height":1058,"width":595,"video":"http:\/\/rdfile.oss-cn-hangzhou.aliyuncs.com\/filemanage\/6ecb39f1c12f1a35\/templateapi\/65088185-4d16-4922-ac0b-19138a7f404e\/video.mp4?nonce=43ca7cb4ac0622aa097a04678a5137ae","sort":0,"version":162,"cover2":"","appkey":"6ecb39f1c12f1a35","duration":0,"extra":{},"polyglot":[],"category":"0","audit":0,"is_ugc":0,"text_need":7,"picture_need":0,"video_need":1,"type":"templateapi"},{"id":"1012274","ufid":"34171457","name":"MY VLOG","file":"http:\/\/rdfile.oss-cn-hangzhou.aliyuncs.com\/filemanage\/e069b36c568d909f\/templateapi\/16303052144415\/file.zip?nonce=cff6ec015890c774d6b60abbfe1bccd2","cover":"http:\/\/rdfile.oss-cn-hangzhou.aliyuncs.com\/filemanage\/e069b36c568d909f\/templateapi\/16303052144415\/cover.png?nonce=cff6ec015890c774d6b60abbfe1bccd2&x-oss-process=style\/templateapi","updatetime":"1684912975","height":720,"width":1280,"video":"http:\/\/rdfile.oss-cn-hangzhou.aliyuncs.com\/filemanage\/e069b36c568d909f\/templateapi\/16303052144415\/video.mp4?nonce=cff6ec015890c774d6b60abbfe1bccd2","sort":100,"version":147,"cover2":"","appkey":"init","duration":0,"extra":{},"polyglot":[],"category":"0","audit":0,"is_ugc":0,"text_need":0,"picture_need":0,"video_need":5,"type":"templateapi"},{"id":"1012224","ufid":"68637153","name":"\u53e4\u98ce\u7fbd\u6bdb","file":"http:\/\/rdfile.oss-cn-hangzhou.aliyuncs.com\/filemanage\/e069b36c568d909f\/templateapi\/16291834208358\/file.zip?nonce=c1741e1ca346890669504c7136567afc","cover":"http:\/\/rdfile.oss-cn-hangzhou.aliyuncs.com\/filemanage\/e069b36c568d909f\/templateapi\/16291834208358\/cover.png?nonce=c1741e1ca346890669504c7136567afc&x-oss-process=style\/templateapi","updatetime":"1684914432","height":1280,"width":720,"video":"http:\/\/rdfile.oss-cn-hangzhou.aliyuncs.com\/filemanage\/e069b36c568d909f\/templateapi\/16291834208358\/video.mp4?nonce=c1741e1ca346890669504c7136567afc","sort":100,"version":147,"cover2":"","appkey":"init","duration":0,"extra":{},"polyglot":[],"category":"0","audit":0,"is_ugc":0,"text_need":0,"picture_need":0,"video_need":5,"type":"templateapi"},{"id":"1020851","ufid":"75983d04-f62c-45fa-b49b-61a57166ea30","name":"\u4e94\u4e00\u5047\u671f \u7247\u5934\u8f6c\u573a","file":"http:\/\/rdfile.oss-cn-hangzhou.aliyuncs.com\/filemanage\/6ecb39f1c12f1a35\/templateapi\/75983d04-f62c-45fa-b49b-61a57166ea30\/file.zip?nonce=43ca7cb4ac0622aa097a04678a5137ae","cover":"http:\/\/rdfile.oss-cn-hangzhou.aliyuncs.com\/filemanage\/6ecb39f1c12f1a35\/templateapi\/75983d04-f62c-45fa-b49b-61a57166ea30\/cover.webp?nonce=43ca7cb4ac0622aa097a04678a5137ae","updatetime":"1694422948","height":1060,"width":596,"video":"http:\/\/rdfile.oss-cn-hangzhou.aliyuncs.com\/filemanage\/6ecb39f1c12f1a35\/templateapi\/75983d04-f62c-45fa-b49b-61a57166ea30\/video.mp4?nonce=43ca7cb4ac0622aa097a04678a5137ae","sort":0,"version":162,"cover2":"","appkey":"6ecb39f1c12f1a35","duration":0,"extra":{},"polyglot":[],"category":"0","audit":0,"is_ugc":0,"text_need":0,"picture_need":0,"video_need":1,"type":"templateapi"},{"id":"1020849","ufid":"14968f14-6824-44bb-b344-ea471c1e8fb4","name":"\u9ec4\u9ed1\u76aeHSL\u8c03\u8272\u6cd5","file":"http:\/\/rdfile.oss-cn-hangzhou.aliyuncs.com\/filemanage\/6ecb39f1c12f1a35\/templateapi\/14968f14-6824-44bb-b344-ea471c1e8fb4\/file.zip?nonce=43ca7cb4ac0622aa097a04678a5137ae","cover":"http:\/\/rdfile.oss-cn-hangzhou.aliyuncs.com\/filemanage\/6ecb39f1c12f1a35\/templateapi\/14968f14-6824-44bb-b344-ea471c1e8fb4\/cover.webp?nonce=43ca7cb4ac0622aa097a04678a5137ae","updatetime":"1694422948","height":608,"width":1080,"video":"http:\/\/rdfile.oss-cn-hangzhou.aliyuncs.com\/filemanage\/6ecb39f1c12f1a35\/templateapi\/14968f14-6824-44bb-b344-ea471c1e8fb4\/video.mp4?nonce=43ca7cb4ac0622aa097a04678a5137ae","sort":0,"version":162,"cover2":"","appkey":"6ecb39f1c12f1a35","duration":0,"extra":{},"polyglot":[],"category":"0","audit":0,"is_ugc":0,"text_need":0,"picture_need":0,"video_need":1,"type":"templateapi"},{"id":"1012051","ufid":"27060041","name":"Marry me","file":"http:\/\/rdfile.oss-cn-hangzhou.aliyuncs.com\/filemanage\/e069b36c568d909f\/templateapi\/16280482352115\/file.zip?nonce=c2e1faef1b41ab99089ddd2b16f44a73","cover":"http:\/\/rdfile.oss-cn-hangzhou.aliyuncs.com\/filemanage\/e069b36c568d909f\/templateapi\/16280482352115\/cover.png?nonce=c2e1faef1b41ab99089ddd2b16f44a73&x-oss-process=style\/templateapi","updatetime":"1684914134","height":1280,"width":720,"video":"http:\/\/rdfile.oss-cn-hangzhou.aliyuncs.com\/filemanage\/e069b36c568d909f\/templateapi\/16280482352115\/video.mp4?nonce=c2e1faef1b41ab99089ddd2b16f44a73","sort":100,"version":147,"cover2":"","appkey":"init","duration":0,"extra":{},"polyglot":[],"category":"0","audit":0,"is_ugc":0,"text_need":10,"picture_need":0,"video_need":10,"type":"templateapi"},{"id":"1012014","ufid":"30622913","name":"\u751f\u6d3b\u65e5\u8bb0","file":"http:\/\/rdfile.oss-cn-hangzhou.aliyuncs.com\/filemanage\/e069b36c568d909f\/templateapi\/16276295496561\/file.zip?nonce=9c3e3f3ceefc4357328b226b141facae","cover":"http:\/\/rdfile.oss-cn-hangzhou.aliyuncs.com\/filemanage\/e069b36c568d909f\/templateapi\/16276295496561\/cover.png?nonce=9c3e3f3ceefc4357328b226b141facae&x-oss-process=style\/templateapi","updatetime":"1684914160","height":720,"width":1280,"video":"http:\/\/rdfile.oss-cn-hangzhou.aliyuncs.com\/filemanage\/e069b36c568d909f\/templateapi\/16276295496561\/video.mp4?nonce=9c3e3f3ceefc4357328b226b141facae","sort":100,"version":147,"cover2":"","appkey":"init","duration":0,"extra":{},"polyglot":[],"category":"0","audit":0,"is_ugc":0,"text_need":5,"picture_need":0,"video_need":2,"type":"templateapi"},{"id":"1011984","ufid":"87763068","name":"5\u5c4fvlog","file":"http:\/\/rdfile.oss-cn-hangzhou.aliyuncs.com\/filemanage\/e069b36c568d909f\/templateapi\/16275307826692\/file.zip?nonce=d2636604b19e54546c3aba9c58142a3b","cover":"http:\/\/rdfile.oss-cn-hangzhou.aliyuncs.com\/filemanage\/e069b36c568d909f\/templateapi\/16275307826692\/cover.png?nonce=d2636604b19e54546c3aba9c58142a3b&x-oss-process=style\/templateapi","updatetime":"1684913031","height":1280,"width":720,"video":"http:\/\/rdfile.oss-cn-hangzhou.aliyuncs.com\/filemanage\/e069b36c568d909f\/templateapi\/16275307826692\/video.mp4?nonce=d2636604b19e54546c3aba9c58142a3b","sort":100,"version":147,"cover2":"","appkey":"init","duration":0,"extra":{},"polyglot":[],"category":"0","audit":0,"is_ugc":0,"text_need":0,"picture_need":0,"video_need":5,"type":"templateapi"},{"id":"1011973","ufid":"66728536","name":"\u5230\u5904\u662f\u9633\u5149","file":"http:\/\/rdfile.oss-cn-hangzhou.aliyuncs.com\/filemanage\/e069b36c568d909f\/templateapi\/16274681898898\/file.zip?nonce=112fec135170db61cb4dbad354c3204a","cover":"http:\/\/rdfile.oss-cn-hangzhou.aliyuncs.com\/filemanage\/e069b36c568d909f\/templateapi\/16274681898898\/cover.png?nonce=112fec135170db61cb4dbad354c3204a&x-oss-process=style\/templateapi","updatetime":"1684912757","height":1280,"width":720,"video":"http:\/\/rdfile.oss-cn-hangzhou.aliyuncs.com\/filemanage\/e069b36c568d909f\/templateapi\/16274681898898\/video.mp4?nonce=112fec135170db61cb4dbad354c3204a","sort":100,"version":147,"cover2":"","appkey":"init","duration":0,"extra":{},"polyglot":[],"category":"0","audit":0,"is_ugc":0,"text_need":0,"picture_need":0,"video_need":8,"type":"templateapi"},{"id":"1020713","ufid":"64787127","name":"\u6625\u65e5\u788e\u7247","file":"http:\/\/rdfile.oss-cn-hangzhou.aliyuncs.com\/filemanage\/e069b36c568d909f\/templateapi\/16786934027114\/file.zip?nonce=8ad93f0d03a2499931efebfa1ea845be","cover":"http:\/\/rdfile.oss-cn-hangzhou.aliyuncs.com\/filemanage\/e069b36c568d909f\/templateapi\/16786934027114\/cover.webp?nonce=8ad93f0d03a2499931efebfa1ea845be","updatetime":"1684914866","height":1746,"width":982,"video":"http:\/\/rdfile.oss-cn-hangzhou.aliyuncs.com\/filemanage\/e069b36c568d909f\/templateapi\/16786934027114\/video.mp4?nonce=8ad93f0d03a2499931efebfa1ea845be","sort":0,"version":161,"cover2":"","appkey":"init","duration":0,"extra":{},"polyglot":[],"category":"0","audit":0,"is_ugc":0,"text_need":4,"picture_need":0,"video_need":18,"type":"templateapi"}]}}