{"code":0,"msg":"success","data":{"total":636,"per_page":10,"current_page":64,"last_page":64,"data":[{"id":"1011280","ufid":"26844214","name":"\u9713\u8679\u4e09\u5bab\u683c","file":"http:\/\/rdfile.oss-cn-hangzhou.aliyuncs.com\/filemanage\/e069b36c568d909f\/templateapi\/16246156789094\/file.zip?nonce=6a4329f6373dd05da62cfa484e8904e2","cover":"http:\/\/rdfile.oss-cn-hangzhou.aliyuncs.com\/filemanage\/e069b36c568d909f\/templateapi\/16246156789094\/cover.png?nonce=6a4329f6373dd05da62cfa484e8904e2&x-oss-process=style\/templateapi","updatetime":"1704185624","height":1280,"width":720,"video":"http:\/\/rdfile.oss-cn-hangzhou.aliyuncs.com\/filemanage\/e069b36c568d909f\/templateapi\/16246156789094\/video.mp4?nonce=6a4329f6373dd05da62cfa484e8904e2","sort":100,"version":146,"cover2":"","appkey":"init","duration":0,"extra":{},"polyglot":{"en":"Neon three grid"},"category":"0","audit":0,"is_ugc":0,"text_need":0,"picture_need":3,"video_need":0,"type":"templateapi"},{"id":"1011276","ufid":"99021209","name":"\u8fd9\u662f\u8c01\u7684\u90e8\u5c06","file":"http:\/\/rdfile.oss-cn-hangzhou.aliyuncs.com\/filemanage\/e069b36c568d909f\/templateapi\/16246115372110\/file.zip?nonce=6a4329f6373dd05da62cfa484e8904e2","cover":"http:\/\/rdfile.oss-cn-hangzhou.aliyuncs.com\/filemanage\/e069b36c568d909f\/templateapi\/16246115372110\/cover.png?nonce=6a4329f6373dd05da62cfa484e8904e2&x-oss-process=style\/templateapi","updatetime":"1704185624","height":1280,"width":720,"video":"http:\/\/rdfile.oss-cn-hangzhou.aliyuncs.com\/filemanage\/e069b36c568d909f\/templateapi\/16246115372110\/video.mp4?nonce=6a4329f6373dd05da62cfa484e8904e2","sort":100,"version":146,"cover2":"","appkey":"init","duration":0,"extra":{},"polyglot":{"en":"Whose general is this?"},"category":"0","audit":0,"is_ugc":0,"text_need":0,"picture_need":1,"video_need":0,"type":"templateapi"},{"id":"1011269","ufid":"91813605","name":"\u9738\u6c14\u5916\u9732","file":"http:\/\/rdfile.oss-cn-hangzhou.aliyuncs.com\/filemanage\/e069b36c568d909f\/templateapi\/16245958951733\/file.zip?nonce=9a6bc1501e28c906df98f8a86dadc7a8","cover":"http:\/\/rdfile.oss-cn-hangzhou.aliyuncs.com\/filemanage\/e069b36c568d909f\/templateapi\/16245958951733\/cover.png?nonce=9a6bc1501e28c906df98f8a86dadc7a8&x-oss-process=style\/templateapi","updatetime":"1704185623","height":1280,"width":720,"video":"http:\/\/rdfile.oss-cn-hangzhou.aliyuncs.com\/filemanage\/e069b36c568d909f\/templateapi\/16245958951733\/video.mp4?nonce=9a6bc1501e28c906df98f8a86dadc7a8","sort":100,"version":146,"cover2":"","appkey":"init","duration":0,"extra":{},"polyglot":{"en":"Exposed domineering"},"category":"0","audit":0,"is_ugc":0,"text_need":0,"picture_need":3,"video_need":0,"type":"templateapi"},{"id":"1009529","ufid":"57703210","name":"\u8bb0\u5f55\u7f8e\u597d","file":"http:\/\/rdfile.oss-cn-hangzhou.aliyuncs.com\/filemanage\/e069b36c568d909f\/templateapi\/16243344514228\/file.zip?nonce=ba14a60abb8881a112aa2b03cc449084","cover":"http:\/\/rdfile.oss-cn-hangzhou.aliyuncs.com\/filemanage\/e069b36c568d909f\/templateapi\/16243344514228\/cover.png?nonce=ba14a60abb8881a112aa2b03cc449084&x-oss-process=style\/templateapi","updatetime":"1704185622","height":1080,"width":607,"video":"http:\/\/rdfile.oss-cn-hangzhou.aliyuncs.com\/filemanage\/e069b36c568d909f\/templateapi\/16243344514228\/video.mp4?nonce=ba14a60abb8881a112aa2b03cc449084","sort":100,"version":146,"cover2":"","appkey":"init","duration":0,"extra":{},"polyglot":{"en":"Record beauty"},"category":"0","audit":0,"is_ugc":0,"text_need":1,"picture_need":9,"video_need":0,"type":"templateapi"},{"id":"1007852","ufid":"67598492","name":"\u5bf9\u8bdd","file":"http:\/\/rdfile.oss-cn-hangzhou.aliyuncs.com\/filemanage\/e069b36c568d909f\/templateapi\/16239193866490\/file.zip?nonce=45564be0f3f81044d103b556c23a6b90","cover":"http:\/\/rdfile.oss-cn-hangzhou.aliyuncs.com\/filemanage\/e069b36c568d909f\/templateapi\/16239193866490\/cover.png?nonce=45564be0f3f81044d103b556c23a6b90&x-oss-process=style\/templateapi","updatetime":"1704185621","height":1080,"width":781,"video":"http:\/\/rdfile.oss-cn-hangzhou.aliyuncs.com\/filemanage\/e069b36c568d909f\/templateapi\/16239193866490\/video.mp4?nonce=45564be0f3f81044d103b556c23a6b90","sort":100,"version":146,"cover2":"","appkey":"init","duration":0,"extra":{},"polyglot":{"en":"Dialogue"},"category":"0","audit":0,"is_ugc":0,"text_need":4,"picture_need":2,"video_need":0,"type":"templateapi"},{"id":"1007848","ufid":"18426017","name":"\u6f2b\u753bOK","file":"http:\/\/rdfile.oss-cn-hangzhou.aliyuncs.com\/filemanage\/e069b36c568d909f\/templateapi\/16238993936319\/file.zip?nonce=45564be0f3f81044d103b556c23a6b90","cover":"http:\/\/rdfile.oss-cn-hangzhou.aliyuncs.com\/filemanage\/e069b36c568d909f\/templateapi\/16238993936319\/cover.png?nonce=45564be0f3f81044d103b556c23a6b90&x-oss-process=style\/templateapi","updatetime":"1704185621","height":1080,"width":927,"video":"http:\/\/rdfile.oss-cn-hangzhou.aliyuncs.com\/filemanage\/e069b36c568d909f\/templateapi\/16238993936319\/video.mp4?nonce=45564be0f3f81044d103b556c23a6b90","sort":100,"version":146,"cover2":"","appkey":"init","duration":0,"extra":{},"polyglot":{"en":"Comic OK"},"category":"0","audit":0,"is_ugc":0,"text_need":6,"picture_need":2,"video_need":0,"type":"templateapi"}]}}