{"code":0,"msg":"success","data":{"total":636,"per_page":10,"current_page":59,"last_page":64,"data":[{"id":"1011824","ufid":"26356445","name":"\u6c34\u4e2d\u5012\u5f71","file":"http:\/\/rdfile.oss-cn-hangzhou.aliyuncs.com\/filemanage\/e069b36c568d909f\/templateapi\/16267488201463\/file.zip?nonce=d413b0ef0a871f78a0ec3a32bea8625b","cover":"http:\/\/rdfile.oss-cn-hangzhou.aliyuncs.com\/filemanage\/e069b36c568d909f\/templateapi\/16267488201463\/cover.png?nonce=d413b0ef0a871f78a0ec3a32bea8625b&x-oss-process=style\/templateapi","updatetime":"1704185659","height":1080,"width":607,"video":"http:\/\/rdfile.oss-cn-hangzhou.aliyuncs.com\/filemanage\/e069b36c568d909f\/templateapi\/16267488201463\/video.mp4?nonce=d413b0ef0a871f78a0ec3a32bea8625b","sort":100,"version":147,"cover2":"","appkey":"init","duration":0,"extra":{},"polyglot":{"en":"Reflection in water"},"category":"0","audit":0,"is_ugc":0,"text_need":0,"picture_need":0,"video_need":10,"type":"templateapi"},{"id":"1011823","ufid":"31519517","name":"\u5706\u5f62\u8272\u5dee","file":"http:\/\/rdfile.oss-cn-hangzhou.aliyuncs.com\/filemanage\/e069b36c568d909f\/templateapi\/16267486006233\/file.zip?nonce=d413b0ef0a871f78a0ec3a32bea8625b","cover":"http:\/\/rdfile.oss-cn-hangzhou.aliyuncs.com\/filemanage\/e069b36c568d909f\/templateapi\/16267486006233\/cover.png?nonce=d413b0ef0a871f78a0ec3a32bea8625b&x-oss-process=style\/templateapi","updatetime":"1704185659","height":1080,"width":607,"video":"http:\/\/rdfile.oss-cn-hangzhou.aliyuncs.com\/filemanage\/e069b36c568d909f\/templateapi\/16267486006233\/video.mp4?nonce=d413b0ef0a871f78a0ec3a32bea8625b","sort":100,"version":147,"cover2":"","appkey":"init","duration":0,"extra":{},"polyglot":{"en":"Circular color difference"},"category":"0","audit":0,"is_ugc":0,"text_need":0,"picture_need":0,"video_need":12,"type":"templateapi"},{"id":"1011819","ufid":"10449826","name":"\u52a8\u611f\u5361\u70b9","file":"http:\/\/rdfile.oss-cn-hangzhou.aliyuncs.com\/filemanage\/e069b36c568d909f\/templateapi\/16266858635915\/file.zip?nonce=75292ff5cbf87b3e3dd481aebba8fc00","cover":"http:\/\/rdfile.oss-cn-hangzhou.aliyuncs.com\/filemanage\/e069b36c568d909f\/templateapi\/16266858635915\/cover.png?nonce=75292ff5cbf87b3e3dd481aebba8fc00&x-oss-process=style\/templateapi","updatetime":"1704185658","height":1080,"width":607,"video":"http:\/\/rdfile.oss-cn-hangzhou.aliyuncs.com\/filemanage\/e069b36c568d909f\/templateapi\/16266858635915\/video.mp4?nonce=75292ff5cbf87b3e3dd481aebba8fc00","sort":100,"version":146,"cover2":"","appkey":"init","duration":0,"extra":{},"polyglot":{"en":"Right time dynamic"},"category":"0","audit":0,"is_ugc":0,"text_need":0,"picture_need":17,"video_need":0,"type":"templateapi"},{"id":"1011815","ufid":"65485626","name":"\u591c\u89c6\u955c","file":"http:\/\/rdfile.oss-cn-hangzhou.aliyuncs.com\/filemanage\/e069b36c568d909f\/templateapi\/16266797846763\/file.zip?nonce=75292ff5cbf87b3e3dd481aebba8fc00","cover":"http:\/\/rdfile.oss-cn-hangzhou.aliyuncs.com\/filemanage\/e069b36c568d909f\/templateapi\/16266797846763\/cover.png?nonce=75292ff5cbf87b3e3dd481aebba8fc00&x-oss-process=style\/templateapi","updatetime":"1704185658","height":1080,"width":607,"video":"http:\/\/rdfile.oss-cn-hangzhou.aliyuncs.com\/filemanage\/e069b36c568d909f\/templateapi\/16266797846763\/video.mp4?nonce=75292ff5cbf87b3e3dd481aebba8fc00","sort":100,"version":146,"cover2":"","appkey":"init","duration":0,"extra":{},"polyglot":{"en":"Night Vision Goggles"},"category":"0","audit":0,"is_ugc":0,"text_need":0,"picture_need":5,"video_need":2,"type":"templateapi"},{"id":"1011810","ufid":"47870682","name":"\u71c3\u70e7\u5427","file":"http:\/\/rdfile.oss-cn-hangzhou.aliyuncs.com\/filemanage\/e069b36c568d909f\/templateapi\/16266641866209\/file.zip?nonce=75292ff5cbf87b3e3dd481aebba8fc00","cover":"http:\/\/rdfile.oss-cn-hangzhou.aliyuncs.com\/filemanage\/e069b36c568d909f\/templateapi\/16266641866209\/cover.png?nonce=75292ff5cbf87b3e3dd481aebba8fc00&x-oss-process=style\/templateapi","updatetime":"1704185658","height":1080,"width":607,"video":"http:\/\/rdfile.oss-cn-hangzhou.aliyuncs.com\/filemanage\/e069b36c568d909f\/templateapi\/16266641866209\/video.mp4?nonce=75292ff5cbf87b3e3dd481aebba8fc00","sort":100,"version":146,"cover2":"","appkey":"init","duration":0,"extra":{},"polyglot":{"en":"Let it burn"},"category":"0","audit":0,"is_ugc":0,"text_need":3,"picture_need":0,"video_need":3,"type":"templateapi"},{"id":"1011801","ufid":"29212675","name":"\u6f2b\u753b\u98ce","file":"http:\/\/rdfile.oss-cn-hangzhou.aliyuncs.com\/filemanage\/e069b36c568d909f\/templateapi\/16264240311049\/file.zip?nonce=75292ff5cbf87b3e3dd481aebba8fc00","cover":"http:\/\/rdfile.oss-cn-hangzhou.aliyuncs.com\/filemanage\/e069b36c568d909f\/templateapi\/16264240311049\/cover.png?nonce=75292ff5cbf87b3e3dd481aebba8fc00&x-oss-process=style\/templateapi","updatetime":"1704185658","height":1080,"width":607,"video":"http:\/\/rdfile.oss-cn-hangzhou.aliyuncs.com\/filemanage\/e069b36c568d909f\/templateapi\/16264240311049\/video.mp4?nonce=75292ff5cbf87b3e3dd481aebba8fc00","sort":100,"version":146,"cover2":"","appkey":"init","duration":0,"extra":{},"polyglot":{"en":"Comic style"},"category":"0","audit":0,"is_ugc":0,"text_need":0,"picture_need":0,"video_need":10,"type":"templateapi"},{"id":"1011773","ufid":"33188143","name":"\u6f2b\u753b","file":"http:\/\/rdfile.oss-cn-hangzhou.aliyuncs.com\/filemanage\/e069b36c568d909f\/templateapi\/16264105748417\/file.zip?nonce=4863165b5d6e25dd15fc414578a15d64","cover":"http:\/\/rdfile.oss-cn-hangzhou.aliyuncs.com\/filemanage\/e069b36c568d909f\/templateapi\/16264105748417\/cover.png?nonce=4863165b5d6e25dd15fc414578a15d64&x-oss-process=style\/templateapi","updatetime":"1704185654","height":1080,"width":607,"video":"http:\/\/rdfile.oss-cn-hangzhou.aliyuncs.com\/filemanage\/e069b36c568d909f\/templateapi\/16264105748417\/video.mp4?nonce=4863165b5d6e25dd15fc414578a15d64","sort":100,"version":146,"cover2":"","appkey":"init","duration":0,"extra":{},"polyglot":{"en":"Comics"},"category":"0","audit":0,"is_ugc":0,"text_need":0,"picture_need":0,"video_need":8,"type":"templateapi"},{"id":"1011772","ufid":"16119348","name":"\u4fe1\u7b3a","file":"http:\/\/rdfile.oss-cn-hangzhou.aliyuncs.com\/filemanage\/e069b36c568d909f\/templateapi\/16264087926869\/file.zip?nonce=4863165b5d6e25dd15fc414578a15d64","cover":"http:\/\/rdfile.oss-cn-hangzhou.aliyuncs.com\/filemanage\/e069b36c568d909f\/templateapi\/16264087926869\/cover.png?nonce=4863165b5d6e25dd15fc414578a15d64&x-oss-process=style\/templateapi","updatetime":"1704185654","height":1080,"width":607,"video":"http:\/\/rdfile.oss-cn-hangzhou.aliyuncs.com\/filemanage\/e069b36c568d909f\/templateapi\/16264087926869\/video.mp4?nonce=4863165b5d6e25dd15fc414578a15d64","sort":100,"version":146,"cover2":"","appkey":"init","duration":0,"extra":{},"polyglot":{"en":"Letterhead"},"category":"0","audit":0,"is_ugc":0,"text_need":0,"picture_need":0,"video_need":8,"type":"templateapi"},{"id":"1011771","ufid":"80493915","name":"\u957f\u76f8\u4f34","file":"http:\/\/rdfile.oss-cn-hangzhou.aliyuncs.com\/filemanage\/e069b36c568d909f\/templateapi\/16264066717586\/file.zip?nonce=4863165b5d6e25dd15fc414578a15d64","cover":"http:\/\/rdfile.oss-cn-hangzhou.aliyuncs.com\/filemanage\/e069b36c568d909f\/templateapi\/16264066717586\/cover.png?nonce=4863165b5d6e25dd15fc414578a15d64&x-oss-process=style\/templateapi","updatetime":"1704185654","height":1080,"width":607,"video":"http:\/\/rdfile.oss-cn-hangzhou.aliyuncs.com\/filemanage\/e069b36c568d909f\/templateapi\/16264066717586\/video.mp4?nonce=4863165b5d6e25dd15fc414578a15d64","sort":100,"version":146,"cover2":"","appkey":"init","duration":0,"extra":{},"polyglot":{"en":"Stay with me forever"},"category":"0","audit":0,"is_ugc":0,"text_need":3,"picture_need":0,"video_need":14,"type":"templateapi"},{"id":"1011750","ufid":"59824561","name":"\u4e03\u5915\u51fa\u79df","file":"http:\/\/rdfile.oss-cn-hangzhou.aliyuncs.com\/filemanage\/e069b36c568d909f\/templateapi\/16264004176208\/file.zip?nonce=ba41b7b309bb35b69c3455766b0c409a","cover":"http:\/\/rdfile.oss-cn-hangzhou.aliyuncs.com\/filemanage\/e069b36c568d909f\/templateapi\/16264004176208\/cover.png?nonce=ba41b7b309bb35b69c3455766b0c409a&x-oss-process=style\/templateapi","updatetime":"1704185652","height":1080,"width":607,"video":"http:\/\/rdfile.oss-cn-hangzhou.aliyuncs.com\/filemanage\/e069b36c568d909f\/templateapi\/16264004176208\/video.mp4?nonce=ba41b7b309bb35b69c3455766b0c409a","sort":100,"version":146,"cover2":"","appkey":"init","duration":0,"extra":{},"polyglot":{"en":"Chinese Valentine"},"category":"0","audit":0,"is_ugc":0,"text_need":6,"picture_need":0,"video_need":3,"type":"templateapi"}]}}