{"code":0,"msg":"success","data":{"total":84,"per_page":10,"current_page":3,"last_page":9,"data":[{"id":"1016334","ufid":"14788151","name":"\u6e05\u65b0\u590f\u65e5\u5c11\u5973\u7f8e\u62cd","file":"http:\/\/rdfile.oss-cn-hangzhou.aliyuncs.com\/filemanage\/e069b36c568d909f\/templateapi\/16672738498296\/file.zip?nonce=cfcd208495d565ef66e7dff9f98764da","cover":"http:\/\/rdfile.oss-cn-hangzhou.aliyuncs.com\/filemanage\/e069b36c568d909f\/templateapi\/16672738498296\/cover.webp?nonce=cfcd208495d565ef66e7dff9f98764da","updatetime":"0","height":1920,"width":1080,"video":"http:\/\/rdfile.oss-cn-hangzhou.aliyuncs.com\/filemanage\/e069b36c568d909f\/templateapi\/16672738498296\/video.mp4?nonce=cfcd208495d565ef66e7dff9f98764da","sort":0,"version":154,"cover2":"","appkey":"init","duration":0,"extra":{},"polyglot":[],"category":"0","audit":0,"is_ugc":0,"text_need":0,"picture_need":0,"video_need":6,"type":"templateapi"},{"id":"1016331","ufid":"83883200","name":"\u4eff\u590d\u53e4\u5206\u5c42","file":"http:\/\/rdfile.oss-cn-hangzhou.aliyuncs.com\/filemanage\/e069b36c568d909f\/templateapi\/16672113076732\/file.zip?nonce=cfcd208495d565ef66e7dff9f98764da","cover":"http:\/\/rdfile.oss-cn-hangzhou.aliyuncs.com\/filemanage\/e069b36c568d909f\/templateapi\/16672113076732\/cover.webp?nonce=cfcd208495d565ef66e7dff9f98764da","updatetime":"0","height":1280,"width":720,"video":"http:\/\/rdfile.oss-cn-hangzhou.aliyuncs.com\/filemanage\/e069b36c568d909f\/templateapi\/16672113076732\/video.mp4?nonce=cfcd208495d565ef66e7dff9f98764da","sort":0,"version":154,"cover2":"","appkey":"init","duration":0,"extra":{},"polyglot":[],"category":"0","audit":0,"is_ugc":0,"text_need":0,"picture_need":0,"video_need":14,"type":"templateapi"},{"id":"1016328","ufid":"31076366","name":"\u897f\u697c\u522b\u5e8f \u53e4\u88c5\u7f8e\u62cd","file":"http:\/\/rdfile.oss-cn-hangzhou.aliyuncs.com\/filemanage\/e069b36c568d909f\/templateapi\/16672004128548\/file.zip?nonce=cfcd208495d565ef66e7dff9f98764da","cover":"http:\/\/rdfile.oss-cn-hangzhou.aliyuncs.com\/filemanage\/e069b36c568d909f\/templateapi\/16672004128548\/cover.webp?nonce=cfcd208495d565ef66e7dff9f98764da","updatetime":"0","height":1920,"width":1080,"video":"http:\/\/rdfile.oss-cn-hangzhou.aliyuncs.com\/filemanage\/e069b36c568d909f\/templateapi\/16672004128548\/video.mp4?nonce=cfcd208495d565ef66e7dff9f98764da","sort":0,"version":154,"cover2":"","appkey":"init","duration":0,"extra":{},"polyglot":[],"category":"0","audit":0,"is_ugc":0,"text_need":0,"picture_need":0,"video_need":3,"type":"templateapi"},{"id":"1016326","ufid":"71114988","name":"\u5728\u5404\u81ea\u4e16\u754c\u91cc \u7f8e\u62cd","file":"http:\/\/rdfile.oss-cn-hangzhou.aliyuncs.com\/filemanage\/e069b36c568d909f\/templateapi\/16669498913528\/file.zip?nonce=cfcd208495d565ef66e7dff9f98764da","cover":"http:\/\/rdfile.oss-cn-hangzhou.aliyuncs.com\/filemanage\/e069b36c568d909f\/templateapi\/16669498913528\/cover.webp?nonce=cfcd208495d565ef66e7dff9f98764da","updatetime":"0","height":1920,"width":1080,"video":"http:\/\/rdfile.oss-cn-hangzhou.aliyuncs.com\/filemanage\/e069b36c568d909f\/templateapi\/16669498913528\/video.mp4?nonce=cfcd208495d565ef66e7dff9f98764da","sort":0,"version":154,"cover2":"","appkey":"init","duration":0,"extra":{},"polyglot":[],"category":"0","audit":0,"is_ugc":0,"text_need":0,"picture_need":0,"video_need":4,"type":"templateapi"},{"id":"1016325","ufid":"82719788","name":"\u9752\u6625\u5c11\u5973\u7f8e\u62cd","file":"http:\/\/rdfile.oss-cn-hangzhou.aliyuncs.com\/filemanage\/e069b36c568d909f\/templateapi\/16669469911346\/file.zip?nonce=cfcd208495d565ef66e7dff9f98764da","cover":"http:\/\/rdfile.oss-cn-hangzhou.aliyuncs.com\/filemanage\/e069b36c568d909f\/templateapi\/16669469911346\/cover.webp?nonce=cfcd208495d565ef66e7dff9f98764da","updatetime":"0","height":1920,"width":1080,"video":"http:\/\/rdfile.oss-cn-hangzhou.aliyuncs.com\/filemanage\/e069b36c568d909f\/templateapi\/16669469911346\/video.mp4?nonce=cfcd208495d565ef66e7dff9f98764da","sort":0,"version":154,"cover2":"","appkey":"init","duration":0,"extra":{},"polyglot":[],"category":"0","audit":0,"is_ugc":0,"text_need":0,"picture_need":0,"video_need":3,"type":"templateapi"},{"id":"1016316","ufid":"57477286","name":"\u9f20\u6807\u7ffb\u9875\u6548\u679c","file":"http:\/\/rdfile.oss-cn-hangzhou.aliyuncs.com\/filemanage\/e069b36c568d909f\/templateapi\/16668677228530\/file.zip?nonce=e1c10094e0daab06525d00e6e36233ef","cover":"http:\/\/rdfile.oss-cn-hangzhou.aliyuncs.com\/filemanage\/e069b36c568d909f\/templateapi\/16668677228530\/cover.webp?nonce=e1c10094e0daab06525d00e6e36233ef","updatetime":"1684897510","height":1059,"width":1059,"video":"http:\/\/rdfile.oss-cn-hangzhou.aliyuncs.com\/filemanage\/e069b36c568d909f\/templateapi\/16668677228530\/video.mp4?nonce=e1c10094e0daab06525d00e6e36233ef","sort":0,"version":153,"cover2":"","appkey":"init","duration":0,"extra":{},"polyglot":[],"category":"0","audit":0,"is_ugc":0,"text_need":2,"picture_need":7,"video_need":0,"type":"templateapi"},{"id":"1016312","ufid":"32262340","name":"\u82e5\u628a\u4f60\u6bd4\u4f5c\u6b4c","file":"http:\/\/rdfile.oss-cn-hangzhou.aliyuncs.com\/filemanage\/e069b36c568d909f\/templateapi\/16668605643588\/file.zip?nonce=cfcd208495d565ef66e7dff9f98764da","cover":"http:\/\/rdfile.oss-cn-hangzhou.aliyuncs.com\/filemanage\/e069b36c568d909f\/templateapi\/16668605643588\/cover.webp?nonce=cfcd208495d565ef66e7dff9f98764da","updatetime":"0","height":1920,"width":1080,"video":"http:\/\/rdfile.oss-cn-hangzhou.aliyuncs.com\/filemanage\/e069b36c568d909f\/templateapi\/16668605643588\/video.mp4?nonce=cfcd208495d565ef66e7dff9f98764da","sort":0,"version":154,"cover2":"","appkey":"init","duration":0,"extra":{},"polyglot":[],"category":"0","audit":0,"is_ugc":0,"text_need":0,"picture_need":0,"video_need":3,"type":"templateapi"},{"id":"1016308","ufid":"71027933","name":"\u6e05\u7eaf\u5c11\u5973\u8857\u62cd","file":"http:\/\/rdfile.oss-cn-hangzhou.aliyuncs.com\/filemanage\/e069b36c568d909f\/templateapi\/16667744592007\/file.zip?nonce=cfcd208495d565ef66e7dff9f98764da","cover":"http:\/\/rdfile.oss-cn-hangzhou.aliyuncs.com\/filemanage\/e069b36c568d909f\/templateapi\/16667744592007\/cover.webp?nonce=cfcd208495d565ef66e7dff9f98764da","updatetime":"0","height":1920,"width":1080,"video":"http:\/\/rdfile.oss-cn-hangzhou.aliyuncs.com\/filemanage\/e069b36c568d909f\/templateapi\/16667744592007\/video.mp4?nonce=cfcd208495d565ef66e7dff9f98764da","sort":0,"version":154,"cover2":"","appkey":"init","duration":0,"extra":{},"polyglot":[],"category":"0","audit":0,"is_ugc":0,"text_need":0,"picture_need":0,"video_need":3,"type":"templateapi"},{"id":"1016306","ufid":"31824503","name":"\u53e4\u88c5\u7f8e\u5973","file":"http:\/\/rdfile.oss-cn-hangzhou.aliyuncs.com\/filemanage\/e069b36c568d909f\/templateapi\/16667694176294\/file.zip?nonce=cfcd208495d565ef66e7dff9f98764da","cover":"http:\/\/rdfile.oss-cn-hangzhou.aliyuncs.com\/filemanage\/e069b36c568d909f\/templateapi\/16667694176294\/cover.webp?nonce=cfcd208495d565ef66e7dff9f98764da","updatetime":"0","height":1918,"width":1080,"video":"http:\/\/rdfile.oss-cn-hangzhou.aliyuncs.com\/filemanage\/e069b36c568d909f\/templateapi\/16667694176294\/video.mp4?nonce=cfcd208495d565ef66e7dff9f98764da","sort":0,"version":154,"cover2":"","appkey":"init","duration":0,"extra":{},"polyglot":[],"category":"0","audit":0,"is_ugc":0,"text_need":0,"picture_need":0,"video_need":6,"type":"templateapi"},{"id":"1016302","ufid":"57633731","name":"\u5fa1\u59d0\u8857\u62cd","file":"http:\/\/rdfile.oss-cn-hangzhou.aliyuncs.com\/filemanage\/e069b36c568d909f\/templateapi\/16666887379670\/file.zip?nonce=cfcd208495d565ef66e7dff9f98764da","cover":"http:\/\/rdfile.oss-cn-hangzhou.aliyuncs.com\/filemanage\/e069b36c568d909f\/templateapi\/16666887379670\/cover.webp?nonce=cfcd208495d565ef66e7dff9f98764da","updatetime":"0","height":1920,"width":1080,"video":"http:\/\/rdfile.oss-cn-hangzhou.aliyuncs.com\/filemanage\/e069b36c568d909f\/templateapi\/16666887379670\/video.mp4?nonce=cfcd208495d565ef66e7dff9f98764da","sort":0,"version":154,"cover2":"","appkey":"init","duration":0,"extra":{},"polyglot":[],"category":"0","audit":0,"is_ugc":0,"text_need":0,"picture_need":0,"video_need":4,"type":"templateapi"}]}}