{"code":0,"msg":"success","data":{"total":35,"per_page":10,"current_page":3,"last_page":4,"data":[{"id":"1014873","ufid":"74452313","name":"\u8c03\u67e5\u4e2d","file":"http:\/\/rdfile.oss-cn-hangzhou.aliyuncs.com\/filemanage\/e069b36c568d909f\/templateapi\/16506079878091\/file.zip?nonce=5c6733979df740c8d6b0e3558466a325","cover":"http:\/\/rdfile.oss-cn-hangzhou.aliyuncs.com\/filemanage\/e069b36c568d909f\/templateapi\/16506079878091\/cover.webp?nonce=5c6733979df740c8d6b0e3558466a325","updatetime":"1684896702","height":720,"width":1252,"video":"http:\/\/rdfile.oss-cn-hangzhou.aliyuncs.com\/filemanage\/e069b36c568d909f\/templateapi\/16506079878091\/video.mp4?nonce=5c6733979df740c8d6b0e3558466a325","sort":0,"version":152,"cover2":"","appkey":"init","duration":0,"extra":{},"polyglot":[],"category":"0","audit":0,"is_ugc":0,"text_need":0,"picture_need":0,"video_need":9,"type":"templateapi"},{"id":"1014790","ufid":"57401620","name":"\u5f88\u60f3\u67d0\u4eba","file":"http:\/\/rdfile.oss-cn-hangzhou.aliyuncs.com\/filemanage\/e069b36c568d909f\/templateapi\/16498449376883\/file.zip?nonce=bbbaf3fb9d192c25b7380cc3afa5a350","cover":"http:\/\/rdfile.oss-cn-hangzhou.aliyuncs.com\/filemanage\/e069b36c568d909f\/templateapi\/16498449376883\/cover.png?nonce=bbbaf3fb9d192c25b7380cc3afa5a350&x-oss-process=style\/templateapi","updatetime":"1684913298","height":633,"width":356,"video":"http:\/\/rdfile.oss-cn-hangzhou.aliyuncs.com\/filemanage\/e069b36c568d909f\/templateapi\/16498449376883\/video.mp4?nonce=bbbaf3fb9d192c25b7380cc3afa5a350","sort":0,"version":152,"cover2":"","appkey":"init","duration":0,"extra":{},"polyglot":[],"category":"0","audit":0,"is_ugc":0,"text_need":5,"picture_need":5,"video_need":0,"type":"templateapi"},{"id":"1014651","ufid":"87423526","name":"\u7070\u8272\u8f68\u8ff9","file":"http:\/\/rdfile.oss-cn-hangzhou.aliyuncs.com\/filemanage\/e069b36c568d909f\/templateapi\/16480256115681\/file.zip?nonce=358514fd3759e127cd07af1d06213266","cover":"http:\/\/rdfile.oss-cn-hangzhou.aliyuncs.com\/filemanage\/e069b36c568d909f\/templateapi\/16480256115681\/cover.png?nonce=358514fd3759e127cd07af1d06213266&x-oss-process=style\/templateapi","updatetime":"1684913322","height":1280,"width":720,"video":"http:\/\/rdfile.oss-cn-hangzhou.aliyuncs.com\/filemanage\/e069b36c568d909f\/templateapi\/16480256115681\/video.mp4?nonce=358514fd3759e127cd07af1d06213266","sort":0,"version":150,"cover2":"","appkey":"init","duration":0,"extra":{},"polyglot":[],"category":"0","audit":0,"is_ugc":0,"text_need":0,"picture_need":0,"video_need":1,"type":"templateapi"},{"id":"1014385","ufid":"16512633","name":"\u4f24\u5fc3\u592a\u5e73\u6d0b","file":"http:\/\/rdfile.oss-cn-hangzhou.aliyuncs.com\/filemanage\/e069b36c568d909f\/templateapi\/16461070254187\/file.zip?nonce=0a89b3f63d0b6a44cf98204fb593d19a","cover":"http:\/\/rdfile.oss-cn-hangzhou.aliyuncs.com\/filemanage\/e069b36c568d909f\/templateapi\/16461070254187\/cover.png?nonce=0a89b3f63d0b6a44cf98204fb593d19a&x-oss-process=style\/templateapi","updatetime":"1684913843","height":1230,"width":692,"video":"http:\/\/rdfile.oss-cn-hangzhou.aliyuncs.com\/filemanage\/e069b36c568d909f\/templateapi\/16461070254187\/video.mp4?nonce=0a89b3f63d0b6a44cf98204fb593d19a","sort":0,"version":150,"cover2":"","appkey":"init","duration":0,"extra":{},"polyglot":[],"category":"0","audit":0,"is_ugc":0,"text_need":1,"picture_need":1,"video_need":0,"type":"templateapi"},{"id":"1013075","ufid":"72350030","name":"\u4e00\u4e2a\u955c\u5934\u4e00\u53e5\u6b4c\u8bcd","file":"http:\/\/rdfile.oss-cn-hangzhou.aliyuncs.com\/filemanage\/e069b36c568d909f\/templateapi\/16413477459438\/file.zip?nonce=2a8d7a1538c20b3b428c357f18db6bb6","cover":"http:\/\/rdfile.oss-cn-hangzhou.aliyuncs.com\/filemanage\/e069b36c568d909f\/templateapi\/16413477459438\/cover.png?nonce=2a8d7a1538c20b3b428c357f18db6bb6&x-oss-process=style\/templateapi","updatetime":"1684895196","height":1232,"width":693,"video":"http:\/\/rdfile.oss-cn-hangzhou.aliyuncs.com\/filemanage\/e069b36c568d909f\/templateapi\/16413477459438\/video.mp4?nonce=2a8d7a1538c20b3b428c357f18db6bb6","sort":100,"version":150,"cover2":"","appkey":"init","duration":0,"extra":{},"polyglot":[],"category":"0","audit":0,"is_ugc":0,"text_need":3,"picture_need":1,"video_need":0,"type":"templateapi"},{"id":"1013074","ufid":"39084250","name":"\u65e9\u5b89","file":"http:\/\/rdfile.oss-cn-hangzhou.aliyuncs.com\/filemanage\/e069b36c568d909f\/templateapi\/16412644813240\/file.zip?nonce=fe2c0c7dd4c9ab2b742ec80306dd124f","cover":"http:\/\/rdfile.oss-cn-hangzhou.aliyuncs.com\/filemanage\/e069b36c568d909f\/templateapi\/16412644813240\/cover.png?nonce=fe2c0c7dd4c9ab2b742ec80306dd124f&x-oss-process=style\/templateapi","updatetime":"1684913863","height":1231,"width":693,"video":"http:\/\/rdfile.oss-cn-hangzhou.aliyuncs.com\/filemanage\/e069b36c568d909f\/templateapi\/16412644813240\/video.mp4?nonce=fe2c0c7dd4c9ab2b742ec80306dd124f","sort":100,"version":150,"cover2":"","appkey":"init","duration":0,"extra":{},"polyglot":[],"category":"0","audit":0,"is_ugc":0,"text_need":5,"picture_need":1,"video_need":0,"type":"templateapi"},{"id":"1012982","ufid":"85433287","name":"\u9047\u89c1\u4f60\u6211\u5f88\u559c\u6b22","file":"http:\/\/rdfile.oss-cn-hangzhou.aliyuncs.com\/filemanage\/e069b36c568d909f\/templateapi\/16399708663496\/file.zip?nonce=dbce253f031799d0fecd226c9d452e60","cover":"http:\/\/rdfile.oss-cn-hangzhou.aliyuncs.com\/filemanage\/e069b36c568d909f\/templateapi\/16399708663496\/cover.png?nonce=dbce253f031799d0fecd226c9d452e60&x-oss-process=style\/templateapi","updatetime":"1684895223","height":1230,"width":692,"video":"http:\/\/rdfile.oss-cn-hangzhou.aliyuncs.com\/filemanage\/e069b36c568d909f\/templateapi\/16399708663496\/video.mp4?nonce=dbce253f031799d0fecd226c9d452e60","sort":100,"version":150,"cover2":"","appkey":"init","duration":0,"extra":{},"polyglot":[],"category":"0","audit":0,"is_ugc":0,"text_need":2,"picture_need":1,"video_need":0,"type":"templateapi"},{"id":"1012951","ufid":"18819035","name":"\u968f\u8bb0","file":"http:\/\/rdfile.oss-cn-hangzhou.aliyuncs.com\/filemanage\/e069b36c568d909f\/templateapi\/16391283221931\/file.zip?nonce=3a049bc09f89ebb4b1c7f0689d57b442","cover":"http:\/\/rdfile.oss-cn-hangzhou.aliyuncs.com\/filemanage\/e069b36c568d909f\/templateapi\/16391283221931\/cover.png?nonce=3a049bc09f89ebb4b1c7f0689d57b442&x-oss-process=style\/templateapi","updatetime":"1684895236","height":1230,"width":692,"video":"http:\/\/rdfile.oss-cn-hangzhou.aliyuncs.com\/filemanage\/e069b36c568d909f\/templateapi\/16391283221931\/video.mp4?nonce=3a049bc09f89ebb4b1c7f0689d57b442","sort":100,"version":149,"cover2":"","appkey":"init","duration":0,"extra":{},"polyglot":[],"category":"0","audit":0,"is_ugc":0,"text_need":3,"picture_need":3,"video_need":0,"type":"templateapi"},{"id":"1012490","ufid":"56582294","name":"\u795e\u66f2","file":"http:\/\/rdfile.oss-cn-hangzhou.aliyuncs.com\/filemanage\/e069b36c568d909f\/templateapi\/16348721582412\/file.zip?nonce=ba7539e3e8ef3f379b353f53dfc26a42","cover":"http:\/\/rdfile.oss-cn-hangzhou.aliyuncs.com\/filemanage\/e069b36c568d909f\/templateapi\/16348721582412\/cover.png?nonce=ba7539e3e8ef3f379b353f53dfc26a42&x-oss-process=style\/templateapi","updatetime":"1684912728","height":1280,"width":720,"video":"http:\/\/rdfile.oss-cn-hangzhou.aliyuncs.com\/filemanage\/e069b36c568d909f\/templateapi\/16348721582412\/video.mp4?nonce=ba7539e3e8ef3f379b353f53dfc26a42","sort":100,"version":148,"cover2":"","appkey":"init","duration":0,"extra":{},"polyglot":[],"category":"0","audit":0,"is_ugc":0,"text_need":0,"picture_need":0,"video_need":5,"type":"templateapi"},{"id":"1012469","ufid":"56955228","name":"\u5e7f\u897f\u7248\u6843\u82b1\u8fd0","file":"http:\/\/rdfile.oss-cn-hangzhou.aliyuncs.com\/filemanage\/e069b36c568d909f\/templateapi\/16339419995154\/file.zip?nonce=117c52ef9d04b5849f57676fa5a3ace4","cover":"http:\/\/rdfile.oss-cn-hangzhou.aliyuncs.com\/filemanage\/e069b36c568d909f\/templateapi\/16339419995154\/cover.png?nonce=117c52ef9d04b5849f57676fa5a3ace4&x-oss-process=style\/templateapi","updatetime":"1684912537","height":1248,"width":702,"video":"http:\/\/rdfile.oss-cn-hangzhou.aliyuncs.com\/filemanage\/e069b36c568d909f\/templateapi\/16339419995154\/video.mp4?nonce=117c52ef9d04b5849f57676fa5a3ace4","sort":100,"version":148,"cover2":"","appkey":"init","duration":0,"extra":{},"polyglot":[],"category":"0","audit":0,"is_ugc":0,"text_need":0,"picture_need":15,"video_need":0,"type":"templateapi"}]}}