{"code":0,"msg":"success","data":{"total":636,"per_page":10,"current_page":38,"last_page":64,"data":[{"id":"1014754","ufid":"17267079","name":"\u4eba\u7269\u51fa\u573a\u4ecb\u7ecd","file":"http:\/\/rdfile.oss-cn-hangzhou.aliyuncs.com\/filemanage\/e069b36c568d909f\/templateapi\/16493275421026\/file.zip?nonce=a807dec622cc1f62148fb9f9b015063b","cover":"http:\/\/rdfile.oss-cn-hangzhou.aliyuncs.com\/filemanage\/e069b36c568d909f\/templateapi\/16493275421026\/cover.png?nonce=a807dec622cc1f62148fb9f9b015063b&x-oss-process=style\/templateapi","updatetime":"1704185840","height":720,"width":1280,"video":"http:\/\/rdfile.oss-cn-hangzhou.aliyuncs.com\/filemanage\/e069b36c568d909f\/templateapi\/16493275421026\/video.mp4?nonce=a807dec622cc1f62148fb9f9b015063b","sort":0,"version":150,"cover2":"","appkey":"init","duration":0,"extra":{},"polyglot":{"en":"Character introduction"},"category":"0","audit":0,"is_ugc":0,"text_need":0,"picture_need":0,"video_need":2,"type":"templateapi"},{"id":"1014751","ufid":"70341162","name":"\u8f6c\u573a\u73a9\u6cd5","file":"http:\/\/rdfile.oss-cn-hangzhou.aliyuncs.com\/filemanage\/e069b36c568d909f\/templateapi\/16493249767932\/file.zip?nonce=a807dec622cc1f62148fb9f9b015063b","cover":"http:\/\/rdfile.oss-cn-hangzhou.aliyuncs.com\/filemanage\/e069b36c568d909f\/templateapi\/16493249767932\/cover.png?nonce=a807dec622cc1f62148fb9f9b015063b&x-oss-process=style\/templateapi","updatetime":"1704185840","height":633,"width":1013,"video":"http:\/\/rdfile.oss-cn-hangzhou.aliyuncs.com\/filemanage\/e069b36c568d909f\/templateapi\/16493249767932\/video.mp4?nonce=a807dec622cc1f62148fb9f9b015063b","sort":0,"version":151,"cover2":"","appkey":"init","duration":0,"extra":{},"polyglot":{"en":"Transition gameplay"},"category":"0","audit":0,"is_ugc":0,"text_need":0,"picture_need":1,"video_need":0,"type":"templateapi"},{"id":"1014750","ufid":"23252853","name":"\u4f60\u597d\uff0c\u6211\u662f\u738b\u601d\u806a","file":"http:\/\/rdfile.oss-cn-hangzhou.aliyuncs.com\/filemanage\/e069b36c568d909f\/templateapi\/16493188711462\/file.zip?nonce=a807dec622cc1f62148fb9f9b015063b","cover":"http:\/\/rdfile.oss-cn-hangzhou.aliyuncs.com\/filemanage\/e069b36c568d909f\/templateapi\/16493188711462\/cover.png?nonce=a807dec622cc1f62148fb9f9b015063b&x-oss-process=style\/templateapi","updatetime":"1704185840","height":607,"width":1080,"video":"http:\/\/rdfile.oss-cn-hangzhou.aliyuncs.com\/filemanage\/e069b36c568d909f\/templateapi\/16493188711462\/video.mp4?nonce=a807dec622cc1f62148fb9f9b015063b","sort":0,"version":152,"cover2":"","appkey":"init","duration":0,"extra":{},"polyglot":{"en":"Hello, I am Wang Sicong"},"category":"0","audit":0,"is_ugc":0,"text_need":11,"picture_need":0,"video_need":2,"type":"templateapi"},{"id":"1014744","ufid":"23845867","name":"\u6cbb\u6108\u8857\u666f","file":"http:\/\/rdfile.oss-cn-hangzhou.aliyuncs.com\/filemanage\/e069b36c568d909f\/templateapi\/16492295055649\/file.zip?nonce=73c8f5deeb1c63ac40d4260a9ae94343","cover":"http:\/\/rdfile.oss-cn-hangzhou.aliyuncs.com\/filemanage\/e069b36c568d909f\/templateapi\/16492295055649\/cover.png?nonce=73c8f5deeb1c63ac40d4260a9ae94343&x-oss-process=style\/templateapi","updatetime":"1704185839","height":1280,"width":720,"video":"http:\/\/rdfile.oss-cn-hangzhou.aliyuncs.com\/filemanage\/e069b36c568d909f\/templateapi\/16492295055649\/video.mp4?nonce=73c8f5deeb1c63ac40d4260a9ae94343","sort":0,"version":150,"cover2":"","appkey":"init","duration":0,"extra":{},"polyglot":{"en":"Healing Street Scene"},"category":"0","audit":0,"is_ugc":0,"text_need":0,"picture_need":9,"video_need":0,"type":"templateapi"},{"id":"1014743","ufid":"50074062","name":"\u5f53\u5e74\u4e00\u8d77\u51fa\u9053\u7684\u4e94\u4e2a\u4eba","file":"http:\/\/rdfile.oss-cn-hangzhou.aliyuncs.com\/filemanage\/e069b36c568d909f\/templateapi\/16492172883514\/file.zip?nonce=73c8f5deeb1c63ac40d4260a9ae94343","cover":"http:\/\/rdfile.oss-cn-hangzhou.aliyuncs.com\/filemanage\/e069b36c568d909f\/templateapi\/16492172883514\/cover.png?nonce=73c8f5deeb1c63ac40d4260a9ae94343&x-oss-process=style\/templateapi","updatetime":"1704185839","height":633,"width":355,"video":"http:\/\/rdfile.oss-cn-hangzhou.aliyuncs.com\/filemanage\/e069b36c568d909f\/templateapi\/16492172883514\/video.mp4?nonce=73c8f5deeb1c63ac40d4260a9ae94343","sort":0,"version":151,"cover2":"","appkey":"init","duration":0,"extra":{},"polyglot":{"en":"The five people who debuted together back then"},"category":"0","audit":0,"is_ugc":0,"text_need":2,"picture_need":1,"video_need":0,"type":"templateapi"},{"id":"1014740","ufid":"67832903","name":"\u5929\u5e95\u4e0b\u6709\u8fd9\u4e48\u4fca\u4fcf\u7684\u4eba","file":"http:\/\/rdfile.oss-cn-hangzhou.aliyuncs.com\/filemanage\/e069b36c568d909f\/templateapi\/16488933115000\/file.zip?nonce=73c8f5deeb1c63ac40d4260a9ae94343","cover":"http:\/\/rdfile.oss-cn-hangzhou.aliyuncs.com\/filemanage\/e069b36c568d909f\/templateapi\/16488933115000\/cover.png?nonce=73c8f5deeb1c63ac40d4260a9ae94343&x-oss-process=style\/templateapi","updatetime":"1704185839","height":1280,"width":720,"video":"http:\/\/rdfile.oss-cn-hangzhou.aliyuncs.com\/filemanage\/e069b36c568d909f\/templateapi\/16488933115000\/video.mp4?nonce=73c8f5deeb1c63ac40d4260a9ae94343","sort":0,"version":150,"cover2":"","appkey":"init","duration":0,"extra":{},"polyglot":{"en":"There are such handsome people in the world"},"category":"0","audit":0,"is_ugc":0,"text_need":0,"picture_need":1,"video_need":0,"type":"templateapi"},{"id":"1014739","ufid":"12764982","name":"\u4e0d\u8981\u518d\u558a\u6211\u559d\u9152","file":"http:\/\/rdfile.oss-cn-hangzhou.aliyuncs.com\/filemanage\/e069b36c568d909f\/templateapi\/16488849838618\/file.zip?nonce=73c8f5deeb1c63ac40d4260a9ae94343","cover":"http:\/\/rdfile.oss-cn-hangzhou.aliyuncs.com\/filemanage\/e069b36c568d909f\/templateapi\/16488849838618\/cover.png?nonce=73c8f5deeb1c63ac40d4260a9ae94343&x-oss-process=style\/templateapi","updatetime":"1704185839","height":1280,"width":720,"video":"http:\/\/rdfile.oss-cn-hangzhou.aliyuncs.com\/filemanage\/e069b36c568d909f\/templateapi\/16488849838618\/video.mp4?nonce=73c8f5deeb1c63ac40d4260a9ae94343","sort":0,"version":150,"cover2":"","appkey":"init","duration":0,"extra":{},"polyglot":{"en":"Don"},"category":"0","audit":0,"is_ugc":0,"text_need":0,"picture_need":1,"video_need":0,"type":"templateapi"},{"id":"1014729","ufid":"93980579","name":"\u8e6c\u817f\u6740","file":"http:\/\/rdfile.oss-cn-hangzhou.aliyuncs.com\/filemanage\/e069b36c568d909f\/templateapi\/16487948766747\/file.zip?nonce=c691d7f5066e5298b0faf8b0ea4aef8b","cover":"http:\/\/rdfile.oss-cn-hangzhou.aliyuncs.com\/filemanage\/e069b36c568d909f\/templateapi\/16487948766747\/cover.png?nonce=c691d7f5066e5298b0faf8b0ea4aef8b&x-oss-process=style\/templateapi","updatetime":"1704185838","height":1280,"width":720,"video":"http:\/\/rdfile.oss-cn-hangzhou.aliyuncs.com\/filemanage\/e069b36c568d909f\/templateapi\/16487948766747\/video.mp4?nonce=c691d7f5066e5298b0faf8b0ea4aef8b","sort":0,"version":150,"cover2":"","appkey":"init","duration":0,"extra":{},"polyglot":{"en":"Kick to kill"},"category":"0","audit":0,"is_ugc":0,"text_need":0,"picture_need":0,"video_need":1,"type":"templateapi"},{"id":"1014728","ufid":"59635371","name":"\u5f00\u5de5\u4e86","file":"http:\/\/rdfile.oss-cn-hangzhou.aliyuncs.com\/filemanage\/e069b36c568d909f\/templateapi\/16487939787271\/file.zip?nonce=56a8e827a1ffaea0acf44e2a01590f96","cover":"http:\/\/rdfile.oss-cn-hangzhou.aliyuncs.com\/filemanage\/e069b36c568d909f\/templateapi\/16487939787271\/cover.png?nonce=56a8e827a1ffaea0acf44e2a01590f96&x-oss-process=style\/templateapi","updatetime":"1704185837","height":1280,"width":720,"video":"http:\/\/rdfile.oss-cn-hangzhou.aliyuncs.com\/filemanage\/e069b36c568d909f\/templateapi\/16487939787271\/video.mp4?nonce=56a8e827a1ffaea0acf44e2a01590f96","sort":0,"version":150,"cover2":"","appkey":"init","duration":0,"extra":{},"polyglot":{"en":"Start work"},"category":"0","audit":0,"is_ugc":0,"text_need":0,"picture_need":1,"video_need":0,"type":"templateapi"},{"id":"1014721","ufid":"33188148","name":"\u6625\u6696\u82b1\u5f00","file":"http:\/\/rdfile.oss-cn-hangzhou.aliyuncs.com\/filemanage\/e069b36c568d909f\/templateapi\/16487113775094\/file.zip?nonce=56a8e827a1ffaea0acf44e2a01590f96","cover":"http:\/\/rdfile.oss-cn-hangzhou.aliyuncs.com\/filemanage\/e069b36c568d909f\/templateapi\/16487113775094\/cover.png?nonce=56a8e827a1ffaea0acf44e2a01590f96&x-oss-process=style\/templateapi","updatetime":"1704185837","height":720,"width":1280,"video":"http:\/\/rdfile.oss-cn-hangzhou.aliyuncs.com\/filemanage\/e069b36c568d909f\/templateapi\/16487113775094\/video.mp4?nonce=56a8e827a1ffaea0acf44e2a01590f96","sort":0,"version":150,"cover2":"","appkey":"init","duration":0,"extra":{},"polyglot":{"en":"Spring is warm and flowers are blooming"},"category":"0","audit":0,"is_ugc":0,"text_need":0,"picture_need":0,"video_need":6,"type":"templateapi"}]}}