{"code":0,"msg":"success","data":{"total":636,"per_page":10,"current_page":26,"last_page":64,"data":[{"id":"1015951","ufid":"18421391","name":"I love you","file":"http:\/\/rdfile.oss-cn-hangzhou.aliyuncs.com\/filemanage\/e069b36c568d909f\/templateapi\/16618426473959\/file.zip?nonce=cfcd208495d565ef66e7dff9f98764da","cover":"http:\/\/rdfile.oss-cn-hangzhou.aliyuncs.com\/filemanage\/e069b36c568d909f\/templateapi\/16618426473959\/cover.webp?nonce=cfcd208495d565ef66e7dff9f98764da","updatetime":"0","height":1748,"width":983,"video":"http:\/\/rdfile.oss-cn-hangzhou.aliyuncs.com\/filemanage\/e069b36c568d909f\/templateapi\/16618426473959\/video.mp4?nonce=cfcd208495d565ef66e7dff9f98764da","sort":0,"version":153,"cover2":"","appkey":"init","duration":0,"extra":{},"polyglot":[],"category":"0","audit":0,"is_ugc":0,"text_need":1,"picture_need":0,"video_need":5,"type":"templateapi"},{"id":"1015924","ufid":"55023046","name":"\u6211\u4eec\u7684\u7535\u5f71","file":"http:\/\/rdfile.oss-cn-hangzhou.aliyuncs.com\/filemanage\/e069b36c568d909f\/templateapi\/16614125346065\/file.zip?nonce=5e71bf18f01abc3a9f0127f9a209df7f","cover":"http:\/\/rdfile.oss-cn-hangzhou.aliyuncs.com\/filemanage\/e069b36c568d909f\/templateapi\/16614125346065\/cover.webp?nonce=5e71bf18f01abc3a9f0127f9a209df7f","updatetime":"1684898206","height":1060,"width":596,"video":"http:\/\/rdfile.oss-cn-hangzhou.aliyuncs.com\/filemanage\/e069b36c568d909f\/templateapi\/16614125346065\/video.mp4?nonce=5e71bf18f01abc3a9f0127f9a209df7f","sort":0,"version":153,"cover2":"","appkey":"init","duration":0,"extra":{},"polyglot":[],"category":"0","audit":0,"is_ugc":0,"text_need":6,"picture_need":6,"video_need":0,"type":"templateapi"},{"id":"1015923","ufid":"51035831","name":"\u738b\u9e64\u68e3\u7529\u6d77\u62a5\u5e94\u63f4","file":"http:\/\/rdfile.oss-cn-hangzhou.aliyuncs.com\/filemanage\/e069b36c568d909f\/templateapi\/16613455896013\/file.zip?nonce=cfcd208495d565ef66e7dff9f98764da","cover":"http:\/\/rdfile.oss-cn-hangzhou.aliyuncs.com\/filemanage\/e069b36c568d909f\/templateapi\/16613455896013\/cover.webp?nonce=cfcd208495d565ef66e7dff9f98764da","updatetime":"0","height":1280,"width":720,"video":"http:\/\/rdfile.oss-cn-hangzhou.aliyuncs.com\/filemanage\/e069b36c568d909f\/templateapi\/16613455896013\/video.mp4?nonce=cfcd208495d565ef66e7dff9f98764da","sort":0,"version":153,"cover2":"","appkey":"init","duration":0,"extra":{},"polyglot":[],"category":"0","audit":0,"is_ugc":0,"text_need":0,"picture_need":0,"video_need":1,"type":"templateapi"},{"id":"1015918","ufid":"61255723","name":"\u7231\u5fc3\u5927\u96c1","file":"http:\/\/rdfile.oss-cn-hangzhou.aliyuncs.com\/filemanage\/e069b36c568d909f\/templateapi\/16613137953147\/file.zip?nonce=37fd0c650d79cc6cd97577859929ae6f","cover":"http:\/\/rdfile.oss-cn-hangzhou.aliyuncs.com\/filemanage\/e069b36c568d909f\/templateapi\/16613137953147\/cover.webp?nonce=37fd0c650d79cc6cd97577859929ae6f","updatetime":"1684912156","height":1059,"width":596,"video":"http:\/\/rdfile.oss-cn-hangzhou.aliyuncs.com\/filemanage\/e069b36c568d909f\/templateapi\/16613137953147\/video.mp4?nonce=37fd0c650d79cc6cd97577859929ae6f","sort":0,"version":153,"cover2":"","appkey":"init","duration":0,"extra":{},"polyglot":[],"category":"0","audit":0,"is_ugc":0,"text_need":0,"picture_need":0,"video_need":1,"type":"templateapi"},{"id":"1015913","ufid":"97113180","name":"\u76d7\u68a6\u7a7a\u95f4","file":"http:\/\/rdfile.oss-cn-hangzhou.aliyuncs.com\/filemanage\/e069b36c568d909f\/templateapi\/16612266446637\/file.zip?nonce=2466826dc4d004838f02cbe1505a1515","cover":"http:\/\/rdfile.oss-cn-hangzhou.aliyuncs.com\/filemanage\/e069b36c568d909f\/templateapi\/16612266446637\/cover.webp?nonce=2466826dc4d004838f02cbe1505a1515","updatetime":"1684896918","height":608,"width":1080,"video":"http:\/\/rdfile.oss-cn-hangzhou.aliyuncs.com\/filemanage\/e069b36c568d909f\/templateapi\/16612266446637\/video.mp4?nonce=2466826dc4d004838f02cbe1505a1515","sort":0,"version":153,"cover2":"","appkey":"init","duration":0,"extra":{},"polyglot":[],"category":"0","audit":0,"is_ugc":0,"text_need":0,"picture_need":0,"video_need":2,"type":"templateapi"},{"id":"1015912","ufid":"89623589","name":"\u4eba\u7269\u5411\u524d\u8d70\u5e0c\u533a\u67ef\u514b\u53d8\u7126","file":"http:\/\/rdfile.oss-cn-hangzhou.aliyuncs.com\/filemanage\/e069b36c568d909f\/templateapi\/16612234172735\/file.zip?nonce=cfcd208495d565ef66e7dff9f98764da","cover":"http:\/\/rdfile.oss-cn-hangzhou.aliyuncs.com\/filemanage\/e069b36c568d909f\/templateapi\/16612234172735\/cover.webp?nonce=cfcd208495d565ef66e7dff9f98764da","updatetime":"0","height":720,"width":1076,"video":"http:\/\/rdfile.oss-cn-hangzhou.aliyuncs.com\/filemanage\/e069b36c568d909f\/templateapi\/16612234172735\/video.mp4?nonce=cfcd208495d565ef66e7dff9f98764da","sort":0,"version":153,"cover2":"","appkey":"init","duration":0,"extra":{},"polyglot":[],"category":"0","audit":0,"is_ugc":0,"text_need":0,"picture_need":0,"video_need":1,"type":"templateapi"},{"id":"1015911","ufid":"15064434","name":"\u6587\u5b57\u70df\u96fe\u663e\u73b0\u6548\u679c","file":"http:\/\/rdfile.oss-cn-hangzhou.aliyuncs.com\/filemanage\/e069b36c568d909f\/templateapi\/16608983007130\/file.zip?nonce=753a6ba5e1a1037ee21d32216d011438","cover":"http:\/\/rdfile.oss-cn-hangzhou.aliyuncs.com\/filemanage\/e069b36c568d909f\/templateapi\/16608983007130\/cover.webp?nonce=753a6ba5e1a1037ee21d32216d011438","updatetime":"1684912277","height":1060,"width":596,"video":"http:\/\/rdfile.oss-cn-hangzhou.aliyuncs.com\/filemanage\/e069b36c568d909f\/templateapi\/16608983007130\/video.mp4?nonce=753a6ba5e1a1037ee21d32216d011438","sort":0,"version":153,"cover2":"","appkey":"init","duration":0,"extra":{},"polyglot":[],"category":"0","audit":0,"is_ugc":0,"text_need":1,"picture_need":0,"video_need":1,"type":"templateapi"},{"id":"1015907","ufid":"61313814","name":"\u7ffb\u9875\u76f8\u518c","file":"http:\/\/rdfile.oss-cn-hangzhou.aliyuncs.com\/filemanage\/e069b36c568d909f\/templateapi\/16606205818634\/file.zip?nonce=c8ab780a86ee4c6724ab8a4ff89c75e7","cover":"http:\/\/rdfile.oss-cn-hangzhou.aliyuncs.com\/filemanage\/e069b36c568d909f\/templateapi\/16606205818634\/cover.webp?nonce=c8ab780a86ee4c6724ab8a4ff89c75e7","updatetime":"1684914332","height":720,"width":1280,"video":"http:\/\/rdfile.oss-cn-hangzhou.aliyuncs.com\/filemanage\/e069b36c568d909f\/templateapi\/16606205818634\/video.mp4?nonce=c8ab780a86ee4c6724ab8a4ff89c75e7","sort":0,"version":153,"cover2":"","appkey":"init","duration":0,"extra":{},"polyglot":[],"category":"0","audit":0,"is_ugc":0,"text_need":0,"picture_need":0,"video_need":32,"type":"templateapi"},{"id":"1015837","ufid":"98482302","name":"\u7f8e\u4eba\u5982\u753b","file":"http:\/\/rdfile.oss-cn-hangzhou.aliyuncs.com\/filemanage\/e069b36c568d909f\/templateapi\/16602084806896\/file.zip?nonce=faf1d216801db988b08435c44d1e02e6","cover":"http:\/\/rdfile.oss-cn-hangzhou.aliyuncs.com\/filemanage\/e069b36c568d909f\/templateapi\/16602084806896\/cover.webp?nonce=faf1d216801db988b08435c44d1e02e6","updatetime":"1684898037","height":607,"width":1080,"video":"http:\/\/rdfile.oss-cn-hangzhou.aliyuncs.com\/filemanage\/e069b36c568d909f\/templateapi\/16602084806896\/video.mp4?nonce=faf1d216801db988b08435c44d1e02e6","sort":0,"version":153,"cover2":"","appkey":"init","duration":0,"extra":{},"polyglot":[],"category":"0","audit":0,"is_ugc":0,"text_need":2,"picture_need":10,"video_need":0,"type":"templateapi"},{"id":"1015813","ufid":"56327776","name":"\u6469\u6258\u7f57\u62c9\u64ad\u653e\u5668","file":"http:\/\/rdfile.oss-cn-hangzhou.aliyuncs.com\/filemanage\/e069b36c568d909f\/templateapi\/16600368114963\/file.zip?nonce=7aa12b5e299d4703a99c84e159904cd0","cover":"http:\/\/rdfile.oss-cn-hangzhou.aliyuncs.com\/filemanage\/e069b36c568d909f\/templateapi\/16600368114963\/cover.webp?nonce=7aa12b5e299d4703a99c84e159904cd0","updatetime":"1684912290","height":1179,"width":663,"video":"http:\/\/rdfile.oss-cn-hangzhou.aliyuncs.com\/filemanage\/e069b36c568d909f\/templateapi\/16600368114963\/video.mp4?nonce=7aa12b5e299d4703a99c84e159904cd0","sort":0,"version":153,"cover2":"","appkey":"init","duration":0,"extra":{},"polyglot":[],"category":"0","audit":0,"is_ugc":0,"text_need":0,"picture_need":0,"video_need":1,"type":"templateapi"}]}}