{"code":0,"msg":"success","data":{"total":636,"per_page":10,"current_page":47,"last_page":64,"data":[{"id":"1012871","ufid":"37161045","name":"\u6c34\u4e2d\u82b1","file":"http:\/\/rdfile.oss-cn-hangzhou.aliyuncs.com\/filemanage\/e069b36c568d909f\/templateapi\/16360833616393\/file.zip?nonce=4340c19efc287bc8180a17025f09b222","cover":"http:\/\/rdfile.oss-cn-hangzhou.aliyuncs.com\/filemanage\/e069b36c568d909f\/templateapi\/16360833616393\/cover.png?nonce=4340c19efc287bc8180a17025f09b222&x-oss-process=style\/templateapi","updatetime":"1704185727","height":1280,"width":720,"video":"http:\/\/rdfile.oss-cn-hangzhou.aliyuncs.com\/filemanage\/e069b36c568d909f\/templateapi\/16360833616393\/video.mp4?nonce=4340c19efc287bc8180a17025f09b222","sort":100,"version":148,"cover2":"","appkey":"init","duration":0,"extra":{},"polyglot":{"en":"Flowers in water"},"category":"0","audit":0,"is_ugc":0,"text_need":0,"picture_need":0,"video_need":1,"type":"templateapi"},{"id":"1012870","ufid":"69949970","name":"\u6709\u51fa\u606f\u5417\uff1f","file":"http:\/\/rdfile.oss-cn-hangzhou.aliyuncs.com\/filemanage\/e069b36c568d909f\/templateapi\/16360097846177\/file.zip?nonce=4340c19efc287bc8180a17025f09b222","cover":"http:\/\/rdfile.oss-cn-hangzhou.aliyuncs.com\/filemanage\/e069b36c568d909f\/templateapi\/16360097846177\/cover.png?nonce=4340c19efc287bc8180a17025f09b222&x-oss-process=style\/templateapi","updatetime":"1704185727","height":720,"width":404,"video":"http:\/\/rdfile.oss-cn-hangzhou.aliyuncs.com\/filemanage\/e069b36c568d909f\/templateapi\/16360097846177\/video.mp4?nonce=4340c19efc287bc8180a17025f09b222","sort":100,"version":148,"cover2":"","appkey":"init","duration":0,"extra":{},"polyglot":{"en":"Is there any future?"},"category":"0","audit":0,"is_ugc":0,"text_need":0,"picture_need":2,"video_need":0,"type":"templateapi"},{"id":"1012495","ufid":"32347778","name":"\u62fc\u56fe","file":"http:\/\/rdfile.oss-cn-hangzhou.aliyuncs.com\/filemanage\/e069b36c568d909f\/templateapi\/16352426548523\/file.zip?nonce=c86b9cfa0183166fb0b136ca90b8ddae","cover":"http:\/\/rdfile.oss-cn-hangzhou.aliyuncs.com\/filemanage\/e069b36c568d909f\/templateapi\/16352426548523\/cover.png?nonce=c86b9cfa0183166fb0b136ca90b8ddae&x-oss-process=style\/templateapi","updatetime":"1704185722","height":720,"width":404,"video":"http:\/\/rdfile.oss-cn-hangzhou.aliyuncs.com\/filemanage\/e069b36c568d909f\/templateapi\/16352426548523\/video.mp4?nonce=c86b9cfa0183166fb0b136ca90b8ddae","sort":100,"version":148,"cover2":"","appkey":"init","duration":0,"extra":{},"polyglot":{"en":"Puzzle"},"category":"0","audit":0,"is_ugc":0,"text_need":0,"picture_need":10,"video_need":0,"type":"templateapi"},{"id":"1012494","ufid":"80049869","name":"\u624b\u7ed8-\u5403\u8d27","file":"http:\/\/rdfile.oss-cn-hangzhou.aliyuncs.com\/filemanage\/e069b36c568d909f\/templateapi\/16352353438673\/file.zip?nonce=c86b9cfa0183166fb0b136ca90b8ddae","cover":"http:\/\/rdfile.oss-cn-hangzhou.aliyuncs.com\/filemanage\/e069b36c568d909f\/templateapi\/16352353438673\/cover.png?nonce=c86b9cfa0183166fb0b136ca90b8ddae&x-oss-process=style\/templateapi","updatetime":"1704185722","height":1280,"width":1280,"video":"http:\/\/rdfile.oss-cn-hangzhou.aliyuncs.com\/filemanage\/e069b36c568d909f\/templateapi\/16352353438673\/video.mp4?nonce=c86b9cfa0183166fb0b136ca90b8ddae","sort":100,"version":148,"cover2":"","appkey":"init","duration":0,"extra":{},"polyglot":{"en":"Hand drawn-foodie"},"category":"0","audit":0,"is_ugc":0,"text_need":0,"picture_need":8,"video_need":0,"type":"templateapi"},{"id":"1012492","ufid":"96258681","name":"\u665a\u5b89\uff0c\u597d\u68a6","file":"http:\/\/rdfile.oss-cn-hangzhou.aliyuncs.com\/filemanage\/e069b36c568d909f\/templateapi\/16351522393947\/file.zip?nonce=b0d795a00bc8224f8fae4e6d0259ab71","cover":"http:\/\/rdfile.oss-cn-hangzhou.aliyuncs.com\/filemanage\/e069b36c568d909f\/templateapi\/16351522393947\/cover.png?nonce=b0d795a00bc8224f8fae4e6d0259ab71&x-oss-process=style\/templateapi","updatetime":"1704185721","height":1280,"width":720,"video":"http:\/\/rdfile.oss-cn-hangzhou.aliyuncs.com\/filemanage\/e069b36c568d909f\/templateapi\/16351522393947\/video.mp4?nonce=b0d795a00bc8224f8fae4e6d0259ab71","sort":100,"version":148,"cover2":"","appkey":"init","duration":0,"extra":{},"polyglot":{"en":"Good night, sweet dreams"},"category":"0","audit":0,"is_ugc":0,"text_need":0,"picture_need":0,"video_need":1,"type":"templateapi"},{"id":"1012491","ufid":"77289239","name":"\u670b\u53cb\u5708\u5fc3\u60c5","file":"http:\/\/rdfile.oss-cn-hangzhou.aliyuncs.com\/filemanage\/e069b36c568d909f\/templateapi\/16351470922506\/file.zip?nonce=b0d795a00bc8224f8fae4e6d0259ab71","cover":"http:\/\/rdfile.oss-cn-hangzhou.aliyuncs.com\/filemanage\/e069b36c568d909f\/templateapi\/16351470922506\/cover.png?nonce=b0d795a00bc8224f8fae4e6d0259ab71&x-oss-process=style\/templateapi","updatetime":"1704185721","height":1280,"width":720,"video":"http:\/\/rdfile.oss-cn-hangzhou.aliyuncs.com\/filemanage\/e069b36c568d909f\/templateapi\/16351470922506\/video.mp4?nonce=b0d795a00bc8224f8fae4e6d0259ab71","sort":100,"version":148,"cover2":"","appkey":"init","duration":0,"extra":{},"polyglot":{"en":"Moments mood"},"category":"0","audit":0,"is_ugc":0,"text_need":0,"picture_need":1,"video_need":0,"type":"templateapi"},{"id":"1012490","ufid":"56582294","name":"\u795e\u66f2","file":"http:\/\/rdfile.oss-cn-hangzhou.aliyuncs.com\/filemanage\/e069b36c568d909f\/templateapi\/16348721582412\/file.zip?nonce=b0d795a00bc8224f8fae4e6d0259ab71","cover":"http:\/\/rdfile.oss-cn-hangzhou.aliyuncs.com\/filemanage\/e069b36c568d909f\/templateapi\/16348721582412\/cover.png?nonce=b0d795a00bc8224f8fae4e6d0259ab71&x-oss-process=style\/templateapi","updatetime":"1704185721","height":1280,"width":720,"video":"http:\/\/rdfile.oss-cn-hangzhou.aliyuncs.com\/filemanage\/e069b36c568d909f\/templateapi\/16348721582412\/video.mp4?nonce=b0d795a00bc8224f8fae4e6d0259ab71","sort":100,"version":148,"cover2":"","appkey":"init","duration":0,"extra":{},"polyglot":{"en":"Divine Comedy"},"category":"0","audit":0,"is_ugc":0,"text_need":0,"picture_need":0,"video_need":5,"type":"templateapi"},{"id":"1012489","ufid":"37694872","name":"\u505a\u6211\u5973\u670b\u53cb\u5427","file":"http:\/\/rdfile.oss-cn-hangzhou.aliyuncs.com\/filemanage\/e069b36c568d909f\/templateapi\/16348675531741\/file.zip?nonce=b0d795a00bc8224f8fae4e6d0259ab71","cover":"http:\/\/rdfile.oss-cn-hangzhou.aliyuncs.com\/filemanage\/e069b36c568d909f\/templateapi\/16348675531741\/cover.png?nonce=b0d795a00bc8224f8fae4e6d0259ab71&x-oss-process=style\/templateapi","updatetime":"1704185721","height":1280,"width":720,"video":"http:\/\/rdfile.oss-cn-hangzhou.aliyuncs.com\/filemanage\/e069b36c568d909f\/templateapi\/16348675531741\/video.mp4?nonce=b0d795a00bc8224f8fae4e6d0259ab71","sort":100,"version":148,"cover2":"","appkey":"init","duration":0,"extra":{},"polyglot":{"en":"Be my girlfriend"},"category":"0","audit":0,"is_ugc":0,"text_need":0,"picture_need":5,"video_need":1,"type":"templateapi"},{"id":"1012487","ufid":"95133262","name":"\u8fd9\u624d\u662f\u4eba\u751f","file":"http:\/\/rdfile.oss-cn-hangzhou.aliyuncs.com\/filemanage\/e069b36c568d909f\/templateapi\/16347857289502\/file.zip?nonce=b0d795a00bc8224f8fae4e6d0259ab71","cover":"http:\/\/rdfile.oss-cn-hangzhou.aliyuncs.com\/filemanage\/e069b36c568d909f\/templateapi\/16347857289502\/cover.png?nonce=b0d795a00bc8224f8fae4e6d0259ab71&x-oss-process=style\/templateapi","updatetime":"1704185721","height":1280,"width":1280,"video":"http:\/\/rdfile.oss-cn-hangzhou.aliyuncs.com\/filemanage\/e069b36c568d909f\/templateapi\/16347857289502\/video.mp4?nonce=b0d795a00bc8224f8fae4e6d0259ab71","sort":100,"version":148,"cover2":"","appkey":"init","duration":0,"extra":{},"polyglot":{"en":"This is life"},"category":"0","audit":0,"is_ugc":0,"text_need":0,"picture_need":0,"video_need":1,"type":"templateapi"},{"id":"1012486","ufid":"16789370","name":"\u624b\u5199\u6211\u60f3\u4f60","file":"http:\/\/rdfile.oss-cn-hangzhou.aliyuncs.com\/filemanage\/e069b36c568d909f\/templateapi\/16347835419829\/file.zip?nonce=19ca958e14e5819393e3a9d0daed74f1","cover":"http:\/\/rdfile.oss-cn-hangzhou.aliyuncs.com\/filemanage\/e069b36c568d909f\/templateapi\/16347835419829\/cover.png?nonce=19ca958e14e5819393e3a9d0daed74f1&x-oss-process=style\/templateapi","updatetime":"1704185720","height":720,"width":404,"video":"http:\/\/rdfile.oss-cn-hangzhou.aliyuncs.com\/filemanage\/e069b36c568d909f\/templateapi\/16347835419829\/video.mp4?nonce=19ca958e14e5819393e3a9d0daed74f1","sort":100,"version":148,"cover2":"","appkey":"init","duration":0,"extra":{},"polyglot":{"en":"Handwriting i miss you"},"category":"0","audit":0,"is_ugc":0,"text_need":0,"picture_need":2,"video_need":0,"type":"templateapi"}]}}