{"code":0,"msg":"success","data":{"total":143,"per_page":20,"current_page":5,"last_page":8,"data":[{"id":"1024459","ufid":"68877781","name":"\u6b22\u4e50\u6bd4\u5947\u5821","file":"http:\/\/rdfile.oss-cn-hangzhou.aliyuncs.com\/filemanage\/init\/audio\/68877781.mp3?nonce=c49d23aa8e3c1aaa147faee15ec51315","cover":"","updatetime":"1697698290","height":0,"width":0,"video":"","sort":0,"version":157,"cover2":"","appkey":"init","duration":14,"extra":{},"polyglot":[],"category":"27108401,","audit":0,"is_ugc":0,"type":"audio"},{"id":"1024458","ufid":"32438276","name":"\u6ed1\u5012","file":"http:\/\/rdfile.oss-cn-hangzhou.aliyuncs.com\/filemanage\/init\/audio\/32438276.mp3?nonce=92f1305603dc667ca64d15b23529984b","cover":"","updatetime":"1697698289","height":0,"width":0,"video":"","sort":0,"version":157,"cover2":"","appkey":"init","duration":1,"extra":{},"polyglot":[],"category":"27108401,","audit":0,"is_ugc":0,"type":"audio"},{"id":"1024457","ufid":"29901456","name":"\u54d7\u58f0-\u957f","file":"http:\/\/rdfile.oss-cn-hangzhou.aliyuncs.com\/filemanage\/init\/audio\/29901456.mp3?nonce=92f1305603dc667ca64d15b23529984b","cover":"","updatetime":"1697698289","height":0,"width":0,"video":"","sort":0,"version":157,"cover2":"","appkey":"init","duration":1,"extra":{},"polyglot":[],"category":"27108401,","audit":0,"is_ugc":0,"type":"audio"},{"id":"1024456","ufid":"70718334","name":"\u54d7 bi \u6d88\u97f3","file":"http:\/\/rdfile.oss-cn-hangzhou.aliyuncs.com\/filemanage\/init\/audio\/70718334.mp3?nonce=92f1305603dc667ca64d15b23529984b","cover":"","updatetime":"1697698289","height":0,"width":0,"video":"","sort":0,"version":157,"cover2":"","appkey":"init","duration":1,"extra":{},"polyglot":[],"category":"27108401,","audit":0,"is_ugc":0,"type":"audio"},{"id":"1024455","ufid":"18092462","name":"\u563f\u563f\u5c0f\u5b69\u7b11","file":"http:\/\/rdfile.oss-cn-hangzhou.aliyuncs.com\/filemanage\/init\/audio\/18092462.mp3?nonce=3d73a793a43c7cb688ae4d66d916e8b3","cover":"","updatetime":"1697698288","height":0,"width":0,"video":"","sort":0,"version":157,"cover2":"","appkey":"init","duration":2,"extra":{},"polyglot":[],"category":"27108401,","audit":0,"is_ugc":0,"type":"audio"},{"id":"1024454","ufid":"45065852","name":"\u563f\u563f\u574f\u7b11 \u50bb\u7b11","file":"http:\/\/rdfile.oss-cn-hangzhou.aliyuncs.com\/filemanage\/init\/audio\/45065852.mp3?nonce=3d73a793a43c7cb688ae4d66d916e8b3","cover":"","updatetime":"1697698288","height":0,"width":0,"video":"","sort":0,"version":157,"cover2":"","appkey":"init","duration":1,"extra":{},"polyglot":[],"category":"27108401,","audit":0,"is_ugc":0,"type":"audio"},{"id":"1024453","ufid":"15140828","name":"\u563f\u563f\u563f\u563f\u54bb\u563f\u54bb","file":"http:\/\/rdfile.oss-cn-hangzhou.aliyuncs.com\/filemanage\/init\/audio\/15140828.mp3?nonce=3d73a793a43c7cb688ae4d66d916e8b3","cover":"","updatetime":"1697698288","height":0,"width":0,"video":"","sort":0,"version":157,"cover2":"","appkey":"init","duration":3,"extra":{},"polyglot":[],"category":"27108401,","audit":0,"is_ugc":0,"type":"audio"},{"id":"1024452","ufid":"40369612","name":"\u6eda","file":"http:\/\/rdfile.oss-cn-hangzhou.aliyuncs.com\/filemanage\/init\/audio\/40369612.mp3?nonce=3d73a793a43c7cb688ae4d66d916e8b3","cover":"","updatetime":"1697698288","height":0,"width":0,"video":"","sort":0,"version":157,"cover2":"","appkey":"init","duration":2,"extra":{},"polyglot":[],"category":"27108401,","audit":0,"is_ugc":0,"type":"audio"},{"id":"1024451","ufid":"41155536","name":"\u653b\u51fb-\u62f3\u5934\u6253\u8089","file":"http:\/\/rdfile.oss-cn-hangzhou.aliyuncs.com\/filemanage\/init\/audio\/41155536.mp3?nonce=aa4772c3ec7d4bac84c368536a21dfcc","cover":"","updatetime":"1697698287","height":0,"width":0,"video":"","sort":0,"version":157,"cover2":"","appkey":"init","duration":1,"extra":{},"polyglot":[],"category":"27108401,","audit":0,"is_ugc":0,"type":"audio"},{"id":"1024450","ufid":"53620712","name":"\u641e\u9519\u4e86\u518d\u6765","file":"http:\/\/rdfile.oss-cn-hangzhou.aliyuncs.com\/filemanage\/init\/audio\/53620712.mp3?nonce=aa4772c3ec7d4bac84c368536a21dfcc","cover":"","updatetime":"1697698287","height":0,"width":0,"video":"","sort":0,"version":157,"cover2":"","appkey":"init","duration":1,"extra":{},"polyglot":[],"category":"27108401,","audit":0,"is_ugc":0,"type":"audio"},{"id":"1024449","ufid":"86018594","name":"\u76d6\u4e9a-\u5362\u672c\u4f1f\u5362\u8001\u7237","file":"http:\/\/rdfile.oss-cn-hangzhou.aliyuncs.com\/filemanage\/init\/audio\/86018594.mp3?nonce=aa4772c3ec7d4bac84c368536a21dfcc","cover":"","updatetime":"1697698287","height":0,"width":0,"video":"","sort":0,"version":157,"cover2":"","appkey":"init","duration":13,"extra":{},"polyglot":[],"category":"27108401,","audit":0,"is_ugc":0,"type":"audio"},{"id":"1024448","ufid":"84849273","name":"\u653e\u5c41 \u5361\u901a \u641e\u7b11\u8f6c\u573a","file":"http:\/\/rdfile.oss-cn-hangzhou.aliyuncs.com\/filemanage\/init\/audio\/84849273.mp3?nonce=155ac8336942e2d6ed3a763035885b94","cover":"","updatetime":"1697698286","height":0,"width":0,"video":"","sort":0,"version":157,"cover2":"","appkey":"init","duration":1,"extra":{},"polyglot":[],"category":"27108401,","audit":0,"is_ugc":0,"type":"audio"},{"id":"1024447","ufid":"69047993","name":"\u5f53\u5f53~ \u60ca\u559c \u767b\u573a","file":"http:\/\/rdfile.oss-cn-hangzhou.aliyuncs.com\/filemanage\/init\/audio\/69047993.mp3?nonce=e0398beace901be16054b905b3c42566","cover":"","updatetime":"1697698285","height":0,"width":0,"video":"","sort":0,"version":157,"cover2":"","appkey":"init","duration":3,"extra":{},"polyglot":[],"category":"27108401,","audit":0,"is_ugc":0,"type":"audio"},{"id":"1024446","ufid":"44035076","name":"\u5927\u529b\u6253\u4e00\u5df4\u638c","file":"http:\/\/rdfile.oss-cn-hangzhou.aliyuncs.com\/filemanage\/init\/audio\/44035076.mp3?nonce=e0398beace901be16054b905b3c42566","cover":"","updatetime":"1697698285","height":0,"width":0,"video":"","sort":0,"version":157,"cover2":"","appkey":"init","duration":1,"extra":{},"polyglot":[],"category":"27108401,","audit":0,"is_ugc":0,"type":"audio"},{"id":"1024445","ufid":"50934744","name":"\u60e8\u53eb","file":"http:\/\/rdfile.oss-cn-hangzhou.aliyuncs.com\/filemanage\/init\/audio\/50934744.mp3?nonce=e0398beace901be16054b905b3c42566","cover":"","updatetime":"1697698285","height":0,"width":0,"video":"","sort":0,"version":157,"cover2":"","appkey":"init","duration":1,"extra":{},"polyglot":[],"category":"27108401,","audit":0,"is_ugc":0,"type":"audio"},{"id":"1024444","ufid":"22178229","name":"\u60b2\u4f24\u96e8\u6ef4","file":"http:\/\/rdfile.oss-cn-hangzhou.aliyuncs.com\/filemanage\/init\/audio\/22178229.mp3?nonce=0aea89955fd68df721ca98feca63e35b","cover":"","updatetime":"1697698284","height":0,"width":0,"video":"","sort":0,"version":157,"cover2":"","appkey":"init","duration":4,"extra":{},"polyglot":[],"category":"27108401,","audit":0,"is_ugc":0,"type":"audio"},{"id":"1024443","ufid":"70878735","name":"\u60b2\u4f24\u51c4\u51c9","file":"http:\/\/rdfile.oss-cn-hangzhou.aliyuncs.com\/filemanage\/init\/audio\/70878735.mp3?nonce=0aea89955fd68df721ca98feca63e35b","cover":"","updatetime":"1697698284","height":0,"width":0,"video":"","sort":0,"version":157,"cover2":"","appkey":"init","duration":21,"extra":{},"polyglot":[],"category":"27108401,","audit":0,"is_ugc":0,"type":"audio"},{"id":"1024442","ufid":"28278713","name":"\u7206\u70b8","file":"http:\/\/rdfile.oss-cn-hangzhou.aliyuncs.com\/filemanage\/init\/audio\/28278713.mp3?nonce=0aea89955fd68df721ca98feca63e35b","cover":"","updatetime":"1697698284","height":0,"width":0,"video":"","sort":0,"version":157,"cover2":"","appkey":"init","duration":3,"extra":{},"polyglot":[],"category":"27108401,","audit":0,"is_ugc":0,"type":"audio"},{"id":"1024441","ufid":"18780277","name":"\u54ce\u54df\u4e0d\u9519\u54e6","file":"http:\/\/rdfile.oss-cn-hangzhou.aliyuncs.com\/filemanage\/init\/audio\/18780277.mp3?nonce=ceff4f91c0ae26c750ef4549b6ba9e38","cover":"","updatetime":"1697698283","height":0,"width":0,"video":"","sort":0,"version":157,"cover2":"","appkey":"init","duration":1,"extra":{},"polyglot":[],"category":"27108401,","audit":0,"is_ugc":0,"type":"audio"},{"id":"1024440","ufid":"43335558","name":"\u963f\u59e8\u538b\u4e00\u538b-JOJO\u6708\u4e0b\u4e09","file":"http:\/\/rdfile.oss-cn-hangzhou.aliyuncs.com\/filemanage\/init\/audio\/43335558.mp3?nonce=ceff4f91c0ae26c750ef4549b6ba9e38","cover":"","updatetime":"1697698283","height":0,"width":0,"video":"","sort":0,"version":157,"cover2":"","appkey":"init","duration":36,"extra":{},"polyglot":[],"category":"27108401,","audit":0,"is_ugc":0,"type":"audio"}]}}