{"code":0,"msg":"success","data":{"total":283,"per_page":20,"current_page":5,"last_page":15,"data":[{"id":"1024347","ufid":"14686055","name":"\u9a7c\u9e1f\u642d\u8baa-\u521a\u521a\u5728\u90a3\u8fb9\u770b\u5230\u4f60","file":"http:\/\/rdfile.oss-cn-hangzhou.aliyuncs.com\/filemanage\/init\/audio\/14686055.mp3?nonce=9d897fe174a0911b26112a1668651c44","cover":"","updatetime":"1697698260","height":0,"width":0,"video":"","sort":0,"version":157,"cover2":"","appkey":"init","duration":14,"extra":{},"polyglot":[],"category":"40610022,","audit":0,"is_ugc":0,"type":"audio"},{"id":"1024346","ufid":"85308266","name":"\u75db\uff0c\u592a\u75db\u4e86-LOL\u7834\u8d25\u738b\u53f0\u8bcd","file":"http:\/\/rdfile.oss-cn-hangzhou.aliyuncs.com\/filemanage\/init\/audio\/85308266.mp3?nonce=9d897fe174a0911b26112a1668651c44","cover":"","updatetime":"1697698260","height":0,"width":0,"video":"","sort":0,"version":157,"cover2":"","appkey":"init","duration":38,"extra":{},"polyglot":[],"category":"40610022,","audit":0,"is_ugc":0,"type":"audio"},{"id":"1024345","ufid":"98042052","name":"\u5929\u5802\u5361\u70b9","file":"http:\/\/rdfile.oss-cn-hangzhou.aliyuncs.com\/filemanage\/init\/audio\/98042052.mp3?nonce=5ad57dde73c66a9be31869a4a259d5e8","cover":"","updatetime":"1697698259","height":0,"width":0,"video":"","sort":0,"version":157,"cover2":"","appkey":"init","duration":11,"extra":{},"polyglot":[],"category":"40610022,","audit":0,"is_ugc":0,"type":"audio"},{"id":"1024344","ufid":"65911656","name":"\u5929\u6c14\u8bf4\u53d8\u51b7\u5c31\u53d8\u51b7","file":"http:\/\/rdfile.oss-cn-hangzhou.aliyuncs.com\/filemanage\/init\/audio\/65911656.mp3?nonce=5ad57dde73c66a9be31869a4a259d5e8","cover":"","updatetime":"1697698259","height":0,"width":0,"video":"","sort":0,"version":157,"cover2":"","appkey":"init","duration":11,"extra":{},"polyglot":[],"category":"40610022,","audit":0,"is_ugc":0,"type":"audio"},{"id":"1024343","ufid":"19356290","name":"\u5929\u4e0d\u4e0b\u96e8\u5929\u4e0d\u522e\u98ce","file":"http:\/\/rdfile.oss-cn-hangzhou.aliyuncs.com\/filemanage\/init\/audio\/19356290.mp3?nonce=5ad57dde73c66a9be31869a4a259d5e8","cover":"","updatetime":"1697698259","height":0,"width":0,"video":"","sort":0,"version":157,"cover2":"","appkey":"init","duration":22,"extra":{},"polyglot":[],"category":"40610022,","audit":0,"is_ugc":0,"type":"audio"},{"id":"1024342","ufid":"53580387","name":"\u63a2\u7a97\u56fd\u5e86\u5403\u5e2d\u7248","file":"http:\/\/rdfile.oss-cn-hangzhou.aliyuncs.com\/filemanage\/init\/audio\/53580387.mp3?nonce=5ad57dde73c66a9be31869a4a259d5e8","cover":"","updatetime":"1697698259","height":0,"width":0,"video":"","sort":0,"version":157,"cover2":"","appkey":"init","duration":34,"extra":{},"polyglot":[],"category":"40610022,","audit":0,"is_ugc":0,"type":"audio"},{"id":"1024341","ufid":"30636979","name":"\u53f0\u5317\u4e0b\u4e86\u96ea\uff0c\u4f60\u8bf4\u90a3\u662f\u4fdd","file":"http:\/\/rdfile.oss-cn-hangzhou.aliyuncs.com\/filemanage\/init\/audio\/30636979.mp3?nonce=29eb5132f7b1820beb94efb41604c947","cover":"","updatetime":"1697698258","height":0,"width":0,"video":"","sort":0,"version":157,"cover2":"","appkey":"init","duration":12,"extra":{},"polyglot":[],"category":"40610022,","audit":0,"is_ugc":0,"type":"audio"},{"id":"1024340","ufid":"70017379","name":"\u4ed6\u5728CPU\u4f60","file":"http:\/\/rdfile.oss-cn-hangzhou.aliyuncs.com\/filemanage\/init\/audio\/70017379.mp3?nonce=29eb5132f7b1820beb94efb41604c947","cover":"","updatetime":"1697698258","height":0,"width":0,"video":"","sort":0,"version":157,"cover2":"","appkey":"init","duration":3,"extra":{},"polyglot":[],"category":"40610022,","audit":0,"is_ugc":0,"type":"audio"},{"id":"1024339","ufid":"88964809","name":"\u4ed6\u4eec\u90fd\u8bf4\u6211\u597d\u5e05","file":"http:\/\/rdfile.oss-cn-hangzhou.aliyuncs.com\/filemanage\/init\/audio\/88964809.mp3?nonce=29eb5132f7b1820beb94efb41604c947","cover":"","updatetime":"1697698258","height":0,"width":0,"video":"","sort":0,"version":157,"cover2":"","appkey":"init","duration":9,"extra":{},"polyglot":[],"category":"40610022,","audit":0,"is_ugc":0,"type":"audio"},{"id":"1024338","ufid":"16501702","name":"\u4ed6\u4eec\u671d\u6211\u6254\u6ce5\u5df4\uff0c\u6211\u8eba\u4e0b","file":"http:\/\/rdfile.oss-cn-hangzhou.aliyuncs.com\/filemanage\/init\/audio\/16501702.mp3?nonce=29eb5132f7b1820beb94efb41604c947","cover":"","updatetime":"1697698258","height":0,"width":0,"video":"","sort":0,"version":157,"cover2":"","appkey":"init","duration":14,"extra":{},"polyglot":[],"category":"40610022,","audit":0,"is_ugc":0,"type":"audio"},{"id":"1024337","ufid":"65159180","name":"\u4ed6\u4eec\u671d\u6211\u6254\u6ce5\u5df4 \u6ce5\u5df4\u5e72\u4e86","file":"http:\/\/rdfile.oss-cn-hangzhou.aliyuncs.com\/filemanage\/init\/audio\/65159180.mp3?nonce=29eb5132f7b1820beb94efb41604c947","cover":"","updatetime":"1697698258","height":0,"width":0,"video":"","sort":0,"version":157,"cover2":"","appkey":"init","duration":13,"extra":{},"polyglot":[],"category":"40610022,","audit":0,"is_ugc":0,"type":"audio"},{"id":"1024336","ufid":"79052485","name":"\u4ed6\u51fa\u4e86\u4e00\u4e2a\u540d\u5200\u53f8\u547d","file":"http:\/\/rdfile.oss-cn-hangzhou.aliyuncs.com\/filemanage\/init\/audio\/79052485.mp3?nonce=ace651e7778b16096ad7009ac6ca5a0a","cover":"","updatetime":"1697698257","height":0,"width":0,"video":"","sort":0,"version":157,"cover2":"","appkey":"init","duration":4,"extra":{},"polyglot":[],"category":"40610022,","audit":0,"is_ugc":0,"type":"audio"},{"id":"1024335","ufid":"51301811","name":"\u6240\u6709\u4eba\u7ed9\u6211\u7ad9\u4e00\u8fb9!","file":"http:\/\/rdfile.oss-cn-hangzhou.aliyuncs.com\/filemanage\/init\/audio\/51301811.mp3?nonce=ace651e7778b16096ad7009ac6ca5a0a","cover":"","updatetime":"1697698257","height":0,"width":0,"video":"","sort":0,"version":157,"cover2":"","appkey":"init","duration":13,"extra":{},"polyglot":[],"category":"40610022,","audit":0,"is_ugc":0,"type":"audio"},{"id":"1024334","ufid":"51450510","name":"\u6c34\u679c\u72d7\u7248\u5927\u60b2\u5492","file":"http:\/\/rdfile.oss-cn-hangzhou.aliyuncs.com\/filemanage\/init\/audio\/51450510.mp3?nonce=ace651e7778b16096ad7009ac6ca5a0a","cover":"","updatetime":"1697698257","height":0,"width":0,"video":"","sort":0,"version":157,"cover2":"","appkey":"init","duration":25,"extra":{},"polyglot":[],"category":"40610022,","audit":0,"is_ugc":0,"type":"audio"},{"id":"1024333","ufid":"74511894","name":"\u6813Q","file":"http:\/\/rdfile.oss-cn-hangzhou.aliyuncs.com\/filemanage\/init\/audio\/74511894.mp3?nonce=b75dfa481fa24dfe635d8a306ed7b9d1","cover":"","updatetime":"1697698301","height":0,"width":0,"video":"","sort":0,"version":157,"cover2":"","appkey":"init","duration":1,"extra":{},"polyglot":[],"category":"40610022,","audit":0,"is_ugc":0,"type":"audio"},{"id":"1024332","ufid":"52826986","name":"\u7626\u5df4\u5df4\u7684\u8001\u7237\u4eec","file":"http:\/\/rdfile.oss-cn-hangzhou.aliyuncs.com\/filemanage\/init\/audio\/52826986.mp3?nonce=ace651e7778b16096ad7009ac6ca5a0a","cover":"","updatetime":"1697698257","height":0,"width":0,"video":"","sort":0,"version":157,"cover2":"","appkey":"init","duration":10,"extra":{},"polyglot":[],"category":"40610022,","audit":0,"is_ugc":0,"type":"audio"},{"id":"1024331","ufid":"27697118","name":"\u662f\u65f6\u5019\u8868\u6f14\u771f\u6b63\u7684\u6280\u672f\u4e86","file":"http:\/\/rdfile.oss-cn-hangzhou.aliyuncs.com\/filemanage\/init\/audio\/27697118.mp3?nonce=b75dfa481fa24dfe635d8a306ed7b9d1","cover":"","updatetime":"1697698301","height":0,"width":0,"video":"","sort":0,"version":157,"cover2":"","appkey":"init","duration":3,"extra":{},"polyglot":[],"category":"40610022,","audit":0,"is_ugc":0,"type":"audio"},{"id":"1024330","ufid":"81248603","name":"\u4e16\u754c\u662f\u4f60\u4eec\u7684","file":"http:\/\/rdfile.oss-cn-hangzhou.aliyuncs.com\/filemanage\/init\/audio\/81248603.mp3?nonce=ba75d858088e01f80a1c86b26047933f","cover":"","updatetime":"1697698256","height":0,"width":0,"video":"","sort":0,"version":157,"cover2":"","appkey":"init","duration":5,"extra":{},"polyglot":[],"category":"40610022,","audit":0,"is_ugc":0,"type":"audio"},{"id":"1024329","ufid":"78721873","name":"\u4ec0\u4e48\u4e1c\u897f\u95ea\u8fc7\u53bb\u4e86","file":"http:\/\/rdfile.oss-cn-hangzhou.aliyuncs.com\/filemanage\/init\/audio\/78721873.mp3?nonce=049cd9b15e01587680a1a0af972d4a2e","cover":"","updatetime":"1697698300","height":0,"width":0,"video":"","sort":0,"version":157,"cover2":"","appkey":"init","duration":13,"extra":{},"polyglot":[],"category":"40610022,","audit":0,"is_ugc":0,"type":"audio"},{"id":"1024328","ufid":"39538760","name":"\u4e0a\u5b66\u5a01\u9f99","file":"http:\/\/rdfile.oss-cn-hangzhou.aliyuncs.com\/filemanage\/init\/audio\/39538760.mp3?nonce=ba75d858088e01f80a1c86b26047933f","cover":"","updatetime":"1697698256","height":0,"width":0,"video":"","sort":0,"version":157,"cover2":"","appkey":"init","duration":15,"extra":{},"polyglot":[],"category":"40610022,","audit":0,"is_ugc":0,"type":"audio"}]}}