{"code":0,"msg":"success","data":{"total":102,"per_page":20,"current_page":5,"last_page":6,"data":[{"id":"1005445","ufid":"12754145","name":"Doraemon","file":"http:\/\/rdfile.oss-cn-hangzhou.aliyuncs.com\/filemanage\/init\/audio\/54\/245f8133c3e368076a59560f4ddc8ccb\/25a9665a0cf2e62011b4b44cae1b178f.mp3?nonce=e702a2fef81cff894141da8966ca3b53","cover":"","updatetime":"1697698015","height":0,"width":0,"video":"","sort":100,"version":0,"cover2":"","appkey":"init","duration":4,"extra":{},"polyglot":{"en":"Doraemon"},"category":"79079757,","audit":0,"is_ugc":0,"type":"audio"},{"id":"1005444","ufid":"14516946","name":"The Doorbell","file":"http:\/\/rdfile.oss-cn-hangzhou.aliyuncs.com\/filemanage\/init\/audio\/54\/30da913f90258e2226ac674911b19e68\/b4cccca4a0aa27037806f2336356691b.mp3?nonce=cfcd208495d565ef66e7dff9f98764da","cover":"","updatetime":"0","height":0,"width":0,"video":"","sort":100,"version":0,"cover2":"","appkey":"init","duration":3,"extra":{},"polyglot":{"en":"The Doorbell"},"category":"79079757,","audit":0,"is_ugc":0,"type":"audio"},{"id":"1005443","ufid":"19573911","name":"Retro-Vintage","file":"http:\/\/rdfile.oss-cn-hangzhou.aliyuncs.com\/filemanage\/init\/audio\/54\/c7cc218a51f3522e42cf777c8fe16658\/bc802bf9384a26a837ba7ba0ccb4faf9.mp3?nonce=73254864837550a70eaec6aed528fea2","cover":"","updatetime":"1697698016","height":0,"width":0,"video":"","sort":100,"version":0,"cover2":"","appkey":"init","duration":5,"extra":{},"polyglot":{"en":"Retro-Vintage"},"category":"79079757,","audit":0,"is_ugc":0,"type":"audio"},{"id":"1005442","ufid":"46434503","name":"Sparkle","file":"http:\/\/rdfile.oss-cn-hangzhou.aliyuncs.com\/filemanage\/init\/audio\/54\/c9102fcd8d8de01c65a5a1582b648dac\/323c077a2fa8de0990d8ee78efd56e8e.mp3?nonce=f3cf3435dadc76d3bcb4e1d28310fc51","cover":"","updatetime":"1697698024","height":0,"width":0,"video":"","sort":100,"version":0,"cover2":"","appkey":"init","duration":3,"extra":{},"polyglot":{"en":"Sparkle"},"category":"79079757,","audit":0,"is_ugc":0,"type":"audio"},{"id":"1005441","ufid":"91637292","name":"Hail","file":"http:\/\/rdfile.oss-cn-hangzhou.aliyuncs.com\/filemanage\/init\/audio\/54\/e3a5584977695caa81cfe113cbdbba91\/20ee6455333f14dd26fea2374b71e2fa.mp3?nonce=b56233606a4f397cd4961695c0e6700b","cover":"","updatetime":"1697698017","height":0,"width":0,"video":"","sort":100,"version":0,"cover2":"","appkey":"init","duration":7,"extra":{},"polyglot":{"en":"Hail"},"category":"79079757,","audit":0,"is_ugc":0,"type":"audio"},{"id":"1005440","ufid":"55601931","name":"Laughing Stock","file":"http:\/\/rdfile.oss-cn-hangzhou.aliyuncs.com\/filemanage\/init\/audio\/54\/469d984c4055e17af6a48f440bf4bc84\/258001c308498328c7fff7339ca07ee7.mp3?nonce=2ede21bc40e72b4e1aa6caa502842a5f","cover":"","updatetime":"1697698029","height":0,"width":0,"video":"","sort":100,"version":0,"cover2":"","appkey":"init","duration":7,"extra":{},"polyglot":{"en":"Laughing Stock"},"category":"79079757,","audit":0,"is_ugc":0,"type":"audio"},{"id":"1005439","ufid":"25552211","name":"Cry","file":"http:\/\/rdfile.oss-cn-hangzhou.aliyuncs.com\/filemanage\/init\/audio\/54\/5207b756dec1b3e0c2f9f159f49d611c\/5b14121191c3319ea9b7ce753096fa13.mp3?nonce=73254864837550a70eaec6aed528fea2","cover":"","updatetime":"1697698016","height":0,"width":0,"video":"","sort":100,"version":0,"cover2":"","appkey":"init","duration":6,"extra":{},"polyglot":{"en":"Cry"},"category":"79079757,","audit":0,"is_ugc":0,"type":"audio"},{"id":"1005438","ufid":"11089646","name":"Clock Tick","file":"http:\/\/rdfile.oss-cn-hangzhou.aliyuncs.com\/filemanage\/init\/audio\/54\/05fd3ac566fa8ed8cc1155622f84ee8e\/84a76bee19fee3ddfef246aff38b91c8.mp3?nonce=f9adb6270c2ee4832e32b788b6cc3b59","cover":"","updatetime":"1697698033","height":0,"width":0,"video":"","sort":100,"version":0,"cover2":"","appkey":"init","duration":10,"extra":{},"polyglot":{"en":"Clock Tick"},"category":"79079757,","audit":0,"is_ugc":0,"type":"audio"},{"id":"1005437","ufid":"41908587","name":"Short Spring","file":"http:\/\/rdfile.oss-cn-hangzhou.aliyuncs.com\/filemanage\/init\/audio\/54\/c5ff72b5546b03694d38720692f5a0c9\/c4093439ea28c14b3c089a40fcb76514.mp3?nonce=cfcd208495d565ef66e7dff9f98764da","cover":"","updatetime":"0","height":0,"width":0,"video":"","sort":100,"version":0,"cover2":"","appkey":"init","duration":2,"extra":{},"polyglot":{"en":"Short Spring"},"category":"79079757,","audit":0,"is_ugc":0,"type":"audio"},{"id":"1005436","ufid":"40657719","name":"Funny","file":"http:\/\/rdfile.oss-cn-hangzhou.aliyuncs.com\/filemanage\/init\/audio\/54\/d36ebb1f11a8a91c17bd96ef06dbce1d\/017b2f536e3cf07151ece15ec4182ef7.mp3?nonce=a0e64dcdbcd8e5e22f00dea9d111e4fa","cover":"","updatetime":"1697698066","height":0,"width":0,"video":"","sort":100,"version":0,"cover2":"","appkey":"init","duration":1,"extra":{},"polyglot":{"en":"Funny"},"category":"79079757,","audit":0,"is_ugc":0,"type":"audio"},{"id":"1005435","ufid":"68819359","name":"Break Wind","file":"http:\/\/rdfile.oss-cn-hangzhou.aliyuncs.com\/filemanage\/init\/audio\/54\/123fc66325b4da6984c492a661780092\/c1a0f098138e32358c276fbab156d14a.mp3?nonce=e702a2fef81cff894141da8966ca3b53","cover":"","updatetime":"1697698015","height":0,"width":0,"video":"","sort":100,"version":0,"cover2":"","appkey":"init","duration":1,"extra":{},"polyglot":{"en":"Break Wind"},"category":"79079757,","audit":0,"is_ugc":0,"type":"audio"},{"id":"1005434","ufid":"21856169","name":"Throw Away","file":"http:\/\/rdfile.oss-cn-hangzhou.aliyuncs.com\/filemanage\/init\/audio\/54\/8317ea3383dc8c42e439a7a2dc2563be\/ae49130ca4d65a2c3c8e28c792a425b4.mp3?nonce=0ea0b286233a49f9525094f7c4504ae4","cover":"","updatetime":"1697698023","height":0,"width":0,"video":"","sort":100,"version":0,"cover2":"","appkey":"init","duration":1,"extra":{},"polyglot":{"en":"Throw Away"},"category":"79079757,","audit":0,"is_ugc":0,"type":"audio"},{"id":"1005433","ufid":"81418009","name":"Camera","file":"http:\/\/rdfile.oss-cn-hangzhou.aliyuncs.com\/filemanage\/init\/audio\/54\/1fdc9d602f4123bed80ab4215c16dc8b\/174454e03a3a4ad28bf451a66408a25b.mp3?nonce=c4ea9479da3ff27b280c14e98fc33ecc","cover":"","updatetime":"1697698028","height":0,"width":0,"video":"","sort":100,"version":0,"cover2":"","appkey":"init","duration":1,"extra":{},"polyglot":{"en":"Camera"},"category":"79079757,","audit":0,"is_ugc":0,"type":"audio"},{"id":"1005432","ufid":"27075674","name":"Whiz","file":"http:\/\/rdfile.oss-cn-hangzhou.aliyuncs.com\/filemanage\/init\/audio\/54\/1ef568e10fcf81b431e3267111334955\/91be84ad78dd9613b966baef1b54da68.mp3?nonce=36643e594e28ec006508859e4e5aa143","cover":"","updatetime":"1697698311","height":0,"width":0,"video":"","sort":100,"version":0,"cover2":"","appkey":"init","duration":1,"extra":{},"polyglot":{"en":"Whiz"},"category":"79079757,","audit":0,"is_ugc":0,"type":"audio"},{"id":"1005431","ufid":"66431365","name":"Kid Smile","file":"http:\/\/rdfile.oss-cn-hangzhou.aliyuncs.com\/filemanage\/init\/audio\/54\/28d51191e21b7d19398cb2af50934d65\/d3e05cda37284092bb7513f3c51a6a3d.mp3?nonce=c4ea9479da3ff27b280c14e98fc33ecc","cover":"","updatetime":"1697698028","height":0,"width":0,"video":"","sort":100,"version":0,"cover2":"","appkey":"init","duration":1,"extra":{},"polyglot":{"en":"Kid Smile"},"category":"79079757,","audit":0,"is_ugc":0,"type":"audio"},{"id":"1005430","ufid":"36947432","name":"The Crowd Cheered","file":"http:\/\/rdfile.oss-cn-hangzhou.aliyuncs.com\/filemanage\/init\/audio\/54\/4e58a17ff1d7c04458068ae622570219\/7f96754cef619a6db14a15e9f7c970f1.mp3?nonce=0c17b77291a18b362e20eb66211c12e4","cover":"","updatetime":"1697698084","height":0,"width":0,"video":"","sort":100,"version":0,"cover2":"","appkey":"init","duration":2,"extra":{},"polyglot":{"en":"The Crowd Cheered"},"category":"79079757,","audit":0,"is_ugc":0,"type":"audio"},{"id":"1005429","ufid":"59887364","name":"Keyboard Typing","file":"http:\/\/rdfile.oss-cn-hangzhou.aliyuncs.com\/filemanage\/init\/audio\/54\/e7ba9eadc340e1b95c9cb154478db44a\/129ae4d9dd25b2eaf5d52ed9f2254b23.mp3?nonce=3f711896c69f6ae58503040abfc42e01","cover":"","updatetime":"1697698291","height":0,"width":0,"video":"","sort":100,"version":0,"cover2":"","appkey":"init","duration":2,"extra":{},"polyglot":{"en":"Keyboard Typing"},"category":"79079757,","audit":0,"is_ugc":0,"type":"audio"},{"id":"1005428","ufid":"92686947","name":"Cell Phone Vibration","file":"http:\/\/rdfile.oss-cn-hangzhou.aliyuncs.com\/filemanage\/init\/audio\/54\/198adaf5924f590598c17d9ad4733c1a\/58b977a87498634dda5393b84f638aa5.mp3?nonce=b28631641ea8342d7606f8f62ff97bb0","cover":"","updatetime":"1697698076","height":0,"width":0,"video":"","sort":100,"version":0,"cover2":"","appkey":"init","duration":2,"extra":{},"polyglot":{"en":"Cell Phone Vibration"},"category":"79079757,","audit":0,"is_ugc":0,"type":"audio"},{"id":"1005427","ufid":"53404664","name":"Cut Vegetables","file":"http:\/\/rdfile.oss-cn-hangzhou.aliyuncs.com\/filemanage\/init\/audio\/54\/42793ed044432f0f69793a0998fb45fb\/3de621e8326d7a8271c98329e3ae0d8a.mp3?nonce=0bf392df9290419c3266ab3675509f52","cover":"","updatetime":"1697698042","height":0,"width":0,"video":"","sort":100,"version":0,"cover2":"","appkey":"init","duration":5,"extra":{},"polyglot":{"en":"Cut Vegetables"},"category":"79079757,","audit":0,"is_ugc":0,"type":"audio"},{"id":"1005426","ufid":"27323711","name":"The Doorbell","file":"http:\/\/rdfile.oss-cn-hangzhou.aliyuncs.com\/filemanage\/init\/audio\/54\/30da913f90258e2226ac674911b19e68\/b4cccca4a0aa27037806f2336356691b.mp3?nonce=0bf392df9290419c3266ab3675509f52","cover":"","updatetime":"1697698042","height":0,"width":0,"video":"","sort":100,"version":0,"cover2":"","appkey":"init","duration":1,"extra":{},"polyglot":{"en":"The Doorbell"},"category":"79079757,","audit":0,"is_ugc":0,"type":"audio"}]}}