{"code":0,"msg":"success","data":{"total":636,"per_page":10,"current_page":34,"last_page":64,"data":[{"id":"1014883","ufid":"51711038","name":"\u96e8\u591c","file":"http:\/\/rdfile.oss-cn-hangzhou.aliyuncs.com\/filemanage\/e069b36c568d909f\/templateapi\/16508551206226\/file.zip?nonce=ec09c7f9ddc955c45bc231645438b8d6","cover":"http:\/\/rdfile.oss-cn-hangzhou.aliyuncs.com\/filemanage\/e069b36c568d909f\/templateapi\/16508551206226\/cover.webp?nonce=ec09c7f9ddc955c45bc231645438b8d6","updatetime":"1704185849","height":597,"width":1131,"video":"http:\/\/rdfile.oss-cn-hangzhou.aliyuncs.com\/filemanage\/e069b36c568d909f\/templateapi\/16508551206226\/video.mp4?nonce=ec09c7f9ddc955c45bc231645438b8d6","sort":0,"version":152,"cover2":"","appkey":"init","duration":0,"extra":{},"polyglot":{"en":"Rain night"},"category":"0","audit":0,"is_ugc":0,"text_need":0,"picture_need":0,"video_need":1,"type":"templateapi"},{"id":"1014879","ufid":"85346164","name":"\u53d8\u5929\u7a7a","file":"http:\/\/rdfile.oss-cn-hangzhou.aliyuncs.com\/filemanage\/e069b36c568d909f\/templateapi\/16507941171269\/file.zip?nonce=ec09c7f9ddc955c45bc231645438b8d6","cover":"http:\/\/rdfile.oss-cn-hangzhou.aliyuncs.com\/filemanage\/e069b36c568d909f\/templateapi\/16507941171269\/cover.webp?nonce=ec09c7f9ddc955c45bc231645438b8d6","updatetime":"1704185849","height":1280,"width":720,"video":"http:\/\/rdfile.oss-cn-hangzhou.aliyuncs.com\/filemanage\/e069b36c568d909f\/templateapi\/16507941171269\/video.mp4?nonce=ec09c7f9ddc955c45bc231645438b8d6","sort":0,"version":152,"cover2":"","appkey":"init","duration":0,"extra":{},"polyglot":{"en":"Change the sky"},"category":"0","audit":0,"is_ugc":0,"text_need":0,"picture_need":0,"video_need":2,"type":"templateapi"},{"id":"1014878","ufid":"78460135","name":"\u5609\u5bbe\u767b\u573a","file":"http:\/\/rdfile.oss-cn-hangzhou.aliyuncs.com\/filemanage\/e069b36c568d909f\/templateapi\/16507866424940\/file.zip?nonce=ec09c7f9ddc955c45bc231645438b8d6","cover":"http:\/\/rdfile.oss-cn-hangzhou.aliyuncs.com\/filemanage\/e069b36c568d909f\/templateapi\/16507866424940\/cover.webp?nonce=ec09c7f9ddc955c45bc231645438b8d6","updatetime":"1704185849","height":1280,"width":720,"video":"http:\/\/rdfile.oss-cn-hangzhou.aliyuncs.com\/filemanage\/e069b36c568d909f\/templateapi\/16507866424940\/video.mp4?nonce=ec09c7f9ddc955c45bc231645438b8d6","sort":0,"version":152,"cover2":"","appkey":"init","duration":0,"extra":{},"polyglot":{"en":"Guests appear"},"category":"0","audit":0,"is_ugc":0,"text_need":0,"picture_need":1,"video_need":0,"type":"templateapi"},{"id":"1014877","ufid":"92398165","name":"\u540c\u7a97\u952e\u76d8","file":"http:\/\/rdfile.oss-cn-hangzhou.aliyuncs.com\/filemanage\/e069b36c568d909f\/templateapi\/16507833509875\/file.zip?nonce=0a7b33713a90dc1115b3d26c7579901c","cover":"http:\/\/rdfile.oss-cn-hangzhou.aliyuncs.com\/filemanage\/e069b36c568d909f\/templateapi\/16507833509875\/cover.webp?nonce=0a7b33713a90dc1115b3d26c7579901c","updatetime":"1704185848","height":1280,"width":720,"video":"http:\/\/rdfile.oss-cn-hangzhou.aliyuncs.com\/filemanage\/e069b36c568d909f\/templateapi\/16507833509875\/video.mp4?nonce=0a7b33713a90dc1115b3d26c7579901c","sort":0,"version":152,"cover2":"","appkey":"init","duration":0,"extra":{},"polyglot":{"en":"Classmate keyboard"},"category":"0","audit":0,"is_ugc":0,"text_need":0,"picture_need":0,"video_need":2,"type":"templateapi"},{"id":"1014875","ufid":"24383727","name":"\u7a7a\u95f4\u89c6\u89d2","file":"http:\/\/rdfile.oss-cn-hangzhou.aliyuncs.com\/filemanage\/e069b36c568d909f\/templateapi\/16506208095575\/file.zip?nonce=0a7b33713a90dc1115b3d26c7579901c","cover":"http:\/\/rdfile.oss-cn-hangzhou.aliyuncs.com\/filemanage\/e069b36c568d909f\/templateapi\/16506208095575\/cover.webp?nonce=0a7b33713a90dc1115b3d26c7579901c","updatetime":"1704185848","height":1278,"width":720,"video":"http:\/\/rdfile.oss-cn-hangzhou.aliyuncs.com\/filemanage\/e069b36c568d909f\/templateapi\/16506208095575\/video.mp4?nonce=0a7b33713a90dc1115b3d26c7579901c","sort":0,"version":152,"cover2":"","appkey":"init","duration":0,"extra":{},"polyglot":{"en":"Spatial perspective"},"category":"0","audit":0,"is_ugc":0,"text_need":0,"picture_need":28,"video_need":0,"type":"templateapi"},{"id":"1014874","ufid":"89500222","name":"\u4eba\u54c1\u4e0d\u9519","file":"http:\/\/rdfile.oss-cn-hangzhou.aliyuncs.com\/filemanage\/e069b36c568d909f\/templateapi\/16506146099599\/file.zip?nonce=0a7b33713a90dc1115b3d26c7579901c","cover":"http:\/\/rdfile.oss-cn-hangzhou.aliyuncs.com\/filemanage\/e069b36c568d909f\/templateapi\/16506146099599\/cover.webp?nonce=0a7b33713a90dc1115b3d26c7579901c","updatetime":"1704185848","height":720,"width":1278,"video":"http:\/\/rdfile.oss-cn-hangzhou.aliyuncs.com\/filemanage\/e069b36c568d909f\/templateapi\/16506146099599\/video.mp4?nonce=0a7b33713a90dc1115b3d26c7579901c","sort":0,"version":152,"cover2":"","appkey":"init","duration":0,"extra":{},"polyglot":{"en":"Good character"},"category":"0","audit":0,"is_ugc":0,"text_need":0,"picture_need":0,"video_need":0,"type":"templateapi"},{"id":"1014873","ufid":"74452313","name":"\u8c03\u67e5\u4e2d","file":"http:\/\/rdfile.oss-cn-hangzhou.aliyuncs.com\/filemanage\/e069b36c568d909f\/templateapi\/16506079878091\/file.zip?nonce=0a7b33713a90dc1115b3d26c7579901c","cover":"http:\/\/rdfile.oss-cn-hangzhou.aliyuncs.com\/filemanage\/e069b36c568d909f\/templateapi\/16506079878091\/cover.webp?nonce=0a7b33713a90dc1115b3d26c7579901c","updatetime":"1704185848","height":720,"width":1252,"video":"http:\/\/rdfile.oss-cn-hangzhou.aliyuncs.com\/filemanage\/e069b36c568d909f\/templateapi\/16506079878091\/video.mp4?nonce=0a7b33713a90dc1115b3d26c7579901c","sort":0,"version":152,"cover2":"","appkey":"init","duration":0,"extra":{},"polyglot":{"en":"Survey"},"category":"0","audit":0,"is_ugc":0,"text_need":0,"picture_need":0,"video_need":9,"type":"templateapi"},{"id":"1014871","ufid":"84709665","name":"\u5c42\u53e0\u5927\u7247","file":"http:\/\/rdfile.oss-cn-hangzhou.aliyuncs.com\/filemanage\/e069b36c568d909f\/templateapi\/16505365436183\/file.zip?nonce=0a7b33713a90dc1115b3d26c7579901c","cover":"http:\/\/rdfile.oss-cn-hangzhou.aliyuncs.com\/filemanage\/e069b36c568d909f\/templateapi\/16505365436183\/cover.webp?nonce=0a7b33713a90dc1115b3d26c7579901c","updatetime":"1704185848","height":720,"width":1280,"video":"http:\/\/rdfile.oss-cn-hangzhou.aliyuncs.com\/filemanage\/e069b36c568d909f\/templateapi\/16505365436183\/video.mp4?nonce=0a7b33713a90dc1115b3d26c7579901c","sort":0,"version":152,"cover2":"","appkey":"init","duration":0,"extra":{},"polyglot":{"en":"Stacked blockbusters"},"category":"0","audit":0,"is_ugc":0,"text_need":0,"picture_need":36,"video_need":0,"type":"templateapi"},{"id":"1014869","ufid":"66758773","name":"\u7167\u7247\u96c6","file":"http:\/\/rdfile.oss-cn-hangzhou.aliyuncs.com\/filemanage\/e069b36c568d909f\/templateapi\/16505076146950\/file.zip?nonce=0a7b33713a90dc1115b3d26c7579901c","cover":"http:\/\/rdfile.oss-cn-hangzhou.aliyuncs.com\/filemanage\/e069b36c568d909f\/templateapi\/16505076146950\/cover.webp?nonce=0a7b33713a90dc1115b3d26c7579901c","updatetime":"1704185848","height":720,"width":1280,"video":"http:\/\/rdfile.oss-cn-hangzhou.aliyuncs.com\/filemanage\/e069b36c568d909f\/templateapi\/16505076146950\/video.mp4?nonce=0a7b33713a90dc1115b3d26c7579901c","sort":0,"version":152,"cover2":"","appkey":"init","duration":0,"extra":{},"polyglot":{"en":"Album"},"category":"0","audit":0,"is_ugc":0,"text_need":0,"picture_need":28,"video_need":0,"type":"templateapi"},{"id":"1014867","ufid":"62902427","name":"\u8bb0\u5f55\u751f\u6d3b\u788e\u7247","file":"http:\/\/rdfile.oss-cn-hangzhou.aliyuncs.com\/filemanage\/e069b36c568d909f\/templateapi\/16504505903377\/file.zip?nonce=b56f25d7e2f99eb78fe4168707f0e216","cover":"http:\/\/rdfile.oss-cn-hangzhou.aliyuncs.com\/filemanage\/e069b36c568d909f\/templateapi\/16504505903377\/cover.png?nonce=b56f25d7e2f99eb78fe4168707f0e216&x-oss-process=style\/templateapi","updatetime":"1704185847","height":1170,"width":720,"video":"http:\/\/rdfile.oss-cn-hangzhou.aliyuncs.com\/filemanage\/e069b36c568d909f\/templateapi\/16504505903377\/video.mp4?nonce=b56f25d7e2f99eb78fe4168707f0e216","sort":0,"version":152,"cover2":"","appkey":"init","duration":0,"extra":{},"polyglot":{"en":"Record life fragments"},"category":"0","audit":0,"is_ugc":0,"text_need":0,"picture_need":0,"video_need":7,"type":"templateapi"}]}}