{"code":0,"msg":"success","data":{"total":636,"per_page":10,"current_page":4,"last_page":64,"data":[{"id":"1020501","ufid":"36730310","name":"\u7231\u5fc3\u6d82\u9e26","file":"http:\/\/rdfile.oss-cn-hangzhou.aliyuncs.com\/filemanage\/e069b36c568d909f\/templateapi\/16763445431562\/file.zip?nonce=0c83666adf36e2be101b5661ae6116bf","cover":"http:\/\/rdfile.oss-cn-hangzhou.aliyuncs.com\/filemanage\/e069b36c568d909f\/templateapi\/16763445431562\/cover.webp?nonce=0c83666adf36e2be101b5661ae6116bf","updatetime":"1704186634","height":1280,"width":720,"video":"http:\/\/rdfile.oss-cn-hangzhou.aliyuncs.com\/filemanage\/e069b36c568d909f\/templateapi\/16763445431562\/video.mp4?nonce=0c83666adf36e2be101b5661ae6116bf","sort":0,"version":158,"cover2":"","appkey":"init","duration":0,"extra":{},"polyglot":{"en":"Love doodle"},"category":"0","audit":0,"is_ugc":0,"text_need":0,"picture_need":1,"video_need":0,"type":"templateapi"},{"id":"1020498","ufid":"43725607","name":"\u7231\u7684\u6545\u4e8b","file":"http:\/\/rdfile.oss-cn-hangzhou.aliyuncs.com\/filemanage\/e069b36c568d909f\/templateapi\/16762756685679\/file.zip?nonce=0c83666adf36e2be101b5661ae6116bf","cover":"http:\/\/rdfile.oss-cn-hangzhou.aliyuncs.com\/filemanage\/e069b36c568d909f\/templateapi\/16762756685679\/cover.webp?nonce=0c83666adf36e2be101b5661ae6116bf","updatetime":"1704186634","height":1060,"width":596,"video":"http:\/\/rdfile.oss-cn-hangzhou.aliyuncs.com\/filemanage\/e069b36c568d909f\/templateapi\/16762756685679\/video.mp4?nonce=0c83666adf36e2be101b5661ae6116bf","sort":0,"version":159,"cover2":"","appkey":"init","duration":0,"extra":{},"polyglot":{"en":"Love story"},"category":"0","audit":0,"is_ugc":0,"text_need":0,"picture_need":0,"video_need":4,"type":"templateapi"},{"id":"1020489","ufid":"83367353","name":"\u8499\u7248\u5173\u952e\u5e27\u5f8b\u52a8\u2014\u5361\u519c\u94a2\u7434\u66f2","file":"http:\/\/rdfile.oss-cn-hangzhou.aliyuncs.com\/filemanage\/e069b36c568d909f\/templateapi\/16760170492818\/file.zip?nonce=8fec54298a549e58619be7b9cbb645fb","cover":"http:\/\/rdfile.oss-cn-hangzhou.aliyuncs.com\/filemanage\/e069b36c568d909f\/templateapi\/16760170492818\/cover.webp?nonce=8fec54298a549e58619be7b9cbb645fb","updatetime":"1704186633","height":607,"width":1080,"video":"http:\/\/rdfile.oss-cn-hangzhou.aliyuncs.com\/filemanage\/e069b36c568d909f\/templateapi\/16760170492818\/video.mp4?nonce=8fec54298a549e58619be7b9cbb645fb","sort":0,"version":159,"cover2":"","appkey":"init","duration":0,"extra":{},"polyglot":{"en":"Mask Keyframe Rhythm\u2014Canon Piano Music"},"category":"0","audit":0,"is_ugc":0,"text_need":0,"picture_need":0,"video_need":1,"type":"templateapi"},{"id":"1020477","ufid":"56668987","name":"\u60c5\u4fa3\u753b\u4e2d\u753b","file":"http:\/\/rdfile.oss-cn-hangzhou.aliyuncs.com\/filemanage\/e069b36c568d909f\/templateapi\/16759269936853\/file.zip?nonce=8fec54298a549e58619be7b9cbb645fb","cover":"http:\/\/rdfile.oss-cn-hangzhou.aliyuncs.com\/filemanage\/e069b36c568d909f\/templateapi\/16759269936853\/cover.webp?nonce=8fec54298a549e58619be7b9cbb645fb","updatetime":"1704186633","height":1260,"width":709,"video":"http:\/\/rdfile.oss-cn-hangzhou.aliyuncs.com\/filemanage\/e069b36c568d909f\/templateapi\/16759269936853\/video.mp4?nonce=8fec54298a549e58619be7b9cbb645fb","sort":0,"version":159,"cover2":"","appkey":"init","duration":0,"extra":{},"polyglot":{"en":"Couple picture-in-picture"},"category":"0","audit":0,"is_ugc":0,"text_need":2,"picture_need":2,"video_need":0,"type":"templateapi"},{"id":"1020361","ufid":"16678235","name":"\u96a7\u9053\u6a21\u7248","file":"http:\/\/rdfile.oss-cn-hangzhou.aliyuncs.com\/filemanage\/e069b36c568d909f\/templateapi\/16751679138507\/file.zip?nonce=fdc203d9c48451d5d868f41f0f41a47a","cover":"http:\/\/rdfile.oss-cn-hangzhou.aliyuncs.com\/filemanage\/e069b36c568d909f\/templateapi\/16751679138507\/cover.webp?nonce=fdc203d9c48451d5d868f41f0f41a47a","updatetime":"1704186632","height":720,"width":1280,"video":"http:\/\/rdfile.oss-cn-hangzhou.aliyuncs.com\/filemanage\/e069b36c568d909f\/templateapi\/16751679138507\/video.mp4?nonce=fdc203d9c48451d5d868f41f0f41a47a","sort":0,"version":158,"cover2":"","appkey":"init","duration":0,"extra":{},"polyglot":{"en":"Tunnel template"},"category":"0","audit":0,"is_ugc":0,"text_need":0,"picture_need":0,"video_need":5,"type":"templateapi"},{"id":"1020357","ufid":"58302437","name":"\u5f69\u7ed8\u7279\u6548","file":"http:\/\/rdfile.oss-cn-hangzhou.aliyuncs.com\/filemanage\/e069b36c568d909f\/templateapi\/16751509147631\/file.zip?nonce=fdc203d9c48451d5d868f41f0f41a47a","cover":"http:\/\/rdfile.oss-cn-hangzhou.aliyuncs.com\/filemanage\/e069b36c568d909f\/templateapi\/16751509147631\/cover.webp?nonce=fdc203d9c48451d5d868f41f0f41a47a","updatetime":"1704186632","height":1252,"width":720,"video":"http:\/\/rdfile.oss-cn-hangzhou.aliyuncs.com\/filemanage\/e069b36c568d909f\/templateapi\/16751509147631\/video.mp4?nonce=fdc203d9c48451d5d868f41f0f41a47a","sort":0,"version":158,"cover2":"","appkey":"init","duration":0,"extra":{},"polyglot":{"en":"Painted special effects"},"category":"0","audit":0,"is_ugc":0,"text_need":0,"picture_need":2,"video_need":0,"type":"templateapi"},{"id":"1020352","ufid":"75709776","name":"\u9065\u63a7\u53d8\u6362","file":"http:\/\/rdfile.oss-cn-hangzhou.aliyuncs.com\/filemanage\/e069b36c568d909f\/templateapi\/16750628025113\/file.zip?nonce=c231df78fc1e16e181bcd702b2bbd571","cover":"http:\/\/rdfile.oss-cn-hangzhou.aliyuncs.com\/filemanage\/e069b36c568d909f\/templateapi\/16750628025113\/cover.webp?nonce=c231df78fc1e16e181bcd702b2bbd571","updatetime":"1704186631","height":720,"width":720,"video":"http:\/\/rdfile.oss-cn-hangzhou.aliyuncs.com\/filemanage\/e069b36c568d909f\/templateapi\/16750628025113\/video.mp4?nonce=c231df78fc1e16e181bcd702b2bbd571","sort":0,"version":158,"cover2":"","appkey":"init","duration":0,"extra":{},"polyglot":{"en":"Remote control transformation"},"category":"0","audit":0,"is_ugc":0,"text_need":0,"picture_need":9,"video_need":0,"type":"templateapi"},{"id":"1020334","ufid":"66965391","name":"\u5e74\u4f1a\u9080\u8bf7\u51fd","file":"http:\/\/rdfile.oss-cn-hangzhou.aliyuncs.com\/filemanage\/e069b36c568d909f\/templateapi\/16739424298683\/file.zip?nonce=a45a094d8950f9105578003f8a96d01a","cover":"http:\/\/rdfile.oss-cn-hangzhou.aliyuncs.com\/filemanage\/e069b36c568d909f\/templateapi\/16739424298683\/cover.webp?nonce=a45a094d8950f9105578003f8a96d01a","updatetime":"1704186630","height":1059,"width":596,"video":"http:\/\/rdfile.oss-cn-hangzhou.aliyuncs.com\/filemanage\/e069b36c568d909f\/templateapi\/16739424298683\/video.mp4?nonce=a45a094d8950f9105578003f8a96d01a","sort":0,"version":158,"cover2":"","appkey":"init","duration":0,"extra":{},"polyglot":{"en":"Annual meeting invitation letter"},"category":"0","audit":0,"is_ugc":0,"text_need":7,"picture_need":0,"video_need":0,"type":"templateapi"},{"id":"1020320","ufid":"92152690","name":"\u6d82\u9e26\u753b\u50cf","file":"http:\/\/rdfile.oss-cn-hangzhou.aliyuncs.com\/filemanage\/e069b36c568d909f\/templateapi\/16735209157225\/file.zip?nonce=bd76f995301e47b5fac417000b286319","cover":"http:\/\/rdfile.oss-cn-hangzhou.aliyuncs.com\/filemanage\/e069b36c568d909f\/templateapi\/16735209157225\/cover.webp?nonce=bd76f995301e47b5fac417000b286319","updatetime":"1704186629","height":1280,"width":720,"video":"http:\/\/rdfile.oss-cn-hangzhou.aliyuncs.com\/filemanage\/e069b36c568d909f\/templateapi\/16735209157225\/video.mp4?nonce=bd76f995301e47b5fac417000b286319","sort":0,"version":158,"cover2":"","appkey":"init","duration":0,"extra":{},"polyglot":{"en":"Graffiti portrait"},"category":"0","audit":0,"is_ugc":0,"text_need":0,"picture_need":1,"video_need":0,"type":"templateapi"},{"id":"1020309","ufid":"30075122","name":"\u9542\u7a7a\u521b\u610f\u6392\u7248\u5f00\u573a\u6548\u679c","file":"http:\/\/rdfile.oss-cn-hangzhou.aliyuncs.com\/filemanage\/e069b36c568d909f\/templateapi\/16729969802725\/file.zip?nonce=bd76f995301e47b5fac417000b286319","cover":"http:\/\/rdfile.oss-cn-hangzhou.aliyuncs.com\/filemanage\/e069b36c568d909f\/templateapi\/16729969802725\/cover.webp?nonce=bd76f995301e47b5fac417000b286319","updatetime":"1704186629","height":607,"width":1080,"video":"http:\/\/rdfile.oss-cn-hangzhou.aliyuncs.com\/filemanage\/e069b36c568d909f\/templateapi\/16729969802725\/video.mp4?nonce=bd76f995301e47b5fac417000b286319","sort":0,"version":158,"cover2":"","appkey":"init","duration":0,"extra":{},"polyglot":{"en":"Hollow creative layout opening effect"},"category":"0","audit":0,"is_ugc":0,"text_need":0,"picture_need":0,"video_need":1,"type":"templateapi"}]}}