{"code":0,"msg":"success","data":{"total":173,"per_page":10,"current_page":4,"last_page":18,"data":[{"id":"1016365","ufid":"98112780","name":"\u624b\u673a\u6765\u7535","file":"http:\/\/rdfile.oss-cn-hangzhou.aliyuncs.com\/filemanage\/e069b36c568d909f\/templateapi\/16674650474526\/file.zip?nonce=9995f0297c6a094ac223f976843d40a1","cover":"http:\/\/rdfile.oss-cn-hangzhou.aliyuncs.com\/filemanage\/e069b36c568d909f\/templateapi\/16674650474526\/cover.webp?nonce=9995f0297c6a094ac223f976843d40a1","updatetime":"1704185973","height":1748,"width":983,"video":"http:\/\/rdfile.oss-cn-hangzhou.aliyuncs.com\/filemanage\/e069b36c568d909f\/templateapi\/16674650474526\/video.mp4?nonce=9995f0297c6a094ac223f976843d40a1","sort":0,"version":154,"cover2":"","appkey":"init","duration":0,"extra":{},"polyglot":{"en":"Mobile phone call"},"category":"0","audit":0,"is_ugc":0,"text_need":5,"picture_need":0,"video_need":9,"type":"templateapi"},{"id":"1016242","ufid":"53646515","name":"\u5f53\u4eca\u4e16\u4e0a \u6211\u6700\u9753\u4ed4","file":"http:\/\/rdfile.oss-cn-hangzhou.aliyuncs.com\/filemanage\/e069b36c568d909f\/templateapi\/16663356887240\/file.zip?nonce=613e7fdf6fc5654fe4a8681110de52f3","cover":"http:\/\/rdfile.oss-cn-hangzhou.aliyuncs.com\/filemanage\/e069b36c568d909f\/templateapi\/16663356887240\/cover.webp?nonce=613e7fdf6fc5654fe4a8681110de52f3","updatetime":"1704185959","height":1920,"width":1080,"video":"http:\/\/rdfile.oss-cn-hangzhou.aliyuncs.com\/filemanage\/e069b36c568d909f\/templateapi\/16663356887240\/video.mp4?nonce=613e7fdf6fc5654fe4a8681110de52f3","sort":0,"version":153,"cover2":"","appkey":"init","duration":0,"extra":{},"polyglot":{"en":"I am the most handsome boy in the world today"},"category":"0","audit":0,"is_ugc":0,"text_need":0,"picture_need":1,"video_need":1,"type":"templateapi"},{"id":"1016362","ufid":"45637962","name":"\u65e9\u5b89\u6109\u5feb\u65b0\u4e00\u5929","file":"http:\/\/rdfile.oss-cn-hangzhou.aliyuncs.com\/filemanage\/e069b36c568d909f\/templateapi\/16674635791557\/file.zip?nonce=9995f0297c6a094ac223f976843d40a1","cover":"http:\/\/rdfile.oss-cn-hangzhou.aliyuncs.com\/filemanage\/e069b36c568d909f\/templateapi\/16674635791557\/cover.webp?nonce=9995f0297c6a094ac223f976843d40a1","updatetime":"1704185973","height":810,"width":1080,"video":"http:\/\/rdfile.oss-cn-hangzhou.aliyuncs.com\/filemanage\/e069b36c568d909f\/templateapi\/16674635791557\/video.mp4?nonce=9995f0297c6a094ac223f976843d40a1","sort":0,"version":154,"cover2":"","appkey":"init","duration":0,"extra":{},"polyglot":{"en":"Good morning happy new day"},"category":"0","audit":0,"is_ugc":0,"text_need":7,"picture_need":0,"video_need":1,"type":"templateapi"},{"id":"1016355","ufid":"38866989","name":"\u665a\u5b89\u7231\u751f\u6d3b\u7231\u81ea\u5df1","file":"http:\/\/rdfile.oss-cn-hangzhou.aliyuncs.com\/filemanage\/e069b36c568d909f\/templateapi\/16674446816796\/file.zip?nonce=d693be29db2d01c1de6636e72101daf2","cover":"http:\/\/rdfile.oss-cn-hangzhou.aliyuncs.com\/filemanage\/e069b36c568d909f\/templateapi\/16674446816796\/cover.webp?nonce=d693be29db2d01c1de6636e72101daf2","updatetime":"1704185972","height":810,"width":1080,"video":"http:\/\/rdfile.oss-cn-hangzhou.aliyuncs.com\/filemanage\/e069b36c568d909f\/templateapi\/16674446816796\/video.mp4?nonce=d693be29db2d01c1de6636e72101daf2","sort":0,"version":154,"cover2":"","appkey":"init","duration":0,"extra":{},"polyglot":{"en":"Good night love life love yourself"},"category":"0","audit":0,"is_ugc":0,"text_need":7,"picture_need":0,"video_need":1,"type":"templateapi"},{"id":"1016356","ufid":"87593976","name":"\u7279\u5de5\u53d8\u88c5","file":"http:\/\/rdfile.oss-cn-hangzhou.aliyuncs.com\/filemanage\/e069b36c568d909f\/templateapi\/16674507808708\/file.zip?nonce=d693be29db2d01c1de6636e72101daf2","cover":"http:\/\/rdfile.oss-cn-hangzhou.aliyuncs.com\/filemanage\/e069b36c568d909f\/templateapi\/16674507808708\/cover.webp?nonce=d693be29db2d01c1de6636e72101daf2","updatetime":"1704185972","height":1920,"width":1080,"video":"http:\/\/rdfile.oss-cn-hangzhou.aliyuncs.com\/filemanage\/e069b36c568d909f\/templateapi\/16674507808708\/video.mp4?nonce=d693be29db2d01c1de6636e72101daf2","sort":0,"version":154,"cover2":"","appkey":"6ecb39f1c12f1a35","duration":0,"extra":{},"polyglot":{"en":"Detective crossdressing"},"category":"0","audit":0,"is_ugc":0,"text_need":0,"picture_need":0,"video_need":2,"type":"templateapi"},{"id":"1016179","ufid":"18845986","name":"\u624b\u52bf\u53d8\u88c5","file":"http:\/\/rdfile.oss-cn-hangzhou.aliyuncs.com\/filemanage\/e069b36c568d909f\/templateapi\/16656547928817\/file.zip?nonce=511d8a1b14e59423d807dd88c80e823e","cover":"http:\/\/rdfile.oss-cn-hangzhou.aliyuncs.com\/filemanage\/e069b36c568d909f\/templateapi\/16656547928817\/cover.webp?nonce=511d8a1b14e59423d807dd88c80e823e","updatetime":"1704185951","height":1280,"width":720,"video":"http:\/\/rdfile.oss-cn-hangzhou.aliyuncs.com\/filemanage\/e069b36c568d909f\/templateapi\/16656547928817\/video.mp4?nonce=511d8a1b14e59423d807dd88c80e823e","sort":0,"version":153,"cover2":"","appkey":"6ecb39f1c12f1a35","duration":0,"extra":{},"polyglot":{"en":"Gesture crossdressing"},"category":"0","audit":0,"is_ugc":0,"text_need":0,"picture_need":0,"video_need":2,"type":"templateapi"},{"id":"1015246","ufid":"95458908","name":"\u6211\u4eec\u6bd5\u4e1a\u5566\uff01","file":"http:\/\/rdfile.oss-cn-hangzhou.aliyuncs.com\/filemanage\/e069b36c568d909f\/templateapi\/16539600894214\/file.zip?nonce=4d800a76d28c5d347be52515a7a08526","cover":"http:\/\/rdfile.oss-cn-hangzhou.aliyuncs.com\/filemanage\/e069b36c568d909f\/templateapi\/16539600894214\/cover.webp?nonce=4d800a76d28c5d347be52515a7a08526","updatetime":"1704185872","height":1280,"width":720,"video":"http:\/\/rdfile.oss-cn-hangzhou.aliyuncs.com\/filemanage\/e069b36c568d909f\/templateapi\/16539600894214\/video.mp4?nonce=4d800a76d28c5d347be52515a7a08526","sort":0,"version":153,"cover2":"","appkey":"init","duration":0,"extra":{},"polyglot":{"en":"We graduated!"},"category":"0","audit":0,"is_ugc":0,"text_need":0,"picture_need":0,"video_need":9,"type":"templateapi"},{"id":"1014976","ufid":"10148692","name":"\u6bd5\u4e1a","file":"http:\/\/rdfile.oss-cn-hangzhou.aliyuncs.com\/filemanage\/e069b36c568d909f\/templateapi\/16518957355458\/file.zip?nonce=28315d5bd5a33be548620e468442e3ac","cover":"http:\/\/rdfile.oss-cn-hangzhou.aliyuncs.com\/filemanage\/e069b36c568d909f\/templateapi\/16518957355458\/cover.webp?nonce=28315d5bd5a33be548620e468442e3ac","updatetime":"1704185860","height":633,"width":1125,"video":"http:\/\/rdfile.oss-cn-hangzhou.aliyuncs.com\/filemanage\/e069b36c568d909f\/templateapi\/16518957355458\/video.mp4?nonce=28315d5bd5a33be548620e468442e3ac","sort":0,"version":152,"cover2":"","appkey":"init","duration":0,"extra":{},"polyglot":{"en":"Graduate"},"category":"0","audit":0,"is_ugc":0,"text_need":0,"picture_need":0,"video_need":4,"type":"templateapi"},{"id":"1012032","ufid":"83003893","name":"\u66f2\u7ebf\u53d8\u901f","file":"http:\/\/rdfile.oss-cn-hangzhou.aliyuncs.com\/filemanage\/e069b36c568d909f\/templateapi\/16278942772411\/file.zip?nonce=80a4595dc42d1a26cd3adbdb5bb2252a","cover":"http:\/\/rdfile.oss-cn-hangzhou.aliyuncs.com\/filemanage\/e069b36c568d909f\/templateapi\/16278942772411\/cover.png?nonce=80a4595dc42d1a26cd3adbdb5bb2252a&x-oss-process=style\/templateapi","updatetime":"1704185678","height":720,"width":1280,"video":"http:\/\/rdfile.oss-cn-hangzhou.aliyuncs.com\/filemanage\/e069b36c568d909f\/templateapi\/16278942772411\/video.mp4?nonce=80a4595dc42d1a26cd3adbdb5bb2252a","sort":100,"version":147,"cover2":"","appkey":"init","duration":0,"extra":{},"polyglot":{"en":"Curve shifting"},"category":"0","audit":0,"is_ugc":0,"text_need":0,"picture_need":0,"video_need":1,"type":"templateapi"},{"id":"1011322","ufid":"35282515","name":"\u4f60\u957f\u5f97\u8ba9\u6211\u5f88\u610f\u5916","file":"http:\/\/rdfile.oss-cn-hangzhou.aliyuncs.com\/filemanage\/e069b36c568d909f\/templateapi\/16252074624115\/file.zip?nonce=ef17b55a9a463ad28e1ff24ecae86522","cover":"http:\/\/rdfile.oss-cn-hangzhou.aliyuncs.com\/filemanage\/e069b36c568d909f\/templateapi\/16252074624115\/cover.png?nonce=ef17b55a9a463ad28e1ff24ecae86522&x-oss-process=style\/templateapi","updatetime":"1704185626","height":1080,"width":607,"video":"http:\/\/rdfile.oss-cn-hangzhou.aliyuncs.com\/filemanage\/e069b36c568d909f\/templateapi\/16252074624115\/video.mp4?nonce=ef17b55a9a463ad28e1ff24ecae86522","sort":100,"version":146,"cover2":"","appkey":"init","duration":0,"extra":{},"polyglot":{"en":"Your appearance surprises me"},"category":"0","audit":0,"is_ugc":0,"text_need":0,"picture_need":1,"video_need":0,"type":"templateapi"}]}}