{"code":0,"msg":"success","data":{"total":636,"per_page":10,"current_page":29,"last_page":64,"data":[{"id":"1015388","ufid":"82506969","name":"\u590f\u81f3","file":"http:\/\/rdfile.oss-cn-hangzhou.aliyuncs.com\/filemanage\/e069b36c568d909f\/templateapi\/16557794017915\/file.zip?nonce=3acc658d220c7a4ddb0bd12d21eb54e0","cover":"http:\/\/rdfile.oss-cn-hangzhou.aliyuncs.com\/filemanage\/e069b36c568d909f\/templateapi\/16557794017915\/cover.webp?nonce=3acc658d220c7a4ddb0bd12d21eb54e0","updatetime":"1704185882","height":1280,"width":720,"video":"http:\/\/rdfile.oss-cn-hangzhou.aliyuncs.com\/filemanage\/e069b36c568d909f\/templateapi\/16557794017915\/video.mp4?nonce=3acc658d220c7a4ddb0bd12d21eb54e0","sort":0,"version":153,"cover2":"","appkey":"init","duration":0,"extra":{},"polyglot":{"en":"Summer beginning"},"category":"0","audit":0,"is_ugc":0,"text_need":0,"picture_need":0,"video_need":1,"type":"templateapi"},{"id":"1015386","ufid":"88480217","name":"\u7236\u4eb2\u8282\u5feb\u4e50","file":"http:\/\/rdfile.oss-cn-hangzhou.aliyuncs.com\/filemanage\/e069b36c568d909f\/templateapi\/16555698472342\/file.zip?nonce=3acc658d220c7a4ddb0bd12d21eb54e0","cover":"http:\/\/rdfile.oss-cn-hangzhou.aliyuncs.com\/filemanage\/e069b36c568d909f\/templateapi\/16555698472342\/cover.webp?nonce=3acc658d220c7a4ddb0bd12d21eb54e0","updatetime":"1704185882","height":1280,"width":720,"video":"http:\/\/rdfile.oss-cn-hangzhou.aliyuncs.com\/filemanage\/e069b36c568d909f\/templateapi\/16555698472342\/video.mp4?nonce=3acc658d220c7a4ddb0bd12d21eb54e0","sort":0,"version":153,"cover2":"","appkey":"init","duration":0,"extra":{},"polyglot":{"en":"Happy father"},"category":"0","audit":0,"is_ugc":0,"text_need":0,"picture_need":0,"video_need":7,"type":"templateapi"},{"id":"1015385","ufid":"74986696","name":"\u9ed1\u767d\u5f71\u5b50\u4f34\u821e\uff08\u4ec5\u652f\u6301\u7eff\u5e55\u7d20\u6750\uff09","file":"http:\/\/rdfile.oss-cn-hangzhou.aliyuncs.com\/filemanage\/e069b36c568d909f\/templateapi\/16554615192798\/file.zip?nonce=0d93afd76ac4903f7d7c370632105bbf","cover":"http:\/\/rdfile.oss-cn-hangzhou.aliyuncs.com\/filemanage\/e069b36c568d909f\/templateapi\/16554615192798\/cover.webp?nonce=0d93afd76ac4903f7d7c370632105bbf","updatetime":"1704185881","height":612,"width":1080,"video":"http:\/\/rdfile.oss-cn-hangzhou.aliyuncs.com\/filemanage\/e069b36c568d909f\/templateapi\/16554615192798\/video.mp4?nonce=0d93afd76ac4903f7d7c370632105bbf","sort":0,"version":153,"cover2":"","appkey":"init","duration":0,"extra":{},"polyglot":{"en":"Black and white shadow dance (only supports green screen material)"},"category":"0","audit":0,"is_ugc":0,"text_need":0,"picture_need":0,"video_need":3,"type":"templateapi"},{"id":"1015383","ufid":"66009345","name":"\u9ed1\u767d\u5f71\u5b50\u821e\uff08\u62a0\u4eba\u50cf\u7248\uff09","file":"http:\/\/rdfile.oss-cn-hangzhou.aliyuncs.com\/filemanage\/e069b36c568d909f\/templateapi\/16554540959621\/file.zip?nonce=0d93afd76ac4903f7d7c370632105bbf","cover":"http:\/\/rdfile.oss-cn-hangzhou.aliyuncs.com\/filemanage\/e069b36c568d909f\/templateapi\/16554540959621\/cover.webp?nonce=0d93afd76ac4903f7d7c370632105bbf","updatetime":"1704185881","height":612,"width":1080,"video":"http:\/\/rdfile.oss-cn-hangzhou.aliyuncs.com\/filemanage\/e069b36c568d909f\/templateapi\/16554540959621\/video.mp4?nonce=0d93afd76ac4903f7d7c370632105bbf","sort":0,"version":153,"cover2":"","appkey":"init","duration":0,"extra":{},"polyglot":{"en":"Black and white shadow dance (portrait cutout version)"},"category":"0","audit":0,"is_ugc":0,"text_need":0,"picture_need":0,"video_need":3,"type":"templateapi"},{"id":"1015381","ufid":"26787394","name":"\u4eba\u50cf\u7eff\u5e55\u5236\u4f5c","file":"http:\/\/rdfile.oss-cn-hangzhou.aliyuncs.com\/filemanage\/e069b36c568d909f\/templateapi\/16554534584248\/file.zip?nonce=0d93afd76ac4903f7d7c370632105bbf","cover":"http:\/\/rdfile.oss-cn-hangzhou.aliyuncs.com\/filemanage\/e069b36c568d909f\/templateapi\/16554534584248\/cover.webp?nonce=0d93afd76ac4903f7d7c370632105bbf","updatetime":"1704185881","height":1060,"width":596,"video":"http:\/\/rdfile.oss-cn-hangzhou.aliyuncs.com\/filemanage\/e069b36c568d909f\/templateapi\/16554534584248\/video.mp4?nonce=0d93afd76ac4903f7d7c370632105bbf","sort":0,"version":153,"cover2":"","appkey":"init","duration":0,"extra":{},"polyglot":{"en":"Portrait green screen production"},"category":"0","audit":0,"is_ugc":0,"text_need":0,"picture_need":0,"video_need":1,"type":"templateapi"},{"id":"1015370","ufid":"65828303","name":"\u76db\u653e\u7684\u82b1","file":"http:\/\/rdfile.oss-cn-hangzhou.aliyuncs.com\/filemanage\/e069b36c568d909f\/templateapi\/16552861198325\/file.zip?nonce=0d93afd76ac4903f7d7c370632105bbf","cover":"http:\/\/rdfile.oss-cn-hangzhou.aliyuncs.com\/filemanage\/e069b36c568d909f\/templateapi\/16552861198325\/cover.webp?nonce=0d93afd76ac4903f7d7c370632105bbf","updatetime":"1704185881","height":1281,"width":720,"video":"http:\/\/rdfile.oss-cn-hangzhou.aliyuncs.com\/filemanage\/e069b36c568d909f\/templateapi\/16552861198325\/video.mp4?nonce=0d93afd76ac4903f7d7c370632105bbf","sort":0,"version":153,"cover2":"","appkey":"init","duration":0,"extra":{},"polyglot":{"en":"Blooming flowers"},"category":"0","audit":0,"is_ugc":0,"text_need":0,"picture_need":0,"video_need":1,"type":"templateapi"},{"id":"1015369","ufid":"46013972","name":"\u8499\u7248\u521b\u610f\u51fa\u573a","file":"http:\/\/rdfile.oss-cn-hangzhou.aliyuncs.com\/filemanage\/e069b36c568d909f\/templateapi\/16552848888955\/file.zip?nonce=f09214ba9bfe62db202d9d87000a5fb8","cover":"http:\/\/rdfile.oss-cn-hangzhou.aliyuncs.com\/filemanage\/e069b36c568d909f\/templateapi\/16552848888955\/cover.webp?nonce=f09214ba9bfe62db202d9d87000a5fb8","updatetime":"1704185880","height":1059,"width":765,"video":"http:\/\/rdfile.oss-cn-hangzhou.aliyuncs.com\/filemanage\/e069b36c568d909f\/templateapi\/16552848888955\/video.mp4?nonce=f09214ba9bfe62db202d9d87000a5fb8","sort":0,"version":153,"cover2":"","appkey":"init","duration":0,"extra":{},"polyglot":{"en":"Mask creativity appears"},"category":"0","audit":0,"is_ugc":0,"text_need":0,"picture_need":9,"video_need":0,"type":"templateapi"},{"id":"1015365","ufid":"65274212","name":"\u670b\u53cb\u5708\u4e5d\u5bab\u683c","file":"http:\/\/rdfile.oss-cn-hangzhou.aliyuncs.com\/filemanage\/e069b36c568d909f\/templateapi\/16552813726302\/file.zip?nonce=f09214ba9bfe62db202d9d87000a5fb8","cover":"http:\/\/rdfile.oss-cn-hangzhou.aliyuncs.com\/filemanage\/e069b36c568d909f\/templateapi\/16552813726302\/cover.webp?nonce=f09214ba9bfe62db202d9d87000a5fb8","updatetime":"1704185880","height":1058,"width":508,"video":"http:\/\/rdfile.oss-cn-hangzhou.aliyuncs.com\/filemanage\/e069b36c568d909f\/templateapi\/16552813726302\/video.mp4?nonce=f09214ba9bfe62db202d9d87000a5fb8","sort":0,"version":153,"cover2":"","appkey":"init","duration":0,"extra":{},"polyglot":{"en":"9 grid friend circle"},"category":"0","audit":0,"is_ugc":0,"text_need":0,"picture_need":20,"video_need":14,"type":"templateapi"},{"id":"1015360","ufid":"41107466","name":"3D\u81ea\u52a8\u8f6e\u64ad\u76f8\u518c","file":"http:\/\/rdfile.oss-cn-hangzhou.aliyuncs.com\/filemanage\/e069b36c568d909f\/templateapi\/16552783835513\/file.zip?nonce=f09214ba9bfe62db202d9d87000a5fb8","cover":"http:\/\/rdfile.oss-cn-hangzhou.aliyuncs.com\/filemanage\/e069b36c568d909f\/templateapi\/16552783835513\/cover.webp?nonce=f09214ba9bfe62db202d9d87000a5fb8","updatetime":"1704185880","height":612,"width":1080,"video":"http:\/\/rdfile.oss-cn-hangzhou.aliyuncs.com\/filemanage\/e069b36c568d909f\/templateapi\/16552783835513\/video.mp4?nonce=f09214ba9bfe62db202d9d87000a5fb8","sort":0,"version":153,"cover2":"","appkey":"init","duration":0,"extra":{},"polyglot":{"en":"3D automatic carousel photo album"},"category":"0","audit":0,"is_ugc":0,"text_need":0,"picture_need":0,"video_need":12,"type":"templateapi"},{"id":"1015357","ufid":"40240130","name":"\u5c01\u9762\u76f8\u518c","file":"http:\/\/rdfile.oss-cn-hangzhou.aliyuncs.com\/filemanage\/e069b36c568d909f\/templateapi\/16552768823910\/file.zip?nonce=f09214ba9bfe62db202d9d87000a5fb8","cover":"http:\/\/rdfile.oss-cn-hangzhou.aliyuncs.com\/filemanage\/e069b36c568d909f\/templateapi\/16552768823910\/cover.webp?nonce=f09214ba9bfe62db202d9d87000a5fb8","updatetime":"1704185880","height":1280,"width":720,"video":"http:\/\/rdfile.oss-cn-hangzhou.aliyuncs.com\/filemanage\/e069b36c568d909f\/templateapi\/16552768823910\/video.mp4?nonce=f09214ba9bfe62db202d9d87000a5fb8","sort":0,"version":153,"cover2":"","appkey":"init","duration":0,"extra":{},"polyglot":{"en":"Cover album"},"category":"0","audit":0,"is_ugc":0,"text_need":0,"picture_need":0,"video_need":9,"type":"templateapi"}]}}