{"code":0,"msg":"success","data":{"total":636,"per_page":10,"current_page":40,"last_page":64,"data":[{"id":"1014651","ufid":"87423526","name":"\u7070\u8272\u8f68\u8ff9","file":"http:\/\/rdfile.oss-cn-hangzhou.aliyuncs.com\/filemanage\/e069b36c568d909f\/templateapi\/16480256115681\/file.zip?nonce=f15a8573ab78e88b0a5142877746f4b4","cover":"http:\/\/rdfile.oss-cn-hangzhou.aliyuncs.com\/filemanage\/e069b36c568d909f\/templateapi\/16480256115681\/cover.png?nonce=f15a8573ab78e88b0a5142877746f4b4&x-oss-process=style\/templateapi","updatetime":"1704185827","height":1280,"width":720,"video":"http:\/\/rdfile.oss-cn-hangzhou.aliyuncs.com\/filemanage\/e069b36c568d909f\/templateapi\/16480256115681\/video.mp4?nonce=f15a8573ab78e88b0a5142877746f4b4","sort":0,"version":150,"cover2":"","appkey":"init","duration":0,"extra":{},"polyglot":{"en":"Gray track"},"category":"0","audit":0,"is_ugc":0,"text_need":0,"picture_need":0,"video_need":1,"type":"templateapi"},{"id":"1014647","ufid":"19838339","name":"\u5956\u72b6","file":"http:\/\/rdfile.oss-cn-hangzhou.aliyuncs.com\/filemanage\/e069b36c568d909f\/templateapi\/16480081165847\/file.zip?nonce=f15a8573ab78e88b0a5142877746f4b4","cover":"http:\/\/rdfile.oss-cn-hangzhou.aliyuncs.com\/filemanage\/e069b36c568d909f\/templateapi\/16480081165847\/cover.png?nonce=f15a8573ab78e88b0a5142877746f4b4&x-oss-process=style\/templateapi","updatetime":"1704185827","height":1280,"width":816,"video":"http:\/\/rdfile.oss-cn-hangzhou.aliyuncs.com\/filemanage\/e069b36c568d909f\/templateapi\/16480081165847\/video.mp4?nonce=f15a8573ab78e88b0a5142877746f4b4","sort":0,"version":150,"cover2":"","appkey":"init","duration":0,"extra":{},"polyglot":{"en":"Certificate of Commendation"},"category":"0","audit":0,"is_ugc":0,"text_need":0,"picture_need":1,"video_need":0,"type":"templateapi"},{"id":"1014602","ufid":"12247671","name":"\u6211\u5c31\u559c\u6b22\u8fd9\u4e00\u6b3e","file":"http:\/\/rdfile.oss-cn-hangzhou.aliyuncs.com\/filemanage\/e069b36c568d909f\/templateapi\/16473284869754\/file.zip?nonce=65caafa04bb325451515ab1947aebb30","cover":"http:\/\/rdfile.oss-cn-hangzhou.aliyuncs.com\/filemanage\/e069b36c568d909f\/templateapi\/16473284869754\/cover.png?nonce=65caafa04bb325451515ab1947aebb30&x-oss-process=style\/templateapi","updatetime":"1704185821","height":807,"width":1080,"video":"http:\/\/rdfile.oss-cn-hangzhou.aliyuncs.com\/filemanage\/e069b36c568d909f\/templateapi\/16473284869754\/video.mp4?nonce=65caafa04bb325451515ab1947aebb30","sort":0,"version":150,"cover2":"","appkey":"6ecb39f1c12f1a35","duration":0,"extra":{},"polyglot":{"en":"I just like this one"},"category":"0","audit":0,"is_ugc":0,"text_need":6,"picture_need":1,"video_need":0,"type":"templateapi"},{"id":"1014492","ufid":"93467290","name":"\u795d\u798f\u4f60","file":"http:\/\/rdfile.oss-cn-hangzhou.aliyuncs.com\/filemanage\/e069b36c568d909f\/templateapi\/16467044775877\/file.zip?nonce=b25c86c77d44d8c6f9f034a648866af5","cover":"http:\/\/rdfile.oss-cn-hangzhou.aliyuncs.com\/filemanage\/e069b36c568d909f\/templateapi\/16467044775877\/cover.png?nonce=b25c86c77d44d8c6f9f034a648866af5&x-oss-process=style\/templateapi","updatetime":"1704185806","height":1280,"width":720,"video":"http:\/\/rdfile.oss-cn-hangzhou.aliyuncs.com\/filemanage\/e069b36c568d909f\/templateapi\/16467044775877\/video.mp4?nonce=b25c86c77d44d8c6f9f034a648866af5","sort":0,"version":150,"cover2":"","appkey":"init","duration":0,"extra":{},"polyglot":{"en":"Bless you"},"category":"0","audit":0,"is_ugc":0,"text_need":0,"picture_need":0,"video_need":4,"type":"templateapi"},{"id":"1014482","ufid":"54972828","name":"857","file":"http:\/\/rdfile.oss-cn-hangzhou.aliyuncs.com\/filemanage\/e069b36c568d909f\/templateapi\/16466378179217\/file.zip?nonce=cfcd208495d565ef66e7dff9f98764da","cover":"http:\/\/rdfile.oss-cn-hangzhou.aliyuncs.com\/filemanage\/e069b36c568d909f\/templateapi\/16466378179217\/cover.png?nonce=cfcd208495d565ef66e7dff9f98764da&x-oss-process=style\/templateapi","updatetime":"0","height":1280,"width":720,"video":"http:\/\/rdfile.oss-cn-hangzhou.aliyuncs.com\/filemanage\/e069b36c568d909f\/templateapi\/16466378179217\/video.mp4?nonce=cfcd208495d565ef66e7dff9f98764da","sort":0,"version":150,"cover2":"","appkey":"init","duration":0,"extra":{},"polyglot":[],"category":"0","audit":0,"is_ugc":0,"text_need":0,"picture_need":0,"video_need":1,"type":"templateapi"},{"id":"1014462","ufid":"69142817","name":"\u559d\u6210\u795e\u7ecf\u75c5","file":"http:\/\/rdfile.oss-cn-hangzhou.aliyuncs.com\/filemanage\/e069b36c568d909f\/templateapi\/16466234091338\/file.zip?nonce=33cfa1da2db05e0c2b5a0059f857ec1c","cover":"http:\/\/rdfile.oss-cn-hangzhou.aliyuncs.com\/filemanage\/e069b36c568d909f\/templateapi\/16466234091338\/cover.png?nonce=33cfa1da2db05e0c2b5a0059f857ec1c&x-oss-process=style\/templateapi","updatetime":"1704185802","height":1280,"width":1280,"video":"http:\/\/rdfile.oss-cn-hangzhou.aliyuncs.com\/filemanage\/e069b36c568d909f\/templateapi\/16466234091338\/video.mp4?nonce=33cfa1da2db05e0c2b5a0059f857ec1c","sort":0,"version":150,"cover2":"","appkey":"init","duration":0,"extra":{},"polyglot":{"en":"Drink into a psychosis"},"category":"0","audit":0,"is_ugc":0,"text_need":0,"picture_need":0,"video_need":1,"type":"templateapi"},{"id":"1014452","ufid":"42386392","name":"\u6f2b\u753b\u97f3\u4e50\u76f8\u518c","file":"http:\/\/rdfile.oss-cn-hangzhou.aliyuncs.com\/filemanage\/e069b36c568d909f\/templateapi\/16464535089108\/file.zip?nonce=bb75515934f8d39c5c24b1ebe1b44e11","cover":"http:\/\/rdfile.oss-cn-hangzhou.aliyuncs.com\/filemanage\/e069b36c568d909f\/templateapi\/16464535089108\/cover.png?nonce=bb75515934f8d39c5c24b1ebe1b44e11&x-oss-process=style\/templateapi","updatetime":"1704185801","height":1080,"width":607,"video":"http:\/\/rdfile.oss-cn-hangzhou.aliyuncs.com\/filemanage\/e069b36c568d909f\/templateapi\/16464535089108\/video.mp4?nonce=bb75515934f8d39c5c24b1ebe1b44e11","sort":0,"version":149,"cover2":"","appkey":"init","duration":0,"extra":{},"polyglot":{"en":"Comic Music Album"},"category":"0","audit":0,"is_ugc":0,"text_need":0,"picture_need":0,"video_need":10,"type":"templateapi"},{"id":"1014451","ufid":"13887481","name":"\u5fbd\u98ce\u53e4\u97f5","file":"http:\/\/rdfile.oss-cn-hangzhou.aliyuncs.com\/filemanage\/e069b36c568d909f\/templateapi\/16464530919917\/file.zip?nonce=d1a3dd09c4f98bd812370a11bb71bac6","cover":"http:\/\/rdfile.oss-cn-hangzhou.aliyuncs.com\/filemanage\/e069b36c568d909f\/templateapi\/16464530919917\/cover.png?nonce=d1a3dd09c4f98bd812370a11bb71bac6&x-oss-process=style\/templateapi","updatetime":"1704185800","height":478,"width":852,"video":"http:\/\/rdfile.oss-cn-hangzhou.aliyuncs.com\/filemanage\/e069b36c568d909f\/templateapi\/16464530919917\/video.mp4?nonce=d1a3dd09c4f98bd812370a11bb71bac6","sort":0,"version":149,"cover2":"","appkey":"init","duration":0,"extra":{},"polyglot":{"en":"Hui style ancient charm"},"category":"0","audit":0,"is_ugc":0,"text_need":0,"picture_need":0,"video_need":4,"type":"templateapi"},{"id":"1014386","ufid":"38632381","name":"3D\u753b\u6846","file":"http:\/\/rdfile.oss-cn-hangzhou.aliyuncs.com\/filemanage\/e069b36c568d909f\/templateapi\/16461077355345\/file.zip?nonce=b764a590ec87d57f073339eddf647a4c","cover":"http:\/\/rdfile.oss-cn-hangzhou.aliyuncs.com\/filemanage\/e069b36c568d909f\/templateapi\/16461077355345\/cover.png?nonce=b764a590ec87d57f073339eddf647a4c&x-oss-process=style\/templateapi","updatetime":"1704185794","height":1280,"width":842,"video":"http:\/\/rdfile.oss-cn-hangzhou.aliyuncs.com\/filemanage\/e069b36c568d909f\/templateapi\/16461077355345\/video.mp4?nonce=b764a590ec87d57f073339eddf647a4c","sort":0,"version":150,"cover2":"","appkey":"init","duration":0,"extra":{},"polyglot":{"en":"3D frame"},"category":"0","audit":0,"is_ugc":0,"text_need":0,"picture_need":3,"video_need":0,"type":"templateapi"},{"id":"1014385","ufid":"16512633","name":"\u4f24\u5fc3\u592a\u5e73\u6d0b","file":"http:\/\/rdfile.oss-cn-hangzhou.aliyuncs.com\/filemanage\/e069b36c568d909f\/templateapi\/16461070254187\/file.zip?nonce=b764a590ec87d57f073339eddf647a4c","cover":"http:\/\/rdfile.oss-cn-hangzhou.aliyuncs.com\/filemanage\/e069b36c568d909f\/templateapi\/16461070254187\/cover.png?nonce=b764a590ec87d57f073339eddf647a4c&x-oss-process=style\/templateapi","updatetime":"1704185794","height":1230,"width":692,"video":"http:\/\/rdfile.oss-cn-hangzhou.aliyuncs.com\/filemanage\/e069b36c568d909f\/templateapi\/16461070254187\/video.mp4?nonce=b764a590ec87d57f073339eddf647a4c","sort":0,"version":150,"cover2":"","appkey":"init","duration":0,"extra":{},"polyglot":{"en":"Sad pacific"},"category":"0","audit":0,"is_ugc":0,"text_need":1,"picture_need":1,"video_need":0,"type":"templateapi"}]}}