{"code":0,"msg":"success","data":{"total":636,"per_page":10,"current_page":28,"last_page":64,"data":[{"id":"1015548","ufid":"34244045","name":"\u516d\u6708\u518d\u89c1\uff0c\u4e03\u6708\u4f60\u597d","file":"http:\/\/rdfile.oss-cn-hangzhou.aliyuncs.com\/filemanage\/e069b36c568d909f\/templateapi\/16565870651560\/file.zip?nonce=87502c3d9c7d82954258c25c8ab16aa9","cover":"http:\/\/rdfile.oss-cn-hangzhou.aliyuncs.com\/filemanage\/e069b36c568d909f\/templateapi\/16565870651560\/cover.webp?nonce=87502c3d9c7d82954258c25c8ab16aa9","updatetime":"1704185884","height":1280,"width":720,"video":"http:\/\/rdfile.oss-cn-hangzhou.aliyuncs.com\/filemanage\/e069b36c568d909f\/templateapi\/16565870651560\/video.mp4?nonce=87502c3d9c7d82954258c25c8ab16aa9","sort":0,"version":153,"cover2":"","appkey":"init","duration":0,"extra":{},"polyglot":{"en":"Goodbye June, hello July"},"category":"0","audit":0,"is_ugc":0,"text_need":0,"picture_need":0,"video_need":3,"type":"templateapi"},{"id":"1015547","ufid":"80557616","name":"\u91cd\u53e0\u6c1b\u56f4\u7167\u7247","file":"http:\/\/rdfile.oss-cn-hangzhou.aliyuncs.com\/filemanage\/e069b36c568d909f\/templateapi\/16565561225640\/file.zip?nonce=87502c3d9c7d82954258c25c8ab16aa9","cover":"http:\/\/rdfile.oss-cn-hangzhou.aliyuncs.com\/filemanage\/e069b36c568d909f\/templateapi\/16565561225640\/cover.webp?nonce=87502c3d9c7d82954258c25c8ab16aa9","updatetime":"1704185884","height":1230,"width":692,"video":"http:\/\/rdfile.oss-cn-hangzhou.aliyuncs.com\/filemanage\/e069b36c568d909f\/templateapi\/16565561225640\/video.mp4?nonce=87502c3d9c7d82954258c25c8ab16aa9","sort":0,"version":153,"cover2":"","appkey":"init","duration":0,"extra":{},"polyglot":{"en":"Overlapping atmosphere photos"},"category":"0","audit":0,"is_ugc":0,"text_need":0,"picture_need":3,"video_need":0,"type":"templateapi"},{"id":"1015543","ufid":"63009176","name":"\u6e29\u67d4\u7684\u7167\u7247\u914d\u7099\u70ed\u7684\u6b4c","file":"http:\/\/rdfile.oss-cn-hangzhou.aliyuncs.com\/filemanage\/e069b36c568d909f\/templateapi\/16564948051134\/file.zip?nonce=af91fba2ef1166c39965829fa089a92a","cover":"http:\/\/rdfile.oss-cn-hangzhou.aliyuncs.com\/filemanage\/e069b36c568d909f\/templateapi\/16564948051134\/cover.webp?nonce=af91fba2ef1166c39965829fa089a92a","updatetime":"1704185883","height":1060,"width":596,"video":"http:\/\/rdfile.oss-cn-hangzhou.aliyuncs.com\/filemanage\/e069b36c568d909f\/templateapi\/16564948051134\/video.mp4?nonce=af91fba2ef1166c39965829fa089a92a","sort":0,"version":153,"cover2":"","appkey":"init","duration":0,"extra":{},"polyglot":{"en":"Tender photos paired with hot songs"},"category":"0","audit":0,"is_ugc":0,"text_need":0,"picture_need":0,"video_need":1,"type":"templateapi"},{"id":"1015540","ufid":"20104038","name":"\u661f\u661f\u9177\u70ab\u5361\u70b9","file":"http:\/\/rdfile.oss-cn-hangzhou.aliyuncs.com\/filemanage\/e069b36c568d909f\/templateapi\/16563999718239\/file.zip?nonce=af91fba2ef1166c39965829fa089a92a","cover":"http:\/\/rdfile.oss-cn-hangzhou.aliyuncs.com\/filemanage\/e069b36c568d909f\/templateapi\/16563999718239\/cover.webp?nonce=af91fba2ef1166c39965829fa089a92a","updatetime":"1704185883","height":606,"width":1080,"video":"http:\/\/rdfile.oss-cn-hangzhou.aliyuncs.com\/filemanage\/e069b36c568d909f\/templateapi\/16563999718239\/video.mp4?nonce=af91fba2ef1166c39965829fa089a92a","sort":0,"version":154,"cover2":"","appkey":"init","duration":0,"extra":{},"polyglot":{"en":"Right time star cool"},"category":"0","audit":0,"is_ugc":0,"text_need":0,"picture_need":24,"video_need":0,"type":"templateapi"},{"id":"1015538","ufid":"58307451","name":"\u5965\u7279\u66fc\u6765\u63a5\u6211\u4e86","file":"http:\/\/rdfile.oss-cn-hangzhou.aliyuncs.com\/filemanage\/e069b36c568d909f\/templateapi\/16563221119595\/file.zip?nonce=af91fba2ef1166c39965829fa089a92a","cover":"http:\/\/rdfile.oss-cn-hangzhou.aliyuncs.com\/filemanage\/e069b36c568d909f\/templateapi\/16563221119595\/cover.webp?nonce=af91fba2ef1166c39965829fa089a92a","updatetime":"1704185883","height":1058,"width":595,"video":"http:\/\/rdfile.oss-cn-hangzhou.aliyuncs.com\/filemanage\/e069b36c568d909f\/templateapi\/16563221119595\/video.mp4?nonce=af91fba2ef1166c39965829fa089a92a","sort":0,"version":153,"cover2":"","appkey":"init","duration":0,"extra":{},"polyglot":{"en":"Ultraman is here to pick me up"},"category":"0","audit":0,"is_ugc":0,"text_need":1,"picture_need":0,"video_need":1,"type":"templateapi"},{"id":"1015460","ufid":"68469405","name":"\u526a\u8f91\u6846\u62a0\u50cf\u73a9\u6cd5","file":"http:\/\/rdfile.oss-cn-hangzhou.aliyuncs.com\/filemanage\/e069b36c568d909f\/templateapi\/16563012944839\/file.zip?nonce=af91fba2ef1166c39965829fa089a92a","cover":"http:\/\/rdfile.oss-cn-hangzhou.aliyuncs.com\/filemanage\/e069b36c568d909f\/templateapi\/16563012944839\/cover.webp?nonce=af91fba2ef1166c39965829fa089a92a","updatetime":"1704185883","height":1230,"width":692,"video":"http:\/\/rdfile.oss-cn-hangzhou.aliyuncs.com\/filemanage\/e069b36c568d909f\/templateapi\/16563012944839\/video.mp4?nonce=af91fba2ef1166c39965829fa089a92a","sort":0,"version":153,"cover2":"","appkey":"init","duration":0,"extra":{},"polyglot":{"en":"How to play clipping frame cutout"},"category":"0","audit":0,"is_ugc":0,"text_need":0,"picture_need":0,"video_need":2,"type":"templateapi"},{"id":"1015457","ufid":"70958740","name":"\u4eba\u7269\u7c92\u5b50\u6d88\u6563","file":"http:\/\/rdfile.oss-cn-hangzhou.aliyuncs.com\/filemanage\/e069b36c568d909f\/templateapi\/16560362803490\/file.zip?nonce=af91fba2ef1166c39965829fa089a92a","cover":"http:\/\/rdfile.oss-cn-hangzhou.aliyuncs.com\/filemanage\/e069b36c568d909f\/templateapi\/16560362803490\/cover.webp?nonce=af91fba2ef1166c39965829fa089a92a","updatetime":"1704185883","height":1284,"width":854,"video":"http:\/\/rdfile.oss-cn-hangzhou.aliyuncs.com\/filemanage\/e069b36c568d909f\/templateapi\/16560362803490\/video.mp4?nonce=af91fba2ef1166c39965829fa089a92a","sort":0,"version":153,"cover2":"","appkey":"init","duration":0,"extra":{},"polyglot":{"en":"Character particles dissipate"},"category":"0","audit":0,"is_ugc":0,"text_need":0,"picture_need":0,"video_need":1,"type":"templateapi"},{"id":"1015456","ufid":"43966966","name":"\u52a8\u753b\u7247\u5c3e\u52a0\u5173\u6ce8","file":"http:\/\/rdfile.oss-cn-hangzhou.aliyuncs.com\/filemanage\/e069b36c568d909f\/templateapi\/16559743304400\/file.zip?nonce=3acc658d220c7a4ddb0bd12d21eb54e0","cover":"http:\/\/rdfile.oss-cn-hangzhou.aliyuncs.com\/filemanage\/e069b36c568d909f\/templateapi\/16559743304400\/cover.webp?nonce=3acc658d220c7a4ddb0bd12d21eb54e0","updatetime":"1704185882","height":1058,"width":595,"video":"http:\/\/rdfile.oss-cn-hangzhou.aliyuncs.com\/filemanage\/e069b36c568d909f\/templateapi\/16559743304400\/video.mp4?nonce=3acc658d220c7a4ddb0bd12d21eb54e0","sort":0,"version":153,"cover2":"","appkey":"init","duration":0,"extra":{},"polyglot":{"en":"Follow the animation at the end"},"category":"0","audit":0,"is_ugc":0,"text_need":1,"picture_need":0,"video_need":1,"type":"templateapi"},{"id":"1015418","ufid":"81604102","name":"\u300a\u8d77\u98ce\u4e86\u300b\u6b4c\u8bcd\u5b57\u5e55","file":"http:\/\/rdfile.oss-cn-hangzhou.aliyuncs.com\/filemanage\/e069b36c568d909f\/templateapi\/16559693943084\/file.zip?nonce=3acc658d220c7a4ddb0bd12d21eb54e0","cover":"http:\/\/rdfile.oss-cn-hangzhou.aliyuncs.com\/filemanage\/e069b36c568d909f\/templateapi\/16559693943084\/cover.webp?nonce=3acc658d220c7a4ddb0bd12d21eb54e0","updatetime":"1704185882","height":1280,"width":720,"video":"http:\/\/rdfile.oss-cn-hangzhou.aliyuncs.com\/filemanage\/e069b36c568d909f\/templateapi\/16559693943084\/video.mp4?nonce=3acc658d220c7a4ddb0bd12d21eb54e0","sort":0,"version":153,"cover2":"","appkey":"init","duration":0,"extra":{},"polyglot":null,"category":"0","audit":0,"is_ugc":0,"text_need":0,"picture_need":0,"video_need":1,"type":"templateapi"},{"id":"1015389","ufid":"64748034","name":"\u4e13\u5c5e\u64ad\u653e\u5668","file":"http:\/\/rdfile.oss-cn-hangzhou.aliyuncs.com\/filemanage\/e069b36c568d909f\/templateapi\/16557820493793\/file.zip?nonce=3acc658d220c7a4ddb0bd12d21eb54e0","cover":"http:\/\/rdfile.oss-cn-hangzhou.aliyuncs.com\/filemanage\/e069b36c568d909f\/templateapi\/16557820493793\/cover.webp?nonce=3acc658d220c7a4ddb0bd12d21eb54e0","updatetime":"1704185882","height":607,"width":1080,"video":"http:\/\/rdfile.oss-cn-hangzhou.aliyuncs.com\/filemanage\/e069b36c568d909f\/templateapi\/16557820493793\/video.mp4?nonce=3acc658d220c7a4ddb0bd12d21eb54e0","sort":0,"version":153,"cover2":"","appkey":"init","duration":0,"extra":{},"polyglot":{"en":"Exclusive player"},"category":"0","audit":0,"is_ugc":0,"text_need":0,"picture_need":0,"video_need":3,"type":"templateapi"}]}}