{"code":0,"msg":"success","data":{"total":283,"per_page":20,"current_page":15,"last_page":15,"data":[{"id":"1024147","ufid":"67580459","name":"I have nothing to do","file":"http:\/\/rdfile.oss-cn-hangzhou.aliyuncs.com\/filemanage\/init\/audio\/67580459.mp3?nonce=007feb8f426317fe38b9350ee2a11c8e","cover":"","updatetime":"1697698215","height":0,"width":0,"video":"","sort":0,"version":157,"cover2":"","appkey":"init","duration":15,"extra":{},"polyglot":[],"category":"40610022,","audit":0,"is_ugc":0,"type":"audio"},{"id":"1024146","ufid":"49771896","name":"AUGHHHH","file":"http:\/\/rdfile.oss-cn-hangzhou.aliyuncs.com\/filemanage\/init\/audio\/49771896.mp3?nonce=86645f4e0bbc5c065c31f1f3618f3cc7","cover":"","updatetime":"1697698279","height":0,"width":0,"video":"","sort":0,"version":157,"cover2":"","appkey":"init","duration":2,"extra":{},"polyglot":[],"category":"40610022,","audit":0,"is_ugc":0,"type":"audio"},{"id":"1024145","ufid":"44885730","name":"3D\u9707\u60ca","file":"http:\/\/rdfile.oss-cn-hangzhou.aliyuncs.com\/filemanage\/init\/audio\/44885730.mp3?nonce=86645f4e0bbc5c065c31f1f3618f3cc7","cover":"","updatetime":"1697698279","height":0,"width":0,"video":"","sort":0,"version":157,"cover2":"","appkey":"init","duration":6,"extra":{},"polyglot":[],"category":"40610022,","audit":0,"is_ugc":0,"type":"audio"}]}}