{"code":0,"msg":"success","data":{"total":283,"per_page":20,"current_page":12,"last_page":15,"data":[{"id":"1024207","ufid":"10122248","name":"\u70e6\u607c\u8fdb\u5165\u6211\u7684\u8033\u6735\u91cc","file":"http:\/\/rdfile.oss-cn-hangzhou.aliyuncs.com\/filemanage\/init\/audio\/10122248.mp3?nonce=8c96cce3055b86e413390a1a921aa4fd","cover":"","updatetime":"1697698229","height":0,"width":0,"video":"","sort":0,"version":157,"cover2":"","appkey":"init","duration":18,"extra":{},"polyglot":[],"category":"40610022,","audit":0,"is_ugc":0,"type":"audio"},{"id":"1024206","ufid":"11270937","name":"\u53d1\u75af\u600e\u4e48\u4e86 \u5927\u5bb6\u90fd\u4f1a\u6b7b","file":"http:\/\/rdfile.oss-cn-hangzhou.aliyuncs.com\/filemanage\/init\/audio\/11270937.mp3?nonce=8c96cce3055b86e413390a1a921aa4fd","cover":"","updatetime":"1697698229","height":0,"width":0,"video":"","sort":0,"version":157,"cover2":"","appkey":"init","duration":5,"extra":{},"polyglot":[],"category":"40610022,","audit":0,"is_ugc":0,"type":"audio"},{"id":"1024205","ufid":"34331211","name":"\u8eb2\u95ea\u6447bgm","file":"http:\/\/rdfile.oss-cn-hangzhou.aliyuncs.com\/filemanage\/init\/audio\/34331211.mp3?nonce=be23c98a9951b232ec0a391c7bfdd849","cover":"","updatetime":"1697698228","height":0,"width":0,"video":"","sort":0,"version":157,"cover2":"","appkey":"init","duration":10,"extra":{},"polyglot":[],"category":"40610022,","audit":0,"is_ugc":0,"type":"audio"},{"id":"1024204","ufid":"11636313","name":"\u593a\u56de\u79cb\u96c5","file":"http:\/\/rdfile.oss-cn-hangzhou.aliyuncs.com\/filemanage\/init\/audio\/11636313.mp3?nonce=be23c98a9951b232ec0a391c7bfdd849","cover":"","updatetime":"1697698228","height":0,"width":0,"video":"","sort":0,"version":157,"cover2":"","appkey":"init","duration":9,"extra":{},"polyglot":[],"category":"40610022,","audit":0,"is_ugc":0,"type":"audio"},{"id":"1024203","ufid":"66408535","name":"\u9876\u7ea7\u53a8\u5e08\u4e5d\u8f6c\u5927\u80a0","file":"http:\/\/rdfile.oss-cn-hangzhou.aliyuncs.com\/filemanage\/init\/audio\/66408535.mp3?nonce=be23c98a9951b232ec0a391c7bfdd849","cover":"","updatetime":"1697698228","height":0,"width":0,"video":"","sort":0,"version":157,"cover2":"","appkey":"init","duration":21,"extra":{},"polyglot":[],"category":"40610022,","audit":0,"is_ugc":0,"type":"audio"},{"id":"1024202","ufid":"30969039","name":"\u7535\u5b50\u6728\u9c7c","file":"http:\/\/rdfile.oss-cn-hangzhou.aliyuncs.com\/filemanage\/init\/audio\/30969039.mp3?nonce=be23c98a9951b232ec0a391c7bfdd849","cover":"","updatetime":"1697698228","height":0,"width":0,"video":"","sort":0,"version":157,"cover2":"","appkey":"init","duration":6,"extra":{},"polyglot":[],"category":"40610022,","audit":0,"is_ugc":0,"type":"audio"},{"id":"1024201","ufid":"37531209","name":"\u7535\u5b50\u6728\u9c7c (2)","file":"http:\/\/rdfile.oss-cn-hangzhou.aliyuncs.com\/filemanage\/init\/audio\/37531209.mp3?nonce=a84070a8ec6be4bbfa4f785852e7de4f","cover":"","updatetime":"1697698227","height":0,"width":0,"video":"","sort":0,"version":157,"cover2":"","appkey":"init","duration":6,"extra":{},"polyglot":[],"category":"40610022,","audit":0,"is_ugc":0,"type":"audio"},{"id":"1024200","ufid":"88348197","name":"\u5730\u94c1\u97f3\u82cd\u5170\u8bc0BGM","file":"http:\/\/rdfile.oss-cn-hangzhou.aliyuncs.com\/filemanage\/init\/audio\/88348197.mp3?nonce=a84070a8ec6be4bbfa4f785852e7de4f","cover":"","updatetime":"1697698227","height":0,"width":0,"video":"","sort":0,"version":157,"cover2":"","appkey":"init","duration":6,"extra":{},"polyglot":[],"category":"40610022,","audit":0,"is_ugc":0,"type":"audio"},{"id":"1024199","ufid":"26622225","name":"\u5f53\u4ee3\u5e74\u8f7b\u4eba\u7684\u75c5 \u6211\u6709\u5de8\u7269","file":"http:\/\/rdfile.oss-cn-hangzhou.aliyuncs.com\/filemanage\/init\/audio\/26622225.mp3?nonce=a84070a8ec6be4bbfa4f785852e7de4f","cover":"","updatetime":"1697698227","height":0,"width":0,"video":"","sort":0,"version":157,"cover2":"","appkey":"init","duration":10,"extra":{},"polyglot":[],"category":"40610022,","audit":0,"is_ugc":0,"type":"audio"},{"id":"1024198","ufid":"54695605","name":"\u902e\u867e\u6237","file":"http:\/\/rdfile.oss-cn-hangzhou.aliyuncs.com\/filemanage\/init\/audio\/54695605.mp3?nonce=a84070a8ec6be4bbfa4f785852e7de4f","cover":"","updatetime":"1697698227","height":0,"width":0,"video":"","sort":0,"version":157,"cover2":"","appkey":"init","duration":41,"extra":{},"polyglot":[],"category":"40610022,","audit":0,"is_ugc":0,"type":"audio"},{"id":"1024197","ufid":"24670681","name":"\u5927\u5916\u5b59\u4f60\u725b\u6ce2\u4e00","file":"http:\/\/rdfile.oss-cn-hangzhou.aliyuncs.com\/filemanage\/init\/audio\/24670681.mp3?nonce=a84070a8ec6be4bbfa4f785852e7de4f","cover":"","updatetime":"1697698227","height":0,"width":0,"video":"","sort":0,"version":157,"cover2":"","appkey":"init","duration":5,"extra":{},"polyglot":[],"category":"40610022,","audit":0,"is_ugc":0,"type":"audio"},{"id":"1024196","ufid":"48990465","name":"\u5927\u9ca4\u5b50\u9c7c\u6765\u4e86","file":"http:\/\/rdfile.oss-cn-hangzhou.aliyuncs.com\/filemanage\/init\/audio\/48990465.mp3?nonce=2dae3d746f732f62abfeaa99e9f8a723","cover":"","updatetime":"1697698226","height":0,"width":0,"video":"","sort":0,"version":157,"cover2":"","appkey":"init","duration":11,"extra":{},"polyglot":[],"category":"40610022,","audit":0,"is_ugc":0,"type":"audio"},{"id":"1024195","ufid":"50686399","name":"\u5927\u5bb6\u90fd\u6709\u5b9d\u5b9d \u90a3\u6211\u662f\u8c01\u7684","file":"http:\/\/rdfile.oss-cn-hangzhou.aliyuncs.com\/filemanage\/init\/audio\/50686399.mp3?nonce=2dae3d746f732f62abfeaa99e9f8a723","cover":"","updatetime":"1697698226","height":0,"width":0,"video":"","sort":0,"version":157,"cover2":"","appkey":"init","duration":5,"extra":{},"polyglot":[],"category":"40610022,","audit":0,"is_ugc":0,"type":"audio"},{"id":"1024194","ufid":"51151575","name":"\u5927\u80c6\u505a\u81ea\u5df1\u559c\u6b22\u7684\u4e8b","file":"http:\/\/rdfile.oss-cn-hangzhou.aliyuncs.com\/filemanage\/init\/audio\/51151575.mp3?nonce=2dae3d746f732f62abfeaa99e9f8a723","cover":"","updatetime":"1697698226","height":0,"width":0,"video":"","sort":0,"version":157,"cover2":"","appkey":"init","duration":8,"extra":{},"polyglot":[],"category":"40610022,","audit":0,"is_ugc":0,"type":"audio"},{"id":"1024193","ufid":"94648347","name":"\u6253\u6e38\u620f\u662f\u6700\u6ca1\u51fa\u606f\u7684\u8868\u73b0","file":"http:\/\/rdfile.oss-cn-hangzhou.aliyuncs.com\/filemanage\/init\/audio\/94648347.mp3?nonce=2dae3d746f732f62abfeaa99e9f8a723","cover":"","updatetime":"1697698226","height":0,"width":0,"video":"","sort":0,"version":157,"cover2":"","appkey":"init","duration":24,"extra":{},"polyglot":[],"category":"40610022,","audit":0,"is_ugc":0,"type":"audio"},{"id":"1024192","ufid":"92380027","name":"\u7eaf\u662f\u79d1\u6280\u4e0e\u72e0\u6d3b\u554a\u54e5\u4eec\u513f","file":"http:\/\/rdfile.oss-cn-hangzhou.aliyuncs.com\/filemanage\/init\/audio\/92380027.mp3?nonce=2dae3d746f732f62abfeaa99e9f8a723","cover":"","updatetime":"1697698226","height":0,"width":0,"video":"","sort":0,"version":157,"cover2":"","appkey":"init","duration":3,"extra":{},"polyglot":[],"category":"40610022,","audit":0,"is_ugc":0,"type":"audio"},{"id":"1024191","ufid":"67678746","name":"\u9504\u79be\u65e5\u5f53\u5348","file":"http:\/\/rdfile.oss-cn-hangzhou.aliyuncs.com\/filemanage\/init\/audio\/67678746.mp3?nonce=0e7e34fc28bab337fea459db5ba20de7","cover":"","updatetime":"1697698225","height":0,"width":0,"video":"","sort":0,"version":157,"cover2":"","appkey":"init","duration":7,"extra":{},"polyglot":[],"category":"40610022,","audit":0,"is_ugc":0,"type":"audio"},{"id":"1024190","ufid":"52565829","name":"\u51fa\u53d1\u5427 \u94c3\u82bd","file":"http:\/\/rdfile.oss-cn-hangzhou.aliyuncs.com\/filemanage\/init\/audio\/52565829.mp3?nonce=0e7e34fc28bab337fea459db5ba20de7","cover":"","updatetime":"1697698225","height":0,"width":0,"video":"","sort":0,"version":157,"cover2":"","appkey":"init","duration":1,"extra":{},"polyglot":[],"category":"40610022,","audit":0,"is_ugc":0,"type":"audio"},{"id":"1024189","ufid":"68565597","name":"\u81e3\u59be\u8981\u544a\u53d1\u71b9\u8d35\u5983\u79c1\u901a","file":"http:\/\/rdfile.oss-cn-hangzhou.aliyuncs.com\/filemanage\/init\/audio\/68565597.mp3?nonce=0e7e34fc28bab337fea459db5ba20de7","cover":"","updatetime":"1697698225","height":0,"width":0,"video":"","sort":0,"version":157,"cover2":"","appkey":"init","duration":3,"extra":{},"polyglot":[],"category":"40610022,","audit":0,"is_ugc":0,"type":"audio"},{"id":"1024188","ufid":"30708072","name":"\u81e3\u8fd9\u4e00\u9000\u5c31\u662f\u4e00\u8f88\u5b50","file":"http:\/\/rdfile.oss-cn-hangzhou.aliyuncs.com\/filemanage\/init\/audio\/30708072.mp3?nonce=0e7e34fc28bab337fea459db5ba20de7","cover":"","updatetime":"1697698225","height":0,"width":0,"video":"","sort":0,"version":157,"cover2":"","appkey":"init","duration":9,"extra":{},"polyglot":[],"category":"40610022,","audit":0,"is_ugc":0,"type":"audio"}]}}