{"code":0,"msg":"success","data":{"total":636,"per_page":10,"current_page":46,"last_page":64,"data":[{"id":"1012915","ufid":"19309063","name":"\u5feb\u4e50\u8282\u594f\u5361\u70b9","file":"http:\/\/rdfile.oss-cn-hangzhou.aliyuncs.com\/filemanage\/e069b36c568d909f\/templateapi\/16384160177978\/file.zip?nonce=f9b0ba84bff4e106de1fdf3c2cdee795","cover":"http:\/\/rdfile.oss-cn-hangzhou.aliyuncs.com\/filemanage\/e069b36c568d909f\/templateapi\/16384160177978\/cover.png?nonce=f9b0ba84bff4e106de1fdf3c2cdee795&x-oss-process=style\/templateapi","updatetime":"1704185729","height":1230,"width":692,"video":"http:\/\/rdfile.oss-cn-hangzhou.aliyuncs.com\/filemanage\/e069b36c568d909f\/templateapi\/16384160177978\/video.mp4?nonce=f9b0ba84bff4e106de1fdf3c2cdee795","sort":100,"version":149,"cover2":"","appkey":"init","duration":0,"extra":{},"polyglot":{"en":"Right time happy rhythm"},"category":"0","audit":0,"is_ugc":0,"text_need":6,"picture_need":14,"video_need":0,"type":"templateapi"},{"id":"1012910","ufid":"32542961","name":"\u5f88\u60f3\u67d0\u4eba","file":"http:\/\/rdfile.oss-cn-hangzhou.aliyuncs.com\/filemanage\/e069b36c568d909f\/templateapi\/16381808459141\/file.zip?nonce=f1f2e04c29e5b235163e0e9f2bf4f3cd","cover":"http:\/\/rdfile.oss-cn-hangzhou.aliyuncs.com\/filemanage\/e069b36c568d909f\/templateapi\/16381808459141\/cover.png?nonce=f1f2e04c29e5b235163e0e9f2bf4f3cd&x-oss-process=style\/templateapi","updatetime":"1704185728","height":1080,"width":673,"video":"http:\/\/rdfile.oss-cn-hangzhou.aliyuncs.com\/filemanage\/e069b36c568d909f\/templateapi\/16381808459141\/video.mp4?nonce=f1f2e04c29e5b235163e0e9f2bf4f3cd","sort":100,"version":149,"cover2":"","appkey":"init","duration":0,"extra":{},"polyglot":{"en":"Miss someone very much"},"category":"0","audit":0,"is_ugc":0,"text_need":0,"picture_need":10,"video_need":0,"type":"templateapi"},{"id":"1012909","ufid":"47893958","name":"\u8f6e\u64ad","file":"http:\/\/rdfile.oss-cn-hangzhou.aliyuncs.com\/filemanage\/e069b36c568d909f\/templateapi\/16381713148344\/file.zip?nonce=f1f2e04c29e5b235163e0e9f2bf4f3cd","cover":"http:\/\/rdfile.oss-cn-hangzhou.aliyuncs.com\/filemanage\/e069b36c568d909f\/templateapi\/16381713148344\/cover.png?nonce=f1f2e04c29e5b235163e0e9f2bf4f3cd&x-oss-process=style\/templateapi","updatetime":"1704185728","height":1080,"width":1920,"video":"http:\/\/rdfile.oss-cn-hangzhou.aliyuncs.com\/filemanage\/e069b36c568d909f\/templateapi\/16381713148344\/video.mp4?nonce=f1f2e04c29e5b235163e0e9f2bf4f3cd","sort":100,"version":149,"cover2":"","appkey":"init","duration":0,"extra":{},"polyglot":{"en":"Carousel"},"category":"0","audit":0,"is_ugc":0,"text_need":0,"picture_need":11,"video_need":0,"type":"templateapi"},{"id":"1012906","ufid":"97456515","name":"\u79cb\u65e5\u5143\u6c14","file":"http:\/\/rdfile.oss-cn-hangzhou.aliyuncs.com\/filemanage\/e069b36c568d909f\/templateapi\/16379214864133\/file.zip?nonce=f1f2e04c29e5b235163e0e9f2bf4f3cd","cover":"http:\/\/rdfile.oss-cn-hangzhou.aliyuncs.com\/filemanage\/e069b36c568d909f\/templateapi\/16379214864133\/cover.png?nonce=f1f2e04c29e5b235163e0e9f2bf4f3cd&x-oss-process=style\/templateapi","updatetime":"1704185728","height":1080,"width":607,"video":"http:\/\/rdfile.oss-cn-hangzhou.aliyuncs.com\/filemanage\/e069b36c568d909f\/templateapi\/16379214864133\/video.mp4?nonce=f1f2e04c29e5b235163e0e9f2bf4f3cd","sort":100,"version":149,"cover2":"","appkey":"init","duration":0,"extra":{},"polyglot":{"en":"Autumn energy"},"category":"0","audit":0,"is_ugc":0,"text_need":0,"picture_need":8,"video_need":0,"type":"templateapi"},{"id":"1012905","ufid":"15487893","name":"\u53d8\u8eab\u72ee\u5b50","file":"http:\/\/rdfile.oss-cn-hangzhou.aliyuncs.com\/filemanage\/e069b36c568d909f\/templateapi\/16379186065162\/file.zip?nonce=f1f2e04c29e5b235163e0e9f2bf4f3cd","cover":"http:\/\/rdfile.oss-cn-hangzhou.aliyuncs.com\/filemanage\/e069b36c568d909f\/templateapi\/16379186065162\/cover.png?nonce=f1f2e04c29e5b235163e0e9f2bf4f3cd&x-oss-process=style\/templateapi","updatetime":"1704185728","height":1080,"width":605,"video":"http:\/\/rdfile.oss-cn-hangzhou.aliyuncs.com\/filemanage\/e069b36c568d909f\/templateapi\/16379186065162\/video.mp4?nonce=f1f2e04c29e5b235163e0e9f2bf4f3cd","sort":100,"version":149,"cover2":"","appkey":"init","duration":0,"extra":{},"polyglot":{"en":"Transform into a lion"},"category":"0","audit":0,"is_ugc":0,"text_need":0,"picture_need":0,"video_need":1,"type":"templateapi"},{"id":"1012904","ufid":"24434327","name":"\u6211\u7684\u5feb\u4e502021","file":"http:\/\/rdfile.oss-cn-hangzhou.aliyuncs.com\/filemanage\/e069b36c568d909f\/templateapi\/16379129433550\/file.zip?nonce=f1f2e04c29e5b235163e0e9f2bf4f3cd","cover":"http:\/\/rdfile.oss-cn-hangzhou.aliyuncs.com\/filemanage\/e069b36c568d909f\/templateapi\/16379129433550\/cover.png?nonce=f1f2e04c29e5b235163e0e9f2bf4f3cd&x-oss-process=style\/templateapi","updatetime":"1704185728","height":1080,"width":607,"video":"http:\/\/rdfile.oss-cn-hangzhou.aliyuncs.com\/filemanage\/e069b36c568d909f\/templateapi\/16379129433550\/video.mp4?nonce=f1f2e04c29e5b235163e0e9f2bf4f3cd","sort":100,"version":149,"cover2":"","appkey":"init","duration":0,"extra":{},"polyglot":{"en":"My happiness 2021"},"category":"0","audit":0,"is_ugc":0,"text_need":0,"picture_need":32,"video_need":0,"type":"templateapi"},{"id":"1012901","ufid":"86547442","name":"\u8fc8\u963f\u5bc6\u7684\u9633\u5149","file":"http:\/\/rdfile.oss-cn-hangzhou.aliyuncs.com\/filemanage\/e069b36c568d909f\/templateapi\/16378350655702\/file.zip?nonce=4340c19efc287bc8180a17025f09b222","cover":"http:\/\/rdfile.oss-cn-hangzhou.aliyuncs.com\/filemanage\/e069b36c568d909f\/templateapi\/16378350655702\/cover.png?nonce=4340c19efc287bc8180a17025f09b222&x-oss-process=style\/templateapi","updatetime":"1704185727","height":1080,"width":1918,"video":"http:\/\/rdfile.oss-cn-hangzhou.aliyuncs.com\/filemanage\/e069b36c568d909f\/templateapi\/16378350655702\/video.mp4?nonce=4340c19efc287bc8180a17025f09b222","sort":100,"version":148,"cover2":"","appkey":"init","duration":0,"extra":{},"polyglot":{"en":"Miami sunshine"},"category":"0","audit":0,"is_ugc":0,"text_need":0,"picture_need":0,"video_need":4,"type":"templateapi"},{"id":"1012893","ufid":"65504712","name":"\u65e5\u5e38\u5361\u70b9","file":"http:\/\/rdfile.oss-cn-hangzhou.aliyuncs.com\/filemanage\/e069b36c568d909f\/templateapi\/16377372884441\/file.zip?nonce=4340c19efc287bc8180a17025f09b222","cover":"http:\/\/rdfile.oss-cn-hangzhou.aliyuncs.com\/filemanage\/e069b36c568d909f\/templateapi\/16377372884441\/cover.png?nonce=4340c19efc287bc8180a17025f09b222&x-oss-process=style\/templateapi","updatetime":"1704185727","height":1280,"width":1280,"video":"http:\/\/rdfile.oss-cn-hangzhou.aliyuncs.com\/filemanage\/e069b36c568d909f\/templateapi\/16377372884441\/video.mp4?nonce=4340c19efc287bc8180a17025f09b222","sort":100,"version":148,"cover2":"","appkey":"init","duration":0,"extra":{},"polyglot":{"en":"Right time daily"},"category":"0","audit":0,"is_ugc":0,"text_need":0,"picture_need":24,"video_need":0,"type":"templateapi"},{"id":"1012892","ufid":"70415689","name":"\u5149\u7ebf\u626b\u63cf","file":"http:\/\/rdfile.oss-cn-hangzhou.aliyuncs.com\/filemanage\/e069b36c568d909f\/templateapi\/16377242061377\/file.zip?nonce=4340c19efc287bc8180a17025f09b222","cover":"http:\/\/rdfile.oss-cn-hangzhou.aliyuncs.com\/filemanage\/e069b36c568d909f\/templateapi\/16377242061377\/cover.png?nonce=4340c19efc287bc8180a17025f09b222&x-oss-process=style\/templateapi","updatetime":"1704185727","height":960,"width":1280,"video":"http:\/\/rdfile.oss-cn-hangzhou.aliyuncs.com\/filemanage\/e069b36c568d909f\/templateapi\/16377242061377\/video.mp4?nonce=4340c19efc287bc8180a17025f09b222","sort":100,"version":148,"cover2":"","appkey":"init","duration":0,"extra":{},"polyglot":{"en":"Ray scanning"},"category":"0","audit":0,"is_ugc":0,"text_need":0,"picture_need":0,"video_need":1,"type":"templateapi"},{"id":"1012879","ufid":"62825795","name":"\u81ea\u5df1\u559c\u6b22\u7684","file":"http:\/\/rdfile.oss-cn-hangzhou.aliyuncs.com\/filemanage\/e069b36c568d909f\/templateapi\/16372058526873\/file.zip?nonce=4340c19efc287bc8180a17025f09b222","cover":"http:\/\/rdfile.oss-cn-hangzhou.aliyuncs.com\/filemanage\/e069b36c568d909f\/templateapi\/16372058526873\/cover.png?nonce=4340c19efc287bc8180a17025f09b222&x-oss-process=style\/templateapi","updatetime":"1704185727","height":1280,"width":720,"video":"http:\/\/rdfile.oss-cn-hangzhou.aliyuncs.com\/filemanage\/e069b36c568d909f\/templateapi\/16372058526873\/video.mp4?nonce=4340c19efc287bc8180a17025f09b222","sort":100,"version":148,"cover2":"","appkey":"init","duration":0,"extra":{},"polyglot":{"en":"What I like"},"category":"0","audit":0,"is_ugc":0,"text_need":0,"picture_need":0,"video_need":1,"type":"templateapi"}]}}