{"code":0,"msg":"success","data":{"total":283,"per_page":20,"current_page":14,"last_page":15,"data":[{"id":"1024167","ufid":"31525321","name":"why not","file":"http:\/\/rdfile.oss-cn-hangzhou.aliyuncs.com\/filemanage\/init\/audio\/31525321.mp3?nonce=3bdd4179fb266a76c14f1b5512a92f5a","cover":"","updatetime":"1697698220","height":0,"width":0,"video":"","sort":0,"version":157,"cover2":"","appkey":"init","duration":16,"extra":{},"polyglot":[],"category":"40610022,","audit":0,"is_ugc":0,"type":"audio"},{"id":"1024166","ufid":"46376499","name":"tired","file":"http:\/\/rdfile.oss-cn-hangzhou.aliyuncs.com\/filemanage\/init\/audio\/46376499.mp3?nonce=3bdd4179fb266a76c14f1b5512a92f5a","cover":"","updatetime":"1697698220","height":0,"width":0,"video":"","sort":0,"version":157,"cover2":"","appkey":"init","duration":12,"extra":{},"polyglot":[],"category":"40610022,","audit":0,"is_ugc":0,"type":"audio"},{"id":"1024165","ufid":"83128243","name":"siu~\u5496\u5561\u53eb","file":"http:\/\/rdfile.oss-cn-hangzhou.aliyuncs.com\/filemanage\/init\/audio\/83128243.mp3?nonce=3bdd4179fb266a76c14f1b5512a92f5a","cover":"","updatetime":"1697698220","height":0,"width":0,"video":"","sort":0,"version":157,"cover2":"","appkey":"init","duration":11,"extra":{},"polyglot":[],"category":"40610022,","audit":0,"is_ugc":0,"type":"audio"},{"id":"1024164","ufid":"85125704","name":"sakana-\u8389\u53ef\u4e3d\u4e1d","file":"http:\/\/rdfile.oss-cn-hangzhou.aliyuncs.com\/filemanage\/init\/audio\/85125704.mp3?nonce=60ad8120108c0693068326535d3f7e99","cover":"","updatetime":"1697698219","height":0,"width":0,"video":"","sort":0,"version":157,"cover2":"","appkey":"init","duration":2,"extra":{},"polyglot":[],"category":"40610022,","audit":0,"is_ugc":0,"type":"audio"},{"id":"1024163","ufid":"64688495","name":"piupiupiu\u539f\u7248","file":"http:\/\/rdfile.oss-cn-hangzhou.aliyuncs.com\/filemanage\/init\/audio\/64688495.mp3?nonce=60ad8120108c0693068326535d3f7e99","cover":"","updatetime":"1697698219","height":0,"width":0,"video":"","sort":0,"version":157,"cover2":"","appkey":"init","duration":16,"extra":{},"polyglot":[],"category":"40610022,","audit":0,"is_ugc":0,"type":"audio"},{"id":"1024162","ufid":"43831459","name":"oh\u626b\u5174","file":"http:\/\/rdfile.oss-cn-hangzhou.aliyuncs.com\/filemanage\/init\/audio\/43831459.mp3?nonce=6097ecf5c9ebaf863d632d17979701ea","cover":"","updatetime":"1697698282","height":0,"width":0,"video":"","sort":0,"version":157,"cover2":"","appkey":"init","duration":5,"extra":{},"polyglot":[],"category":"40610022,","audit":0,"is_ugc":0,"type":"audio"},{"id":"1024161","ufid":"64106909","name":"no god please","file":"http:\/\/rdfile.oss-cn-hangzhou.aliyuncs.com\/filemanage\/init\/audio\/64106909.mp3?nonce=60ad8120108c0693068326535d3f7e99","cover":"","updatetime":"1697698219","height":0,"width":0,"video":"","sort":0,"version":157,"cover2":"","appkey":"init","duration":3,"extra":{},"polyglot":[],"category":"40610022,","audit":0,"is_ugc":0,"type":"audio"},{"id":"1024160","ufid":"39505366","name":"lt's me \uff0chi- \u300aAnti-Her","file":"http:\/\/rdfile.oss-cn-hangzhou.aliyuncs.com\/filemanage\/init\/audio\/39505366.mp3?nonce=f2679fce2b81a34ffc256dc913b86213","cover":"","updatetime":"1697698218","height":0,"width":0,"video":"","sort":0,"version":157,"cover2":"","appkey":"init","duration":5,"extra":{},"polyglot":[],"category":"40610022,","audit":0,"is_ugc":0,"type":"audio"},{"id":"1024159","ufid":"82581853","name":"kiss kiss","file":"http:\/\/rdfile.oss-cn-hangzhou.aliyuncs.com\/filemanage\/init\/audio\/82581853.mp3?nonce=f2679fce2b81a34ffc256dc913b86213","cover":"","updatetime":"1697698218","height":0,"width":0,"video":"","sort":0,"version":157,"cover2":"","appkey":"init","duration":3,"extra":{},"polyglot":[],"category":"40610022,","audit":0,"is_ugc":0,"type":"audio"},{"id":"1024158","ufid":"44246713","name":"hi hi good morning \u5c0f\u7537\u5b69","file":"http:\/\/rdfile.oss-cn-hangzhou.aliyuncs.com\/filemanage\/init\/audio\/44246713.mp3?nonce=f2679fce2b81a34ffc256dc913b86213","cover":"","updatetime":"1697698218","height":0,"width":0,"video":"","sort":0,"version":157,"cover2":"","appkey":"init","duration":10,"extra":{},"polyglot":[],"category":"40610022,","audit":0,"is_ugc":0,"type":"audio"},{"id":"1024157","ufid":"28912158","name":"hi Siri \u60c5\u611f\u5bf9\u8bdd","file":"http:\/\/rdfile.oss-cn-hangzhou.aliyuncs.com\/filemanage\/init\/audio\/28912158.mp3?nonce=f2679fce2b81a34ffc256dc913b86213","cover":"","updatetime":"1697698218","height":0,"width":0,"video":"","sort":0,"version":157,"cover2":"","appkey":"init","duration":30,"extra":{},"polyglot":[],"category":"40610022,","audit":0,"is_ugc":0,"type":"audio"},{"id":"1024156","ufid":"67934301","name":"gigachad\u89d2\u8272\u66f2","file":"http:\/\/rdfile.oss-cn-hangzhou.aliyuncs.com\/filemanage\/init\/audio\/67934301.mp3?nonce=45896f79ae63399f08cda9662062f9ea","cover":"","updatetime":"1697698217","height":0,"width":0,"video":"","sort":0,"version":157,"cover2":"","appkey":"init","duration":16,"extra":{},"polyglot":[],"category":"40610022,","audit":0,"is_ugc":0,"type":"audio"},{"id":"1024155","ufid":"83311704","name":"funky town \u5ba1\u6838\u5feb\u4e50\u66f2","file":"http:\/\/rdfile.oss-cn-hangzhou.aliyuncs.com\/filemanage\/init\/audio\/83311704.mp3?nonce=04bf15f3717f8e312b0ecafe14ace7d2","cover":"","updatetime":"1697698281","height":0,"width":0,"video":"","sort":0,"version":157,"cover2":"","appkey":"init","duration":236,"extra":{},"polyglot":[],"category":"40610022,","audit":0,"is_ugc":0,"type":"audio"},{"id":"1024154","ufid":"29589350","name":"emo\u7248\u597d\u8fd0\u6765","file":"http:\/\/rdfile.oss-cn-hangzhou.aliyuncs.com\/filemanage\/init\/audio\/29589350.mp3?nonce=45896f79ae63399f08cda9662062f9ea","cover":"","updatetime":"1697698217","height":0,"width":0,"video":"","sort":0,"version":157,"cover2":"","appkey":"init","duration":23,"extra":{},"polyglot":[],"category":"40610022,","audit":0,"is_ugc":0,"type":"audio"},{"id":"1024153","ufid":"76768692","name":"emotional","file":"http:\/\/rdfile.oss-cn-hangzhou.aliyuncs.com\/filemanage\/init\/audio\/76768692.mp3?nonce=45896f79ae63399f08cda9662062f9ea","cover":"","updatetime":"1697698217","height":0,"width":0,"video":"","sort":0,"version":157,"cover2":"","appkey":"init","duration":6,"extra":{},"polyglot":[],"category":"40610022,","audit":0,"is_ugc":0,"type":"audio"},{"id":"1024152","ufid":"89191741","name":"come on\u7684\u5582","file":"http:\/\/rdfile.oss-cn-hangzhou.aliyuncs.com\/filemanage\/init\/audio\/89191741.mp3?nonce=45896f79ae63399f08cda9662062f9ea","cover":"","updatetime":"1697698217","height":0,"width":0,"video":"","sort":0,"version":157,"cover2":"","appkey":"init","duration":5,"extra":{},"polyglot":[],"category":"40610022,","audit":0,"is_ugc":0,"type":"audio"},{"id":"1024151","ufid":"88081930","name":"XX\u628a\u6211\u7684\u5b69\u5b50\u90fd\u6bc1\u4e86","file":"http:\/\/rdfile.oss-cn-hangzhou.aliyuncs.com\/filemanage\/init\/audio\/88081930.mp3?nonce=1a2b4c07876e12159538d063b1ccf2b3","cover":"","updatetime":"1697698216","height":0,"width":0,"video":"","sort":0,"version":157,"cover2":"","appkey":"init","duration":18,"extra":{},"polyglot":[],"category":"40610022,","audit":0,"is_ugc":0,"type":"audio"},{"id":"1024150","ufid":"87661482","name":"Oh Baby","file":"http:\/\/rdfile.oss-cn-hangzhou.aliyuncs.com\/filemanage\/init\/audio\/87661482.mp3?nonce=1a2b4c07876e12159538d063b1ccf2b3","cover":"","updatetime":"1697698216","height":0,"width":0,"video":"","sort":0,"version":157,"cover2":"","appkey":"init","duration":5,"extra":{},"polyglot":[],"category":"40610022,","audit":0,"is_ugc":0,"type":"audio"},{"id":"1024149","ufid":"28352519","name":"OI~","file":"http:\/\/rdfile.oss-cn-hangzhou.aliyuncs.com\/filemanage\/init\/audio\/28352519.mp3?nonce=6097ecf5c9ebaf863d632d17979701ea","cover":"","updatetime":"1697698282","height":0,"width":0,"video":"","sort":0,"version":157,"cover2":"","appkey":"init","duration":1,"extra":{},"polyglot":[],"category":"40610022,","audit":0,"is_ugc":0,"type":"audio"},{"id":"1024148","ufid":"94287464","name":"OC\u516b\u560eC\u523b\u6f0f","file":"http:\/\/rdfile.oss-cn-hangzhou.aliyuncs.com\/filemanage\/init\/audio\/94287464.mp3?nonce=788b6f75657c1b3b4178b3787feb04be","cover":"","updatetime":"1697698280","height":0,"width":0,"video":"","sort":0,"version":157,"cover2":"","appkey":"init","duration":16,"extra":{},"polyglot":[],"category":"40610022,","audit":0,"is_ugc":0,"type":"audio"}]}}