{"code":0,"msg":"success","data":{"total":283,"per_page":20,"current_page":11,"last_page":15,"data":[{"id":"1024227","ufid":"35773282","name":"\u9965\u997f\u4e4b\u6b4c","file":"http:\/\/rdfile.oss-cn-hangzhou.aliyuncs.com\/filemanage\/init\/audio\/35773282.mp3?nonce=d88ebf7d1c07344efde2e79903867703","cover":"","updatetime":"1697698233","height":0,"width":0,"video":"","sort":0,"version":157,"cover2":"","appkey":"init","duration":18,"extra":{},"polyglot":[],"category":"40610022,","audit":0,"is_ugc":0,"type":"audio"},{"id":"1024226","ufid":"69471791","name":"\u6216\u8bb8\u6211\u4eec\u771f\u7684\u4e0d\u9002\u5408\u5728\u4e00","file":"http:\/\/rdfile.oss-cn-hangzhou.aliyuncs.com\/filemanage\/init\/audio\/69471791.mp3?nonce=d88ebf7d1c07344efde2e79903867703","cover":"","updatetime":"1697698233","height":0,"width":0,"video":"","sort":0,"version":157,"cover2":"","appkey":"init","duration":34,"extra":{},"polyglot":[],"category":"40610022,","audit":0,"is_ugc":0,"type":"audio"},{"id":"1024225","ufid":"34291785","name":"\u56de\u5fc6\u4e0a\u4e86\u53d1\u6761","file":"http:\/\/rdfile.oss-cn-hangzhou.aliyuncs.com\/filemanage\/init\/audio\/34291785.mp3?nonce=c49d23aa8e3c1aaa147faee15ec51315","cover":"","updatetime":"1697698290","height":0,"width":0,"video":"","sort":0,"version":157,"cover2":"","appkey":"init","duration":10,"extra":{},"polyglot":[],"category":"40610022,","audit":0,"is_ugc":0,"type":"audio"},{"id":"1024224","ufid":"55155697","name":"\u8fd8\u6709\u738b\u6cd5\u5417","file":"http:\/\/rdfile.oss-cn-hangzhou.aliyuncs.com\/filemanage\/init\/audio\/55155697.mp3?nonce=c49d23aa8e3c1aaa147faee15ec51315","cover":"","updatetime":"1697698290","height":0,"width":0,"video":"","sort":0,"version":157,"cover2":"","appkey":"init","duration":6,"extra":{},"polyglot":[],"category":"40610022,","audit":0,"is_ugc":0,"type":"audio"},{"id":"1024223","ufid":"52675640","name":"\u4e92\u8054\u7f51\u662f\u4e00\u7247\u51c0\u571f \u5bb9\u4e0d\u4e0b","file":"http:\/\/rdfile.oss-cn-hangzhou.aliyuncs.com\/filemanage\/init\/audio\/52675640.mp3?nonce=af65cb97685fd8f1b7bafb0e1a312089","cover":"","updatetime":"1697698232","height":0,"width":0,"video":"","sort":0,"version":157,"cover2":"","appkey":"init","duration":4,"extra":{},"polyglot":[],"category":"40610022,","audit":0,"is_ugc":0,"type":"audio"},{"id":"1024222","ufid":"69885945","name":"\u9ed1\u5c0f\u54e5\u54e6\u4e70\u5676","file":"http:\/\/rdfile.oss-cn-hangzhou.aliyuncs.com\/filemanage\/init\/audio\/69885945.mp3?nonce=af65cb97685fd8f1b7bafb0e1a312089","cover":"","updatetime":"1697698232","height":0,"width":0,"video":"","sort":0,"version":157,"cover2":"","appkey":"init","duration":6,"extra":{},"polyglot":[],"category":"40610022,","audit":0,"is_ugc":0,"type":"audio"},{"id":"1024221","ufid":"99007945","name":"\u9ed1\u9053\u8001\u5927\u91cd\u751f\u4e4b\u6211\u662f\u5c0f\u732b\u54aa","file":"http:\/\/rdfile.oss-cn-hangzhou.aliyuncs.com\/filemanage\/init\/audio\/99007945.mp3?nonce=92f1305603dc667ca64d15b23529984b","cover":"","updatetime":"1697698289","height":0,"width":0,"video":"","sort":0,"version":157,"cover2":"","appkey":"init","duration":10,"extra":{},"polyglot":[],"category":"40610022,","audit":0,"is_ugc":0,"type":"audio"},{"id":"1024220","ufid":"83573643","name":"\u559d\u4e86\u8fd9\u8170\u4e5f\u4e0d\u9178\u4e86","file":"http:\/\/rdfile.oss-cn-hangzhou.aliyuncs.com\/filemanage\/init\/audio\/83573643.mp3?nonce=af65cb97685fd8f1b7bafb0e1a312089","cover":"","updatetime":"1697698232","height":0,"width":0,"video":"","sort":0,"version":157,"cover2":"","appkey":"init","duration":12,"extra":{},"polyglot":[],"category":"40610022,","audit":0,"is_ugc":0,"type":"audio"},{"id":"1024219","ufid":"64406481","name":"\u559d\uff0c\u957f\u5927\u4e86","file":"http:\/\/rdfile.oss-cn-hangzhou.aliyuncs.com\/filemanage\/init\/audio\/64406481.mp3?nonce=a62324f2b11f03eb9c6668dc5c6ba39f","cover":"","updatetime":"1697698231","height":0,"width":0,"video":"","sort":0,"version":157,"cover2":"","appkey":"init","duration":1,"extra":{},"polyglot":[],"category":"40610022,","audit":0,"is_ugc":0,"type":"audio"},{"id":"1024218","ufid":"44129682","name":"\u597d\u55e8\u54e6","file":"http:\/\/rdfile.oss-cn-hangzhou.aliyuncs.com\/filemanage\/init\/audio\/44129682.mp3?nonce=a62324f2b11f03eb9c6668dc5c6ba39f","cover":"","updatetime":"1697698231","height":0,"width":0,"video":"","sort":0,"version":157,"cover2":"","appkey":"init","duration":11,"extra":{},"polyglot":[],"category":"40610022,","audit":0,"is_ugc":0,"type":"audio"},{"id":"1024217","ufid":"57853478","name":"\u6d77\u72f8\u732b","file":"http:\/\/rdfile.oss-cn-hangzhou.aliyuncs.com\/filemanage\/init\/audio\/57853478.mp3?nonce=a62324f2b11f03eb9c6668dc5c6ba39f","cover":"","updatetime":"1697698231","height":0,"width":0,"video":"","sort":0,"version":157,"cover2":"","appkey":"init","duration":3,"extra":{},"polyglot":[],"category":"40610022,","audit":0,"is_ugc":0,"type":"audio"},{"id":"1024216","ufid":"14731082","name":"\u54c8\u54c8\u54c8\u54c8\u914dbgm","file":"http:\/\/rdfile.oss-cn-hangzhou.aliyuncs.com\/filemanage\/init\/audio\/14731082.mp3?nonce=a62324f2b11f03eb9c6668dc5c6ba39f","cover":"","updatetime":"1697698231","height":0,"width":0,"video":"","sort":0,"version":157,"cover2":"","appkey":"init","duration":15,"extra":{},"polyglot":[],"category":"40610022,","audit":0,"is_ugc":0,"type":"audio"},{"id":"1024215","ufid":"58176616","name":"\u5f52\u56fd\u5de8\u5b50\u590d\u4ec7BGM","file":"http:\/\/rdfile.oss-cn-hangzhou.aliyuncs.com\/filemanage\/init\/audio\/58176616.mp3?nonce=a62324f2b11f03eb9c6668dc5c6ba39f","cover":"","updatetime":"1697698231","height":0,"width":0,"video":"","sort":0,"version":157,"cover2":"","appkey":"init","duration":13,"extra":{},"polyglot":[],"category":"40610022,","audit":0,"is_ugc":0,"type":"audio"},{"id":"1024214","ufid":"12300713","name":"\u516c\u4e3b\u6655\u5012\u4e86 \u9700\u8981\u4e00\u90e8ipho","file":"http:\/\/rdfile.oss-cn-hangzhou.aliyuncs.com\/filemanage\/init\/audio\/12300713.mp3?nonce=49ba83a4c0f41db8393ba23d4b21fc50","cover":"","updatetime":"1697698230","height":0,"width":0,"video":"","sort":0,"version":157,"cover2":"","appkey":"init","duration":7,"extra":{},"polyglot":[],"category":"40610022,","audit":0,"is_ugc":0,"type":"audio"},{"id":"1024213","ufid":"89447305","name":"\u54e5\u628a\u4f60\u63e3\u515c\u91cc\u4f60\u628a\u54e5\u8e39\u6c9f\u91cc","file":"http:\/\/rdfile.oss-cn-hangzhou.aliyuncs.com\/filemanage\/init\/audio\/89447305.mp3?nonce=49ba83a4c0f41db8393ba23d4b21fc50","cover":"","updatetime":"1697698230","height":0,"width":0,"video":"","sort":0,"version":157,"cover2":"","appkey":"init","duration":16,"extra":{},"polyglot":[],"category":"40610022,","audit":0,"is_ugc":0,"type":"audio"},{"id":"1024212","ufid":"29837705","name":"\u521a\u521a\u5728\u90a3\u8fb9\u770b\u5230\u4f60 \u611f\u89c9\u4f60","file":"http:\/\/rdfile.oss-cn-hangzhou.aliyuncs.com\/filemanage\/init\/audio\/29837705.mp3?nonce=49ba83a4c0f41db8393ba23d4b21fc50","cover":"","updatetime":"1697698230","height":0,"width":0,"video":"","sort":0,"version":157,"cover2":"","appkey":"init","duration":11,"extra":{},"polyglot":[],"category":"40610022,","audit":0,"is_ugc":0,"type":"audio"},{"id":"1024211","ufid":"47784235","name":"\u6539\u9769\u6625\u98ce\u5439\u6ee1\u5730","file":"http:\/\/rdfile.oss-cn-hangzhou.aliyuncs.com\/filemanage\/init\/audio\/47784235.mp3?nonce=49ba83a4c0f41db8393ba23d4b21fc50","cover":"","updatetime":"1697698230","height":0,"width":0,"video":"","sort":0,"version":157,"cover2":"","appkey":"init","duration":18,"extra":{},"polyglot":[],"category":"40610022,","audit":0,"is_ugc":0,"type":"audio"},{"id":"1024210","ufid":"65311138","name":"\u5426\u6781\u6cf0\u6765 \u7269\u6781\u5fc5\u53cd","file":"http:\/\/rdfile.oss-cn-hangzhou.aliyuncs.com\/filemanage\/init\/audio\/65311138.mp3?nonce=8c96cce3055b86e413390a1a921aa4fd","cover":"","updatetime":"1697698229","height":0,"width":0,"video":"","sort":0,"version":157,"cover2":"","appkey":"init","duration":8,"extra":{},"polyglot":[],"category":"40610022,","audit":0,"is_ugc":0,"type":"audio"},{"id":"1024209","ufid":"24979516","name":"\u75af\u72c2\u661f\u671f\u56db-\u63a2\u7a97KFC","file":"http:\/\/rdfile.oss-cn-hangzhou.aliyuncs.com\/filemanage\/init\/audio\/24979516.mp3?nonce=8c96cce3055b86e413390a1a921aa4fd","cover":"","updatetime":"1697698229","height":0,"width":0,"video":"","sort":0,"version":157,"cover2":"","appkey":"init","duration":49,"extra":{},"polyglot":[],"category":"40610022,","audit":0,"is_ugc":0,"type":"audio"},{"id":"1024208","ufid":"28762812","name":"\u6cb8\u7f8a\u7f8a\u4f60\u516b\u560e\u5440rua","file":"http:\/\/rdfile.oss-cn-hangzhou.aliyuncs.com\/filemanage\/init\/audio\/28762812.mp3?nonce=aa4772c3ec7d4bac84c368536a21dfcc","cover":"","updatetime":"1697698287","height":0,"width":0,"video":"","sort":0,"version":157,"cover2":"","appkey":"init","duration":2,"extra":{},"polyglot":[],"category":"40610022,","audit":0,"is_ugc":0,"type":"audio"}]}}