{"code":0,"msg":"success","data":{"total":113,"per_page":10,"current_page":12,"last_page":12,"data":[{"id":"1011327","ufid":"59419874","name":"\u4eba\u7626\u538b\u4e0d\u4f4f\u798f","file":"http:\/\/rdfile.oss-cn-hangzhou.aliyuncs.com\/filemanage\/e069b36c568d909f\/templateapi\/16252200148089\/file.zip?nonce=cfcd208495d565ef66e7dff9f98764da","cover":"http:\/\/rdfile.oss-cn-hangzhou.aliyuncs.com\/filemanage\/e069b36c568d909f\/templateapi\/16252200148089\/cover.png?nonce=cfcd208495d565ef66e7dff9f98764da&x-oss-process=style\/templateapi","updatetime":"0","height":1080,"width":607,"video":"http:\/\/rdfile.oss-cn-hangzhou.aliyuncs.com\/filemanage\/e069b36c568d909f\/templateapi\/16252200148089\/video.mp4?nonce=cfcd208495d565ef66e7dff9f98764da","sort":100,"version":146,"cover2":"","appkey":"init","duration":0,"extra":{},"polyglot":[],"category":"0","audit":0,"is_ugc":0,"text_need":0,"picture_need":0,"video_need":1,"type":"templateapi"},{"id":"1011325","ufid":"52662330","name":"\u58a8\u955c\u4e00\u6234","file":"http:\/\/rdfile.oss-cn-hangzhou.aliyuncs.com\/filemanage\/e069b36c568d909f\/templateapi\/16252189453608\/file.zip?nonce=cfcd208495d565ef66e7dff9f98764da","cover":"http:\/\/rdfile.oss-cn-hangzhou.aliyuncs.com\/filemanage\/e069b36c568d909f\/templateapi\/16252189453608\/cover.png?nonce=cfcd208495d565ef66e7dff9f98764da&x-oss-process=style\/templateapi","updatetime":"0","height":1080,"width":607,"video":"http:\/\/rdfile.oss-cn-hangzhou.aliyuncs.com\/filemanage\/e069b36c568d909f\/templateapi\/16252189453608\/video.mp4?nonce=cfcd208495d565ef66e7dff9f98764da","sort":100,"version":146,"cover2":"","appkey":"init","duration":0,"extra":{},"polyglot":[],"category":"0","audit":0,"is_ugc":0,"text_need":0,"picture_need":0,"video_need":1,"type":"templateapi"},{"id":"1011324","ufid":"19038449","name":"\u4ee5\u524d\/\u73b0\u5728\u7684\u6211","file":"http:\/\/rdfile.oss-cn-hangzhou.aliyuncs.com\/filemanage\/e069b36c568d909f\/templateapi\/16252180713263\/file.zip?nonce=cfcd208495d565ef66e7dff9f98764da","cover":"http:\/\/rdfile.oss-cn-hangzhou.aliyuncs.com\/filemanage\/e069b36c568d909f\/templateapi\/16252180713263\/cover.png?nonce=cfcd208495d565ef66e7dff9f98764da&x-oss-process=style\/templateapi","updatetime":"0","height":1080,"width":607,"video":"http:\/\/rdfile.oss-cn-hangzhou.aliyuncs.com\/filemanage\/e069b36c568d909f\/templateapi\/16252180713263\/video.mp4?nonce=cfcd208495d565ef66e7dff9f98764da","sort":100,"version":146,"cover2":"","appkey":"init","duration":0,"extra":{},"polyglot":[],"category":"0","audit":0,"is_ugc":0,"text_need":0,"picture_need":2,"video_need":0,"type":"templateapi"}]}}