{"code":0,"msg":"success","data":{"total":636,"per_page":10,"current_page":13,"last_page":64,"data":[{"id":"1016406","ufid":"33287791","name":"\u7e41\u82b1\u4f3c\u9526","file":"http:\/\/rdfile.oss-cn-hangzhou.aliyuncs.com\/filemanage\/e069b36c568d909f\/templateapi\/16680719566677\/file.zip?nonce=b6f5e696a2d54b79b9c494128d581540","cover":"http:\/\/rdfile.oss-cn-hangzhou.aliyuncs.com\/filemanage\/e069b36c568d909f\/templateapi\/16680719566677\/cover.webp?nonce=b6f5e696a2d54b79b9c494128d581540","updatetime":"1704185979","height":1746,"width":983,"video":"http:\/\/rdfile.oss-cn-hangzhou.aliyuncs.com\/filemanage\/e069b36c568d909f\/templateapi\/16680719566677\/video.mp4?nonce=b6f5e696a2d54b79b9c494128d581540","sort":0,"version":155,"cover2":"","appkey":"init","duration":0,"extra":{},"polyglot":{"en":"Blooming flowers"},"category":"0","audit":0,"is_ugc":0,"text_need":0,"picture_need":0,"video_need":4,"type":"templateapi"},{"id":"1016405","ufid":"33242307","name":"big time \u821e\u8e48","file":"http:\/\/rdfile.oss-cn-hangzhou.aliyuncs.com\/filemanage\/e069b36c568d909f\/templateapi\/16680666346291\/file.zip?nonce=8e6026b6c967f60fce2e83c1a94338eb","cover":"http:\/\/rdfile.oss-cn-hangzhou.aliyuncs.com\/filemanage\/e069b36c568d909f\/templateapi\/16680666346291\/cover.webp?nonce=8e6026b6c967f60fce2e83c1a94338eb","updatetime":"1704185978","height":1920,"width":1080,"video":"http:\/\/rdfile.oss-cn-hangzhou.aliyuncs.com\/filemanage\/e069b36c568d909f\/templateapi\/16680666346291\/video.mp4?nonce=8e6026b6c967f60fce2e83c1a94338eb","sort":0,"version":154,"cover2":"","appkey":"6ecb39f1c12f1a35","duration":0,"extra":{},"polyglot":{"en":"Big time dance"},"category":"0","audit":0,"is_ugc":0,"text_need":0,"picture_need":0,"video_need":1,"type":"templateapi"},{"id":"1016404","ufid":"73928325","name":"\u7c89\u8272\u7f8e\u4e50\u8482\u884c\u7a0b\u5361","file":"http:\/\/rdfile.oss-cn-hangzhou.aliyuncs.com\/filemanage\/e069b36c568d909f\/templateapi\/16680530742281\/file.zip?nonce=8e6026b6c967f60fce2e83c1a94338eb","cover":"http:\/\/rdfile.oss-cn-hangzhou.aliyuncs.com\/filemanage\/e069b36c568d909f\/templateapi\/16680530742281\/cover.webp?nonce=8e6026b6c967f60fce2e83c1a94338eb","updatetime":"1704185978","height":1060,"width":596,"video":"http:\/\/rdfile.oss-cn-hangzhou.aliyuncs.com\/filemanage\/e069b36c568d909f\/templateapi\/16680530742281\/video.mp4?nonce=8e6026b6c967f60fce2e83c1a94338eb","sort":0,"version":155,"cover2":"","appkey":"init","duration":0,"extra":{},"polyglot":{"en":"Pink Melody itinerary card"},"category":"0","audit":0,"is_ugc":0,"text_need":4,"picture_need":0,"video_need":0,"type":"templateapi"},{"id":"1016403","ufid":"26211576","name":"\u5723\u8bde\u7f8e\u62cd","file":"http:\/\/rdfile.oss-cn-hangzhou.aliyuncs.com\/filemanage\/e069b36c568d909f\/templateapi\/16680518719875\/file.zip?nonce=8e6026b6c967f60fce2e83c1a94338eb","cover":"http:\/\/rdfile.oss-cn-hangzhou.aliyuncs.com\/filemanage\/e069b36c568d909f\/templateapi\/16680518719875\/cover.webp?nonce=8e6026b6c967f60fce2e83c1a94338eb","updatetime":"1704185978","height":1920,"width":1080,"video":"http:\/\/rdfile.oss-cn-hangzhou.aliyuncs.com\/filemanage\/e069b36c568d909f\/templateapi\/16680518719875\/video.mp4?nonce=8e6026b6c967f60fce2e83c1a94338eb","sort":0,"version":154,"cover2":"","appkey":"init","duration":0,"extra":{},"polyglot":{"en":"Christmas photos"},"category":"0","audit":0,"is_ugc":0,"text_need":0,"picture_need":0,"video_need":4,"type":"templateapi"},{"id":"1016401","ufid":"24778771","name":"\u5929\u4f7f\u624b\u52bf\u821e","file":"http:\/\/rdfile.oss-cn-hangzhou.aliyuncs.com\/filemanage\/e069b36c568d909f\/templateapi\/16679884317620\/file.zip?nonce=8e6026b6c967f60fce2e83c1a94338eb","cover":"http:\/\/rdfile.oss-cn-hangzhou.aliyuncs.com\/filemanage\/e069b36c568d909f\/templateapi\/16679884317620\/cover.webp?nonce=8e6026b6c967f60fce2e83c1a94338eb","updatetime":"1704185978","height":1920,"width":1080,"video":"http:\/\/rdfile.oss-cn-hangzhou.aliyuncs.com\/filemanage\/e069b36c568d909f\/templateapi\/16679884317620\/video.mp4?nonce=8e6026b6c967f60fce2e83c1a94338eb","sort":0,"version":154,"cover2":"","appkey":"6ecb39f1c12f1a35","duration":0,"extra":{},"polyglot":{"en":"Angel gesture dance"},"category":"0","audit":0,"is_ugc":0,"text_need":0,"picture_need":0,"video_need":1,"type":"templateapi"},{"id":"1016399","ufid":"53624157","name":"\u5927\u5496\u65b0\u95fb\u91c7\u8bbf","file":"http:\/\/rdfile.oss-cn-hangzhou.aliyuncs.com\/filemanage\/e069b36c568d909f\/templateapi\/16679803874697\/file.zip?nonce=8e9beae7b098d6f2d0d45672a31d02f0","cover":"http:\/\/rdfile.oss-cn-hangzhou.aliyuncs.com\/filemanage\/e069b36c568d909f\/templateapi\/16679803874697\/cover.webp?nonce=8e9beae7b098d6f2d0d45672a31d02f0","updatetime":"1704185977","height":1440,"width":1440,"video":"http:\/\/rdfile.oss-cn-hangzhou.aliyuncs.com\/filemanage\/e069b36c568d909f\/templateapi\/16679803874697\/video.mp4?nonce=8e9beae7b098d6f2d0d45672a31d02f0","sort":0,"version":155,"cover2":"","appkey":"init","duration":0,"extra":{},"polyglot":{"en":"Big news interviews"},"category":"0","audit":0,"is_ugc":0,"text_need":1,"picture_need":0,"video_need":1,"type":"templateapi"},{"id":"1016396","ufid":"76648429","name":"\u8e22\u817f\u53d8\u88c5","file":"http:\/\/rdfile.oss-cn-hangzhou.aliyuncs.com\/filemanage\/e069b36c568d909f\/templateapi\/16679776662779\/file.zip?nonce=8e9beae7b098d6f2d0d45672a31d02f0","cover":"http:\/\/rdfile.oss-cn-hangzhou.aliyuncs.com\/filemanage\/e069b36c568d909f\/templateapi\/16679776662779\/cover.webp?nonce=8e9beae7b098d6f2d0d45672a31d02f0","updatetime":"1704185977","height":1920,"width":1080,"video":"http:\/\/rdfile.oss-cn-hangzhou.aliyuncs.com\/filemanage\/e069b36c568d909f\/templateapi\/16679776662779\/video.mp4?nonce=8e9beae7b098d6f2d0d45672a31d02f0","sort":0,"version":154,"cover2":"","appkey":"6ecb39f1c12f1a35","duration":0,"extra":{},"polyglot":{"en":"Kicks and crossdressing"},"category":"0","audit":0,"is_ugc":0,"text_need":0,"picture_need":0,"video_need":3,"type":"templateapi"},{"id":"1016394","ufid":"47229797","name":"\u697c\u9053\u53d8\u88c5","file":"http:\/\/rdfile.oss-cn-hangzhou.aliyuncs.com\/filemanage\/e069b36c568d909f\/templateapi\/16679744979880\/file.zip?nonce=8e9beae7b098d6f2d0d45672a31d02f0","cover":"http:\/\/rdfile.oss-cn-hangzhou.aliyuncs.com\/filemanage\/e069b36c568d909f\/templateapi\/16679744979880\/cover.webp?nonce=8e9beae7b098d6f2d0d45672a31d02f0","updatetime":"1704185977","height":1920,"width":1080,"video":"http:\/\/rdfile.oss-cn-hangzhou.aliyuncs.com\/filemanage\/e069b36c568d909f\/templateapi\/16679744979880\/video.mp4?nonce=8e9beae7b098d6f2d0d45672a31d02f0","sort":0,"version":154,"cover2":"","appkey":"6ecb39f1c12f1a35","duration":0,"extra":{},"polyglot":{"en":"Cross-dressing on the corridor"},"category":"0","audit":0,"is_ugc":0,"text_need":0,"picture_need":0,"video_need":2,"type":"templateapi"},{"id":"1016393","ufid":"39005004","name":"\u8774\u8776\u98de\u821e\u53d8\u88c5","file":"http:\/\/rdfile.oss-cn-hangzhou.aliyuncs.com\/filemanage\/e069b36c568d909f\/templateapi\/16679010426193\/file.zip?nonce=8e9beae7b098d6f2d0d45672a31d02f0","cover":"http:\/\/rdfile.oss-cn-hangzhou.aliyuncs.com\/filemanage\/e069b36c568d909f\/templateapi\/16679010426193\/cover.webp?nonce=8e9beae7b098d6f2d0d45672a31d02f0","updatetime":"1704185977","height":1920,"width":1080,"video":"http:\/\/rdfile.oss-cn-hangzhou.aliyuncs.com\/filemanage\/e069b36c568d909f\/templateapi\/16679010426193\/video.mp4?nonce=8e9beae7b098d6f2d0d45672a31d02f0","sort":0,"version":154,"cover2":"","appkey":"6ecb39f1c12f1a35","duration":0,"extra":{},"polyglot":{"en":"Butterfly flying crossdressing"},"category":"0","audit":0,"is_ugc":0,"text_need":0,"picture_need":0,"video_need":2,"type":"templateapi"},{"id":"1016392","ufid":"25857145","name":"\u65d7\u888d\u7f8e\u5973\u7f8e\u62cd","file":"http:\/\/rdfile.oss-cn-hangzhou.aliyuncs.com\/filemanage\/e069b36c568d909f\/templateapi\/16678979527242\/file.zip?nonce=8e9beae7b098d6f2d0d45672a31d02f0","cover":"http:\/\/rdfile.oss-cn-hangzhou.aliyuncs.com\/filemanage\/e069b36c568d909f\/templateapi\/16678979527242\/cover.webp?nonce=8e9beae7b098d6f2d0d45672a31d02f0","updatetime":"1704185977","height":1920,"width":1080,"video":"http:\/\/rdfile.oss-cn-hangzhou.aliyuncs.com\/filemanage\/e069b36c568d909f\/templateapi\/16678979527242\/video.mp4?nonce=8e9beae7b098d6f2d0d45672a31d02f0","sort":0,"version":154,"cover2":"","appkey":"init","duration":0,"extra":{},"polyglot":{"en":"Photos of beauties in cheongsam"},"category":"0","audit":0,"is_ugc":0,"text_need":0,"picture_need":0,"video_need":5,"type":"templateapi"}]}}