{"code":0,"msg":"success","data":{"total":283,"per_page":20,"current_page":8,"last_page":15,"data":[{"id":"1024287","ufid":"33760426","name":"\u4f60\u522b\u4ee5\u4e3a\u6709\u94b1\u4e86\u4e0d\u8d77","file":"http:\/\/rdfile.oss-cn-hangzhou.aliyuncs.com\/filemanage\/init\/audio\/33760426.mp3?nonce=bbd11164d6ddd32e1cfdbf9bfadf9aab","cover":"","updatetime":"1697698246","height":0,"width":0,"video":"","sort":0,"version":157,"cover2":"","appkey":"init","duration":6,"extra":{},"polyglot":[],"category":"40610022,","audit":0,"is_ugc":0,"type":"audio"},{"id":"1024286","ufid":"85425286","name":"\u4f60\u522b\u7b11","file":"http:\/\/rdfile.oss-cn-hangzhou.aliyuncs.com\/filemanage\/init\/audio\/85425286.mp3?nonce=6f473508f77fe7a5c2d0573cbed36197","cover":"","updatetime":"1697698297","height":0,"width":0,"video":"","sort":0,"version":157,"cover2":"","appkey":"init","duration":3,"extra":{},"polyglot":[],"category":"40610022,","audit":0,"is_ugc":0,"type":"audio"},{"id":"1024285","ufid":"79102722","name":"\u4f60happy\u6211\u4e0dhappy","file":"http:\/\/rdfile.oss-cn-hangzhou.aliyuncs.com\/filemanage\/init\/audio\/79102722.mp3?nonce=6f473508f77fe7a5c2d0573cbed36197","cover":"","updatetime":"1697698297","height":0,"width":0,"video":"","sort":0,"version":157,"cover2":"","appkey":"init","duration":18,"extra":{},"polyglot":[],"category":"40610022,","audit":0,"is_ugc":0,"type":"audio"},{"id":"1024284","ufid":"18113985","name":"\u5c3c\u514b\u72d0\u5c3c\u514b\uff0c\u4f60\u88ab\u6355\u4e86","file":"http:\/\/rdfile.oss-cn-hangzhou.aliyuncs.com\/filemanage\/init\/audio\/18113985.mp3?nonce=bbd11164d6ddd32e1cfdbf9bfadf9aab","cover":"","updatetime":"1697698246","height":0,"width":0,"video":"","sort":0,"version":157,"cover2":"","appkey":"init","duration":8,"extra":{},"polyglot":[],"category":"40610022,","audit":0,"is_ugc":0,"type":"audio"},{"id":"1024283","ufid":"34591278","name":"\u7537\u4eba\u8fc7\u4e8660\u5c81\u4e0d\u8981\u7a7f\u5f97\u592a","file":"http:\/\/rdfile.oss-cn-hangzhou.aliyuncs.com\/filemanage\/init\/audio\/34591278.mp3?nonce=51aa4f95a1294d28a632bc8049f34f23","cover":"","updatetime":"1697698245","height":0,"width":0,"video":"","sort":0,"version":157,"cover2":"","appkey":"init","duration":24,"extra":{},"polyglot":[],"category":"40610022,","audit":0,"is_ugc":0,"type":"audio"},{"id":"1024282","ufid":"60768924","name":"\u7537\u4eba\u8fc7\u4e8620\u5c81\u5c31\u522b\u518d\u7a7f\u5f97\u50cf\u5c0f\u5b69","file":"http:\/\/rdfile.oss-cn-hangzhou.aliyuncs.com\/filemanage\/init\/audio\/60768924.mp3?nonce=51aa4f95a1294d28a632bc8049f34f23","cover":"","updatetime":"1697698245","height":0,"width":0,"video":"","sort":0,"version":157,"cover2":"","appkey":"init","duration":29,"extra":{},"polyglot":[],"category":"40610022,","audit":0,"is_ugc":0,"type":"audio"},{"id":"1024281","ufid":"27957265","name":"\u90a3\u5c31\u5012\u65703\u30012\u30011\uff0c\u8304\u5b50","file":"http:\/\/rdfile.oss-cn-hangzhou.aliyuncs.com\/filemanage\/init\/audio\/27957265.mp3?nonce=51aa4f95a1294d28a632bc8049f34f23","cover":"","updatetime":"1697698245","height":0,"width":0,"video":"","sort":0,"version":157,"cover2":"","appkey":"init","duration":10,"extra":{},"polyglot":[],"category":"40610022,","audit":0,"is_ugc":0,"type":"audio"},{"id":"1024280","ufid":"40371314","name":"\u58a8\u955c\u56a3\u5f20","file":"http:\/\/rdfile.oss-cn-hangzhou.aliyuncs.com\/filemanage\/init\/audio\/40371314.mp3?nonce=51aa4f95a1294d28a632bc8049f34f23","cover":"","updatetime":"1697698245","height":0,"width":0,"video":"","sort":0,"version":157,"cover2":"","appkey":"init","duration":34,"extra":{},"polyglot":[],"category":"40610022,","audit":0,"is_ugc":0,"type":"audio"},{"id":"1024279","ufid":"39261403","name":"\u9b54\u6027\u8783\u87f9\u6b4c","file":"http:\/\/rdfile.oss-cn-hangzhou.aliyuncs.com\/filemanage\/init\/audio\/39261403.mp3?nonce=51aa4f95a1294d28a632bc8049f34f23","cover":"","updatetime":"1697698245","height":0,"width":0,"video":"","sort":0,"version":157,"cover2":"","appkey":"init","duration":16,"extra":{},"polyglot":[],"category":"40610022,","audit":0,"is_ugc":0,"type":"audio"},{"id":"1024278","ufid":"38940055","name":"\u9b54\u6027\u6591\u9a6c-\u54d2\u54d2\u54d2\u6b4c","file":"http:\/\/rdfile.oss-cn-hangzhou.aliyuncs.com\/filemanage\/init\/audio\/38940055.mp3?nonce=8c3fe0a7c1322392ab4eb2abeee40592","cover":"","updatetime":"1697698244","height":0,"width":0,"video":"","sort":0,"version":157,"cover2":"","appkey":"init","duration":18,"extra":{},"polyglot":[],"category":"40610022,","audit":0,"is_ugc":0,"type":"audio"},{"id":"1024277","ufid":"69531192","name":"\u9b54\u6cd5\u600e\u4e48\u5931\u7075\u4e86","file":"http:\/\/rdfile.oss-cn-hangzhou.aliyuncs.com\/filemanage\/init\/audio\/69531192.mp3?nonce=8c3fe0a7c1322392ab4eb2abeee40592","cover":"","updatetime":"1697698244","height":0,"width":0,"video":"","sort":0,"version":157,"cover2":"","appkey":"init","duration":13,"extra":{},"polyglot":[],"category":"40610022,","audit":0,"is_ugc":0,"type":"audio"},{"id":"1024276","ufid":"55477037","name":"\u68a6\u4e4b\u6cea\u4f24\uff0c\u5e05\u6c14\u7684\u8138\u5e9e","file":"http:\/\/rdfile.oss-cn-hangzhou.aliyuncs.com\/filemanage\/init\/audio\/55477037.mp3?nonce=8c3fe0a7c1322392ab4eb2abeee40592","cover":"","updatetime":"1697698244","height":0,"width":0,"video":"","sort":0,"version":157,"cover2":"","appkey":"init","duration":11,"extra":{},"polyglot":[],"category":"40610022,","audit":0,"is_ugc":0,"type":"audio"},{"id":"1024275","ufid":"28879022","name":"\u731b\u7537\u5634\u54e5\u7cbe\u795e\u6c2e\u6cf5\u5408\u96c6","file":"http:\/\/rdfile.oss-cn-hangzhou.aliyuncs.com\/filemanage\/init\/audio\/28879022.mp3?nonce=8c3fe0a7c1322392ab4eb2abeee40592","cover":"","updatetime":"1697698244","height":0,"width":0,"video":"","sort":0,"version":157,"cover2":"","appkey":"init","duration":29,"extra":{},"polyglot":[],"category":"40610022,","audit":0,"is_ugc":0,"type":"audio"},{"id":"1024274","ufid":"80961470","name":"\u731b\u7537\u7248 \u6211\u662f\u5e7f\u5bd2\u5bab\u91cc\u7684\u53ef","file":"http:\/\/rdfile.oss-cn-hangzhou.aliyuncs.com\/filemanage\/init\/audio\/80961470.mp3?nonce=b913b6b5e7560408884a869db3e27c37","cover":"","updatetime":"1697698243","height":0,"width":0,"video":"","sort":0,"version":157,"cover2":"","appkey":"init","duration":15,"extra":{},"polyglot":[],"category":"40610022,","audit":0,"is_ugc":0,"type":"audio"},{"id":"1024273","ufid":"85064303","name":"\u6bcf\u6b21\u90fd\u60f3\u88c5\u4f5c\u5f88\u5014\u5f3a","file":"http:\/\/rdfile.oss-cn-hangzhou.aliyuncs.com\/filemanage\/init\/audio\/85064303.mp3?nonce=b913b6b5e7560408884a869db3e27c37","cover":"","updatetime":"1697698243","height":0,"width":0,"video":"","sort":0,"version":157,"cover2":"","appkey":"init","duration":7,"extra":{},"polyglot":[],"category":"40610022,","audit":0,"is_ugc":0,"type":"audio"},{"id":"1024272","ufid":"44402144","name":"\u6ca1\u5173\u7cfb\u53c8\u6d3b\u4e86\u4e00\u5929\u5df2\u7ecf\u5f88","file":"http:\/\/rdfile.oss-cn-hangzhou.aliyuncs.com\/filemanage\/init\/audio\/44402144.mp3?nonce=b913b6b5e7560408884a869db3e27c37","cover":"","updatetime":"1697698243","height":0,"width":0,"video":"","sort":0,"version":157,"cover2":"","appkey":"init","duration":6,"extra":{},"polyglot":[],"category":"40610022,","audit":0,"is_ugc":0,"type":"audio"},{"id":"1024271","ufid":"80216035","name":"\u73ab\u7470\u5c11\u5e74-\u5c0f\u63d0\u7434","file":"http:\/\/rdfile.oss-cn-hangzhou.aliyuncs.com\/filemanage\/init\/audio\/80216035.mp3?nonce=b913b6b5e7560408884a869db3e27c37","cover":"","updatetime":"1697698243","height":0,"width":0,"video":"","sort":0,"version":157,"cover2":"","appkey":"init","duration":23,"extra":{},"polyglot":[],"category":"40610022,","audit":0,"is_ugc":0,"type":"audio"},{"id":"1024270","ufid":"36810279","name":"\u76f2\u4eba\u5973\u5b69\u6458\u4e0b\u773c\u7f69","file":"http:\/\/rdfile.oss-cn-hangzhou.aliyuncs.com\/filemanage\/init\/audio\/36810279.mp3?nonce=b913b6b5e7560408884a869db3e27c37","cover":"","updatetime":"1697698243","height":0,"width":0,"video":"","sort":0,"version":157,"cover2":"","appkey":"init","duration":13,"extra":{},"polyglot":[],"category":"40610022,","audit":0,"is_ugc":0,"type":"audio"},{"id":"1024269","ufid":"94426008","name":"\u6ee1\u6c5f\u7ea2\u8d70\u8defbgm","file":"http:\/\/rdfile.oss-cn-hangzhou.aliyuncs.com\/filemanage\/init\/audio\/94426008.mp3?nonce=0ea4d175b4889858d5f8b12a54f16caf","cover":"","updatetime":"1697698242","height":0,"width":0,"video":"","sort":0,"version":157,"cover2":"","appkey":"init","duration":61,"extra":{},"polyglot":[],"category":"40610022,","audit":0,"is_ugc":0,"type":"audio"},{"id":"1024268","ufid":"37286644","name":"\u9ea6\u5f53\u52b3\u4e4b\u6b4c","file":"http:\/\/rdfile.oss-cn-hangzhou.aliyuncs.com\/filemanage\/init\/audio\/37286644.mp3?nonce=0ea4d175b4889858d5f8b12a54f16caf","cover":"","updatetime":"1697698242","height":0,"width":0,"video":"","sort":0,"version":157,"cover2":"","appkey":"init","duration":15,"extra":{},"polyglot":[],"category":"40610022,","audit":0,"is_ugc":0,"type":"audio"}]}}