{"code":0,"msg":"success","data":{"total":636,"per_page":10,"current_page":62,"last_page":64,"data":[{"id":"1011351","ufid":"61219979","name":"\u751f\u6d3b\u65e5\u8bb0","file":"http:\/\/rdfile.oss-cn-hangzhou.aliyuncs.com\/filemanage\/e069b36c568d909f\/templateapi\/16255578528041\/file.zip?nonce=787095ded708b7dc40dc88964baf999f","cover":"http:\/\/rdfile.oss-cn-hangzhou.aliyuncs.com\/filemanage\/e069b36c568d909f\/templateapi\/16255578528041\/cover.png?nonce=787095ded708b7dc40dc88964baf999f&x-oss-process=style\/templateapi","updatetime":"1704185628","height":1080,"width":1732,"video":"http:\/\/rdfile.oss-cn-hangzhou.aliyuncs.com\/filemanage\/e069b36c568d909f\/templateapi\/16255578528041\/video.mp4?nonce=787095ded708b7dc40dc88964baf999f","sort":100,"version":146,"cover2":"","appkey":"init","duration":0,"extra":{},"polyglot":{"en":"Life diary"},"category":"0","audit":0,"is_ugc":0,"text_need":0,"picture_need":0,"video_need":10,"type":"templateapi"},{"id":"1011350","ufid":"21984256","name":"\u6c38\u4e0d\u6b62\u6b65","file":"http:\/\/rdfile.oss-cn-hangzhou.aliyuncs.com\/filemanage\/e069b36c568d909f\/templateapi\/16255552605910\/file.zip?nonce=787095ded708b7dc40dc88964baf999f","cover":"http:\/\/rdfile.oss-cn-hangzhou.aliyuncs.com\/filemanage\/e069b36c568d909f\/templateapi\/16255552605910\/cover.png?nonce=787095ded708b7dc40dc88964baf999f&x-oss-process=style\/templateapi","updatetime":"1704185628","height":1080,"width":1732,"video":"http:\/\/rdfile.oss-cn-hangzhou.aliyuncs.com\/filemanage\/e069b36c568d909f\/templateapi\/16255552605910\/video.mp4?nonce=787095ded708b7dc40dc88964baf999f","sort":100,"version":146,"cover2":"","appkey":"init","duration":0,"extra":{},"polyglot":{"en":"Never stop"},"category":"0","audit":0,"is_ugc":0,"text_need":0,"picture_need":0,"video_need":10,"type":"templateapi"},{"id":"1011349","ufid":"50465035","name":"\u6237\u5916\u8fd0\u52a8","file":"http:\/\/rdfile.oss-cn-hangzhou.aliyuncs.com\/filemanage\/e069b36c568d909f\/templateapi\/16255451733201\/file.zip?nonce=787095ded708b7dc40dc88964baf999f","cover":"http:\/\/rdfile.oss-cn-hangzhou.aliyuncs.com\/filemanage\/e069b36c568d909f\/templateapi\/16255451733201\/cover.png?nonce=787095ded708b7dc40dc88964baf999f&x-oss-process=style\/templateapi","updatetime":"1704185628","height":1080,"width":1920,"video":"http:\/\/rdfile.oss-cn-hangzhou.aliyuncs.com\/filemanage\/e069b36c568d909f\/templateapi\/16255451733201\/video.mp4?nonce=787095ded708b7dc40dc88964baf999f","sort":100,"version":146,"cover2":"","appkey":"init","duration":0,"extra":{},"polyglot":{"en":"Outdoor activity"},"category":"0","audit":0,"is_ugc":0,"text_need":0,"picture_need":0,"video_need":10,"type":"templateapi"},{"id":"1011348","ufid":"84861285","name":"\u65c5\u884c\u98ce\u5149","file":"http:\/\/rdfile.oss-cn-hangzhou.aliyuncs.com\/filemanage\/e069b36c568d909f\/templateapi\/16255439354322\/file.zip?nonce=3d28c85a67b0bc1716d9ff74ddd7ffba","cover":"http:\/\/rdfile.oss-cn-hangzhou.aliyuncs.com\/filemanage\/e069b36c568d909f\/templateapi\/16255439354322\/cover.png?nonce=3d28c85a67b0bc1716d9ff74ddd7ffba&x-oss-process=style\/templateapi","updatetime":"1704185627","height":1080,"width":1920,"video":"http:\/\/rdfile.oss-cn-hangzhou.aliyuncs.com\/filemanage\/e069b36c568d909f\/templateapi\/16255439354322\/video.mp4?nonce=3d28c85a67b0bc1716d9ff74ddd7ffba","sort":100,"version":146,"cover2":"","appkey":"init","duration":0,"extra":{},"polyglot":{"en":"Travel scenery"},"category":"0","audit":0,"is_ugc":0,"text_need":0,"picture_need":0,"video_need":10,"type":"templateapi"},{"id":"1011345","ufid":"29562749","name":"\u6211\u5c31\u5728\u8fd9\u91cc\u7b49\u4f60","file":"http:\/\/rdfile.oss-cn-hangzhou.aliyuncs.com\/filemanage\/e069b36c568d909f\/templateapi\/16254813699797\/file.zip?nonce=3d28c85a67b0bc1716d9ff74ddd7ffba","cover":"http:\/\/rdfile.oss-cn-hangzhou.aliyuncs.com\/filemanage\/e069b36c568d909f\/templateapi\/16254813699797\/cover.png?nonce=3d28c85a67b0bc1716d9ff74ddd7ffba&x-oss-process=style\/templateapi","updatetime":"1704185627","height":1080,"width":607,"video":"http:\/\/rdfile.oss-cn-hangzhou.aliyuncs.com\/filemanage\/e069b36c568d909f\/templateapi\/16254813699797\/video.mp4?nonce=3d28c85a67b0bc1716d9ff74ddd7ffba","sort":100,"version":146,"cover2":"","appkey":"init","duration":0,"extra":{},"polyglot":{"en":"I"},"category":"0","audit":0,"is_ugc":0,"text_need":3,"picture_need":0,"video_need":3,"type":"templateapi"},{"id":"1011344","ufid":"55764553","name":"\u65f6\u5c1a\u5c01\u9762","file":"http:\/\/rdfile.oss-cn-hangzhou.aliyuncs.com\/filemanage\/e069b36c568d909f\/templateapi\/16254812676220\/file.zip?nonce=3d28c85a67b0bc1716d9ff74ddd7ffba","cover":"http:\/\/rdfile.oss-cn-hangzhou.aliyuncs.com\/filemanage\/e069b36c568d909f\/templateapi\/16254812676220\/cover.png?nonce=3d28c85a67b0bc1716d9ff74ddd7ffba&x-oss-process=style\/templateapi","updatetime":"1704185627","height":1080,"width":607,"video":"http:\/\/rdfile.oss-cn-hangzhou.aliyuncs.com\/filemanage\/e069b36c568d909f\/templateapi\/16254812676220\/video.mp4?nonce=3d28c85a67b0bc1716d9ff74ddd7ffba","sort":100,"version":146,"cover2":"","appkey":"init","duration":0,"extra":{},"polyglot":{"en":"Fashion cover"},"category":"0","audit":0,"is_ugc":0,"text_need":0,"picture_need":12,"video_need":0,"type":"templateapi"},{"id":"1011330","ufid":"42959717","name":"\u4e0d\u8be5\u7528\u60c5","file":"http:\/\/rdfile.oss-cn-hangzhou.aliyuncs.com\/filemanage\/e069b36c568d909f\/templateapi\/16254589259665\/file.zip?nonce=3d28c85a67b0bc1716d9ff74ddd7ffba","cover":"http:\/\/rdfile.oss-cn-hangzhou.aliyuncs.com\/filemanage\/e069b36c568d909f\/templateapi\/16254589259665\/cover.png?nonce=3d28c85a67b0bc1716d9ff74ddd7ffba&x-oss-process=style\/templateapi","updatetime":"1704185627","height":1080,"width":607,"video":"http:\/\/rdfile.oss-cn-hangzhou.aliyuncs.com\/filemanage\/e069b36c568d909f\/templateapi\/16254589259665\/video.mp4?nonce=3d28c85a67b0bc1716d9ff74ddd7ffba","sort":100,"version":146,"cover2":"","appkey":"init","duration":0,"extra":{},"polyglot":{"en":"Don"},"category":"0","audit":0,"is_ugc":0,"text_need":4,"picture_need":0,"video_need":4,"type":"templateapi"},{"id":"1011327","ufid":"59419874","name":"\u4eba\u7626\u538b\u4e0d\u4f4f\u798f","file":"http:\/\/rdfile.oss-cn-hangzhou.aliyuncs.com\/filemanage\/e069b36c568d909f\/templateapi\/16252200148089\/file.zip?nonce=3d28c85a67b0bc1716d9ff74ddd7ffba","cover":"http:\/\/rdfile.oss-cn-hangzhou.aliyuncs.com\/filemanage\/e069b36c568d909f\/templateapi\/16252200148089\/cover.png?nonce=3d28c85a67b0bc1716d9ff74ddd7ffba&x-oss-process=style\/templateapi","updatetime":"1704185627","height":1080,"width":607,"video":"http:\/\/rdfile.oss-cn-hangzhou.aliyuncs.com\/filemanage\/e069b36c568d909f\/templateapi\/16252200148089\/video.mp4?nonce=3d28c85a67b0bc1716d9ff74ddd7ffba","sort":100,"version":146,"cover2":"","appkey":"init","duration":0,"extra":{},"polyglot":{"en":"Being thin cannot suppress happiness"},"category":"0","audit":0,"is_ugc":0,"text_need":0,"picture_need":0,"video_need":1,"type":"templateapi"},{"id":"1011325","ufid":"52662330","name":"\u58a8\u955c\u4e00\u6234","file":"http:\/\/rdfile.oss-cn-hangzhou.aliyuncs.com\/filemanage\/e069b36c568d909f\/templateapi\/16252189453608\/file.zip?nonce=3d28c85a67b0bc1716d9ff74ddd7ffba","cover":"http:\/\/rdfile.oss-cn-hangzhou.aliyuncs.com\/filemanage\/e069b36c568d909f\/templateapi\/16252189453608\/cover.png?nonce=3d28c85a67b0bc1716d9ff74ddd7ffba&x-oss-process=style\/templateapi","updatetime":"1704185627","height":1080,"width":607,"video":"http:\/\/rdfile.oss-cn-hangzhou.aliyuncs.com\/filemanage\/e069b36c568d909f\/templateapi\/16252189453608\/video.mp4?nonce=3d28c85a67b0bc1716d9ff74ddd7ffba","sort":100,"version":146,"cover2":"","appkey":"init","duration":0,"extra":{},"polyglot":{"en":"Wearing sunglasses"},"category":"0","audit":0,"is_ugc":0,"text_need":0,"picture_need":0,"video_need":1,"type":"templateapi"},{"id":"1011324","ufid":"19038449","name":"\u4ee5\u524d\/\u73b0\u5728\u7684\u6211","file":"http:\/\/rdfile.oss-cn-hangzhou.aliyuncs.com\/filemanage\/e069b36c568d909f\/templateapi\/16252180713263\/file.zip?nonce=ef17b55a9a463ad28e1ff24ecae86522","cover":"http:\/\/rdfile.oss-cn-hangzhou.aliyuncs.com\/filemanage\/e069b36c568d909f\/templateapi\/16252180713263\/cover.png?nonce=ef17b55a9a463ad28e1ff24ecae86522&x-oss-process=style\/templateapi","updatetime":"1704185626","height":1080,"width":607,"video":"http:\/\/rdfile.oss-cn-hangzhou.aliyuncs.com\/filemanage\/e069b36c568d909f\/templateapi\/16252180713263\/video.mp4?nonce=ef17b55a9a463ad28e1ff24ecae86522","sort":100,"version":146,"cover2":"","appkey":"init","duration":0,"extra":{},"polyglot":{"en":"Me before\/now"},"category":"0","audit":0,"is_ugc":0,"text_need":0,"picture_need":2,"video_need":0,"type":"templateapi"}]}}