{"code":0,"msg":"success","data":{"total":37,"per_page":20,"current_page":2,"last_page":2,"data":[{"id":"1005320","ufid":"17758946","name":"Feels Good 2 B","file":"http:\/\/rdfile.oss-cn-hangzhou.aliyuncs.com\/filemanage\/init\/cloud_music\/1542012186679\/file.mp3?nonce=cfcd208495d565ef66e7dff9f98764da","cover":"","updatetime":"0","height":0,"width":0,"video":"","sort":100,"version":0,"cover2":"","appkey":"init","duration":171,"extra":{},"polyglot":{"en":"Feels Good 2 B"},"category":"12113105,","audit":0,"is_ugc":0,"type":"cloud_music"},{"id":"1005319","ufid":"87501203","name":"Fat Caps","file":"http:\/\/rdfile.oss-cn-hangzhou.aliyuncs.com\/filemanage\/init\/cloud_music\/1542012186898\/file.mp3?nonce=cfcd208495d565ef66e7dff9f98764da","cover":"","updatetime":"0","height":0,"width":0,"video":"","sort":100,"version":0,"cover2":"","appkey":"init","duration":179,"extra":{},"polyglot":{"en":"Fat Caps"},"category":"12113105,","audit":0,"is_ugc":0,"type":"cloud_music"},{"id":"1005318","ufid":"16599052","name":"Ecstasy X","file":"http:\/\/rdfile.oss-cn-hangzhou.aliyuncs.com\/filemanage\/init\/cloud_music\/1542012186518\/file.mp3?nonce=cfcd208495d565ef66e7dff9f98764da","cover":"","updatetime":"0","height":0,"width":0,"video":"","sort":100,"version":0,"cover2":"","appkey":"init","duration":139,"extra":{},"polyglot":{"en":"Ecstasy X"},"category":"12113105,","audit":0,"is_ugc":0,"type":"cloud_music"},{"id":"1005317","ufid":"67816124","name":"Down The Way","file":"http:\/\/rdfile.oss-cn-hangzhou.aliyuncs.com\/filemanage\/init\/cloud_music\/1542012186882\/file.mp3?nonce=cfcd208495d565ef66e7dff9f98764da","cover":"","updatetime":"0","height":0,"width":0,"video":"","sort":100,"version":0,"cover2":"","appkey":"init","duration":87,"extra":{},"polyglot":{"en":"Down The Way"},"category":"12113105,","audit":0,"is_ugc":0,"type":"cloud_music"},{"id":"1005316","ufid":"71624842","name":"Dat Groove (Full Track)","file":"http:\/\/rdfile.oss-cn-hangzhou.aliyuncs.com\/filemanage\/init\/cloud_music\/1542012186342\/file.mp3?nonce=cfcd208495d565ef66e7dff9f98764da","cover":"","updatetime":"0","height":0,"width":0,"video":"","sort":100,"version":0,"cover2":"","appkey":"init","duration":130,"extra":{},"polyglot":{"en":"Dat Groove (Full Track)"},"category":"12113105,","audit":0,"is_ugc":0,"type":"cloud_music"},{"id":"1005315","ufid":"68292972","name":"Dance Dubber","file":"http:\/\/rdfile.oss-cn-hangzhou.aliyuncs.com\/filemanage\/init\/cloud_music\/1542012186657\/file.mp3?nonce=cfcd208495d565ef66e7dff9f98764da","cover":"","updatetime":"0","height":0,"width":0,"video":"","sort":100,"version":0,"cover2":"","appkey":"init","duration":100,"extra":{},"polyglot":{"en":"Dance Dubber"},"category":"12113105,","audit":0,"is_ugc":0,"type":"cloud_music"},{"id":"1005314","ufid":"49707765","name":"Crushin","file":"http:\/\/rdfile.oss-cn-hangzhou.aliyuncs.com\/filemanage\/init\/cloud_music\/1542012186419\/file.mp3?nonce=cfcd208495d565ef66e7dff9f98764da","cover":"","updatetime":"0","height":0,"width":0,"video":"","sort":100,"version":0,"cover2":"","appkey":"init","duration":256,"extra":{},"polyglot":{"en":"Crushin"},"category":"12113105,","audit":0,"is_ugc":0,"type":"cloud_music"},{"id":"1005313","ufid":"15543343","name":"Cop A Feel","file":"http:\/\/rdfile.oss-cn-hangzhou.aliyuncs.com\/filemanage\/init\/cloud_music\/1542012186758\/file.mp3?nonce=cfcd208495d565ef66e7dff9f98764da","cover":"","updatetime":"0","height":0,"width":0,"video":"","sort":100,"version":0,"cover2":"","appkey":"init","duration":149,"extra":{},"polyglot":{"en":"Cop A Feel"},"category":"12113105,","audit":0,"is_ugc":0,"type":"cloud_music"},{"id":"1005312","ufid":"17911827","name":"Cool Ride","file":"http:\/\/rdfile.oss-cn-hangzhou.aliyuncs.com\/filemanage\/init\/cloud_music\/1542012186949\/file.mp3?nonce=cfcd208495d565ef66e7dff9f98764da","cover":"","updatetime":"0","height":0,"width":0,"video":"","sort":100,"version":0,"cover2":"","appkey":"init","duration":214,"extra":{},"polyglot":{"en":"Cool Ride"},"category":"12113105,","audit":0,"is_ugc":0,"type":"cloud_music"},{"id":"1005311","ufid":"40817106","name":"Code Blue","file":"http:\/\/rdfile.oss-cn-hangzhou.aliyuncs.com\/filemanage\/init\/cloud_music\/1542012186578\/file.mp3?nonce=cfcd208495d565ef66e7dff9f98764da","cover":"","updatetime":"0","height":0,"width":0,"video":"","sort":100,"version":0,"cover2":"","appkey":"init","duration":143,"extra":{},"polyglot":{"en":"Code Blue"},"category":"12113105,","audit":0,"is_ugc":0,"type":"cloud_music"},{"id":"1005310","ufid":"36377830","name":"Clap Along","file":"http:\/\/rdfile.oss-cn-hangzhou.aliyuncs.com\/filemanage\/init\/cloud_music\/1542012186726\/file.mp3?nonce=cfcd208495d565ef66e7dff9f98764da","cover":"","updatetime":"0","height":0,"width":0,"video":"","sort":100,"version":0,"cover2":"","appkey":"init","duration":127,"extra":{},"polyglot":{"en":"Clap Along"},"category":"12113105,","audit":0,"is_ugc":0,"type":"cloud_music"},{"id":"1005309","ufid":"77648347","name":"Bounce","file":"http:\/\/rdfile.oss-cn-hangzhou.aliyuncs.com\/filemanage\/init\/cloud_music\/1542012186664\/file.mp3?nonce=cfcd208495d565ef66e7dff9f98764da","cover":"","updatetime":"0","height":0,"width":0,"video":"","sort":100,"version":0,"cover2":"","appkey":"init","duration":117,"extra":{},"polyglot":{"en":"Bounce"},"category":"12113105,","audit":0,"is_ugc":0,"type":"cloud_music"},{"id":"1005308","ufid":"51098259","name":"Boots Boots Boots","file":"http:\/\/rdfile.oss-cn-hangzhou.aliyuncs.com\/filemanage\/init\/cloud_music\/1542012186303\/file.mp3?nonce=cfcd208495d565ef66e7dff9f98764da","cover":"","updatetime":"0","height":0,"width":0,"video":"","sort":100,"version":0,"cover2":"","appkey":"init","duration":119,"extra":{},"polyglot":{"en":"Boots Boots Boots"},"category":"12113105,","audit":0,"is_ugc":0,"type":"cloud_music"},{"id":"1005307","ufid":"30329182","name":"Boom","file":"http:\/\/rdfile.oss-cn-hangzhou.aliyuncs.com\/filemanage\/init\/cloud_music\/1542012186805\/file.mp3?nonce=cfcd208495d565ef66e7dff9f98764da","cover":"","updatetime":"0","height":0,"width":0,"video":"","sort":100,"version":0,"cover2":"","appkey":"init","duration":122,"extra":{},"polyglot":{"en":"Boom"},"category":"12113105,","audit":0,"is_ugc":0,"type":"cloud_music"},{"id":"1005306","ufid":"25543937","name":"Assasins","file":"http:\/\/rdfile.oss-cn-hangzhou.aliyuncs.com\/filemanage\/init\/cloud_music\/1542012186918\/file.mp3?nonce=cfcd208495d565ef66e7dff9f98764da","cover":"","updatetime":"0","height":0,"width":0,"video":"","sort":100,"version":0,"cover2":"","appkey":"init","duration":177,"extra":{},"polyglot":{"en":"Assasins"},"category":"12113105,","audit":0,"is_ugc":0,"type":"cloud_music"},{"id":"1005305","ufid":"11966196","name":"AcousticBlues","file":"http:\/\/rdfile.oss-cn-hangzhou.aliyuncs.com\/filemanage\/init\/cloud_music\/1542012186489\/file.mp3?nonce=cfcd208495d565ef66e7dff9f98764da","cover":"","updatetime":"0","height":0,"width":0,"video":"","sort":100,"version":0,"cover2":"","appkey":"init","duration":153,"extra":{},"polyglot":{"en":"AcousticBlues"},"category":"12113105,","audit":0,"is_ugc":0,"type":"cloud_music"},{"id":"1005304","ufid":"95432723","name":"90 Seconds Of Funk","file":"http:\/\/rdfile.oss-cn-hangzhou.aliyuncs.com\/filemanage\/init\/cloud_music\/1542012186381\/file.mp3?nonce=cfcd208495d565ef66e7dff9f98764da","cover":"","updatetime":"0","height":0,"width":0,"video":"","sort":100,"version":0,"cover2":"","appkey":"init","duration":92,"extra":{},"polyglot":{"en":"90 Seconds Of Funk"},"category":"12113105,","audit":0,"is_ugc":0,"type":"cloud_music"}]}}