{"code":0,"msg":"success","data":{"total":81,"per_page":20,"current_page":2,"last_page":5,"data":[{"id":"1005216","ufid":"17465833","name":"StraightyBaby","file":"http:\/\/rdfile.oss-cn-hangzhou.aliyuncs.com\/filemanage\/init\/cloud_music\/1542012185651\/file.mp3?nonce=cfcd208495d565ef66e7dff9f98764da","cover":"","updatetime":"0","height":0,"width":0,"video":"","sort":100,"version":0,"cover2":"","appkey":"init","duration":215,"extra":{},"polyglot":{"en":"StraightyBaby"},"category":"74711967,","audit":0,"is_ugc":0,"type":"cloud_music"},{"id":"1005215","ufid":"41755795","name":"South Of The Border","file":"http:\/\/rdfile.oss-cn-hangzhou.aliyuncs.com\/filemanage\/init\/cloud_music\/1542012185173\/file.mp3?nonce=cfcd208495d565ef66e7dff9f98764da","cover":"","updatetime":"0","height":0,"width":0,"video":"","sort":100,"version":0,"cover2":"","appkey":"init","duration":60,"extra":{},"polyglot":{"en":"South Of The Border"},"category":"74711967,","audit":0,"is_ugc":0,"type":"cloud_music"},{"id":"1005214","ufid":"65117530","name":"Soul Groove","file":"http:\/\/rdfile.oss-cn-hangzhou.aliyuncs.com\/filemanage\/init\/cloud_music\/1542012185732\/file.mp3?nonce=cfcd208495d565ef66e7dff9f98764da","cover":"","updatetime":"0","height":0,"width":0,"video":"","sort":100,"version":0,"cover2":"","appkey":"init","duration":182,"extra":{},"polyglot":{"en":"Soul Groove"},"category":"74711967,","audit":0,"is_ugc":0,"type":"cloud_music"},{"id":"1005213","ufid":"70402042","name":"Snappy","file":"http:\/\/rdfile.oss-cn-hangzhou.aliyuncs.com\/filemanage\/init\/cloud_music\/1542012185742\/file.mp3?nonce=cfcd208495d565ef66e7dff9f98764da","cover":"","updatetime":"0","height":0,"width":0,"video":"","sort":100,"version":0,"cover2":"","appkey":"init","duration":51,"extra":{},"polyglot":{"en":"Snappy"},"category":"74711967,","audit":0,"is_ugc":0,"type":"cloud_music"},{"id":"1005212","ufid":"38801847","name":"Smooth Sailing","file":"http:\/\/rdfile.oss-cn-hangzhou.aliyuncs.com\/filemanage\/init\/cloud_music\/1542012185152\/file.mp3?nonce=cfcd208495d565ef66e7dff9f98764da","cover":"","updatetime":"0","height":0,"width":0,"video":"","sort":100,"version":0,"cover2":"","appkey":"init","duration":169,"extra":{},"polyglot":{"en":"Smooth Sailing"},"category":"74711967,","audit":0,"is_ugc":0,"type":"cloud_music"},{"id":"1005211","ufid":"67237585","name":"Smooth Sailing (with Guitar)","file":"http:\/\/rdfile.oss-cn-hangzhou.aliyuncs.com\/filemanage\/init\/cloud_music\/1542012185578\/file.mp3?nonce=cfcd208495d565ef66e7dff9f98764da","cover":"","updatetime":"0","height":0,"width":0,"video":"","sort":100,"version":0,"cover2":"","appkey":"init","duration":337,"extra":{},"polyglot":{"en":"Smooth Sailing (with Guitar)"},"category":"74711967,","audit":0,"is_ugc":0,"type":"cloud_music"},{"id":"1005210","ufid":"86011866","name":"Skinny Leonard","file":"http:\/\/rdfile.oss-cn-hangzhou.aliyuncs.com\/filemanage\/init\/cloud_music\/1542012185558\/file.mp3?nonce=cfcd208495d565ef66e7dff9f98764da","cover":"","updatetime":"0","height":0,"width":0,"video":"","sort":100,"version":0,"cover2":"","appkey":"init","duration":163,"extra":{},"polyglot":{"en":"Skinny Leonard"},"category":"74711967,","audit":0,"is_ugc":0,"type":"cloud_music"},{"id":"1005209","ufid":"47831563","name":"Sidewalk","file":"http:\/\/rdfile.oss-cn-hangzhou.aliyuncs.com\/filemanage\/init\/cloud_music\/1542012185943\/file.mp3?nonce=cfcd208495d565ef66e7dff9f98764da","cover":"","updatetime":"0","height":0,"width":0,"video":"","sort":100,"version":0,"cover2":"","appkey":"init","duration":147,"extra":{},"polyglot":{"en":"Sidewalk"},"category":"74711967,","audit":0,"is_ugc":0,"type":"cloud_music"},{"id":"1005208","ufid":"33028795","name":"Rubix Cube","file":"http:\/\/rdfile.oss-cn-hangzhou.aliyuncs.com\/filemanage\/init\/cloud_music\/1542012185703\/file.mp3?nonce=cfcd208495d565ef66e7dff9f98764da","cover":"","updatetime":"0","height":0,"width":0,"video":"","sort":100,"version":0,"cover2":"","appkey":"init","duration":224,"extra":{},"polyglot":{"en":"Rubix Cube"},"category":"74711967,","audit":0,"is_ugc":0,"type":"cloud_music"},{"id":"1005207","ufid":"39203616","name":"Rockytop","file":"http:\/\/rdfile.oss-cn-hangzhou.aliyuncs.com\/filemanage\/init\/cloud_music\/1542012185871\/file.mp3?nonce=cfcd208495d565ef66e7dff9f98764da","cover":"","updatetime":"0","height":0,"width":0,"video":"","sort":100,"version":0,"cover2":"","appkey":"init","duration":105,"extra":{},"polyglot":{"en":"Rockytop"},"category":"74711967,","audit":0,"is_ugc":0,"type":"cloud_music"},{"id":"1005206","ufid":"90294054","name":"Rocker Chicks","file":"http:\/\/rdfile.oss-cn-hangzhou.aliyuncs.com\/filemanage\/init\/cloud_music\/1542012185344\/file.mp3?nonce=cfcd208495d565ef66e7dff9f98764da","cover":"","updatetime":"0","height":0,"width":0,"video":"","sort":100,"version":0,"cover2":"","appkey":"init","duration":91,"extra":{},"polyglot":{"en":"Rocker Chicks"},"category":"74711967,","audit":0,"is_ugc":0,"type":"cloud_music"},{"id":"1005205","ufid":"60184621","name":"Roboskater","file":"http:\/\/rdfile.oss-cn-hangzhou.aliyuncs.com\/filemanage\/init\/cloud_music\/1542012185389\/file.mp3?nonce=cfcd208495d565ef66e7dff9f98764da","cover":"","updatetime":"0","height":0,"width":0,"video":"","sort":100,"version":0,"cover2":"","appkey":"init","duration":206,"extra":{},"polyglot":{"en":"Roboskater"},"category":"74711967,","audit":0,"is_ugc":0,"type":"cloud_music"},{"id":"1005204","ufid":"98301132","name":"River Meditation","file":"http:\/\/rdfile.oss-cn-hangzhou.aliyuncs.com\/filemanage\/init\/cloud_music\/1542012185457\/file.mp3?nonce=cfcd208495d565ef66e7dff9f98764da","cover":"","updatetime":"0","height":0,"width":0,"video":"","sort":100,"version":0,"cover2":"","appkey":"init","duration":168,"extra":{},"polyglot":{"en":"River Meditation"},"category":"74711967,","audit":0,"is_ugc":0,"type":"cloud_music"},{"id":"1005203","ufid":"71021959","name":"Redwood Trail","file":"http:\/\/rdfile.oss-cn-hangzhou.aliyuncs.com\/filemanage\/init\/cloud_music\/1542012185275\/file.mp3?nonce=cfcd208495d565ef66e7dff9f98764da","cover":"","updatetime":"0","height":0,"width":0,"video":"","sort":100,"version":0,"cover2":"","appkey":"init","duration":119,"extra":{},"polyglot":{"en":"Redwood Trail"},"category":"74711967,","audit":0,"is_ugc":0,"type":"cloud_music"},{"id":"1005202","ufid":"21717209","name":"Rags 2 Riches Rag","file":"http:\/\/rdfile.oss-cn-hangzhou.aliyuncs.com\/filemanage\/init\/cloud_music\/1542012185146\/file.mp3?nonce=cfcd208495d565ef66e7dff9f98764da","cover":"","updatetime":"0","height":0,"width":0,"video":"","sort":100,"version":0,"cover2":"","appkey":"init","duration":187,"extra":{},"polyglot":{"en":"Rags 2 Riches Rag"},"category":"74711967,","audit":0,"is_ugc":0,"type":"cloud_music"},{"id":"1005201","ufid":"26579117","name":"Pop Star","file":"http:\/\/rdfile.oss-cn-hangzhou.aliyuncs.com\/filemanage\/init\/cloud_music\/1542012185251\/file.mp3?nonce=cfcd208495d565ef66e7dff9f98764da","cover":"","updatetime":"0","height":0,"width":0,"video":"","sort":100,"version":0,"cover2":"","appkey":"init","duration":133,"extra":{},"polyglot":{"en":"Pop Star"},"category":"74711967,","audit":0,"is_ugc":0,"type":"cloud_music"},{"id":"1005200","ufid":"92844216","name":"Pop Metal","file":"http:\/\/rdfile.oss-cn-hangzhou.aliyuncs.com\/filemanage\/init\/cloud_music\/1542012185728\/file.mp3?nonce=cfcd208495d565ef66e7dff9f98764da","cover":"","updatetime":"0","height":0,"width":0,"video":"","sort":100,"version":0,"cover2":"","appkey":"init","duration":128,"extra":{},"polyglot":{"en":"Pop Metal"},"category":"74711967,","audit":0,"is_ugc":0,"type":"cloud_music"},{"id":"1005199","ufid":"14893133","name":"Pluto","file":"http:\/\/rdfile.oss-cn-hangzhou.aliyuncs.com\/filemanage\/init\/cloud_music\/1542012185225\/file.mp3?nonce=cfcd208495d565ef66e7dff9f98764da","cover":"","updatetime":"0","height":0,"width":0,"video":"","sort":100,"version":0,"cover2":"","appkey":"init","duration":133,"extra":{},"polyglot":{"en":"Pluto"},"category":"74711967,","audit":0,"is_ugc":0,"type":"cloud_music"},{"id":"1005198","ufid":"81625664","name":"Pink's Glass","file":"http:\/\/rdfile.oss-cn-hangzhou.aliyuncs.com\/filemanage\/init\/cloud_music\/1542012185770\/file.mp3?nonce=cfcd208495d565ef66e7dff9f98764da","cover":"","updatetime":"0","height":0,"width":0,"video":"","sort":100,"version":0,"cover2":"","appkey":"init","duration":144,"extra":{},"polyglot":{"en":"Pink's Glass"},"category":"74711967,","audit":0,"is_ugc":0,"type":"cloud_music"},{"id":"1005197","ufid":"51239454","name":"Periscope","file":"http:\/\/rdfile.oss-cn-hangzhou.aliyuncs.com\/filemanage\/init\/cloud_music\/1542012185436\/file.mp3?nonce=cfcd208495d565ef66e7dff9f98764da","cover":"","updatetime":"0","height":0,"width":0,"video":"","sort":100,"version":0,"cover2":"","appkey":"init","duration":127,"extra":{},"polyglot":{"en":"Periscope"},"category":"74711967,","audit":0,"is_ugc":0,"type":"cloud_music"}]}}