{"code":0,"msg":"success","data":{"total":58,"per_page":20,"current_page":2,"last_page":3,"data":[{"id":"1005049","ufid":"56692949","name":"Progressive Rock","file":"http:\/\/rdfile.oss-cn-hangzhou.aliyuncs.com\/filemanage\/init\/cloud_music\/1542012183516\/file.mp3?nonce=cfcd208495d565ef66e7dff9f98764da","cover":"","updatetime":"0","height":0,"width":0,"video":"","sort":100,"version":0,"cover2":"","appkey":"init","duration":59,"extra":{},"polyglot":{"en":"Progressive Rock"},"category":"75028754,","audit":0,"is_ugc":0,"type":"cloud_music"},{"id":"1005048","ufid":"73601866","name":"Pop Tune","file":"http:\/\/rdfile.oss-cn-hangzhou.aliyuncs.com\/filemanage\/init\/cloud_music\/1542012183264\/file.mp3?nonce=cfcd208495d565ef66e7dff9f98764da","cover":"","updatetime":"0","height":0,"width":0,"video":"","sort":100,"version":0,"cover2":"","appkey":"init","duration":218,"extra":{},"polyglot":{"en":"Pop Tune"},"category":"75028754,","audit":0,"is_ugc":0,"type":"cloud_music"},{"id":"1005047","ufid":"71709895","name":"Plantation","file":"http:\/\/rdfile.oss-cn-hangzhou.aliyuncs.com\/filemanage\/init\/cloud_music\/1542012183560\/file.mp3?nonce=cfcd208495d565ef66e7dff9f98764da","cover":"","updatetime":"0","height":0,"width":0,"video":"","sort":100,"version":0,"cover2":"","appkey":"init","duration":196,"extra":{},"polyglot":{"en":"Plantation"},"category":"75028754,","audit":0,"is_ugc":0,"type":"cloud_music"},{"id":"1005046","ufid":"82951732","name":"PilotsOfStone","file":"http:\/\/rdfile.oss-cn-hangzhou.aliyuncs.com\/filemanage\/init\/cloud_music\/1542012183866\/file.mp3?nonce=cfcd208495d565ef66e7dff9f98764da","cover":"","updatetime":"0","height":0,"width":0,"video":"","sort":100,"version":0,"cover2":"","appkey":"init","duration":136,"extra":{},"polyglot":{"en":"PilotsOfStone"},"category":"75028754,","audit":0,"is_ugc":0,"type":"cloud_music"},{"id":"1005045","ufid":"63806933","name":"Pensive Piano","file":"http:\/\/rdfile.oss-cn-hangzhou.aliyuncs.com\/filemanage\/init\/cloud_music\/1542012183953\/file.mp3?nonce=cfcd208495d565ef66e7dff9f98764da","cover":"","updatetime":"0","height":0,"width":0,"video":"","sort":100,"version":0,"cover2":"","appkey":"init","duration":66,"extra":{},"polyglot":{"en":"Pensive Piano"},"category":"75028754,","audit":0,"is_ugc":0,"type":"cloud_music"},{"id":"1005044","ufid":"83654553","name":"Opheliea's Blues","file":"http:\/\/rdfile.oss-cn-hangzhou.aliyuncs.com\/filemanage\/init\/cloud_music\/1542012183336\/file.mp3?nonce=cfcd208495d565ef66e7dff9f98764da","cover":"","updatetime":"0","height":0,"width":0,"video":"","sort":100,"version":0,"cover2":"","appkey":"init","duration":245,"extra":{},"polyglot":{"en":"Opheliea's Blues"},"category":"75028754,","audit":0,"is_ugc":0,"type":"cloud_music"},{"id":"1005043","ufid":"81478023","name":"Ocean Floor","file":"http:\/\/rdfile.oss-cn-hangzhou.aliyuncs.com\/filemanage\/init\/cloud_music\/1542012183907\/file.mp3?nonce=cfcd208495d565ef66e7dff9f98764da","cover":"","updatetime":"0","height":0,"width":0,"video":"","sort":100,"version":0,"cover2":"","appkey":"init","duration":228,"extra":{},"polyglot":{"en":"Ocean Floor"},"category":"75028754,","audit":0,"is_ugc":0,"type":"cloud_music"},{"id":"1005042","ufid":"46148249","name":"Occupy The Dance Floor","file":"http:\/\/rdfile.oss-cn-hangzhou.aliyuncs.com\/filemanage\/init\/cloud_music\/1542012183113\/file.mp3?nonce=cfcd208495d565ef66e7dff9f98764da","cover":"","updatetime":"0","height":0,"width":0,"video":"","sort":100,"version":0,"cover2":"","appkey":"init","duration":171,"extra":{},"polyglot":{"en":"Occupy The Dance Floor"},"category":"75028754,","audit":0,"is_ugc":0,"type":"cloud_music"},{"id":"1005041","ufid":"25285074","name":"Namaste","file":"http:\/\/rdfile.oss-cn-hangzhou.aliyuncs.com\/filemanage\/init\/cloud_music\/1542012183554\/file.mp3?nonce=cfcd208495d565ef66e7dff9f98764da","cover":"","updatetime":"0","height":0,"width":0,"video":"","sort":100,"version":0,"cover2":"","appkey":"init","duration":328,"extra":{},"polyglot":{"en":"Namaste"},"category":"75028754,","audit":0,"is_ugc":0,"type":"cloud_music"},{"id":"1005040","ufid":"67282011","name":"Minor With Cricket","file":"http:\/\/rdfile.oss-cn-hangzhou.aliyuncs.com\/filemanage\/init\/cloud_music\/1542012183231\/file.mp3?nonce=cfcd208495d565ef66e7dff9f98764da","cover":"","updatetime":"0","height":0,"width":0,"video":"","sort":100,"version":0,"cover2":"","appkey":"init","duration":333,"extra":{},"polyglot":{"en":"Minor With Cricket"},"category":"75028754,","audit":0,"is_ugc":0,"type":"cloud_music"},{"id":"1005039","ufid":"54289359","name":"Meditation 1","file":"http:\/\/rdfile.oss-cn-hangzhou.aliyuncs.com\/filemanage\/init\/cloud_music\/1542012183470\/file.mp3?nonce=cfcd208495d565ef66e7dff9f98764da","cover":"","updatetime":"0","height":0,"width":0,"video":"","sort":100,"version":0,"cover2":"","appkey":"init","duration":271,"extra":{},"polyglot":{"en":"Meditation 1"},"category":"75028754,","audit":0,"is_ugc":0,"type":"cloud_music"},{"id":"1005038","ufid":"85812384","name":"Macaroon 5","file":"http:\/\/rdfile.oss-cn-hangzhou.aliyuncs.com\/filemanage\/init\/cloud_music\/1542012183869\/file.mp3?nonce=cfcd208495d565ef66e7dff9f98764da","cover":"","updatetime":"0","height":0,"width":0,"video":"","sort":100,"version":0,"cover2":"","appkey":"init","duration":207,"extra":{},"polyglot":{"en":"Macaroon 5"},"category":"75028754,","audit":0,"is_ugc":0,"type":"cloud_music"},{"id":"1005037","ufid":"62292972","name":"Lion's Heart","file":"http:\/\/rdfile.oss-cn-hangzhou.aliyuncs.com\/filemanage\/init\/cloud_music\/1542012183400\/file.mp3?nonce=cfcd208495d565ef66e7dff9f98764da","cover":"","updatetime":"0","height":0,"width":0,"video":"","sort":100,"version":0,"cover2":"","appkey":"init","duration":189,"extra":{},"polyglot":{"en":"Lion's Heart"},"category":"75028754,","audit":0,"is_ugc":0,"type":"cloud_music"},{"id":"1005036","ufid":"97939717","name":"LineOfFire","file":"http:\/\/rdfile.oss-cn-hangzhou.aliyuncs.com\/filemanage\/init\/cloud_music\/1542012183318\/file.mp3?nonce=cfcd208495d565ef66e7dff9f98764da","cover":"","updatetime":"0","height":0,"width":0,"video":"","sort":100,"version":0,"cover2":"","appkey":"init","duration":70,"extra":{},"polyglot":{"en":"LineOfFire"},"category":"75028754,","audit":0,"is_ugc":0,"type":"cloud_music"},{"id":"1005035","ufid":"89158471","name":"Kicked Up Pumps","file":"http:\/\/rdfile.oss-cn-hangzhou.aliyuncs.com\/filemanage\/init\/cloud_music\/1542012183252\/file.mp3?nonce=cfcd208495d565ef66e7dff9f98764da","cover":"","updatetime":"0","height":0,"width":0,"video":"","sort":100,"version":0,"cover2":"","appkey":"init","duration":132,"extra":{},"polyglot":{"en":"Kicked Up Pumps"},"category":"75028754,","audit":0,"is_ugc":0,"type":"cloud_music"},{"id":"1005034","ufid":"55885878","name":"Keep It Real","file":"http:\/\/rdfile.oss-cn-hangzhou.aliyuncs.com\/filemanage\/init\/cloud_music\/1542012183992\/file.mp3?nonce=cfcd208495d565ef66e7dff9f98764da","cover":"","updatetime":"0","height":0,"width":0,"video":"","sort":100,"version":0,"cover2":"","appkey":"init","duration":122,"extra":{},"polyglot":{"en":"Keep It Real"},"category":"75028754,","audit":0,"is_ugc":0,"type":"cloud_music"},{"id":"1005033","ufid":"46955773","name":"Inner Journey","file":"http:\/\/rdfile.oss-cn-hangzhou.aliyuncs.com\/filemanage\/init\/cloud_music\/1542012183514\/file.mp3?nonce=cfcd208495d565ef66e7dff9f98764da","cover":"","updatetime":"0","height":0,"width":0,"video":"","sort":100,"version":0,"cover2":"","appkey":"init","duration":203,"extra":{},"polyglot":{"en":"Inner Journey"},"category":"75028754,","audit":0,"is_ugc":0,"type":"cloud_music"},{"id":"1005032","ufid":"26006627","name":"House Of Evil","file":"http:\/\/rdfile.oss-cn-hangzhou.aliyuncs.com\/filemanage\/init\/cloud_music\/1542012183642\/file.mp3?nonce=cfcd208495d565ef66e7dff9f98764da","cover":"","updatetime":"0","height":0,"width":0,"video":"","sort":100,"version":0,"cover2":"","appkey":"init","duration":55,"extra":{},"polyglot":{"en":"House Of Evil"},"category":"75028754,","audit":0,"is_ugc":0,"type":"cloud_music"},{"id":"1005031","ufid":"53521237","name":"HorrorMusic","file":"http:\/\/rdfile.oss-cn-hangzhou.aliyuncs.com\/filemanage\/init\/cloud_music\/1542012183304\/file.mp3?nonce=cfcd208495d565ef66e7dff9f98764da","cover":"","updatetime":"0","height":0,"width":0,"video":"","sort":100,"version":0,"cover2":"","appkey":"init","duration":160,"extra":{},"polyglot":{"en":"HorrorMusic"},"category":"75028754,","audit":0,"is_ugc":0,"type":"cloud_music"},{"id":"1005030","ufid":"85674742","name":"Heading West","file":"http:\/\/rdfile.oss-cn-hangzhou.aliyuncs.com\/filemanage\/init\/cloud_music\/1542012183163\/file.mp3?nonce=cfcd208495d565ef66e7dff9f98764da","cover":"","updatetime":"0","height":0,"width":0,"video":"","sort":100,"version":0,"cover2":"","appkey":"init","duration":280,"extra":{},"polyglot":{"en":"Heading West"},"category":"75028754,","audit":0,"is_ugc":0,"type":"cloud_music"}]}}