{"code":0,"msg":"success","data":{"total":48,"per_page":20,"current_page":2,"last_page":3,"data":[{"id":"1005097","ufid":"14934833","name":"Stalking Prey","file":"http:\/\/rdfile.oss-cn-hangzhou.aliyuncs.com\/filemanage\/init\/cloud_music\/1542012184625\/file.mp3?nonce=cfcd208495d565ef66e7dff9f98764da","cover":"","updatetime":"0","height":0,"width":0,"video":"","sort":100,"version":0,"cover2":"","appkey":"init","duration":63,"extra":{},"polyglot":{"en":"Stalking Prey"},"category":"84596108,","audit":0,"is_ugc":0,"type":"cloud_music"},{"id":"1005096","ufid":"74605026","name":"SoDramatic","file":"http:\/\/rdfile.oss-cn-hangzhou.aliyuncs.com\/filemanage\/init\/cloud_music\/1542012184493\/file.mp3?nonce=cfcd208495d565ef66e7dff9f98764da","cover":"","updatetime":"0","height":0,"width":0,"video":"","sort":100,"version":0,"cover2":"","appkey":"init","duration":130,"extra":{},"polyglot":{"en":"SoDramatic"},"category":"84596108,","audit":0,"is_ugc":0,"type":"cloud_music"},{"id":"1005095","ufid":"41605286","name":"Pendulum Waltz","file":"http:\/\/rdfile.oss-cn-hangzhou.aliyuncs.com\/filemanage\/init\/cloud_music\/1542012184736\/file.mp3?nonce=cfcd208495d565ef66e7dff9f98764da","cover":"","updatetime":"0","height":0,"width":0,"video":"","sort":100,"version":0,"cover2":"","appkey":"init","duration":235,"extra":{},"polyglot":{"en":"Pendulum Waltz"},"category":"84596108,","audit":0,"is_ugc":0,"type":"cloud_music"},{"id":"1005094","ufid":"70653522","name":"Over Time","file":"http:\/\/rdfile.oss-cn-hangzhou.aliyuncs.com\/filemanage\/init\/cloud_music\/1542012184345\/file.mp3?nonce=cfcd208495d565ef66e7dff9f98764da","cover":"","updatetime":"0","height":0,"width":0,"video":"","sort":100,"version":0,"cover2":"","appkey":"init","duration":182,"extra":{},"polyglot":{"en":"Over Time"},"category":"84596108,","audit":0,"is_ugc":0,"type":"cloud_music"},{"id":"1005093","ufid":"15963396","name":"Opus One","file":"http:\/\/rdfile.oss-cn-hangzhou.aliyuncs.com\/filemanage\/init\/cloud_music\/1542012184130\/file.mp3?nonce=cfcd208495d565ef66e7dff9f98764da","cover":"","updatetime":"0","height":0,"width":0,"video":"","sort":100,"version":0,"cover2":"","appkey":"init","duration":218,"extra":{},"polyglot":{"en":"Opus One"},"category":"84596108,","audit":0,"is_ugc":0,"type":"cloud_music"},{"id":"1005092","ufid":"59883245","name":"Night Runner","file":"http:\/\/rdfile.oss-cn-hangzhou.aliyuncs.com\/filemanage\/init\/cloud_music\/1542012184458\/file.mp3?nonce=cfcd208495d565ef66e7dff9f98764da","cover":"","updatetime":"0","height":0,"width":0,"video":"","sort":100,"version":0,"cover2":"","appkey":"init","duration":101,"extra":{},"polyglot":{"en":"Night Runner"},"category":"84596108,","audit":0,"is_ugc":0,"type":"cloud_music"},{"id":"1005091","ufid":"71578734","name":"News Theme 1","file":"http:\/\/rdfile.oss-cn-hangzhou.aliyuncs.com\/filemanage\/init\/cloud_music\/1542012184835\/file.mp3?nonce=cfcd208495d565ef66e7dff9f98764da","cover":"","updatetime":"0","height":0,"width":0,"video":"","sort":100,"version":0,"cover2":"","appkey":"init","duration":27,"extra":{},"polyglot":{"en":"News Theme 1"},"category":"84596108,","audit":0,"is_ugc":0,"type":"cloud_music"},{"id":"1005090","ufid":"95742072","name":"Majestic Piano","file":"http:\/\/rdfile.oss-cn-hangzhou.aliyuncs.com\/filemanage\/init\/cloud_music\/1542012184967\/file.mp3?nonce=cfcd208495d565ef66e7dff9f98764da","cover":"","updatetime":"0","height":0,"width":0,"video":"","sort":100,"version":0,"cover2":"","appkey":"init","duration":62,"extra":{},"polyglot":{"en":"Majestic Piano"},"category":"84596108,","audit":0,"is_ugc":0,"type":"cloud_music"},{"id":"1005089","ufid":"34769904","name":"Legends Of The River","file":"http:\/\/rdfile.oss-cn-hangzhou.aliyuncs.com\/filemanage\/init\/cloud_music\/1542012184398\/file.mp3?nonce=cfcd208495d565ef66e7dff9f98764da","cover":"","updatetime":"0","height":0,"width":0,"video":"","sort":100,"version":0,"cover2":"","appkey":"init","duration":117,"extra":{},"polyglot":{"en":"Legends Of The River"},"category":"84596108,","audit":0,"is_ugc":0,"type":"cloud_music"},{"id":"1005088","ufid":"41913383","name":"Latin Industries","file":"http:\/\/rdfile.oss-cn-hangzhou.aliyuncs.com\/filemanage\/init\/cloud_music\/1542012184578\/file.mp3?nonce=cfcd208495d565ef66e7dff9f98764da","cover":"","updatetime":"0","height":0,"width":0,"video":"","sort":100,"version":0,"cover2":"","appkey":"init","duration":201,"extra":{},"polyglot":{"en":"Latin Industries"},"category":"84596108,","audit":0,"is_ugc":0,"type":"cloud_music"},{"id":"1005087","ufid":"27814267","name":"Intense Suspense","file":"http:\/\/rdfile.oss-cn-hangzhou.aliyuncs.com\/filemanage\/init\/cloud_music\/1542012184896\/file.mp3?nonce=cfcd208495d565ef66e7dff9f98764da","cover":"","updatetime":"0","height":0,"width":0,"video":"","sort":100,"version":0,"cover2":"","appkey":"init","duration":93,"extra":{},"polyglot":{"en":"Intense Suspense"},"category":"84596108,","audit":0,"is_ugc":0,"type":"cloud_music"},{"id":"1005086","ufid":"60804466","name":"In Motion","file":"http:\/\/rdfile.oss-cn-hangzhou.aliyuncs.com\/filemanage\/init\/cloud_music\/1542012184752\/file.mp3?nonce=cfcd208495d565ef66e7dff9f98764da","cover":"","updatetime":"0","height":0,"width":0,"video":"","sort":100,"version":0,"cover2":"","appkey":"init","duration":128,"extra":{},"polyglot":{"en":"In Motion"},"category":"84596108,","audit":0,"is_ugc":0,"type":"cloud_music"},{"id":"1005085","ufid":"35809743","name":"High Tension","file":"http:\/\/rdfile.oss-cn-hangzhou.aliyuncs.com\/filemanage\/init\/cloud_music\/1542012184864\/file.mp3?nonce=cfcd208495d565ef66e7dff9f98764da","cover":"","updatetime":"0","height":0,"width":0,"video":"","sort":100,"version":0,"cover2":"","appkey":"init","duration":131,"extra":{},"polyglot":{"en":"High Tension"},"category":"84596108,","audit":0,"is_ugc":0,"type":"cloud_music"},{"id":"1005084","ufid":"26551665","name":"Hero In Peril","file":"http:\/\/rdfile.oss-cn-hangzhou.aliyuncs.com\/filemanage\/init\/cloud_music\/1542012183130\/file.mp3?nonce=cfcd208495d565ef66e7dff9f98764da","cover":"","updatetime":"0","height":0,"width":0,"video":"","sort":100,"version":0,"cover2":"","appkey":"init","duration":30,"extra":{},"polyglot":{"en":"Hero In Peril"},"category":"84596108,","audit":0,"is_ugc":0,"type":"cloud_music"},{"id":"1005083","ufid":"74936458","name":"Go Not Gently","file":"http:\/\/rdfile.oss-cn-hangzhou.aliyuncs.com\/filemanage\/init\/cloud_music\/1542012183482\/file.mp3?nonce=cfcd208495d565ef66e7dff9f98764da","cover":"","updatetime":"0","height":0,"width":0,"video":"","sort":100,"version":0,"cover2":"","appkey":"init","duration":195,"extra":{},"polyglot":{"en":"Go Not Gently"},"category":"84596108,","audit":0,"is_ugc":0,"type":"cloud_music"},{"id":"1005082","ufid":"73727505","name":"Fur Elise","file":"http:\/\/rdfile.oss-cn-hangzhou.aliyuncs.com\/filemanage\/init\/cloud_music\/1542012183313\/file.mp3?nonce=cfcd208495d565ef66e7dff9f98764da","cover":"","updatetime":"0","height":0,"width":0,"video":"","sort":100,"version":0,"cover2":"","appkey":"init","duration":134,"extra":{},"polyglot":{"en":"Fur Elise"},"category":"84596108,","audit":0,"is_ugc":0,"type":"cloud_music"},{"id":"1005081","ufid":"18656206","name":"Epic TV Theme","file":"http:\/\/rdfile.oss-cn-hangzhou.aliyuncs.com\/filemanage\/init\/cloud_music\/1542012183818\/file.mp3?nonce=cfcd208495d565ef66e7dff9f98764da","cover":"","updatetime":"0","height":0,"width":0,"video":"","sort":100,"version":0,"cover2":"","appkey":"init","duration":97,"extra":{},"polyglot":{"en":"Epic TV Theme"},"category":"84596108,","audit":0,"is_ugc":0,"type":"cloud_music"},{"id":"1005080","ufid":"82204938","name":"Enemy Ships","file":"http:\/\/rdfile.oss-cn-hangzhou.aliyuncs.com\/filemanage\/init\/cloud_music\/1542012183548\/file.mp3?nonce=cfcd208495d565ef66e7dff9f98764da","cover":"","updatetime":"0","height":0,"width":0,"video":"","sort":100,"version":0,"cover2":"","appkey":"init","duration":34,"extra":{},"polyglot":{"en":"Enemy Ships"},"category":"84596108,","audit":0,"is_ugc":0,"type":"cloud_music"},{"id":"1005079","ufid":"29251764","name":"Dreams From The Ashes","file":"http:\/\/rdfile.oss-cn-hangzhou.aliyuncs.com\/filemanage\/init\/cloud_music\/1542012183436\/file.mp3?nonce=cfcd208495d565ef66e7dff9f98764da","cover":"","updatetime":"0","height":0,"width":0,"video":"","sort":100,"version":0,"cover2":"","appkey":"init","duration":258,"extra":{},"polyglot":{"en":"Dreams From The Ashes"},"category":"84596108,","audit":0,"is_ugc":0,"type":"cloud_music"},{"id":"1005078","ufid":"74074820","name":"DarkMystery","file":"http:\/\/rdfile.oss-cn-hangzhou.aliyuncs.com\/filemanage\/init\/cloud_music\/1542012183125\/file.mp3?nonce=cfcd208495d565ef66e7dff9f98764da","cover":"","updatetime":"0","height":0,"width":0,"video":"","sort":100,"version":0,"cover2":"","appkey":"init","duration":132,"extra":{},"polyglot":{"en":"DarkMystery"},"category":"84596108,","audit":0,"is_ugc":0,"type":"cloud_music"}]}}