{"code":0,"data":{"current_page":3,"data":[{"appkey":"init","cover":"","cover2":"","duration":17,"file":"https://raw.githubusercontent.com/sjianji/Magic-Cut/main/data/audio/31129794/1023966/53304900.mp3","height":0,"id":"1023966","name":"阿瑟请坐","pictureNeed":0,"sort":0,"textNeed":0,"type":"audio","ufid":"53304900","updatetime":"1697698173","version":157,"video":"","videoNeed":0,"width":0}],"last_page":3,"per_page":20,"total":41},"msg":"success"}