{"code":0,"msg":"success","data":{"total":31,"per_page":20,"current_page":2,"last_page":2,"data":[{"id":"1024123","ufid":"52384034","name":"\u54ea\u5412\u662f\u4e09\u5934\u516d\u81c2","file":"http:\/\/rdfile.oss-cn-hangzhou.aliyuncs.com\/filemanage\/init\/audio\/52384034.mp3?nonce=59c3cfac1f0e32c4e9a66a95acd893a6","cover":"","updatetime":"1697698210","height":0,"width":0,"video":"","sort":0,"version":157,"cover2":"","appkey":"init","duration":10,"extra":{},"polyglot":[],"category":"14054586,","audit":0,"is_ugc":0,"type":"audio"},{"id":"1024122","ufid":"81739264","name":"\u732b\u513f\u8981\u542c\u732b\u513f\u6b4c","file":"http:\/\/rdfile.oss-cn-hangzhou.aliyuncs.com\/filemanage\/init\/audio\/81739264.mp3?nonce=59c3cfac1f0e32c4e9a66a95acd893a6","cover":"","updatetime":"1697698210","height":0,"width":0,"video":"","sort":0,"version":157,"cover2":"","appkey":"init","duration":7,"extra":{},"polyglot":[],"category":"14054586,","audit":0,"is_ugc":0,"type":"audio"},{"id":"1024121","ufid":"40309454","name":"\u8d56\u76ae\u86c7\u7684\u524d\u4e16\u4eca\u751f","file":"http:\/\/rdfile.oss-cn-hangzhou.aliyuncs.com\/filemanage\/init\/audio\/40309454.mp3?nonce=59c3cfac1f0e32c4e9a66a95acd893a6","cover":"","updatetime":"1697698210","height":0,"width":0,"video":"","sort":0,"version":157,"cover2":"","appkey":"init","duration":8,"extra":{},"polyglot":[],"category":"14054586,","audit":0,"is_ugc":0,"type":"audio"},{"id":"1024120","ufid":"32307628","name":"\u59d0\u59d0\u4f60\u597d\u9753\u554a-\u7ca4\u8bed","file":"http:\/\/rdfile.oss-cn-hangzhou.aliyuncs.com\/filemanage\/init\/audio\/32307628.mp3?nonce=59c3cfac1f0e32c4e9a66a95acd893a6","cover":"","updatetime":"1697698210","height":0,"width":0,"video":"","sort":0,"version":157,"cover2":"","appkey":"init","duration":10,"extra":{},"polyglot":[],"category":"14054586,","audit":0,"is_ugc":0,"type":"audio"},{"id":"1024119","ufid":"19086386","name":"\u54c8\u57fa\u7c73\u54c8\u57fa\u7c73","file":"http:\/\/rdfile.oss-cn-hangzhou.aliyuncs.com\/filemanage\/init\/audio\/19086386.mp3?nonce=3d73a793a43c7cb688ae4d66d916e8b3","cover":"","updatetime":"1697698288","height":0,"width":0,"video":"","sort":0,"version":157,"cover2":"","appkey":"init","duration":8,"extra":{},"polyglot":[],"category":"14054586,","audit":0,"is_ugc":0,"type":"audio"},{"id":"1024118","ufid":"63559583","name":"\u7b49\u5988\u5988\u6709\u94b1\u4e86\u5c31\u7ed9\u4f60\u4e70","file":"http:\/\/rdfile.oss-cn-hangzhou.aliyuncs.com\/filemanage\/init\/audio\/63559583.mp3?nonce=76511cecb7adef109910f7eb4e485703","cover":"","updatetime":"1697698209","height":0,"width":0,"video":"","sort":0,"version":157,"cover2":"","appkey":"init","duration":13,"extra":{},"polyglot":[],"category":"14054586,","audit":0,"is_ugc":0,"type":"audio"},{"id":"1024117","ufid":"57248621","name":"\u627f\u8ba4\u5427\u5973\u4eba","file":"http:\/\/rdfile.oss-cn-hangzhou.aliyuncs.com\/filemanage\/init\/audio\/57248621.mp3?nonce=76511cecb7adef109910f7eb4e485703","cover":"","updatetime":"1697698209","height":0,"width":0,"video":"","sort":0,"version":157,"cover2":"","appkey":"init","duration":6,"extra":{},"polyglot":[],"category":"14054586,","audit":0,"is_ugc":0,"type":"audio"},{"id":"1024116","ufid":"83374951","name":"\u5435\u67b6\u58f0-\u840c\u5ba0\u51d1\u70ed\u95f9","file":"http:\/\/rdfile.oss-cn-hangzhou.aliyuncs.com\/filemanage\/init\/audio\/83374951.mp3?nonce=ef5a19051e74ca22abdc82552177861b","cover":"","updatetime":"1697698208","height":0,"width":0,"video":"","sort":0,"version":157,"cover2":"","appkey":"init","duration":15,"extra":{},"polyglot":[],"category":"14054586,","audit":0,"is_ugc":0,"type":"audio"},{"id":"1024115","ufid":"84172578","name":"\u516b\u560e\u732b","file":"http:\/\/rdfile.oss-cn-hangzhou.aliyuncs.com\/filemanage\/init\/audio\/84172578.mp3?nonce=ef5a19051e74ca22abdc82552177861b","cover":"","updatetime":"1697698208","height":0,"width":0,"video":"","sort":0,"version":157,"cover2":"","appkey":"init","duration":11,"extra":{},"polyglot":[],"category":"14054586,","audit":0,"is_ugc":0,"type":"audio"},{"id":"1024114","ufid":"83763722","name":"i was born a dog","file":"http:\/\/rdfile.oss-cn-hangzhou.aliyuncs.com\/filemanage\/init\/audio\/83763722.mp3?nonce=ef5a19051e74ca22abdc82552177861b","cover":"","updatetime":"1697698208","height":0,"width":0,"video":"","sort":0,"version":157,"cover2":"","appkey":"init","duration":10,"extra":{},"polyglot":[],"category":"14054586,","audit":0,"is_ugc":0,"type":"audio"},{"id":"1024113","ufid":"12570836","name":"devil behemoth","file":"http:\/\/rdfile.oss-cn-hangzhou.aliyuncs.com\/filemanage\/init\/audio\/12570836.mp3?nonce=ef5a19051e74ca22abdc82552177861b","cover":"","updatetime":"1697698208","height":0,"width":0,"video":"","sort":0,"version":157,"cover2":"","appkey":"init","duration":14,"extra":{},"polyglot":[],"category":"14054586,","audit":0,"is_ugc":0,"type":"audio"}]}}