{"code":0,"msg":"success","data":{"total":45,"per_page":20,"current_page":2,"last_page":3,"data":[{"id":"1005652","ufid":"81474814","name":"Numerical Code25","file":"http:\/\/rdfile.oss-cn-hangzhou.aliyuncs.com\/filemanage\/init\/audio\/61\/e875ffb332c3f0f8c44ea55a7bd50327\/e1164f38988eeba08d5124aa87bcf5c4.mp3?nonce=cfcd208495d565ef66e7dff9f98764da","cover":"","updatetime":"0","height":0,"width":0,"video":"","sort":100,"version":0,"cover2":"","appkey":"init","duration":1,"extra":{},"polyglot":{"en":"Numerical Code25"},"category":"18667485,","audit":0,"is_ugc":0,"type":"audio"},{"id":"1005651","ufid":"93866349","name":"Numerical Code24","file":"http:\/\/rdfile.oss-cn-hangzhou.aliyuncs.com\/filemanage\/init\/audio\/61\/b23c8ba804b16e6c32de2a914e4f10e8\/04297e15b92bb200bad90908c7968566.mp3?nonce=cfcd208495d565ef66e7dff9f98764da","cover":"","updatetime":"0","height":0,"width":0,"video":"","sort":100,"version":0,"cover2":"","appkey":"init","duration":1,"extra":{},"polyglot":{"en":"Numerical Code24"},"category":"18667485,","audit":0,"is_ugc":0,"type":"audio"},{"id":"1005650","ufid":"97893581","name":"Numerical Code23","file":"http:\/\/rdfile.oss-cn-hangzhou.aliyuncs.com\/filemanage\/init\/audio\/61\/64cfb7d2c0a1b67ca53290443823e32d\/f9af17408ff48874091756d3ee6fd561.mp3?nonce=cfcd208495d565ef66e7dff9f98764da","cover":"","updatetime":"0","height":0,"width":0,"video":"","sort":100,"version":0,"cover2":"","appkey":"init","duration":2,"extra":{},"polyglot":{"en":"Numerical Code23"},"category":"18667485,","audit":0,"is_ugc":0,"type":"audio"},{"id":"1005649","ufid":"52541619","name":"Numerical Code22","file":"http:\/\/rdfile.oss-cn-hangzhou.aliyuncs.com\/filemanage\/init\/audio\/61\/6d6c9cf2e3639765c830bafbf5778193\/76de2e448470c35d27bfa4cf0b0c7915.mp3?nonce=cfcd208495d565ef66e7dff9f98764da","cover":"","updatetime":"0","height":0,"width":0,"video":"","sort":100,"version":0,"cover2":"","appkey":"init","duration":1,"extra":{},"polyglot":{"en":"Numerical Code22"},"category":"18667485,","audit":0,"is_ugc":0,"type":"audio"},{"id":"1005648","ufid":"38377566","name":"Numerical Code21","file":"http:\/\/rdfile.oss-cn-hangzhou.aliyuncs.com\/filemanage\/init\/audio\/61\/6012cb4615fe2bdc58068d2d9c0f307b\/1e4759ba8068ddde1ee0b00ecbc316d5.mp3?nonce=cfcd208495d565ef66e7dff9f98764da","cover":"","updatetime":"0","height":0,"width":0,"video":"","sort":100,"version":0,"cover2":"","appkey":"init","duration":1,"extra":{},"polyglot":{"en":"Numerical Code21"},"category":"18667485,","audit":0,"is_ugc":0,"type":"audio"},{"id":"1005647","ufid":"67674118","name":"Numerical Code20","file":"http:\/\/rdfile.oss-cn-hangzhou.aliyuncs.com\/filemanage\/init\/audio\/61\/6e8d6f404f9a6e0ce471b9a073d87e78\/972ef5b6a6b47060b0db9010ec0cbbc0.mp3?nonce=cfcd208495d565ef66e7dff9f98764da","cover":"","updatetime":"0","height":0,"width":0,"video":"","sort":100,"version":0,"cover2":"","appkey":"init","duration":1,"extra":{},"polyglot":{"en":"Numerical Code20"},"category":"18667485,","audit":0,"is_ugc":0,"type":"audio"},{"id":"1005646","ufid":"30402895","name":"Numerical Code19","file":"http:\/\/rdfile.oss-cn-hangzhou.aliyuncs.com\/filemanage\/init\/audio\/61\/e65120b1e330eca38a196030b9cf8ec4\/26d5e93324d1308590024e29980bbbb6.mp3?nonce=cfcd208495d565ef66e7dff9f98764da","cover":"","updatetime":"0","height":0,"width":0,"video":"","sort":100,"version":0,"cover2":"","appkey":"init","duration":1,"extra":{},"polyglot":{"en":"Numerical Code19"},"category":"18667485,","audit":0,"is_ugc":0,"type":"audio"},{"id":"1005645","ufid":"44903877","name":"Numerical Code18","file":"http:\/\/rdfile.oss-cn-hangzhou.aliyuncs.com\/filemanage\/init\/audio\/61\/28118ebfe00745984789c11c239b2572\/ebb3c26b75f665c54830c12c73ed2e6d.mp3?nonce=cfcd208495d565ef66e7dff9f98764da","cover":"","updatetime":"0","height":0,"width":0,"video":"","sort":100,"version":0,"cover2":"","appkey":"init","duration":1,"extra":{},"polyglot":{"en":"Numerical Code18"},"category":"18667485,","audit":0,"is_ugc":0,"type":"audio"},{"id":"1005644","ufid":"66775208","name":"Numerical Code17","file":"http:\/\/rdfile.oss-cn-hangzhou.aliyuncs.com\/filemanage\/init\/audio\/61\/3011084716d7260da96129d0a5e0eb02\/8a1975a7249465a2ec7b73109286bbce.mp3?nonce=cfcd208495d565ef66e7dff9f98764da","cover":"","updatetime":"0","height":0,"width":0,"video":"","sort":100,"version":0,"cover2":"","appkey":"init","duration":1,"extra":{},"polyglot":{"en":"Numerical Code17"},"category":"18667485,","audit":0,"is_ugc":0,"type":"audio"},{"id":"1005643","ufid":"25733667","name":"Numerical Code16","file":"http:\/\/rdfile.oss-cn-hangzhou.aliyuncs.com\/filemanage\/init\/audio\/61\/3c79aa4d01f4419381d7e652a922ee53\/7bed7cd1038acd940213a39fa54da54d.mp3?nonce=cfcd208495d565ef66e7dff9f98764da","cover":"","updatetime":"0","height":0,"width":0,"video":"","sort":100,"version":0,"cover2":"","appkey":"init","duration":1,"extra":{},"polyglot":{"en":"Numerical Code16"},"category":"18667485,","audit":0,"is_ugc":0,"type":"audio"},{"id":"1005642","ufid":"97596293","name":"Numerical Code15","file":"http:\/\/rdfile.oss-cn-hangzhou.aliyuncs.com\/filemanage\/init\/audio\/61\/68913914c3f4bb47c4314f9edb5b04cd\/d91b987ed1c9b8e9646603e87d062366.mp3?nonce=cfcd208495d565ef66e7dff9f98764da","cover":"","updatetime":"0","height":0,"width":0,"video":"","sort":100,"version":0,"cover2":"","appkey":"init","duration":1,"extra":{},"polyglot":{"en":"Numerical Code15"},"category":"18667485,","audit":0,"is_ugc":0,"type":"audio"},{"id":"1005641","ufid":"49472488","name":"Numerical Code14","file":"http:\/\/rdfile.oss-cn-hangzhou.aliyuncs.com\/filemanage\/init\/audio\/61\/999e8709c93c14e76e3a94f134b8baed\/a5bb220f00dafd4c12dae2a00b37b9a1.mp3?nonce=cfcd208495d565ef66e7dff9f98764da","cover":"","updatetime":"0","height":0,"width":0,"video":"","sort":100,"version":0,"cover2":"","appkey":"init","duration":1,"extra":{},"polyglot":{"en":"Numerical Code14"},"category":"18667485,","audit":0,"is_ugc":0,"type":"audio"},{"id":"1005640","ufid":"10917705","name":"Numerical Code13","file":"http:\/\/rdfile.oss-cn-hangzhou.aliyuncs.com\/filemanage\/init\/audio\/61\/fc7185f279171bc013170643de51d41d\/2a854bf7b2e8c38642535208d04b860c.mp3?nonce=cfcd208495d565ef66e7dff9f98764da","cover":"","updatetime":"0","height":0,"width":0,"video":"","sort":100,"version":0,"cover2":"","appkey":"init","duration":1,"extra":{},"polyglot":{"en":"Numerical Code13"},"category":"18667485,","audit":0,"is_ugc":0,"type":"audio"},{"id":"1005639","ufid":"23516112","name":"Numerical Code12","file":"http:\/\/rdfile.oss-cn-hangzhou.aliyuncs.com\/filemanage\/init\/audio\/61\/25df0847b40ef87d32fb961d3f602398\/ec6d49c8bb9e4c6ccb3762bd51e26588.mp3?nonce=cfcd208495d565ef66e7dff9f98764da","cover":"","updatetime":"0","height":0,"width":0,"video":"","sort":100,"version":0,"cover2":"","appkey":"init","duration":1,"extra":{},"polyglot":{"en":"Numerical Code12"},"category":"18667485,","audit":0,"is_ugc":0,"type":"audio"},{"id":"1005638","ufid":"12803612","name":"Numerical Code11","file":"http:\/\/rdfile.oss-cn-hangzhou.aliyuncs.com\/filemanage\/init\/audio\/61\/91a279429d937bfca6887ec6c7af0b76\/69d8d3573141c896eb02168f93a6c256.mp3?nonce=cfcd208495d565ef66e7dff9f98764da","cover":"","updatetime":"0","height":0,"width":0,"video":"","sort":100,"version":0,"cover2":"","appkey":"init","duration":1,"extra":{},"polyglot":{"en":"Numerical Code11"},"category":"18667485,","audit":0,"is_ugc":0,"type":"audio"},{"id":"1005637","ufid":"54276491","name":"Numerical Code10","file":"http:\/\/rdfile.oss-cn-hangzhou.aliyuncs.com\/filemanage\/init\/audio\/61\/56e9c2979f4fa9508f22ef34074857fe\/6d6a4e4f918bd7fffb83236b9a15b608.mp3?nonce=cfcd208495d565ef66e7dff9f98764da","cover":"","updatetime":"0","height":0,"width":0,"video":"","sort":100,"version":0,"cover2":"","appkey":"init","duration":1,"extra":{},"polyglot":{"en":"Numerical Code10"},"category":"18667485,","audit":0,"is_ugc":0,"type":"audio"},{"id":"1005636","ufid":"65605565","name":"Numerical Code9","file":"http:\/\/rdfile.oss-cn-hangzhou.aliyuncs.com\/filemanage\/init\/audio\/61\/05b7986aa8068bc244039460993bd327\/3ad4d63b062b40de330714ea91d9c5fc.mp3?nonce=cfcd208495d565ef66e7dff9f98764da","cover":"","updatetime":"0","height":0,"width":0,"video":"","sort":100,"version":0,"cover2":"","appkey":"init","duration":1,"extra":{},"polyglot":{"en":"Numerical Code9"},"category":"18667485,","audit":0,"is_ugc":0,"type":"audio"},{"id":"1005635","ufid":"83278767","name":"Numerical Code8","file":"http:\/\/rdfile.oss-cn-hangzhou.aliyuncs.com\/filemanage\/init\/audio\/61\/b2401d57d065b676ec72f45e7e27d0ac\/583aed3c013b00381f4208d8b31bf8f1.mp3?nonce=cfcd208495d565ef66e7dff9f98764da","cover":"","updatetime":"0","height":0,"width":0,"video":"","sort":100,"version":0,"cover2":"","appkey":"init","duration":1,"extra":{},"polyglot":{"en":"Numerical Code8"},"category":"18667485,","audit":0,"is_ugc":0,"type":"audio"},{"id":"1005634","ufid":"77823222","name":"Numerical Code7","file":"http:\/\/rdfile.oss-cn-hangzhou.aliyuncs.com\/filemanage\/init\/audio\/61\/01aab875e85726078b37bc63498aa959\/f426fefe33c55fbbd3267806706466f3.mp3?nonce=cfcd208495d565ef66e7dff9f98764da","cover":"","updatetime":"0","height":0,"width":0,"video":"","sort":100,"version":0,"cover2":"","appkey":"init","duration":1,"extra":{},"polyglot":{"en":"Numerical Code7"},"category":"18667485,","audit":0,"is_ugc":0,"type":"audio"},{"id":"1005633","ufid":"17982135","name":"Numerical Code6","file":"http:\/\/rdfile.oss-cn-hangzhou.aliyuncs.com\/filemanage\/init\/audio\/61\/14d0103643826734de796c98a237f4c4\/0b876c30374a6f40b0d19a7c84b6c56d.mp3?nonce=cfcd208495d565ef66e7dff9f98764da","cover":"","updatetime":"0","height":0,"width":0,"video":"","sort":100,"version":0,"cover2":"","appkey":"init","duration":1,"extra":{},"polyglot":{"en":"Numerical Code6"},"category":"18667485,","audit":0,"is_ugc":0,"type":"audio"}]}}