{"code":0,"msg":"success","data":{"total":37,"per_page":20,"current_page":2,"last_page":2,"data":[{"id":"1005542","ufid":"24622055","name":"Explode5","file":"http:\/\/rdfile.oss-cn-hangzhou.aliyuncs.com\/filemanage\/init\/audio\/57\/30aad50c36303d37f9a241782da0989e\/430c35d9d740a953690ed4892b05c1e1.mp3?nonce=8fbaf309eddc9dcb29681286db8d3a63","cover":"","updatetime":"1697698036","height":0,"width":0,"video":"","sort":100,"version":0,"cover2":"","appkey":"init","duration":1,"extra":{},"polyglot":{"en":"Explode5"},"category":"19658557,","audit":0,"is_ugc":0,"type":"audio"},{"id":"1005541","ufid":"73894305","name":"Explode4","file":"http:\/\/rdfile.oss-cn-hangzhou.aliyuncs.com\/filemanage\/init\/audio\/57\/920eef8d2e1c76806bd6decf31b8e3aa\/ceab03df8cb491bb65762df91cc3fe86.mp3?nonce=8fbaf309eddc9dcb29681286db8d3a63","cover":"","updatetime":"1697698036","height":0,"width":0,"video":"","sort":100,"version":0,"cover2":"","appkey":"init","duration":3,"extra":{},"polyglot":{"en":"Explode4"},"category":"19658557,","audit":0,"is_ugc":0,"type":"audio"},{"id":"1005540","ufid":"27798818","name":"Explode3","file":"http:\/\/rdfile.oss-cn-hangzhou.aliyuncs.com\/filemanage\/init\/audio\/57\/453e97f81461ef07728d9a8c35466345\/2c9a28e67ba750fd4f0ccd2731e2dc66.mp3?nonce=8fbaf309eddc9dcb29681286db8d3a63","cover":"","updatetime":"1697698036","height":0,"width":0,"video":"","sort":100,"version":0,"cover2":"","appkey":"init","duration":2,"extra":{},"polyglot":{"en":"Explode3"},"category":"19658557,","audit":0,"is_ugc":0,"type":"audio"},{"id":"1005539","ufid":"61695263","name":"Explode2","file":"http:\/\/rdfile.oss-cn-hangzhou.aliyuncs.com\/filemanage\/init\/audio\/57\/fbc02fe292895f553982ed1d375199b5\/b77cbac22de8bc2b3531368a9ba8eb8b.mp3?nonce=8fbaf309eddc9dcb29681286db8d3a63","cover":"","updatetime":"1697698036","height":0,"width":0,"video":"","sort":100,"version":0,"cover2":"","appkey":"init","duration":2,"extra":{},"polyglot":{"en":"Explode2"},"category":"19658557,","audit":0,"is_ugc":0,"type":"audio"},{"id":"1005538","ufid":"30552785","name":"Explode1","file":"http:\/\/rdfile.oss-cn-hangzhou.aliyuncs.com\/filemanage\/init\/audio\/57\/32b299d11aa767d02df03f9e8c53d88a\/0698b58ee3717400e56b4353179110a3.mp3?nonce=6fd4ebf9bf8de63e099a55e5ea6c0764","cover":"","updatetime":"1697698035","height":0,"width":0,"video":"","sort":100,"version":0,"cover2":"","appkey":"init","duration":3,"extra":{},"polyglot":{"en":"Explode1"},"category":"19658557,","audit":0,"is_ugc":0,"type":"audio"},{"id":"1005537","ufid":"88167109","name":"Water5","file":"http:\/\/rdfile.oss-cn-hangzhou.aliyuncs.com\/filemanage\/init\/audio\/57\/314a5f0da27793dd17af49dddad55681\/d7eee6426e05bf093b8169a35ec64c71.mp3?nonce=a68d08c6afa80a698118a96630c73e03","cover":"","updatetime":"1697698044","height":0,"width":0,"video":"","sort":100,"version":0,"cover2":"","appkey":"init","duration":2,"extra":{},"polyglot":{"en":"Water5"},"category":"19658557,","audit":0,"is_ugc":0,"type":"audio"},{"id":"1005536","ufid":"52742786","name":"Water4","file":"http:\/\/rdfile.oss-cn-hangzhou.aliyuncs.com\/filemanage\/init\/audio\/57\/e224c648e3b4de3d58cbd4b04ebbc74f\/e045adff32af983a4f74abfbb2531243.mp3?nonce=a68d08c6afa80a698118a96630c73e03","cover":"","updatetime":"1697698044","height":0,"width":0,"video":"","sort":100,"version":0,"cover2":"","appkey":"init","duration":2,"extra":{},"polyglot":{"en":"Water4"},"category":"19658557,","audit":0,"is_ugc":0,"type":"audio"},{"id":"1005535","ufid":"90408670","name":"Water3","file":"http:\/\/rdfile.oss-cn-hangzhou.aliyuncs.com\/filemanage\/init\/audio\/57\/b11544837ba26e73c145feb62dc4c8f2\/e6e6add64f278f5624c0521ae2244617.mp3?nonce=90881307a60f7cba79497deabbdb4981","cover":"","updatetime":"1697698043","height":0,"width":0,"video":"","sort":100,"version":0,"cover2":"","appkey":"init","duration":4,"extra":{},"polyglot":{"en":"Water3"},"category":"19658557,","audit":0,"is_ugc":0,"type":"audio"},{"id":"1005534","ufid":"80104045","name":"Water2","file":"http:\/\/rdfile.oss-cn-hangzhou.aliyuncs.com\/filemanage\/init\/audio\/57\/9f610b8579336ac7289388f82c136c18\/246bac7438522204a63f051c887debf3.mp3?nonce=90881307a60f7cba79497deabbdb4981","cover":"","updatetime":"1697698043","height":0,"width":0,"video":"","sort":100,"version":0,"cover2":"","appkey":"init","duration":3,"extra":{},"polyglot":{"en":"Water2"},"category":"19658557,","audit":0,"is_ugc":0,"type":"audio"},{"id":"1005533","ufid":"33483650","name":"Water1","file":"http:\/\/rdfile.oss-cn-hangzhou.aliyuncs.com\/filemanage\/init\/audio\/57\/2b6ed2cab53e5efd54018557b1f7e528\/963015747455e10f15ea7ac5ea9687d2.mp3?nonce=90881307a60f7cba79497deabbdb4981","cover":"","updatetime":"1697698043","height":0,"width":0,"video":"","sort":100,"version":0,"cover2":"","appkey":"init","duration":2,"extra":{},"polyglot":{"en":"Water1"},"category":"19658557,","audit":0,"is_ugc":0,"type":"audio"},{"id":"1005532","ufid":"29903568","name":"Car7","file":"http:\/\/rdfile.oss-cn-hangzhou.aliyuncs.com\/filemanage\/init\/audio\/57\/b1cab5126bb17519cba52f574c4a0af6\/0d4e9a7ede998569a1aa4b1e0abaf3ba.mp3?nonce=64917309dfa683b97b03d47d7437058e","cover":"","updatetime":"1697698039","height":0,"width":0,"video":"","sort":100,"version":0,"cover2":"","appkey":"init","duration":4,"extra":{},"polyglot":{"en":"Car7"},"category":"19658557,","audit":0,"is_ugc":0,"type":"audio"},{"id":"1005531","ufid":"48659540","name":"Car6","file":"http:\/\/rdfile.oss-cn-hangzhou.aliyuncs.com\/filemanage\/init\/audio\/57\/b25a645eea2177b98e1bbe977045c281\/447f83b590aa03e9592b3bb3d98a55a7.mp3?nonce=3fbce0f3f80231a706552bb9c102ac6a","cover":"","updatetime":"1697698038","height":0,"width":0,"video":"","sort":100,"version":0,"cover2":"","appkey":"init","duration":3,"extra":{},"polyglot":{"en":"Car6"},"category":"19658557,","audit":0,"is_ugc":0,"type":"audio"},{"id":"1005530","ufid":"36734181","name":"Car5","file":"http:\/\/rdfile.oss-cn-hangzhou.aliyuncs.com\/filemanage\/init\/audio\/57\/044891c05be0afd1059fee191b3e9d01\/c16525ddbb1aee903dff46469f8f7923.mp3?nonce=3fbce0f3f80231a706552bb9c102ac6a","cover":"","updatetime":"1697698038","height":0,"width":0,"video":"","sort":100,"version":0,"cover2":"","appkey":"init","duration":1,"extra":{},"polyglot":{"en":"Car5"},"category":"19658557,","audit":0,"is_ugc":0,"type":"audio"},{"id":"1005529","ufid":"35735080","name":"Car4","file":"http:\/\/rdfile.oss-cn-hangzhou.aliyuncs.com\/filemanage\/init\/audio\/57\/2199cf8d12978f4d838cb853ec5a806f\/a08789916cf6dd4cdc162086af975d3f.mp3?nonce=3fbce0f3f80231a706552bb9c102ac6a","cover":"","updatetime":"1697698038","height":0,"width":0,"video":"","sort":100,"version":0,"cover2":"","appkey":"init","duration":2,"extra":{},"polyglot":{"en":"Car4"},"category":"19658557,","audit":0,"is_ugc":0,"type":"audio"},{"id":"1005528","ufid":"63595705","name":"Car3","file":"http:\/\/rdfile.oss-cn-hangzhou.aliyuncs.com\/filemanage\/init\/audio\/57\/495b32bf6a841deab42141c14a19e971\/0d6e8f20b6f55ab688d1f1a1312fe4be.mp3?nonce=3fbce0f3f80231a706552bb9c102ac6a","cover":"","updatetime":"1697698038","height":0,"width":0,"video":"","sort":100,"version":0,"cover2":"","appkey":"init","duration":2,"extra":{},"polyglot":{"en":"Car3"},"category":"19658557,","audit":0,"is_ugc":0,"type":"audio"},{"id":"1005527","ufid":"46669142","name":"Car2","file":"http:\/\/rdfile.oss-cn-hangzhou.aliyuncs.com\/filemanage\/init\/audio\/57\/066c1bbb6a1e36b4bcc75e5cc0317e9c\/ee15b6ea4e8b7d08f3469d12e5d2334b.mp3?nonce=3fbce0f3f80231a706552bb9c102ac6a","cover":"","updatetime":"1697698038","height":0,"width":0,"video":"","sort":100,"version":0,"cover2":"","appkey":"init","duration":4,"extra":{},"polyglot":{"en":"Car2"},"category":"19658557,","audit":0,"is_ugc":0,"type":"audio"},{"id":"1005526","ufid":"25263643","name":"Car1","file":"http:\/\/rdfile.oss-cn-hangzhou.aliyuncs.com\/filemanage\/init\/audio\/57\/3d267cea6c5ce86c6989bba9d768cb38\/9c2cbe294c391e05190a0d21b54711f2.mp3?nonce=76441b7b6a915a63cefed24928d6e30c","cover":"","updatetime":"1697698037","height":0,"width":0,"video":"","sort":100,"version":0,"cover2":"","appkey":"init","duration":5,"extra":{},"polyglot":{"en":"Car1"},"category":"19658557,","audit":0,"is_ugc":0,"type":"audio"}]}}