{"code":0,"msg":"success","data":{"total":23,"per_page":20,"current_page":2,"last_page":2,"data":[{"id":"1024692","ufid":"64251190","name":"\u7206\u7b11","file":"http:\/\/rdfile.oss-cn-hangzhou.aliyuncs.com\/filemanage\/init\/audio\/64251190.mp3?nonce=a2729093546ccd5572262e5b038804ad","cover":"","updatetime":"1697698064","height":0,"width":0,"video":"","sort":0,"version":157,"cover2":"","appkey":"init","duration":2,"extra":{},"polyglot":[],"category":"24597384,","audit":0,"is_ugc":0,"type":"audio"},{"id":"1024691","ufid":"18579704","name":"\u5df4\u638c","file":"http:\/\/rdfile.oss-cn-hangzhou.aliyuncs.com\/filemanage\/init\/audio\/18579704.mp3?nonce=a2729093546ccd5572262e5b038804ad","cover":"","updatetime":"1697698064","height":0,"width":0,"video":"","sort":0,"version":157,"cover2":"","appkey":"init","duration":1,"extra":{},"polyglot":[],"category":"24597384,","audit":0,"is_ugc":0,"type":"audio"},{"id":"1024690","ufid":"81544030","name":"\u4ffa\u8001\u5b59\u6765\u4e5f\u5b59\u609f\u7a7a\u7334\u54e5","file":"http:\/\/rdfile.oss-cn-hangzhou.aliyuncs.com\/filemanage\/init\/audio\/81544030.mp3?nonce=a2729093546ccd5572262e5b038804ad","cover":"","updatetime":"1697698064","height":0,"width":0,"video":"","sort":0,"version":157,"cover2":"","appkey":"init","duration":16,"extra":{},"polyglot":[],"category":"24597384,","audit":0,"is_ugc":0,"type":"audio"}]}}