{"code":0,"msg":"success","data":{"total":143,"per_page":20,"current_page":2,"last_page":8,"data":[{"id":"1024519","ufid":"88186258","name":"\u54d4-\u9ad8\u97f3","file":"http:\/\/rdfile.oss-cn-hangzhou.aliyuncs.com\/filemanage\/init\/audio\/88186258.mp3?nonce=36643e594e28ec006508859e4e5aa143","cover":"","updatetime":"1697698311","height":0,"width":0,"video":"","sort":0,"version":157,"cover2":"","appkey":"init","duration":1,"extra":{},"polyglot":[],"category":"27108401,","audit":0,"is_ugc":0,"type":"audio"},{"id":"1024518","ufid":"61605184","name":"\u549a","file":"http:\/\/rdfile.oss-cn-hangzhou.aliyuncs.com\/filemanage\/init\/audio\/61605184.mp3?nonce=36643e594e28ec006508859e4e5aa143","cover":"","updatetime":"1697698311","height":0,"width":0,"video":"","sort":0,"version":157,"cover2":"","appkey":"init","duration":1,"extra":{},"polyglot":[],"category":"27108401,","audit":0,"is_ugc":0,"type":"audio"},{"id":"1024517","ufid":"86235515","name":"\u5471","file":"http:\/\/rdfile.oss-cn-hangzhou.aliyuncs.com\/filemanage\/init\/audio\/86235515.mp3?nonce=ccff5727d009dcd4da5c3f64beff12e7","cover":"","updatetime":"1697698310","height":0,"width":0,"video":"","sort":0,"version":157,"cover2":"","appkey":"init","duration":1,"extra":{},"polyglot":[],"category":"27108401,","audit":0,"is_ugc":0,"type":"audio"},{"id":"1024516","ufid":"65909943","name":"\u8d70\u8def--\u9ad8\u8ddf\u978b","file":"http:\/\/rdfile.oss-cn-hangzhou.aliyuncs.com\/filemanage\/init\/audio\/65909943.mp3?nonce=ccff5727d009dcd4da5c3f64beff12e7","cover":"","updatetime":"1697698310","height":0,"width":0,"video":"","sort":0,"version":157,"cover2":"","appkey":"init","duration":19,"extra":{},"polyglot":[],"category":"27108401,","audit":0,"is_ugc":0,"type":"audio"},{"id":"1024515","ufid":"22240322","name":"\u7efc\u827a duil \u4e00\u60ca","file":"http:\/\/rdfile.oss-cn-hangzhou.aliyuncs.com\/filemanage\/init\/audio\/22240322.mp3?nonce=ccff5727d009dcd4da5c3f64beff12e7","cover":"","updatetime":"1697698310","height":0,"width":0,"video":"","sort":0,"version":157,"cover2":"","appkey":"init","duration":1,"extra":{},"polyglot":[],"category":"27108401,","audit":0,"is_ugc":0,"type":"audio"},{"id":"1024514","ufid":"78260054","name":"\u81ea\u95ed","file":"http:\/\/rdfile.oss-cn-hangzhou.aliyuncs.com\/filemanage\/init\/audio\/78260054.mp3?nonce=ccff5727d009dcd4da5c3f64beff12e7","cover":"","updatetime":"1697698310","height":0,"width":0,"video":"","sort":0,"version":157,"cover2":"","appkey":"init","duration":4,"extra":{},"polyglot":[],"category":"27108401,","audit":0,"is_ugc":0,"type":"audio"},{"id":"1024513","ufid":"66212371","name":"\u771f\u5b9e\u62f3\u51fb\u58f0","file":"http:\/\/rdfile.oss-cn-hangzhou.aliyuncs.com\/filemanage\/init\/audio\/66212371.mp3?nonce=d14a17621e08d2c783c521dc12c40912","cover":"","updatetime":"1697698309","height":0,"width":0,"video":"","sort":0,"version":157,"cover2":"","appkey":"init","duration":1,"extra":{},"polyglot":[],"category":"27108401,","audit":0,"is_ugc":0,"type":"audio"},{"id":"1024512","ufid":"19499505","name":"\u8fd9\u79cd\u5446\u50bb\u7684\u5b69\u5b50","file":"http:\/\/rdfile.oss-cn-hangzhou.aliyuncs.com\/filemanage\/init\/audio\/19499505.mp3?nonce=d14a17621e08d2c783c521dc12c40912","cover":"","updatetime":"1697698309","height":0,"width":0,"video":"","sort":0,"version":157,"cover2":"","appkey":"init","duration":10,"extra":{},"polyglot":[],"category":"27108401,","audit":0,"is_ugc":0,"type":"audio"},{"id":"1024511","ufid":"39132770","name":"\u71e5\u70b8-\u5bfc\u5f39\u7206\u70b8","file":"http:\/\/rdfile.oss-cn-hangzhou.aliyuncs.com\/filemanage\/init\/audio\/39132770.mp3?nonce=1551b0dbce65f9be596ccd1fe17a18bb","cover":"","updatetime":"1697698308","height":0,"width":0,"video":"","sort":0,"version":157,"cover2":"","appkey":"init","duration":4,"extra":{},"polyglot":[],"category":"27108401,","audit":0,"is_ugc":0,"type":"audio"},{"id":"1024510","ufid":"69675307","name":"\u7591\u60d1","file":"http:\/\/rdfile.oss-cn-hangzhou.aliyuncs.com\/filemanage\/init\/audio\/69675307.mp3?nonce=1551b0dbce65f9be596ccd1fe17a18bb","cover":"","updatetime":"1697698308","height":0,"width":0,"video":"","sort":0,"version":157,"cover2":"","appkey":"init","duration":3,"extra":{},"polyglot":[],"category":"27108401,","audit":0,"is_ugc":0,"type":"audio"},{"id":"1024509","ufid":"31029420","name":"\u7237\u4eec\u513f\u8981\u6218\u6597","file":"http:\/\/rdfile.oss-cn-hangzhou.aliyuncs.com\/filemanage\/init\/audio\/31029420.mp3?nonce=1551b0dbce65f9be596ccd1fe17a18bb","cover":"","updatetime":"1697698308","height":0,"width":0,"video":"","sort":0,"version":157,"cover2":"","appkey":"init","duration":8,"extra":{},"polyglot":[],"category":"27108401,","audit":0,"is_ugc":0,"type":"audio"},{"id":"1024508","ufid":"47718451","name":"\u5440\uff01","file":"http:\/\/rdfile.oss-cn-hangzhou.aliyuncs.com\/filemanage\/init\/audio\/47718451.mp3?nonce=1551b0dbce65f9be596ccd1fe17a18bb","cover":"","updatetime":"1697698308","height":0,"width":0,"video":"","sort":0,"version":157,"cover2":"","appkey":"init","duration":1,"extra":{},"polyglot":[],"category":"27108401,","audit":0,"is_ugc":0,"type":"audio"},{"id":"1024507","ufid":"41963521","name":"\u60ac\u7591 \u7ecf\u5178","file":"http:\/\/rdfile.oss-cn-hangzhou.aliyuncs.com\/filemanage\/init\/audio\/41963521.mp3?nonce=a0c5ff7cd9c7bde127ade3d29f98ba6a","cover":"","updatetime":"1697698307","height":0,"width":0,"video":"","sort":0,"version":157,"cover2":"","appkey":"init","duration":3,"extra":{},"polyglot":[],"category":"27108401,","audit":0,"is_ugc":0,"type":"audio"},{"id":"1024506","ufid":"44818055","name":"\u718a\u51fa\u6ca1","file":"http:\/\/rdfile.oss-cn-hangzhou.aliyuncs.com\/filemanage\/init\/audio\/44818055.mp3?nonce=a0c5ff7cd9c7bde127ade3d29f98ba6a","cover":"","updatetime":"1697698307","height":0,"width":0,"video":"","sort":0,"version":157,"cover2":"","appkey":"init","duration":13,"extra":{},"polyglot":[],"category":"27108401,","audit":0,"is_ugc":0,"type":"audio"},{"id":"1024505","ufid":"79874064","name":"\u8c22\u8c22\u4f60\uff0c\u6211\u9634\u6697\u4e16\u754c\u91cc\u7684\u5c0f\u592a\u9633","file":"http:\/\/rdfile.oss-cn-hangzhou.aliyuncs.com\/filemanage\/init\/audio\/79874064.mp3?nonce=a0c5ff7cd9c7bde127ade3d29f98ba6a","cover":"","updatetime":"1697698307","height":0,"width":0,"video":"","sort":0,"version":157,"cover2":"","appkey":"init","duration":9,"extra":{},"polyglot":[],"category":"27108401,","audit":0,"is_ugc":0,"type":"audio"},{"id":"1024504","ufid":"69975890","name":"\u5c0f\u98de\u68cd\u6765\u54af","file":"http:\/\/rdfile.oss-cn-hangzhou.aliyuncs.com\/filemanage\/init\/audio\/69975890.mp3?nonce=b5dc036a0141a8904034a2dc73fb9d1a","cover":"","updatetime":"1697698306","height":0,"width":0,"video":"","sort":0,"version":157,"cover2":"","appkey":"init","duration":2,"extra":{},"polyglot":[],"category":"27108401,","audit":0,"is_ugc":0,"type":"audio"},{"id":"1024503","ufid":"46633757","name":"\u6a61\u80f6\u9e2d\u5b50","file":"http:\/\/rdfile.oss-cn-hangzhou.aliyuncs.com\/filemanage\/init\/audio\/46633757.mp3?nonce=b5dc036a0141a8904034a2dc73fb9d1a","cover":"","updatetime":"1697698306","height":0,"width":0,"video":"","sort":0,"version":157,"cover2":"","appkey":"init","duration":1,"extra":{},"polyglot":[],"category":"27108401,","audit":0,"is_ugc":0,"type":"audio"},{"id":"1024502","ufid":"12090076","name":"\u559c\u4e4b\u90ce \u6765\u4e00\u4e2a","file":"http:\/\/rdfile.oss-cn-hangzhou.aliyuncs.com\/filemanage\/init\/audio\/12090076.mp3?nonce=b5dc036a0141a8904034a2dc73fb9d1a","cover":"","updatetime":"1697698306","height":0,"width":0,"video":"","sort":0,"version":157,"cover2":"","appkey":"init","duration":13,"extra":{},"polyglot":[],"category":"27108401,","audit":0,"is_ugc":0,"type":"audio"},{"id":"1024501","ufid":"21468891","name":"\u897f\u516b\u6bb5\u5b50","file":"http:\/\/rdfile.oss-cn-hangzhou.aliyuncs.com\/filemanage\/init\/audio\/21468891.mp3?nonce=b5dc036a0141a8904034a2dc73fb9d1a","cover":"","updatetime":"1697698306","height":0,"width":0,"video":"","sort":0,"version":157,"cover2":"","appkey":"init","duration":6,"extra":{},"polyglot":[],"category":"27108401,","audit":0,"is_ugc":0,"type":"audio"},{"id":"1024500","ufid":"74071513","name":"\u6211\u662f\u8001\u516d","file":"http:\/\/rdfile.oss-cn-hangzhou.aliyuncs.com\/filemanage\/init\/audio\/74071513.mp3?nonce=b5dc036a0141a8904034a2dc73fb9d1a","cover":"","updatetime":"1697698306","height":0,"width":0,"video":"","sort":0,"version":157,"cover2":"","appkey":"init","duration":3,"extra":{},"polyglot":[],"category":"27108401,","audit":0,"is_ugc":0,"type":"audio"}]}}