{"code":0,"msg":"success","data":{"total":41,"per_page":20,"current_page":2,"last_page":3,"data":[{"id":"1023986","ufid":"81967097","name":"\u4f60\u53c9\u53c9","file":"http:\/\/rdfile.oss-cn-hangzhou.aliyuncs.com\/filemanage\/init\/audio\/81967097.mp3?nonce=3b52684479be1c34b53e3a7b00139a53","cover":"","updatetime":"1697698178","height":0,"width":0,"video":"","sort":0,"version":157,"cover2":"","appkey":"init","duration":59,"extra":{},"polyglot":[],"category":"31129794,","audit":0,"is_ugc":0,"type":"audio"},{"id":"1023985","ufid":"99674102","name":"\u76ee\u529b\u5148\u8f88\u5486\u54ee","file":"http:\/\/rdfile.oss-cn-hangzhou.aliyuncs.com\/filemanage\/init\/audio\/99674102.mp3?nonce=693635ab6c72c94dc74f264d54fc1d68","cover":"","updatetime":"1697698296","height":0,"width":0,"video":"","sort":0,"version":157,"cover2":"","appkey":"init","duration":13,"extra":{},"polyglot":[],"category":"31129794,","audit":0,"is_ugc":0,"type":"audio"},{"id":"1023984","ufid":"60820389","name":"\u7f57\u7fd4 \u8fd9\u662f\u56db\u516d\u7ea7\u590d\u4e60\u6750\u6599","file":"http:\/\/rdfile.oss-cn-hangzhou.aliyuncs.com\/filemanage\/init\/audio\/60820389.mp3?nonce=796a1d380ce072b500be909beb310243","cover":"","updatetime":"1697698177","height":0,"width":0,"video":"","sort":0,"version":157,"cover2":"","appkey":"init","duration":44,"extra":{},"polyglot":[],"category":"31129794,","audit":0,"is_ugc":0,"type":"audio"},{"id":"1023983","ufid":"16746863","name":"\u7f57\u7fd4 \u540c\u65f6\u548c\u516b\u4e2a\u7537\u4eba\u7ed3\u5a5a","file":"http:\/\/rdfile.oss-cn-hangzhou.aliyuncs.com\/filemanage\/init\/audio\/16746863.mp3?nonce=796a1d380ce072b500be909beb310243","cover":"","updatetime":"1697698177","height":0,"width":0,"video":"","sort":0,"version":157,"cover2":"","appkey":"init","duration":16,"extra":{},"polyglot":[],"category":"31129794,","audit":0,"is_ugc":0,"type":"audio"},{"id":"1023982","ufid":"40455084","name":"\u7f57\u7fd4 \u5979\u662f\u4e00\u4e2a\u9634\u9633\u4eba","file":"http:\/\/rdfile.oss-cn-hangzhou.aliyuncs.com\/filemanage\/init\/audio\/40455084.mp3?nonce=796a1d380ce072b500be909beb310243","cover":"","updatetime":"1697698177","height":0,"width":0,"video":"","sort":0,"version":157,"cover2":"","appkey":"init","duration":6,"extra":{},"polyglot":[],"category":"31129794,","audit":0,"is_ugc":0,"type":"audio"},{"id":"1023981","ufid":"93381146","name":"\u7f57\u7fd4 \u6bcf\u4e00\u4e2a\u4eba\u90fd\u62e5\u6709","file":"http:\/\/rdfile.oss-cn-hangzhou.aliyuncs.com\/filemanage\/init\/audio\/93381146.mp3?nonce=796a1d380ce072b500be909beb310243","cover":"","updatetime":"1697698177","height":0,"width":0,"video":"","sort":0,"version":157,"cover2":"","appkey":"init","duration":59,"extra":{},"polyglot":[],"category":"31129794,","audit":0,"is_ugc":0,"type":"audio"},{"id":"1023980","ufid":"99564281","name":"\u7f57\u7fd4 \u5feb\u997f\u6b7b\u4e86\u5403\u5927\u718a\u732b","file":"http:\/\/rdfile.oss-cn-hangzhou.aliyuncs.com\/filemanage\/init\/audio\/99564281.mp3?nonce=16feee742222b444f5ad13dae517ed67","cover":"","updatetime":"1697698176","height":0,"width":0,"video":"","sort":0,"version":157,"cover2":"","appkey":"init","duration":19,"extra":{},"polyglot":[],"category":"31129794,","audit":0,"is_ugc":0,"type":"audio"},{"id":"1023979","ufid":"69509831","name":"\u7ec3\u4e60\u65f6\u957f\u4e24\u5e74\u534a","file":"http:\/\/rdfile.oss-cn-hangzhou.aliyuncs.com\/filemanage\/init\/audio\/69509831.mp3?nonce=16feee742222b444f5ad13dae517ed67","cover":"","updatetime":"1697698176","height":0,"width":0,"video":"","sort":0,"version":157,"cover2":"","appkey":"init","duration":58,"extra":{},"polyglot":[],"category":"31129794,","audit":0,"is_ugc":0,"type":"audio"},{"id":"1023978","ufid":"48337900","name":"\u8001\u592a\u592aBoom","file":"http:\/\/rdfile.oss-cn-hangzhou.aliyuncs.com\/filemanage\/init\/audio\/48337900.mp3?nonce=294a71b3bbefc7a8ae8c837085ef00b1","cover":"","updatetime":"1697698294","height":0,"width":0,"video":"","sort":0,"version":157,"cover2":"","appkey":"init","duration":6,"extra":{},"polyglot":[],"category":"31129794,","audit":0,"is_ugc":0,"type":"audio"},{"id":"1023977","ufid":"36391039","name":"\u5f00\u73a9\u7b11\uff0c\u6211\u8d85\u52c7\u7684","file":"http:\/\/rdfile.oss-cn-hangzhou.aliyuncs.com\/filemanage\/init\/audio\/36391039.mp3?nonce=16feee742222b444f5ad13dae517ed67","cover":"","updatetime":"1697698176","height":0,"width":0,"video":"","sort":0,"version":157,"cover2":"","appkey":"init","duration":3,"extra":{},"polyglot":[],"category":"31129794,","audit":0,"is_ugc":0,"type":"audio"},{"id":"1023976","ufid":"66683131","name":"\u6770\u54e5\u4e0d\u8981\u5566-\u539f\u7248","file":"http:\/\/rdfile.oss-cn-hangzhou.aliyuncs.com\/filemanage\/init\/audio\/66683131.mp3?nonce=8c7c5ba8eb197bc0dc811a4340be75a9","cover":"","updatetime":"1697698175","height":0,"width":0,"video":"","sort":0,"version":157,"cover2":"","appkey":"init","duration":137,"extra":{},"polyglot":[],"category":"31129794,","audit":0,"is_ugc":0,"type":"audio"},{"id":"1023975","ufid":"61756639","name":"\u6770\u54e5\uff0c\u4e0d\u8981\u5566","file":"http:\/\/rdfile.oss-cn-hangzhou.aliyuncs.com\/filemanage\/init\/audio\/61756639.mp3?nonce=8c7c5ba8eb197bc0dc811a4340be75a9","cover":"","updatetime":"1697698175","height":0,"width":0,"video":"","sort":0,"version":157,"cover2":"","appkey":"init","duration":2,"extra":{},"polyglot":[],"category":"31129794,","audit":0,"is_ugc":0,"type":"audio"},{"id":"1023974","ufid":"74602764","name":"\u9e21\u6c64\u6765\u54af","file":"http:\/\/rdfile.oss-cn-hangzhou.aliyuncs.com\/filemanage\/init\/audio\/74602764.mp3?nonce=3f711896c69f6ae58503040abfc42e01","cover":"","updatetime":"1697698291","height":0,"width":0,"video":"","sort":0,"version":157,"cover2":"","appkey":"init","duration":12,"extra":{},"polyglot":[],"category":"31129794,","audit":0,"is_ugc":0,"type":"audio"},{"id":"1023973","ufid":"97785751","name":"\u54c8\u5229\u6ce2\u7279\u9a91\u7740\u626b\u5e1a\u98de","file":"http:\/\/rdfile.oss-cn-hangzhou.aliyuncs.com\/filemanage\/init\/audio\/97785751.mp3?nonce=8c7c5ba8eb197bc0dc811a4340be75a9","cover":"","updatetime":"1697698175","height":0,"width":0,"video":"","sort":0,"version":157,"cover2":"","appkey":"init","duration":60,"extra":{},"polyglot":[],"category":"31129794,","audit":0,"is_ugc":0,"type":"audio"},{"id":"1023972","ufid":"62105810","name":"\u53d1\u751f\u4ec0\u4e48\u4e8b\u4e86","file":"http:\/\/rdfile.oss-cn-hangzhou.aliyuncs.com\/filemanage\/init\/audio\/62105810.mp3?nonce=155ac8336942e2d6ed3a763035885b94","cover":"","updatetime":"1697698286","height":0,"width":0,"video":"","sort":0,"version":157,"cover2":"","appkey":"init","duration":30,"extra":{},"polyglot":[],"category":"31129794,","audit":0,"is_ugc":0,"type":"audio"},{"id":"1023971","ufid":"12287375","name":"\u66f9\u64cd","file":"http:\/\/rdfile.oss-cn-hangzhou.aliyuncs.com\/filemanage\/init\/audio\/12287375.mp3?nonce=9baf2619199ca91097d7eb0f03f7ef45","cover":"","updatetime":"1697698174","height":0,"width":0,"video":"","sort":0,"version":157,"cover2":"","appkey":"init","duration":96,"extra":{},"polyglot":[],"category":"31129794,","audit":0,"is_ugc":0,"type":"audio"},{"id":"1023970","ufid":"49262468","name":"\u6ce2\u6ce2\u9882","file":"http:\/\/rdfile.oss-cn-hangzhou.aliyuncs.com\/filemanage\/init\/audio\/49262468.mp3?nonce=9baf2619199ca91097d7eb0f03f7ef45","cover":"","updatetime":"1697698174","height":0,"width":0,"video":"","sort":0,"version":157,"cover2":"","appkey":"init","duration":57,"extra":{},"polyglot":[],"category":"31129794,","audit":0,"is_ugc":0,"type":"audio"},{"id":"1023969","ufid":"97462301","name":"\u54ce\u54df\u4f60\u8138\u7ea2\u4e86","file":"http:\/\/rdfile.oss-cn-hangzhou.aliyuncs.com\/filemanage\/init\/audio\/97462301.mp3?nonce=9baf2619199ca91097d7eb0f03f7ef45","cover":"","updatetime":"1697698174","height":0,"width":0,"video":"","sort":0,"version":157,"cover2":"","appkey":"init","duration":5,"extra":{},"polyglot":[],"category":"31129794,","audit":0,"is_ugc":0,"type":"audio"},{"id":"1023968","ufid":"16001428","name":"\u963f\u4f1f\u5df2\u7ecf\u6b7b\u4e86","file":"http:\/\/rdfile.oss-cn-hangzhou.aliyuncs.com\/filemanage\/init\/audio\/16001428.mp3?nonce=9baf2619199ca91097d7eb0f03f7ef45","cover":"","updatetime":"1697698174","height":0,"width":0,"video":"","sort":0,"version":157,"cover2":"","appkey":"init","duration":15,"extra":{},"polyglot":[],"category":"31129794,","audit":0,"is_ugc":0,"type":"audio"},{"id":"1023967","ufid":"81201950","name":"\u963f\u745f\u81ea\u5df1\u62ff\u7b77\u5b50\u554a","file":"http:\/\/rdfile.oss-cn-hangzhou.aliyuncs.com\/filemanage\/init\/audio\/81201950.mp3?nonce=11a933796f504bd3d04fe3b8cce7c280","cover":"","updatetime":"1697698173","height":0,"width":0,"video":"","sort":0,"version":157,"cover2":"","appkey":"init","duration":54,"extra":{},"polyglot":[],"category":"31129794,","audit":0,"is_ugc":0,"type":"audio"}]}}