{"code":0,"msg":"success","data":{"total":53,"per_page":20,"current_page":2,"last_page":3,"data":[{"id":"1024057","ufid":"39451582","name":"\u4e3a\u4ec0\u4e48\u53d7\u4f24\u7684\u603b\u662f\u6211","file":"http:\/\/rdfile.oss-cn-hangzhou.aliyuncs.com\/filemanage\/init\/audio\/39451582.mp3?nonce=f09d01d306cb48157b0fb7a7755dc5bb","cover":"","updatetime":"1697698194","height":0,"width":0,"video":"","sort":0,"version":157,"cover2":"","appkey":"init","duration":4,"extra":{},"polyglot":[],"category":"39477096,","audit":0,"is_ugc":0,"type":"audio"},{"id":"1024056","ufid":"76914300","name":"\u5934\u53ef\u65ad\u8840\u53ef\u6d41","file":"http:\/\/rdfile.oss-cn-hangzhou.aliyuncs.com\/filemanage\/init\/audio\/76914300.mp3?nonce=a8dbacac7b2ef8e6475dba4642b4f918","cover":"","updatetime":"1697698193","height":0,"width":0,"video":"","sort":0,"version":157,"cover2":"","appkey":"init","duration":7,"extra":{},"polyglot":[],"category":"39477096,","audit":0,"is_ugc":0,"type":"audio"},{"id":"1024055","ufid":"98138414","name":"\u542c\u542c \u4f60\u8bf4\u7684\u662f\u4eba\u8bdd\u5417","file":"http:\/\/rdfile.oss-cn-hangzhou.aliyuncs.com\/filemanage\/init\/audio\/98138414.mp3?nonce=a8dbacac7b2ef8e6475dba4642b4f918","cover":"","updatetime":"1697698193","height":0,"width":0,"video":"","sort":0,"version":157,"cover2":"","appkey":"init","duration":4,"extra":{},"polyglot":[],"category":"39477096,","audit":0,"is_ugc":0,"type":"audio"},{"id":"1024054","ufid":"27156266","name":"\u8c01\u8d5e\u6210\uff0c\u8c01\u53cd\u5bf9","file":"http:\/\/rdfile.oss-cn-hangzhou.aliyuncs.com\/filemanage\/init\/audio\/27156266.mp3?nonce=a8dbacac7b2ef8e6475dba4642b4f918","cover":"","updatetime":"1697698193","height":0,"width":0,"video":"","sort":0,"version":157,"cover2":"","appkey":"init","duration":4,"extra":{},"polyglot":[],"category":"39477096,","audit":0,"is_ugc":0,"type":"audio"},{"id":"1024053","ufid":"56390859","name":"\u4e16\u754c\u5982\u6b64\u7f8e\u5999\uff0c\u6211\u5374\u5982\u6b64\u66b4\u8e81","file":"http:\/\/rdfile.oss-cn-hangzhou.aliyuncs.com\/filemanage\/init\/audio\/56390859.mp3?nonce=a8dbacac7b2ef8e6475dba4642b4f918","cover":"","updatetime":"1697698193","height":0,"width":0,"video":"","sort":0,"version":157,"cover2":"","appkey":"init","duration":12,"extra":{},"polyglot":[],"category":"39477096,","audit":0,"is_ugc":0,"type":"audio"},{"id":"1024052","ufid":"37971534","name":"\u80be\u5b9d\u5e7f\u544a \u5415\u5b50\u4e54","file":"http:\/\/rdfile.oss-cn-hangzhou.aliyuncs.com\/filemanage\/init\/audio\/37971534.mp3?nonce=35926f63e70d3d231cb1de53c908ca7b","cover":"","updatetime":"1697698192","height":0,"width":0,"video":"","sort":0,"version":157,"cover2":"","appkey":"init","duration":33,"extra":{},"polyglot":[],"category":"39477096,","audit":0,"is_ugc":0,"type":"audio"},{"id":"1024051","ufid":"83124605","name":"\u5982\u679c\u9053\u6b49\u6709\u7528\u7684\u8bdd\u8981\u8b66\u5bdf\u5e72\u561b","file":"http:\/\/rdfile.oss-cn-hangzhou.aliyuncs.com\/filemanage\/init\/audio\/83124605.mp3?nonce=35926f63e70d3d231cb1de53c908ca7b","cover":"","updatetime":"1697698192","height":0,"width":0,"video":"","sort":0,"version":157,"cover2":"","appkey":"init","duration":10,"extra":{},"polyglot":[],"category":"39477096,","audit":0,"is_ugc":0,"type":"audio"},{"id":"1024050","ufid":"47360314","name":"\u52aa\u529b\u594b\u6597","file":"http:\/\/rdfile.oss-cn-hangzhou.aliyuncs.com\/filemanage\/init\/audio\/47360314.mp3?nonce=35926f63e70d3d231cb1de53c908ca7b","cover":"","updatetime":"1697698192","height":0,"width":0,"video":"","sort":0,"version":157,"cover2":"","appkey":"init","duration":5,"extra":{},"polyglot":[],"category":"39477096,","audit":0,"is_ugc":0,"type":"audio"},{"id":"1024049","ufid":"11622964","name":"\u4f60\u77e5\u9053\u8fd9\u4e94\u5e74\u6211\u662f\u600e\u4e48\u8fc7\u7684\u5417","file":"http:\/\/rdfile.oss-cn-hangzhou.aliyuncs.com\/filemanage\/init\/audio\/11622964.mp3?nonce=35926f63e70d3d231cb1de53c908ca7b","cover":"","updatetime":"1697698192","height":0,"width":0,"video":"","sort":0,"version":157,"cover2":"","appkey":"init","duration":8,"extra":{},"polyglot":[],"category":"39477096,","audit":0,"is_ugc":0,"type":"audio"},{"id":"1024048","ufid":"27223607","name":"\u4f60\u662f\u6211\u7684\u4f18\u4e50\u7f8e","file":"http:\/\/rdfile.oss-cn-hangzhou.aliyuncs.com\/filemanage\/init\/audio\/27223607.mp3?nonce=35926f63e70d3d231cb1de53c908ca7b","cover":"","updatetime":"1697698192","height":0,"width":0,"video":"","sort":0,"version":157,"cover2":"","appkey":"init","duration":16,"extra":{},"polyglot":[],"category":"39477096,","audit":0,"is_ugc":0,"type":"audio"},{"id":"1024047","ufid":"18694735","name":"\u4f60\u90a3\u662f\u998b\u5979\u7684\u8eab\u5b50","file":"http:\/\/rdfile.oss-cn-hangzhou.aliyuncs.com\/filemanage\/init\/audio\/18694735.mp3?nonce=ad77cd09a232482cd54565f657179c45","cover":"","updatetime":"1697698191","height":0,"width":0,"video":"","sort":0,"version":157,"cover2":"","appkey":"init","duration":6,"extra":{},"polyglot":[],"category":"39477096,","audit":0,"is_ugc":0,"type":"audio"},{"id":"1024046","ufid":"96858491","name":"\u4f60\u4e86\u4e0d\u8d77\u4f60\u6e05\u9ad8","file":"http:\/\/rdfile.oss-cn-hangzhou.aliyuncs.com\/filemanage\/init\/audio\/96858491.mp3?nonce=ad77cd09a232482cd54565f657179c45","cover":"","updatetime":"1697698191","height":0,"width":0,"video":"","sort":0,"version":157,"cover2":"","appkey":"init","duration":7,"extra":{},"polyglot":[],"category":"39477096,","audit":0,"is_ugc":0,"type":"audio"},{"id":"1024045","ufid":"94239918","name":"\u4f60\u53ef\u771f\u662f\u4e0d\u75af\u9b54\u4e0d\u6210\u6d3b","file":"http:\/\/rdfile.oss-cn-hangzhou.aliyuncs.com\/filemanage\/init\/audio\/94239918.mp3?nonce=ad77cd09a232482cd54565f657179c45","cover":"","updatetime":"1697698191","height":0,"width":0,"video":"","sort":0,"version":157,"cover2":"","appkey":"init","duration":4,"extra":{},"polyglot":[],"category":"39477096,","audit":0,"is_ugc":0,"type":"audio"},{"id":"1024044","ufid":"55067608","name":"\u4f60\u53ef\u957f\u70b9\u5fc3\u5427","file":"http:\/\/rdfile.oss-cn-hangzhou.aliyuncs.com\/filemanage\/init\/audio\/55067608.mp3?nonce=ad77cd09a232482cd54565f657179c45","cover":"","updatetime":"1697698191","height":0,"width":0,"video":"","sort":0,"version":157,"cover2":"","appkey":"init","duration":3,"extra":{},"polyglot":[],"category":"39477096,","audit":0,"is_ugc":0,"type":"audio"},{"id":"1024043","ufid":"71457604","name":"\u4f60\u597d\u9a9a\u554a","file":"http:\/\/rdfile.oss-cn-hangzhou.aliyuncs.com\/filemanage\/init\/audio\/71457604.mp3?nonce=9429c8b06104f74ef895ca902ab0029b","cover":"","updatetime":"1697698190","height":0,"width":0,"video":"","sort":0,"version":157,"cover2":"","appkey":"init","duration":4,"extra":{},"polyglot":[],"category":"39477096,","audit":0,"is_ugc":0,"type":"audio"},{"id":"1024042","ufid":"94730327","name":"\u4f60\u8fc7\u6765\u554a","file":"http:\/\/rdfile.oss-cn-hangzhou.aliyuncs.com\/filemanage\/init\/audio\/94730327.mp3?nonce=e0817705c90c52aee34844432444c0b5","cover":"","updatetime":"1697698298","height":0,"width":0,"video":"","sort":0,"version":157,"cover2":"","appkey":"init","duration":3,"extra":{},"polyglot":[],"category":"39477096,","audit":0,"is_ugc":0,"type":"audio"},{"id":"1024041","ufid":"37249891","name":"\u4f60\u60e8\u4e86 \u4f60\u5760\u5165\u7231\u6cb3\u4e86","file":"http:\/\/rdfile.oss-cn-hangzhou.aliyuncs.com\/filemanage\/init\/audio\/37249891.mp3?nonce=9429c8b06104f74ef895ca902ab0029b","cover":"","updatetime":"1697698190","height":0,"width":0,"video":"","sort":0,"version":157,"cover2":"","appkey":"init","duration":7,"extra":{},"polyglot":[],"category":"39477096,","audit":0,"is_ugc":0,"type":"audio"},{"id":"1024040","ufid":"22186548","name":"\u90a3\u4ec0\u4e48\u662f\u771f\u7684","file":"http:\/\/rdfile.oss-cn-hangzhou.aliyuncs.com\/filemanage\/init\/audio\/22186548.mp3?nonce=9429c8b06104f74ef895ca902ab0029b","cover":"","updatetime":"1697698190","height":0,"width":0,"video":"","sort":0,"version":157,"cover2":"","appkey":"init","duration":4,"extra":{},"polyglot":[],"category":"39477096,","audit":0,"is_ugc":0,"type":"audio"},{"id":"1024039","ufid":"72604501","name":"\u606d\u559c\u4f60\u90fd\u4f1a\u62a2\u7b54\u5566","file":"http:\/\/rdfile.oss-cn-hangzhou.aliyuncs.com\/filemanage\/init\/audio\/72604501.mp3?nonce=c1e1a1615459d4a26c6d03d281469675","cover":"","updatetime":"1697698189","height":0,"width":0,"video":"","sort":0,"version":157,"cover2":"","appkey":"init","duration":3,"extra":{},"polyglot":[],"category":"39477096,","audit":0,"is_ugc":0,"type":"audio"},{"id":"1024038","ufid":"30005182","name":"\u70e6\u6b7b\u4e86 \u54fc","file":"http:\/\/rdfile.oss-cn-hangzhou.aliyuncs.com\/filemanage\/init\/audio\/30005182.mp3?nonce=c1e1a1615459d4a26c6d03d281469675","cover":"","updatetime":"1697698189","height":0,"width":0,"video":"","sort":0,"version":157,"cover2":"","appkey":"init","duration":4,"extra":{},"polyglot":[],"category":"39477096,","audit":0,"is_ugc":0,"type":"audio"}]}}