{"code":0,"msg":"success","data":{"total":283,"per_page":20,"current_page":2,"last_page":15,"data":[{"id":"1024407","ufid":"70451077","name":"\u8fd9\u91cc\u662f\u6211\u548b\u5566 \u8857\u89d2\u9b54","file":"http:\/\/rdfile.oss-cn-hangzhou.aliyuncs.com\/filemanage\/init\/audio\/70451077.mp3?nonce=00d60f0a2e3f361fa44817619cc0109c","cover":"","updatetime":"1697698273","height":0,"width":0,"video":"","sort":0,"version":157,"cover2":"","appkey":"init","duration":9,"extra":{},"polyglot":[],"category":"40610022,","audit":0,"is_ugc":0,"type":"audio"},{"id":"1024406","ufid":"79120628","name":"\u8fd9\u5927\u51ac\u5929\u7684 \u8c01\u60f3\u8d77\u8c01\u8d77\u5427","file":"http:\/\/rdfile.oss-cn-hangzhou.aliyuncs.com\/filemanage\/init\/audio\/79120628.mp3?nonce=00d60f0a2e3f361fa44817619cc0109c","cover":"","updatetime":"1697698273","height":0,"width":0,"video":"","sort":0,"version":157,"cover2":"","appkey":"init","duration":7,"extra":{},"polyglot":[],"category":"40610022,","audit":0,"is_ugc":0,"type":"audio"},{"id":"1024405","ufid":"10721766","name":"\u627e\u4e00\u4e2a\u670b\u53cb\u70b9\u70b9\u5934-\u9884\u9632\u8001 ","file":"http:\/\/rdfile.oss-cn-hangzhou.aliyuncs.com\/filemanage\/init\/audio\/10721766.mp3?nonce=00d60f0a2e3f361fa44817619cc0109c","cover":"","updatetime":"1697698273","height":0,"width":0,"video":"","sort":0,"version":157,"cover2":"","appkey":"init","duration":12,"extra":{},"polyglot":[],"category":"40610022,","audit":0,"is_ugc":0,"type":"audio"},{"id":"1024404","ufid":"96657610","name":"\u5f20\u7ff0-\u542c\u5988\u5988\u7684\u8bdd","file":"http:\/\/rdfile.oss-cn-hangzhou.aliyuncs.com\/filemanage\/init\/audio\/96657610.mp3?nonce=c82b02785fa3e481e7fb334026b41c6e","cover":"","updatetime":"1697698272","height":0,"width":0,"video":"","sort":0,"version":157,"cover2":"","appkey":"init","duration":89,"extra":{},"polyglot":[],"category":"40610022,","audit":0,"is_ugc":0,"type":"audio"},{"id":"1024403","ufid":"69059696","name":"\u600e\u4e48\u6ca1\u6709\u8116\u5b50","file":"http:\/\/rdfile.oss-cn-hangzhou.aliyuncs.com\/filemanage\/init\/audio\/69059696.mp3?nonce=c82b02785fa3e481e7fb334026b41c6e","cover":"","updatetime":"1697698272","height":0,"width":0,"video":"","sort":0,"version":157,"cover2":"","appkey":"init","duration":11,"extra":{},"polyglot":[],"category":"40610022,","audit":0,"is_ugc":0,"type":"audio"},{"id":"1024402","ufid":"31141043","name":"\u5728\u641e\u94b1\u548c\u641e\u5bf9\u8c61\u4e4b\u95f4\uff0c\u6211","file":"http:\/\/rdfile.oss-cn-hangzhou.aliyuncs.com\/filemanage\/init\/audio\/31141043.mp3?nonce=c82b02785fa3e481e7fb334026b41c6e","cover":"","updatetime":"1697698272","height":0,"width":0,"video":"","sort":0,"version":157,"cover2":"","appkey":"init","duration":23,"extra":{},"polyglot":[],"category":"40610022,","audit":0,"is_ugc":0,"type":"audio"},{"id":"1024401","ufid":"36244976","name":"\u6708\u65cf\u796d\u7940\u541f\u5531-\u82cd\u5170\u51b3","file":"http:\/\/rdfile.oss-cn-hangzhou.aliyuncs.com\/filemanage\/init\/audio\/36244976.mp3?nonce=c82b02785fa3e481e7fb334026b41c6e","cover":"","updatetime":"1697698272","height":0,"width":0,"video":"","sort":0,"version":157,"cover2":"","appkey":"init","duration":17,"extra":{},"polyglot":[],"category":"40610022,","audit":0,"is_ugc":0,"type":"audio"},{"id":"1024400","ufid":"95692727","name":"\u8d8a\u5357\u5c0f\u5b69\u5435\u67b6-\u4e07\u6076\u4e4b\u6e90","file":"http:\/\/rdfile.oss-cn-hangzhou.aliyuncs.com\/filemanage\/init\/audio\/95692727.mp3?nonce=c82b02785fa3e481e7fb334026b41c6e","cover":"","updatetime":"1697698272","height":0,"width":0,"video":"","sort":0,"version":157,"cover2":"","appkey":"init","duration":4,"extra":{},"polyglot":[],"category":"40610022,","audit":0,"is_ugc":0,"type":"audio"},{"id":"1024399","ufid":"31406608","name":"\u613f\u8bb8\u79cb\u98ce\u77e5\u6211\u610f","file":"http:\/\/rdfile.oss-cn-hangzhou.aliyuncs.com\/filemanage\/init\/audio\/31406608.mp3?nonce=4533a2d069ff5592daad2bb42d2b800c","cover":"","updatetime":"1697698271","height":0,"width":0,"video":"","sort":0,"version":157,"cover2":"","appkey":"init","duration":12,"extra":{},"polyglot":[],"category":"40610022,","audit":0,"is_ugc":0,"type":"audio"},{"id":"1024398","ufid":"77090842","name":"\u4ee5\u540e\u8ddf\u6211\u53d1\u6d88\u606f\u5fc5\u987b\u8bf4\u4e00","file":"http:\/\/rdfile.oss-cn-hangzhou.aliyuncs.com\/filemanage\/init\/audio\/77090842.mp3?nonce=4533a2d069ff5592daad2bb42d2b800c","cover":"","updatetime":"1697698271","height":0,"width":0,"video":"","sort":0,"version":157,"cover2":"","appkey":"init","duration":5,"extra":{},"polyglot":[],"category":"40610022,","audit":0,"is_ugc":0,"type":"audio"},{"id":"1024397","ufid":"55616671","name":"\u4ee5\u540e\u8ddf\u6211\u53d1\u6d88\u606f\u5fc5\u987b\u8bf4\u4e00 (2)","file":"http:\/\/rdfile.oss-cn-hangzhou.aliyuncs.com\/filemanage\/init\/audio\/55616671.mp3?nonce=4533a2d069ff5592daad2bb42d2b800c","cover":"","updatetime":"1697698271","height":0,"width":0,"video":"","sort":0,"version":157,"cover2":"","appkey":"init","duration":6,"extra":{},"polyglot":[],"category":"40610022,","audit":0,"is_ugc":0,"type":"audio"},{"id":"1024396","ufid":"78465218","name":"\u4e00\u67aa\u79d2\u4e86 \u6ca1\u4ec0\u4e48\u597d\u8bf4\u7684","file":"http:\/\/rdfile.oss-cn-hangzhou.aliyuncs.com\/filemanage\/init\/audio\/78465218.mp3?nonce=4533a2d069ff5592daad2bb42d2b800c","cover":"","updatetime":"1697698271","height":0,"width":0,"video":"","sort":0,"version":157,"cover2":"","appkey":"init","duration":3,"extra":{},"polyglot":[],"category":"40610022,","audit":0,"is_ugc":0,"type":"audio"},{"id":"1024395","ufid":"87782995","name":"\u7f8a\u4e86\u7f8a\u4e86\u7f8a\u4e86\u6211\u597d\u50cf\u7f8a\u4e86","file":"http:\/\/rdfile.oss-cn-hangzhou.aliyuncs.com\/filemanage\/init\/audio\/87782995.mp3?nonce=4c9cc4aa1b5ee3af53ca2b95e6306f58","cover":"","updatetime":"1697698270","height":0,"width":0,"video":"","sort":0,"version":157,"cover2":"","appkey":"init","duration":27,"extra":{},"polyglot":[],"category":"40610022,","audit":0,"is_ugc":0,"type":"audio"},{"id":"1024394","ufid":"17898934","name":"\u5b66\u4f1a\u5582\u9e21\u7231\u9e21","file":"http:\/\/rdfile.oss-cn-hangzhou.aliyuncs.com\/filemanage\/init\/audio\/17898934.mp3?nonce=4c9cc4aa1b5ee3af53ca2b95e6306f58","cover":"","updatetime":"1697698270","height":0,"width":0,"video":"","sort":0,"version":157,"cover2":"","appkey":"init","duration":7,"extra":{},"polyglot":[],"category":"40610022,","audit":0,"is_ugc":0,"type":"audio"},{"id":"1024393","ufid":"58816669","name":"\u79c0\u624d\u5c0f\u66f2-\u5c0f\u59b9\u59b9\u9001\u60c5\u90ce","file":"http:\/\/rdfile.oss-cn-hangzhou.aliyuncs.com\/filemanage\/init\/audio\/58816669.mp3?nonce=4c9cc4aa1b5ee3af53ca2b95e6306f58","cover":"","updatetime":"1697698270","height":0,"width":0,"video":"","sort":0,"version":157,"cover2":"","appkey":"init","duration":19,"extra":{},"polyglot":[],"category":"40610022,","audit":0,"is_ugc":0,"type":"audio"},{"id":"1024392","ufid":"54178002","name":"\u79c0\u624d\u5c0f\u66f2-\u7231\u4f60\u4e0d\u662f\u6211\u7684\u9519","file":"http:\/\/rdfile.oss-cn-hangzhou.aliyuncs.com\/filemanage\/init\/audio\/54178002.mp3?nonce=4c9cc4aa1b5ee3af53ca2b95e6306f58","cover":"","updatetime":"1697698270","height":0,"width":0,"video":"","sort":0,"version":157,"cover2":"","appkey":"init","duration":15,"extra":{},"polyglot":[],"category":"40610022,","audit":0,"is_ugc":0,"type":"audio"},{"id":"1024391","ufid":"37907675","name":"\u9192\u6765\u6253\u626e\u5fc3\u60c5\u5f88nice","file":"http:\/\/rdfile.oss-cn-hangzhou.aliyuncs.com\/filemanage\/init\/audio\/37907675.mp3?nonce=4c9cc4aa1b5ee3af53ca2b95e6306f58","cover":"","updatetime":"1697698270","height":0,"width":0,"video":"","sort":0,"version":157,"cover2":"","appkey":"init","duration":18,"extra":{},"polyglot":[],"category":"40610022,","audit":0,"is_ugc":0,"type":"audio"},{"id":"1024390","ufid":"20415511","name":"\u884c\u4e0d\u884c\u554a\u7ec6\u72d7 \u5408\u96c6","file":"http:\/\/rdfile.oss-cn-hangzhou.aliyuncs.com\/filemanage\/init\/audio\/20415511.mp3?nonce=d89b69acdbca79881000fbf38f2b0426","cover":"","updatetime":"1697698269","height":0,"width":0,"video":"","sort":0,"version":157,"cover2":"","appkey":"init","duration":8,"extra":{},"polyglot":[],"category":"40610022,","audit":0,"is_ugc":0,"type":"audio"},{"id":"1024389","ufid":"45955041","name":"\u8c22\u8c22\u4f60\u6c99\u4e00\u6c40\u6211\u6709\u591a\u4e45","file":"http:\/\/rdfile.oss-cn-hangzhou.aliyuncs.com\/filemanage\/init\/audio\/45955041.mp3?nonce=d89b69acdbca79881000fbf38f2b0426","cover":"","updatetime":"1697698269","height":0,"width":0,"video":"","sort":0,"version":157,"cover2":"","appkey":"init","duration":10,"extra":{},"polyglot":[],"category":"40610022,","audit":0,"is_ugc":0,"type":"audio"},{"id":"1024388","ufid":"14729370","name":"\u8c22\u8c22\u4f60\uff0c\u6211\u9634\u6697\u4e16\u754c\u91cc\u7684","file":"http:\/\/rdfile.oss-cn-hangzhou.aliyuncs.com\/filemanage\/init\/audio\/14729370.mp3?nonce=d89b69acdbca79881000fbf38f2b0426","cover":"","updatetime":"1697698269","height":0,"width":0,"video":"","sort":0,"version":157,"cover2":"","appkey":"init","duration":9,"extra":{},"polyglot":[],"category":"40610022,","audit":0,"is_ugc":0,"type":"audio"}]}}