{"code":0,"msg":"success","data":{"total":62,"per_page":20,"current_page":2,"last_page":4,"data":[{"id":"1023945","ufid":"20867548","name":"\u6cf0\u7f57\u5965\u7279\u66fc","file":"http:\/\/rdfile.oss-cn-hangzhou.aliyuncs.com\/filemanage\/init\/audio\/20867548.mp3?nonce=4c79594b7fdf8842fdeea34ac1a7b6fd","cover":"","updatetime":"1697698168","height":0,"width":0,"video":"","sort":0,"version":157,"cover2":"","appkey":"init","duration":8,"extra":{},"polyglot":[],"category":"53914448,","audit":0,"is_ugc":0,"type":"audio"},{"id":"1023944","ufid":"38936427","name":"\u601d\u8003\u540e\u7075\u611f\u95ea\u8fc7","file":"http:\/\/rdfile.oss-cn-hangzhou.aliyuncs.com\/filemanage\/init\/audio\/38936427.mp3?nonce=4c79594b7fdf8842fdeea34ac1a7b6fd","cover":"","updatetime":"1697698168","height":0,"width":0,"video":"","sort":0,"version":157,"cover2":"","appkey":"init","duration":7,"extra":{},"polyglot":[],"category":"53914448,","audit":0,"is_ugc":0,"type":"audio"},{"id":"1023943","ufid":"21777702","name":"\u5b9e\u529b\u81f3\u4e0a\u4e3b\u4e49\u6559\u5e08","file":"http:\/\/rdfile.oss-cn-hangzhou.aliyuncs.com\/filemanage\/init\/audio\/21777702.mp3?nonce=4c79594b7fdf8842fdeea34ac1a7b6fd","cover":"","updatetime":"1697698168","height":0,"width":0,"video":"","sort":0,"version":157,"cover2":"","appkey":"init","duration":7,"extra":{},"polyglot":[],"category":"53914448,","audit":0,"is_ugc":0,"type":"audio"},{"id":"1023942","ufid":"91401506","name":"\u95ea\u8fc7-\u54c6\u5566A\u68a6","file":"http:\/\/rdfile.oss-cn-hangzhou.aliyuncs.com\/filemanage\/init\/audio\/91401506.mp3?nonce=4c79594b7fdf8842fdeea34ac1a7b6fd","cover":"","updatetime":"1697698168","height":0,"width":0,"video":"","sort":0,"version":157,"cover2":"","appkey":"init","duration":2,"extra":{},"polyglot":[],"category":"53914448,","audit":0,"is_ugc":0,"type":"audio"},{"id":"1023941","ufid":"91251369","name":"\u5f3a\u8c03\u7684\u767b\u573a2","file":"http:\/\/rdfile.oss-cn-hangzhou.aliyuncs.com\/filemanage\/init\/audio\/91251369.mp3?nonce=c2e91a28347c46c85f42b1bbe3bdf824","cover":"","updatetime":"1697698167","height":0,"width":0,"video":"","sort":0,"version":157,"cover2":"","appkey":"init","duration":2,"extra":{},"polyglot":[],"category":"53914448,","audit":0,"is_ugc":0,"type":"audio"},{"id":"1023940","ufid":"44459106","name":"\u5343\u9e1f","file":"http:\/\/rdfile.oss-cn-hangzhou.aliyuncs.com\/filemanage\/init\/audio\/44459106.mp3?nonce=c2e91a28347c46c85f42b1bbe3bdf824","cover":"","updatetime":"1697698167","height":0,"width":0,"video":"","sort":0,"version":157,"cover2":"","appkey":"init","duration":3,"extra":{},"polyglot":[],"category":"53914448,","audit":0,"is_ugc":0,"type":"audio"},{"id":"1023939","ufid":"51318449","name":"\u8d77\u6765","file":"http:\/\/rdfile.oss-cn-hangzhou.aliyuncs.com\/filemanage\/init\/audio\/51318449.mp3?nonce=c2e91a28347c46c85f42b1bbe3bdf824","cover":"","updatetime":"1697698167","height":0,"width":0,"video":"","sort":0,"version":157,"cover2":"","appkey":"init","duration":1,"extra":{},"polyglot":[],"category":"53914448,","audit":0,"is_ugc":0,"type":"audio"},{"id":"1023938","ufid":"66060209","name":"\u76ae\u5361\u4e18","file":"http:\/\/rdfile.oss-cn-hangzhou.aliyuncs.com\/filemanage\/init\/audio\/66060209.mp3?nonce=c2e91a28347c46c85f42b1bbe3bdf824","cover":"","updatetime":"1697698167","height":0,"width":0,"video":"","sort":0,"version":157,"cover2":"","appkey":"init","duration":3,"extra":{},"polyglot":[],"category":"53914448,","audit":0,"is_ugc":0,"type":"audio"},{"id":"1023937","ufid":"91938920","name":"\u4f60\u60f3\u6b7b\u4e00\u904d\u5417","file":"http:\/\/rdfile.oss-cn-hangzhou.aliyuncs.com\/filemanage\/init\/audio\/91938920.mp3?nonce=9ece5efa2c1947c7b5b61b1eaf27cfbf","cover":"","updatetime":"1697698166","height":0,"width":0,"video":"","sort":0,"version":157,"cover2":"","appkey":"init","duration":3,"extra":{},"polyglot":[],"category":"53914448,","audit":0,"is_ugc":0,"type":"audio"},{"id":"1023936","ufid":"78355724","name":"\u59ae\u53ef\u59ae\u53ef\u59ae","file":"http:\/\/rdfile.oss-cn-hangzhou.aliyuncs.com\/filemanage\/init\/audio\/78355724.mp3?nonce=9ece5efa2c1947c7b5b61b1eaf27cfbf","cover":"","updatetime":"1697698166","height":0,"width":0,"video":"","sort":0,"version":157,"cover2":"","appkey":"init","duration":3,"extra":{},"polyglot":[],"category":"53914448,","audit":0,"is_ugc":0,"type":"audio"},{"id":"1023935","ufid":"31232913","name":"\u7537\u5b50\u9ad8\u4e2d\u751f\u7684\u65e5\u5e38","file":"http:\/\/rdfile.oss-cn-hangzhou.aliyuncs.com\/filemanage\/init\/audio\/31232913.mp3?nonce=9ece5efa2c1947c7b5b61b1eaf27cfbf","cover":"","updatetime":"1697698166","height":0,"width":0,"video":"","sort":0,"version":157,"cover2":"","appkey":"init","duration":4,"extra":{},"polyglot":[],"category":"53914448,","audit":0,"is_ugc":0,"type":"audio"},{"id":"1023934","ufid":"70103741","name":"\u7eb3\u5c3c\uff01","file":"http:\/\/rdfile.oss-cn-hangzhou.aliyuncs.com\/filemanage\/init\/audio\/70103741.mp3?nonce=9ece5efa2c1947c7b5b61b1eaf27cfbf","cover":"","updatetime":"1697698166","height":0,"width":0,"video":"","sort":0,"version":157,"cover2":"","appkey":"init","duration":7,"extra":{},"polyglot":[],"category":"53914448,","audit":0,"is_ugc":0,"type":"audio"},{"id":"1023933","ufid":"40100429","name":"\u732b\u548c\u8001\u9f20\u8ffd\u8d76","file":"http:\/\/rdfile.oss-cn-hangzhou.aliyuncs.com\/filemanage\/init\/audio\/40100429.mp3?nonce=9ece5efa2c1947c7b5b61b1eaf27cfbf","cover":"","updatetime":"1697698166","height":0,"width":0,"video":"","sort":0,"version":157,"cover2":"","appkey":"init","duration":19,"extra":{},"polyglot":[],"category":"53914448,","audit":0,"is_ugc":0,"type":"audio"},{"id":"1023932","ufid":"52535270","name":"\u96f7\u6b27\u5965\u7279\u66fc\u51fa\u573a","file":"http:\/\/rdfile.oss-cn-hangzhou.aliyuncs.com\/filemanage\/init\/audio\/52535270.mp3?nonce=cfdc11f6c783ccf33a0abf73b696c51c","cover":"","updatetime":"1697698165","height":0,"width":0,"video":"","sort":0,"version":157,"cover2":"","appkey":"init","duration":14,"extra":{},"polyglot":[],"category":"53914448,","audit":0,"is_ugc":0,"type":"audio"},{"id":"1023931","ufid":"49540437","name":"\u8001\u5927\u52a0\u6cb9-\u8721\u7b14\u5c0f\u65b0","file":"http:\/\/rdfile.oss-cn-hangzhou.aliyuncs.com\/filemanage\/init\/audio\/49540437.mp3?nonce=cfdc11f6c783ccf33a0abf73b696c51c","cover":"","updatetime":"1697698165","height":0,"width":0,"video":"","sort":0,"version":157,"cover2":"","appkey":"init","duration":3,"extra":{},"polyglot":[],"category":"53914448,","audit":0,"is_ugc":0,"type":"audio"},{"id":"1023930","ufid":"23540212","name":"\u8721\u7b14\u5c0f\u65b0\u4f11\u606f\u97f3\u4e50","file":"http:\/\/rdfile.oss-cn-hangzhou.aliyuncs.com\/filemanage\/init\/audio\/23540212.mp3?nonce=cfdc11f6c783ccf33a0abf73b696c51c","cover":"","updatetime":"1697698165","height":0,"width":0,"video":"","sort":0,"version":157,"cover2":"","appkey":"init","duration":6,"extra":{},"polyglot":[],"category":"53914448,","audit":0,"is_ugc":0,"type":"audio"},{"id":"1023929","ufid":"27655857","name":"\u5feb\u4e50\u662f\u4ec0\u4e48","file":"http:\/\/rdfile.oss-cn-hangzhou.aliyuncs.com\/filemanage\/init\/audio\/27655857.mp3?nonce=cfdc11f6c783ccf33a0abf73b696c51c","cover":"","updatetime":"1697698165","height":0,"width":0,"video":"","sort":0,"version":157,"cover2":"","appkey":"init","duration":16,"extra":{},"polyglot":[],"category":"53914448,","audit":0,"is_ugc":0,"type":"audio"},{"id":"1023928","ufid":"74118665","name":"\u5361\u901a \u8e2e\u811a\u5c16\u8d70","file":"http:\/\/rdfile.oss-cn-hangzhou.aliyuncs.com\/filemanage\/init\/audio\/74118665.mp3?nonce=0c706f14aebfab3203ae711a8b5a2938","cover":"","updatetime":"1697698164","height":0,"width":0,"video":"","sort":0,"version":157,"cover2":"","appkey":"init","duration":3,"extra":{},"polyglot":[],"category":"53914448,","audit":0,"is_ugc":0,"type":"audio"},{"id":"1023927","ufid":"85242789","name":"\u5361\u901a \u7830","file":"http:\/\/rdfile.oss-cn-hangzhou.aliyuncs.com\/filemanage\/init\/audio\/85242789.mp3?nonce=0c706f14aebfab3203ae711a8b5a2938","cover":"","updatetime":"1697698164","height":0,"width":0,"video":"","sort":0,"version":157,"cover2":"","appkey":"init","duration":3,"extra":{},"polyglot":[],"category":"53914448,","audit":0,"is_ugc":0,"type":"audio"},{"id":"1023926","ufid":"14350521","name":"\u5361\u901a \u5f39\u7c27\u97f3 3","file":"http:\/\/rdfile.oss-cn-hangzhou.aliyuncs.com\/filemanage\/init\/audio\/14350521.mp3?nonce=0c706f14aebfab3203ae711a8b5a2938","cover":"","updatetime":"1697698164","height":0,"width":0,"video":"","sort":0,"version":157,"cover2":"","appkey":"init","duration":2,"extra":{},"polyglot":[],"category":"53914448,","audit":0,"is_ugc":0,"type":"audio"}]}}