{"code":0,"msg":"success","data":{"total":89,"per_page":20,"current_page":2,"last_page":5,"data":[{"id":"1024655","ufid":"33966845","name":"\u90aa\u6076\u5c0f\u4e11\u7b11","file":"http:\/\/rdfile.oss-cn-hangzhou.aliyuncs.com\/filemanage\/init\/audio\/33966845.mp3?nonce=353f9f8b65e2dfb3bfaaa816cfb0edaa","cover":"","updatetime":"1697698344","height":0,"width":0,"video":"","sort":0,"version":157,"cover2":"","appkey":"init","duration":11,"extra":{},"polyglot":[],"category":"61294791,","audit":0,"is_ugc":0,"type":"audio"},{"id":"1024654","ufid":"69469099","name":"\u7b11\u62bd\u4e86","file":"http:\/\/rdfile.oss-cn-hangzhou.aliyuncs.com\/filemanage\/init\/audio\/69469099.mp3?nonce=353f9f8b65e2dfb3bfaaa816cfb0edaa","cover":"","updatetime":"1697698344","height":0,"width":0,"video":"","sort":0,"version":157,"cover2":"","appkey":"init","duration":4,"extra":{},"polyglot":[],"category":"61294791,","audit":0,"is_ugc":0,"type":"audio"},{"id":"1024653","ufid":"47085728","name":"\u7b11\u5c94\u6c14\u4e86","file":"http:\/\/rdfile.oss-cn-hangzhou.aliyuncs.com\/filemanage\/init\/audio\/47085728.mp3?nonce=353f9f8b65e2dfb3bfaaa816cfb0edaa","cover":"","updatetime":"1697698344","height":0,"width":0,"video":"","sort":0,"version":157,"cover2":"","appkey":"init","duration":16,"extra":{},"polyglot":[],"category":"61294791,","audit":0,"is_ugc":0,"type":"audio"},{"id":"1024652","ufid":"79835465","name":"\u5c0f\u841d\u8389\u563f\u563f\u7b11","file":"http:\/\/rdfile.oss-cn-hangzhou.aliyuncs.com\/filemanage\/init\/audio\/79835465.mp3?nonce=c28ff3067ad1520d1dfeee71394f42ba","cover":"","updatetime":"1697698343","height":0,"width":0,"video":"","sort":0,"version":157,"cover2":"","appkey":"init","duration":5,"extra":{},"polyglot":[],"category":"61294791,","audit":0,"is_ugc":0,"type":"audio"},{"id":"1024651","ufid":"89251142","name":"\u5c0f\u9ec4\u4eba\u7b11\u58f0","file":"http:\/\/rdfile.oss-cn-hangzhou.aliyuncs.com\/filemanage\/init\/audio\/89251142.mp3?nonce=c28ff3067ad1520d1dfeee71394f42ba","cover":"","updatetime":"1697698343","height":0,"width":0,"video":"","sort":0,"version":157,"cover2":"","appkey":"init","duration":4,"extra":{},"polyglot":[],"category":"61294791,","audit":0,"is_ugc":0,"type":"audio"},{"id":"1024650","ufid":"98257181","name":"\u5c0f\u9ec4\u4eba\u54c8\u54c8\u7b11","file":"http:\/\/rdfile.oss-cn-hangzhou.aliyuncs.com\/filemanage\/init\/audio\/98257181.mp3?nonce=c28ff3067ad1520d1dfeee71394f42ba","cover":"","updatetime":"1697698343","height":0,"width":0,"video":"","sort":0,"version":157,"cover2":"","appkey":"init","duration":4,"extra":{},"polyglot":[],"category":"61294791,","audit":0,"is_ugc":0,"type":"audio"},{"id":"1024649","ufid":"40385806","name":"\u5c0f\u5b69\u9017\u7b11\u58f0","file":"http:\/\/rdfile.oss-cn-hangzhou.aliyuncs.com\/filemanage\/init\/audio\/40385806.mp3?nonce=c28ff3067ad1520d1dfeee71394f42ba","cover":"","updatetime":"1697698343","height":0,"width":0,"video":"","sort":0,"version":157,"cover2":"","appkey":"init","duration":3,"extra":{},"polyglot":[],"category":"61294791,","audit":0,"is_ugc":0,"type":"audio"},{"id":"1024648","ufid":"46647249","name":"\u5077\u7b11","file":"http:\/\/rdfile.oss-cn-hangzhou.aliyuncs.com\/filemanage\/init\/audio\/46647249.mp3?nonce=7e59d1395d2030a3e192d29000129687","cover":"","updatetime":"1697698342","height":0,"width":0,"video":"","sort":0,"version":157,"cover2":"","appkey":"init","duration":13,"extra":{},"polyglot":[],"category":"61294791,","audit":0,"is_ugc":0,"type":"audio"},{"id":"1024647","ufid":"39376822","name":"\u62f3\u7687\u516b\u795e\u80dc\u5229\u540e\u7b11","file":"http:\/\/rdfile.oss-cn-hangzhou.aliyuncs.com\/filemanage\/init\/audio\/39376822.mp3?nonce=7e59d1395d2030a3e192d29000129687","cover":"","updatetime":"1697698342","height":0,"width":0,"video":"","sort":0,"version":157,"cover2":"","appkey":"init","duration":5,"extra":{},"polyglot":[],"category":"61294791,","audit":0,"is_ugc":0,"type":"audio"},{"id":"1024646","ufid":"22984767","name":"\u6c14\u52bf\u56a3\u5f20\u7684\u72c2\u7b11","file":"http:\/\/rdfile.oss-cn-hangzhou.aliyuncs.com\/filemanage\/init\/audio\/22984767.mp3?nonce=7e59d1395d2030a3e192d29000129687","cover":"","updatetime":"1697698342","height":0,"width":0,"video":"","sort":0,"version":157,"cover2":"","appkey":"init","duration":12,"extra":{},"polyglot":[],"category":"61294791,","audit":0,"is_ugc":0,"type":"audio"},{"id":"1024645","ufid":"37414188","name":"\u8dd1\u7537\u56e2\u96c6\u4f53\u7b11","file":"http:\/\/rdfile.oss-cn-hangzhou.aliyuncs.com\/filemanage\/init\/audio\/37414188.mp3?nonce=7e59d1395d2030a3e192d29000129687","cover":"","updatetime":"1697698342","height":0,"width":0,"video":"","sort":0,"version":157,"cover2":"","appkey":"init","duration":1,"extra":{},"polyglot":[],"category":"61294791,","audit":0,"is_ugc":0,"type":"audio"},{"id":"1024644","ufid":"16199527","name":"\u5973\u6027\u7b11","file":"http:\/\/rdfile.oss-cn-hangzhou.aliyuncs.com\/filemanage\/init\/audio\/16199527.mp3?nonce=7e59d1395d2030a3e192d29000129687","cover":"","updatetime":"1697698342","height":0,"width":0,"video":"","sort":0,"version":157,"cover2":"","appkey":"init","duration":4,"extra":{},"polyglot":[],"category":"61294791,","audit":0,"is_ugc":0,"type":"audio"},{"id":"1024643","ufid":"63420996","name":"\u5973\u5b69\u751c\u7f8e\u7b11","file":"http:\/\/rdfile.oss-cn-hangzhou.aliyuncs.com\/filemanage\/init\/audio\/63420996.mp3?nonce=fa31a2ef353f845bd3ee717c6d0a5cae","cover":"","updatetime":"1697698341","height":0,"width":0,"video":"","sort":0,"version":157,"cover2":"","appkey":"init","duration":1,"extra":{},"polyglot":[],"category":"61294791,","audit":0,"is_ugc":0,"type":"audio"},{"id":"1024642","ufid":"29450627","name":"\u7537\u6027\u5361\u901a\u7b11","file":"http:\/\/rdfile.oss-cn-hangzhou.aliyuncs.com\/filemanage\/init\/audio\/29450627.mp3?nonce=fa31a2ef353f845bd3ee717c6d0a5cae","cover":"","updatetime":"1697698341","height":0,"width":0,"video":"","sort":0,"version":157,"cover2":"","appkey":"init","duration":3,"extra":{},"polyglot":[],"category":"61294791,","audit":0,"is_ugc":0,"type":"audio"},{"id":"1024641","ufid":"17492944","name":"\u7537\u6027\u6b22\u7b11\u5de8\u4eba\u7b11","file":"http:\/\/rdfile.oss-cn-hangzhou.aliyuncs.com\/filemanage\/init\/audio\/17492944.mp3?nonce=fa31a2ef353f845bd3ee717c6d0a5cae","cover":"","updatetime":"1697698341","height":0,"width":0,"video":"","sort":0,"version":157,"cover2":"","appkey":"init","duration":2,"extra":{},"polyglot":[],"category":"61294791,","audit":0,"is_ugc":0,"type":"audio"},{"id":"1024640","ufid":"50679189","name":"\u7537\u5b69\u5f00\u5fc3\u5927\u7b11","file":"http:\/\/rdfile.oss-cn-hangzhou.aliyuncs.com\/filemanage\/init\/audio\/50679189.mp3?nonce=fa31a2ef353f845bd3ee717c6d0a5cae","cover":"","updatetime":"1697698341","height":0,"width":0,"video":"","sort":0,"version":157,"cover2":"","appkey":"init","duration":4,"extra":{},"polyglot":[],"category":"61294791,","audit":0,"is_ugc":0,"type":"audio"},{"id":"1024639","ufid":"80322353","name":"\u9b54\u6014\u7b11","file":"http:\/\/rdfile.oss-cn-hangzhou.aliyuncs.com\/filemanage\/init\/audio\/80322353.mp3?nonce=9e355a9a351a6bab0c832a3cca67356a","cover":"","updatetime":"1697698340","height":0,"width":0,"video":"","sort":0,"version":157,"cover2":"","appkey":"init","duration":14,"extra":{},"polyglot":[],"category":"61294791,","audit":0,"is_ugc":0,"type":"audio"},{"id":"1024638","ufid":"10854981","name":"\u840c\u5b69\u7b11","file":"http:\/\/rdfile.oss-cn-hangzhou.aliyuncs.com\/filemanage\/init\/audio\/10854981.mp3?nonce=9e355a9a351a6bab0c832a3cca67356a","cover":"","updatetime":"1697698340","height":0,"width":0,"video":"","sort":0,"version":157,"cover2":"","appkey":"init","duration":1,"extra":{},"polyglot":[],"category":"61294791,","audit":0,"is_ugc":0,"type":"audio"},{"id":"1024637","ufid":"72209094","name":"\u8721\u7b14\u5c0f\u65b0\u7b11\u58f0","file":"http:\/\/rdfile.oss-cn-hangzhou.aliyuncs.com\/filemanage\/init\/audio\/72209094.mp3?nonce=9e355a9a351a6bab0c832a3cca67356a","cover":"","updatetime":"1697698340","height":0,"width":0,"video":"","sort":0,"version":157,"cover2":"","appkey":"init","duration":1,"extra":{},"polyglot":[],"category":"61294791,","audit":0,"is_ugc":0,"type":"audio"},{"id":"1024636","ufid":"98997024","name":"\u8721\u7b14\u5c0f\u65b0\u7238\u7238\u7684\u7b11","file":"http:\/\/rdfile.oss-cn-hangzhou.aliyuncs.com\/filemanage\/init\/audio\/98997024.mp3?nonce=9e355a9a351a6bab0c832a3cca67356a","cover":"","updatetime":"1697698340","height":0,"width":0,"video":"","sort":0,"version":157,"cover2":"","appkey":"init","duration":2,"extra":{},"polyglot":[],"category":"61294791,","audit":0,"is_ugc":0,"type":"audio"}]}}