{"code":0,"msg":"success","data":{"total":38,"per_page":20,"current_page":2,"last_page":2,"data":[{"id":"1005580","ufid":"16436623","name":"Clear And Melodious 18","file":"http:\/\/rdfile.oss-cn-hangzhou.aliyuncs.com\/filemanage\/init\/audio\/58\/1450187e6e16eb1c24ae7fc3f866864e\/37f4b31d35822a181d4ecbe7421b1026.mp3?nonce=cfcd208495d565ef66e7dff9f98764da","cover":"","updatetime":"0","height":0,"width":0,"video":"","sort":100,"version":0,"cover2":"","appkey":"init","duration":3,"extra":{},"polyglot":{"en":"Clear And Melodious 18"},"category":"61511705,","audit":0,"is_ugc":0,"type":"audio"},{"id":"1005579","ufid":"22447851","name":"Clear And Melodious 17","file":"http:\/\/rdfile.oss-cn-hangzhou.aliyuncs.com\/filemanage\/init\/audio\/58\/95c0d304da476adf2941be20ab7721b0\/5763769c8ea06a35fd342b656afd80c4.mp3?nonce=cfcd208495d565ef66e7dff9f98764da","cover":"","updatetime":"0","height":0,"width":0,"video":"","sort":100,"version":0,"cover2":"","appkey":"init","duration":3,"extra":{},"polyglot":{"en":"Clear And Melodious 17"},"category":"61511705,","audit":0,"is_ugc":0,"type":"audio"},{"id":"1005578","ufid":"19226228","name":"Clear And Melodious 16","file":"http:\/\/rdfile.oss-cn-hangzhou.aliyuncs.com\/filemanage\/init\/audio\/58\/d68c6b42a24561a4bbf5de163d17686c\/c9c0020749e0bcf079dab58733100c08.mp3?nonce=cfcd208495d565ef66e7dff9f98764da","cover":"","updatetime":"0","height":0,"width":0,"video":"","sort":100,"version":0,"cover2":"","appkey":"init","duration":2,"extra":{},"polyglot":{"en":"Clear And Melodious 16"},"category":"61511705,","audit":0,"is_ugc":0,"type":"audio"},{"id":"1005577","ufid":"56574212","name":"Clear And Melodious 15","file":"http:\/\/rdfile.oss-cn-hangzhou.aliyuncs.com\/filemanage\/init\/audio\/58\/594a51e54b0d56ac41fa2647e64746dc\/a6dad1f03a14834dafdcd5fc95b22ce0.mp3?nonce=cfcd208495d565ef66e7dff9f98764da","cover":"","updatetime":"0","height":0,"width":0,"video":"","sort":100,"version":0,"cover2":"","appkey":"init","duration":1,"extra":{},"polyglot":{"en":"Clear And Melodious 15"},"category":"61511705,","audit":0,"is_ugc":0,"type":"audio"},{"id":"1005576","ufid":"55166317","name":"Clear And Melodious 14","file":"http:\/\/rdfile.oss-cn-hangzhou.aliyuncs.com\/filemanage\/init\/audio\/58\/fcc7d9c638604daa92089e7eb703a3db\/d9a97900aff3bc4b8ce27e04e9cf47d6.mp3?nonce=cfcd208495d565ef66e7dff9f98764da","cover":"","updatetime":"0","height":0,"width":0,"video":"","sort":100,"version":0,"cover2":"","appkey":"init","duration":2,"extra":{},"polyglot":{"en":"Clear And Melodious 14"},"category":"61511705,","audit":0,"is_ugc":0,"type":"audio"},{"id":"1005575","ufid":"96886278","name":"Clear And Melodious 13","file":"http:\/\/rdfile.oss-cn-hangzhou.aliyuncs.com\/filemanage\/init\/audio\/58\/7a7b3c52c6660f4e78b38d579ab3efc8\/d38f421b07860df6f5503ef307a79489.mp3?nonce=cfcd208495d565ef66e7dff9f98764da","cover":"","updatetime":"0","height":0,"width":0,"video":"","sort":100,"version":0,"cover2":"","appkey":"init","duration":3,"extra":{},"polyglot":{"en":"Clear And Melodious 13"},"category":"61511705,","audit":0,"is_ugc":0,"type":"audio"},{"id":"1005574","ufid":"61033588","name":"Clear And Melodious 12","file":"http:\/\/rdfile.oss-cn-hangzhou.aliyuncs.com\/filemanage\/init\/audio\/58\/023524c7dc96fd529387da353f5f608c\/c5972baf590a95fb90a0af95647aca93.mp3?nonce=cfcd208495d565ef66e7dff9f98764da","cover":"","updatetime":"0","height":0,"width":0,"video":"","sort":100,"version":0,"cover2":"","appkey":"init","duration":2,"extra":{},"polyglot":{"en":"Clear And Melodious 12"},"category":"61511705,","audit":0,"is_ugc":0,"type":"audio"},{"id":"1005573","ufid":"35623494","name":"Clear And Melodious 11","file":"http:\/\/rdfile.oss-cn-hangzhou.aliyuncs.com\/filemanage\/init\/audio\/58\/769b4373cc7753a38613f973887ae7e1\/92d116b65311f18683085f39c5858ce0.mp3?nonce=cfcd208495d565ef66e7dff9f98764da","cover":"","updatetime":"0","height":0,"width":0,"video":"","sort":100,"version":0,"cover2":"","appkey":"init","duration":4,"extra":{},"polyglot":{"en":"Clear And Melodious 11"},"category":"61511705,","audit":0,"is_ugc":0,"type":"audio"},{"id":"1005572","ufid":"30601951","name":"Clear And Melodious 10","file":"http:\/\/rdfile.oss-cn-hangzhou.aliyuncs.com\/filemanage\/init\/audio\/58\/1640c079047d061ec96531365ce86bbe\/f8efb96e2f2dfef7c6e4ba87aca2864a.mp3?nonce=cfcd208495d565ef66e7dff9f98764da","cover":"","updatetime":"0","height":0,"width":0,"video":"","sort":100,"version":0,"cover2":"","appkey":"init","duration":3,"extra":{},"polyglot":{"en":"Clear And Melodious 10"},"category":"61511705,","audit":0,"is_ugc":0,"type":"audio"},{"id":"1005571","ufid":"92461358","name":"Clear And Melodious 9","file":"http:\/\/rdfile.oss-cn-hangzhou.aliyuncs.com\/filemanage\/init\/audio\/58\/d73d2c4775dfbbb9b22b32b68bea8839\/764e4ab223d4455a13e39d82369ce6cf.mp3?nonce=cfcd208495d565ef66e7dff9f98764da","cover":"","updatetime":"0","height":0,"width":0,"video":"","sort":100,"version":0,"cover2":"","appkey":"init","duration":2,"extra":{},"polyglot":{"en":"Clear And Melodious 9"},"category":"61511705,","audit":0,"is_ugc":0,"type":"audio"},{"id":"1005570","ufid":"96173682","name":"Clear And Melodious 8","file":"http:\/\/rdfile.oss-cn-hangzhou.aliyuncs.com\/filemanage\/init\/audio\/58\/85da53abca83601a58d28ec22438d983\/6f6a124d224ba65412edf13bb543aabf.mp3?nonce=cfcd208495d565ef66e7dff9f98764da","cover":"","updatetime":"0","height":0,"width":0,"video":"","sort":100,"version":0,"cover2":"","appkey":"init","duration":2,"extra":{},"polyglot":{"en":"Clear And Melodious 8"},"category":"61511705,","audit":0,"is_ugc":0,"type":"audio"},{"id":"1005569","ufid":"16931848","name":"Clear And Melodious 7","file":"http:\/\/rdfile.oss-cn-hangzhou.aliyuncs.com\/filemanage\/init\/audio\/58\/946971ae92e93187af30720043d4ded9\/2c970fda0a22b6b6d4a3c4d38b4cfe5e.mp3?nonce=cfcd208495d565ef66e7dff9f98764da","cover":"","updatetime":"0","height":0,"width":0,"video":"","sort":100,"version":0,"cover2":"","appkey":"init","duration":3,"extra":{},"polyglot":{"en":"Clear And Melodious 7"},"category":"61511705,","audit":0,"is_ugc":0,"type":"audio"},{"id":"1005568","ufid":"52297694","name":"Clear And Melodious 6","file":"http:\/\/rdfile.oss-cn-hangzhou.aliyuncs.com\/filemanage\/init\/audio\/58\/81bb35699840bb9e8f2e481a73b54daa\/a894ad53ed80866ed979ec50614ebda9.mp3?nonce=cfcd208495d565ef66e7dff9f98764da","cover":"","updatetime":"0","height":0,"width":0,"video":"","sort":100,"version":0,"cover2":"","appkey":"init","duration":2,"extra":{},"polyglot":{"en":"Clear And Melodious 6"},"category":"61511705,","audit":0,"is_ugc":0,"type":"audio"},{"id":"1005567","ufid":"19413968","name":"Clear And Melodious 5","file":"http:\/\/rdfile.oss-cn-hangzhou.aliyuncs.com\/filemanage\/init\/audio\/58\/be72bd702cf23747834e87a6a19ae55d\/b79f9c857e6650493ab21211a47a26d9.mp3?nonce=cfcd208495d565ef66e7dff9f98764da","cover":"","updatetime":"0","height":0,"width":0,"video":"","sort":100,"version":0,"cover2":"","appkey":"init","duration":3,"extra":{},"polyglot":{"en":"Clear And Melodious 5"},"category":"61511705,","audit":0,"is_ugc":0,"type":"audio"},{"id":"1005566","ufid":"82981396","name":"Clear And Melodious 4","file":"http:\/\/rdfile.oss-cn-hangzhou.aliyuncs.com\/filemanage\/init\/audio\/58\/e9955fc47a4fb5ae43a0c35a2a40d1bc\/e580cfcc4efc4eed726c0b92497afec6.mp3?nonce=cfcd208495d565ef66e7dff9f98764da","cover":"","updatetime":"0","height":0,"width":0,"video":"","sort":100,"version":0,"cover2":"","appkey":"init","duration":3,"extra":{},"polyglot":{"en":"Clear And Melodious 4"},"category":"61511705,","audit":0,"is_ugc":0,"type":"audio"},{"id":"1005565","ufid":"53782297","name":"Clear And Melodious 3","file":"http:\/\/rdfile.oss-cn-hangzhou.aliyuncs.com\/filemanage\/init\/audio\/58\/116342bd98a966f85d80ee569b0fb8ee\/b878a7d5ea281e44e43854ebf277bc4f.mp3?nonce=cfcd208495d565ef66e7dff9f98764da","cover":"","updatetime":"0","height":0,"width":0,"video":"","sort":100,"version":0,"cover2":"","appkey":"init","duration":2,"extra":{},"polyglot":{"en":"Clear And Melodious 3"},"category":"61511705,","audit":0,"is_ugc":0,"type":"audio"},{"id":"1005564","ufid":"69285415","name":"Clear And Melodious 2","file":"http:\/\/rdfile.oss-cn-hangzhou.aliyuncs.com\/filemanage\/init\/audio\/58\/c886f8ef04cb4037b53fc8581f8eb906\/7eeae3223b1f25eb71bfad673106e6ff.mp3?nonce=cfcd208495d565ef66e7dff9f98764da","cover":"","updatetime":"0","height":0,"width":0,"video":"","sort":100,"version":0,"cover2":"","appkey":"init","duration":3,"extra":{},"polyglot":{"en":"Clear And Melodious 2"},"category":"61511705,","audit":0,"is_ugc":0,"type":"audio"},{"id":"1005563","ufid":"15718032","name":"Clear And Melodious 1","file":"http:\/\/rdfile.oss-cn-hangzhou.aliyuncs.com\/filemanage\/init\/audio\/58\/477fbc766c8a896d9afe7cdbaa61b772\/1113f1d818863471eb5b867a055213f7.mp3?nonce=cfcd208495d565ef66e7dff9f98764da","cover":"","updatetime":"0","height":0,"width":0,"video":"","sort":100,"version":0,"cover2":"","appkey":"init","duration":1,"extra":{},"polyglot":{"en":"Clear And Melodious 1"},"category":"61511705,","audit":0,"is_ugc":0,"type":"audio"}]}}