{"code":0,"msg":"success","data":{"total":43,"per_page":20,"current_page":2,"last_page":3,"data":[{"id":"1019770","ufid":"77699269","name":"\u704c\u8336","file":"http:\/\/rdfile.oss-cn-hangzhou.aliyuncs.com\/filemanage\/init\/audio\/77699269.mp3?nonce=cfcd208495d565ef66e7dff9f98764da","cover":"http:\/\/rdfile.oss-cn-hangzhou.aliyuncs.com\/filemanage\/init\/audio\/77699269.jpeg?nonce=cfcd208495d565ef66e7dff9f98764da","updatetime":"0","height":0,"width":0,"video":"","sort":0,"version":0,"cover2":"","appkey":"init","duration":8,"extra":{},"polyglot":[],"category":"0","audit":0,"is_ugc":0,"type":"audio"},{"id":"1019769","ufid":"40092345","name":"\u522e\u9c7c\u9cde","file":"http:\/\/rdfile.oss-cn-hangzhou.aliyuncs.com\/filemanage\/init\/audio\/40092345.mp3?nonce=cfcd208495d565ef66e7dff9f98764da","cover":"http:\/\/rdfile.oss-cn-hangzhou.aliyuncs.com\/filemanage\/init\/audio\/40092345.jpeg?nonce=cfcd208495d565ef66e7dff9f98764da","updatetime":"0","height":0,"width":0,"video":"","sort":0,"version":0,"cover2":"","appkey":"init","duration":10,"extra":{},"polyglot":[],"category":"0","audit":0,"is_ugc":0,"type":"audio"},{"id":"1019768","ufid":"13183692","name":"\u9ad8\u7aef\u7684\u98df\u6750\u5f80\u5f80\u53ea\u9700\u8981\u6700\u6734\u7d20\u7684\u70f9\u996a\u65b9\u5f0f","file":"http:\/\/rdfile.oss-cn-hangzhou.aliyuncs.com\/filemanage\/init\/audio\/13183692.mp3?nonce=cfcd208495d565ef66e7dff9f98764da","cover":"http:\/\/rdfile.oss-cn-hangzhou.aliyuncs.com\/filemanage\/init\/audio\/13183692.jpeg?nonce=cfcd208495d565ef66e7dff9f98764da","updatetime":"0","height":0,"width":0,"video":"","sort":0,"version":0,"cover2":"","appkey":"init","duration":12,"extra":{},"polyglot":[],"category":"0","audit":0,"is_ugc":0,"type":"audio"},{"id":"1019767","ufid":"17287625","name":"\u809a\u5b50\u5495\u5495\u53eb","file":"http:\/\/rdfile.oss-cn-hangzhou.aliyuncs.com\/filemanage\/init\/audio\/17287625.mp3?nonce=cfcd208495d565ef66e7dff9f98764da","cover":"http:\/\/rdfile.oss-cn-hangzhou.aliyuncs.com\/filemanage\/init\/audio\/17287625.jpeg?nonce=cfcd208495d565ef66e7dff9f98764da","updatetime":"0","height":0,"width":0,"video":"","sort":0,"version":0,"cover2":"","appkey":"init","duration":2,"extra":{},"polyglot":[],"category":"0","audit":0,"is_ugc":0,"type":"audio"},{"id":"1019766","ufid":"76634476","name":"\u7535\u70ed\u6c34\u58f6\u70e7\u6c34","file":"http:\/\/rdfile.oss-cn-hangzhou.aliyuncs.com\/filemanage\/init\/audio\/76634476.mp3?nonce=cfcd208495d565ef66e7dff9f98764da","cover":"http:\/\/rdfile.oss-cn-hangzhou.aliyuncs.com\/filemanage\/init\/audio\/76634476.jpeg?nonce=cfcd208495d565ef66e7dff9f98764da","updatetime":"0","height":0,"width":0,"video":"","sort":0,"version":0,"cover2":"","appkey":"init","duration":91,"extra":{},"polyglot":[],"category":"0","audit":0,"is_ugc":0,"type":"audio"},{"id":"1019765","ufid":"13449257","name":"\u5927\u53e3\u559d\u8336","file":"http:\/\/rdfile.oss-cn-hangzhou.aliyuncs.com\/filemanage\/init\/audio\/13449257.mp3?nonce=cfcd208495d565ef66e7dff9f98764da","cover":"http:\/\/rdfile.oss-cn-hangzhou.aliyuncs.com\/filemanage\/init\/audio\/13449257.jpeg?nonce=cfcd208495d565ef66e7dff9f98764da","updatetime":"0","height":0,"width":0,"video":"","sort":0,"version":0,"cover2":"","appkey":"init","duration":15,"extra":{},"polyglot":[],"category":"0","audit":0,"is_ugc":0,"type":"audio"},{"id":"1019764","ufid":"59033491","name":"\u6253\u55dd\u58f0","file":"http:\/\/rdfile.oss-cn-hangzhou.aliyuncs.com\/filemanage\/init\/audio\/59033491.mp3?nonce=cfcd208495d565ef66e7dff9f98764da","cover":"http:\/\/rdfile.oss-cn-hangzhou.aliyuncs.com\/filemanage\/init\/audio\/59033491.jpeg?nonce=cfcd208495d565ef66e7dff9f98764da","updatetime":"0","height":0,"width":0,"video":"","sort":0,"version":0,"cover2":"","appkey":"init","duration":1,"extra":{},"polyglot":[],"category":"0","audit":0,"is_ugc":0,"type":"audio"},{"id":"1019763","ufid":"37658220","name":"\u6253\u55dd","file":"http:\/\/rdfile.oss-cn-hangzhou.aliyuncs.com\/filemanage\/init\/audio\/37658220.mp3?nonce=cfcd208495d565ef66e7dff9f98764da","cover":"http:\/\/rdfile.oss-cn-hangzhou.aliyuncs.com\/filemanage\/init\/audio\/37658220.jpeg?nonce=cfcd208495d565ef66e7dff9f98764da","updatetime":"0","height":0,"width":0,"video":"","sort":0,"version":0,"cover2":"","appkey":"init","duration":2,"extra":{},"polyglot":[],"category":"0","audit":0,"is_ugc":0,"type":"audio"},{"id":"1019762","ufid":"59408877","name":"\u6253\u5f00\u7ea2\u9152\u8f6f\u6728\u585e","file":"http:\/\/rdfile.oss-cn-hangzhou.aliyuncs.com\/filemanage\/init\/audio\/59408877.mp3?nonce=cfcd208495d565ef66e7dff9f98764da","cover":"http:\/\/rdfile.oss-cn-hangzhou.aliyuncs.com\/filemanage\/init\/audio\/59408877.jpeg?nonce=cfcd208495d565ef66e7dff9f98764da","updatetime":"0","height":0,"width":0,"video":"","sort":0,"version":0,"cover2":"","appkey":"init","duration":1,"extra":{},"polyglot":[],"category":"0","audit":0,"is_ugc":0,"type":"audio"},{"id":"1019761","ufid":"69825554","name":"\u6253\u5f00\u6446\u6ee1\u5564\u9152\u7684\u51b0\u67dc","file":"http:\/\/rdfile.oss-cn-hangzhou.aliyuncs.com\/filemanage\/init\/audio\/69825554.mp3?nonce=cfcd208495d565ef66e7dff9f98764da","cover":"http:\/\/rdfile.oss-cn-hangzhou.aliyuncs.com\/filemanage\/init\/audio\/69825554.jpeg?nonce=cfcd208495d565ef66e7dff9f98764da","updatetime":"0","height":0,"width":0,"video":"","sort":0,"version":0,"cover2":"","appkey":"init","duration":6,"extra":{},"polyglot":[],"category":"0","audit":0,"is_ugc":0,"type":"audio"},{"id":"1019760","ufid":"88831693","name":"\u6253\u51fb\u8282\u594f","file":"http:\/\/rdfile.oss-cn-hangzhou.aliyuncs.com\/filemanage\/init\/audio\/88831693.mp3?nonce=cfcd208495d565ef66e7dff9f98764da","cover":"http:\/\/rdfile.oss-cn-hangzhou.aliyuncs.com\/filemanage\/init\/audio\/88831693.jpeg?nonce=cfcd208495d565ef66e7dff9f98764da","updatetime":"0","height":0,"width":0,"video":"","sort":0,"version":0,"cover2":"","appkey":"init","duration":8,"extra":{},"polyglot":[],"category":"0","audit":0,"is_ugc":0,"type":"audio"},{"id":"1019759","ufid":"30959218","name":"\u53a8\u623f\u6405\u62cc\u673a\u97f3\u6548","file":"http:\/\/rdfile.oss-cn-hangzhou.aliyuncs.com\/filemanage\/init\/audio\/30959218.mp3?nonce=cfcd208495d565ef66e7dff9f98764da","cover":"http:\/\/rdfile.oss-cn-hangzhou.aliyuncs.com\/filemanage\/init\/audio\/30959218.jpeg?nonce=cfcd208495d565ef66e7dff9f98764da","updatetime":"0","height":0,"width":0,"video":"","sort":0,"version":0,"cover2":"","appkey":"init","duration":5,"extra":{},"polyglot":[],"category":"0","audit":0,"is_ugc":0,"type":"audio"},{"id":"1019758","ufid":"36111751","name":"\u5403\u897f\u74dc\u7684\u58f0\u97f3","file":"http:\/\/rdfile.oss-cn-hangzhou.aliyuncs.com\/filemanage\/init\/audio\/36111751.mp3?nonce=cfcd208495d565ef66e7dff9f98764da","cover":"http:\/\/rdfile.oss-cn-hangzhou.aliyuncs.com\/filemanage\/init\/audio\/36111751.jpeg?nonce=cfcd208495d565ef66e7dff9f98764da","updatetime":"0","height":0,"width":0,"video":"","sort":0,"version":0,"cover2":"","appkey":"init","duration":35,"extra":{},"polyglot":[],"category":"0","audit":0,"is_ugc":0,"type":"audio"},{"id":"1019757","ufid":"19940234","name":"\u5403\u5de7\u514b\u529b\u7684\u58f0\u97f3","file":"http:\/\/rdfile.oss-cn-hangzhou.aliyuncs.com\/filemanage\/init\/audio\/19940234.mp3?nonce=cfcd208495d565ef66e7dff9f98764da","cover":"http:\/\/rdfile.oss-cn-hangzhou.aliyuncs.com\/filemanage\/init\/audio\/19940234.jpeg?nonce=cfcd208495d565ef66e7dff9f98764da","updatetime":"0","height":0,"width":0,"video":"","sort":0,"version":0,"cover2":"","appkey":"init","duration":18,"extra":{},"polyglot":[],"category":"0","audit":0,"is_ugc":0,"type":"audio"},{"id":"1019756","ufid":"92558160","name":"\u5403\u82f9\u679c\u7684\u58f0\u97f3","file":"http:\/\/rdfile.oss-cn-hangzhou.aliyuncs.com\/filemanage\/init\/audio\/92558160.mp3?nonce=cfcd208495d565ef66e7dff9f98764da","cover":"http:\/\/rdfile.oss-cn-hangzhou.aliyuncs.com\/filemanage\/init\/audio\/92558160.jpeg?nonce=cfcd208495d565ef66e7dff9f98764da","updatetime":"0","height":0,"width":0,"video":"","sort":0,"version":0,"cover2":"","appkey":"init","duration":7,"extra":{},"polyglot":[],"category":"0","audit":0,"is_ugc":0,"type":"audio"},{"id":"1019755","ufid":"26098690","name":"\u5403\u9762\u5305","file":"http:\/\/rdfile.oss-cn-hangzhou.aliyuncs.com\/filemanage\/init\/audio\/26098690.mp3?nonce=cfcd208495d565ef66e7dff9f98764da","cover":"http:\/\/rdfile.oss-cn-hangzhou.aliyuncs.com\/filemanage\/init\/audio\/26098690.jpeg?nonce=cfcd208495d565ef66e7dff9f98764da","updatetime":"0","height":0,"width":0,"video":"","sort":0,"version":0,"cover2":"","appkey":"init","duration":13,"extra":{},"polyglot":[],"category":"0","audit":0,"is_ugc":0,"type":"audio"},{"id":"1019754","ufid":"96762929","name":"\u5403\u996d\u5200\u53c9\u58f0","file":"http:\/\/rdfile.oss-cn-hangzhou.aliyuncs.com\/filemanage\/init\/audio\/96762929.mp3?nonce=cfcd208495d565ef66e7dff9f98764da","cover":"http:\/\/rdfile.oss-cn-hangzhou.aliyuncs.com\/filemanage\/init\/audio\/96762929.jpeg?nonce=cfcd208495d565ef66e7dff9f98764da","updatetime":"0","height":0,"width":0,"video":"","sort":0,"version":0,"cover2":"","appkey":"init","duration":9,"extra":{},"polyglot":[],"category":"0","audit":0,"is_ugc":0,"type":"audio"},{"id":"1019753","ufid":"43093308","name":"\u5403\u4e1c\u897f\u88ab\u8fa3\u5230","file":"http:\/\/rdfile.oss-cn-hangzhou.aliyuncs.com\/filemanage\/init\/audio\/43093308.mp3?nonce=cfcd208495d565ef66e7dff9f98764da","cover":"http:\/\/rdfile.oss-cn-hangzhou.aliyuncs.com\/filemanage\/init\/audio\/43093308.jpeg?nonce=cfcd208495d565ef66e7dff9f98764da","updatetime":"0","height":0,"width":0,"video":"","sort":0,"version":0,"cover2":"","appkey":"init","duration":7,"extra":{},"polyglot":[],"category":"0","audit":0,"is_ugc":0,"type":"audio"},{"id":"1019752","ufid":"19023139","name":"\u5403\u997c\u5e72\u7684\u58f0\u97f3","file":"http:\/\/rdfile.oss-cn-hangzhou.aliyuncs.com\/filemanage\/init\/audio\/19023139.mp3?nonce=cfcd208495d565ef66e7dff9f98764da","cover":"http:\/\/rdfile.oss-cn-hangzhou.aliyuncs.com\/filemanage\/init\/audio\/19023139.jpeg?nonce=cfcd208495d565ef66e7dff9f98764da","updatetime":"0","height":0,"width":0,"video":"","sort":0,"version":0,"cover2":"","appkey":"init","duration":55,"extra":{},"polyglot":[],"category":"0","audit":0,"is_ugc":0,"type":"audio"},{"id":"1019751","ufid":"97066456","name":"\u5403\u7206\u7c73\u82b1","file":"http:\/\/rdfile.oss-cn-hangzhou.aliyuncs.com\/filemanage\/init\/audio\/97066456.mp3?nonce=cfcd208495d565ef66e7dff9f98764da","cover":"http:\/\/rdfile.oss-cn-hangzhou.aliyuncs.com\/filemanage\/init\/audio\/97066456.jpeg?nonce=cfcd208495d565ef66e7dff9f98764da","updatetime":"0","height":0,"width":0,"video":"","sort":0,"version":0,"cover2":"","appkey":"init","duration":17,"extra":{},"polyglot":[],"category":"0","audit":0,"is_ugc":0,"type":"audio"}]}}