{"code":0,"msg":"success","data":{"total":21,"per_page":20,"current_page":2,"last_page":2,"data":[{"id":"1024661","ufid":"92291802","name":"\u866b\u5b50\u722c\u52a8","file":"http:\/\/rdfile.oss-cn-hangzhou.aliyuncs.com\/filemanage\/init\/audio\/92291802.mp3?nonce=0315712df9c8bd8c5559128cdcd873b8","cover":"","updatetime":"1697698345","height":0,"width":0,"video":"","sort":0,"version":157,"cover2":"","appkey":"init","duration":7,"extra":{},"polyglot":[],"category":"63659883,","audit":0,"is_ugc":0,"type":"audio"}]}}