{"code":0,"msg":"success","data":{"total":102,"per_page":20,"current_page":2,"last_page":6,"data":[{"id":"1005505","ufid":"15327356","name":"Side Drum","file":"http:\/\/rdfile.oss-cn-hangzhou.aliyuncs.com\/filemanage\/init\/audio\/54\/3f5b6483a18321e015c3b9a3ddc67d9d\/e12ed4cd94628e7dc40ab16fd26c4109.mp3?nonce=c4ea9479da3ff27b280c14e98fc33ecc","cover":"","updatetime":"1697698028","height":0,"width":0,"video":"","sort":100,"version":0,"cover2":"","appkey":"init","duration":1,"extra":{},"polyglot":{"en":"Side Drum"},"category":"79079757,","audit":0,"is_ugc":0,"type":"audio"},{"id":"1005504","ufid":"57306217","name":"The Doorbell","file":"http:\/\/rdfile.oss-cn-hangzhou.aliyuncs.com\/filemanage\/init\/audio\/54\/30da913f90258e2226ac674911b19e68\/b4cccca4a0aa27037806f2336356691b.mp3?nonce=cfcd208495d565ef66e7dff9f98764da","cover":"","updatetime":"0","height":0,"width":0,"video":"","sort":100,"version":0,"cover2":"","appkey":"init","duration":3,"extra":{},"polyglot":{"en":"The Doorbell"},"category":"79079757,","audit":0,"is_ugc":0,"type":"audio"},{"id":"1005503","ufid":"67397889","name":"Huh!?","file":"http:\/\/rdfile.oss-cn-hangzhou.aliyuncs.com\/filemanage\/init\/audio\/54\/dbd2b066253e06549dc754313ab87c27\/0f54c3bb89e83297bfba12922f357461.mp3?nonce=cfcd208495d565ef66e7dff9f98764da","cover":"","updatetime":"0","height":0,"width":0,"video":"","sort":100,"version":0,"cover2":"","appkey":"init","duration":2,"extra":{},"polyglot":{"en":"Huh!?"},"category":"79079757,","audit":0,"is_ugc":0,"type":"audio"},{"id":"1005502","ufid":"69402850","name":"Beat The Drum And Cheer","file":"http:\/\/rdfile.oss-cn-hangzhou.aliyuncs.com\/filemanage\/init\/audio\/54\/4c14aa176981e823f13c3e73da284e6d\/d139d5ad5e57b9e7bf330f49b05e5346.mp3?nonce=cfcd208495d565ef66e7dff9f98764da","cover":"","updatetime":"0","height":0,"width":0,"video":"","sort":100,"version":0,"cover2":"","appkey":"init","duration":3,"extra":{},"polyglot":{"en":"Beat The Drum And Cheer"},"category":"79079757,","audit":0,"is_ugc":0,"type":"audio"},{"id":"1005501","ufid":"82018916","name":"Sting","file":"http:\/\/rdfile.oss-cn-hangzhou.aliyuncs.com\/filemanage\/init\/audio\/54\/16accaa7b348ed0fe2b6e58da2b8f7e0\/5b742b97a06f114f87f6f1701840af50.mp3?nonce=155ac8336942e2d6ed3a763035885b94","cover":"","updatetime":"1697698286","height":0,"width":0,"video":"","sort":100,"version":0,"cover2":"","appkey":"init","duration":2,"extra":{},"polyglot":{"en":"Sting"},"category":"79079757,","audit":0,"is_ugc":0,"type":"audio"},{"id":"1005500","ufid":"20658898","name":"Chronicle Play ","file":"http:\/\/rdfile.oss-cn-hangzhou.aliyuncs.com\/filemanage\/init\/audio\/54\/4de624bab919190a4cdf5694f366b3f7\/91ec5ab3b85641d62335bc5dc80eaa75.mp3?nonce=4b46cce0f91adda34db9c300a6163b06","cover":"","updatetime":"1697698021","height":0,"width":0,"video":"","sort":100,"version":0,"cover2":"","appkey":"init","duration":3,"extra":{},"polyglot":{"en":"Chronicle Play "},"category":"79079757,","audit":0,"is_ugc":0,"type":"audio"},{"id":"1005499","ufid":"69297176","name":"Fly Away","file":"http:\/\/rdfile.oss-cn-hangzhou.aliyuncs.com\/filemanage\/init\/audio\/54\/d4d99598649de3903d14e86a53fc0839\/ee5ca7048d5e6a8e346ff50ecd240396.mp3?nonce=e702a2fef81cff894141da8966ca3b53","cover":"","updatetime":"1697698015","height":0,"width":0,"video":"","sort":100,"version":0,"cover2":"","appkey":"init","duration":2,"extra":{},"polyglot":{"en":"Fly Away"},"category":"79079757,","audit":0,"is_ugc":0,"type":"audio"},{"id":"1005498","ufid":"68146005","name":"Crow ","file":"http:\/\/rdfile.oss-cn-hangzhou.aliyuncs.com\/filemanage\/init\/audio\/54\/e01c34647f513a3de9a152a6d98f439b\/b690b33f9e63b5b515de6d1fe11682ec.mp3?nonce=488502bbd0e9a42bd68d12406ec41d28","cover":"","updatetime":"1697698018","height":0,"width":0,"video":"","sort":100,"version":0,"cover2":"","appkey":"init","duration":3,"extra":{},"polyglot":{"en":"Crow "},"category":"79079757,","audit":0,"is_ugc":0,"type":"audio"},{"id":"1005497","ufid":"37209497","name":"Magnificent","file":"http:\/\/rdfile.oss-cn-hangzhou.aliyuncs.com\/filemanage\/init\/audio\/54\/95a8f146ae5434862a3bb79e64b1489a\/1b2f8cbce59e5114e402b89aa3a1d1a5.mp3?nonce=b56233606a4f397cd4961695c0e6700b","cover":"","updatetime":"1697698017","height":0,"width":0,"video":"","sort":100,"version":0,"cover2":"","appkey":"init","duration":4,"extra":{},"polyglot":{"en":"Magnificent"},"category":"79079757,","audit":0,"is_ugc":0,"type":"audio"},{"id":"1005496","ufid":"26236083","name":"Buzzer","file":"http:\/\/rdfile.oss-cn-hangzhou.aliyuncs.com\/filemanage\/init\/audio\/54\/346d22b80a77a0824f1b3b79034342cb\/2a00ecbcd571fc9dac1f9256db8748d0.mp3?nonce=73254864837550a70eaec6aed528fea2","cover":"","updatetime":"1697698016","height":0,"width":0,"video":"","sort":100,"version":0,"cover2":"","appkey":"init","duration":3,"extra":{},"polyglot":{"en":"Buzzer"},"category":"79079757,","audit":0,"is_ugc":0,"type":"audio"},{"id":"1005495","ufid":"55086405","name":"Shock","file":"http:\/\/rdfile.oss-cn-hangzhou.aliyuncs.com\/filemanage\/init\/audio\/54\/6a06b759fa804e270468e5aa48ed34ec\/24272b906e6fb6ac775b75e2a30befeb.mp3?nonce=2789a9752e5860b75abc043d73493970","cover":"","updatetime":"1697698032","height":0,"width":0,"video":"","sort":100,"version":0,"cover2":"","appkey":"init","duration":3,"extra":{},"polyglot":{"en":"Shock"},"category":"79079757,","audit":0,"is_ugc":0,"type":"audio"},{"id":"1005494","ufid":"73647977","name":"Laughing Stock","file":"http:\/\/rdfile.oss-cn-hangzhou.aliyuncs.com\/filemanage\/init\/audio\/54\/469d984c4055e17af6a48f440bf4bc84\/258001c308498328c7fff7339ca07ee7.mp3?nonce=cfcd208495d565ef66e7dff9f98764da","cover":"","updatetime":"0","height":0,"width":0,"video":"","sort":100,"version":0,"cover2":"","appkey":"init","duration":5,"extra":{},"polyglot":{"en":"Laughing Stock"},"category":"79079757,","audit":0,"is_ugc":0,"type":"audio"},{"id":"1005493","ufid":"54174200","name":"Magic Wand Tool","file":"http:\/\/rdfile.oss-cn-hangzhou.aliyuncs.com\/filemanage\/init\/audio\/54\/adce5c45dd00ef63c5211fa4fb399057\/c2e986b82031b178fc0ca9fa898c54a7.mp3?nonce=4b46cce0f91adda34db9c300a6163b06","cover":"","updatetime":"1697698021","height":0,"width":0,"video":"","sort":100,"version":0,"cover2":"","appkey":"init","duration":3,"extra":{},"polyglot":{"en":"Magic Wand Tool"},"category":"79079757,","audit":0,"is_ugc":0,"type":"audio"},{"id":"1005492","ufid":"43386618","name":"Game Over ","file":"http:\/\/rdfile.oss-cn-hangzhou.aliyuncs.com\/filemanage\/init\/audio\/54\/e9fdfe74d85f4938064f2e9fd3a47030\/94151b4c4a6663bdf99183cd0d0f7ebf.mp3?nonce=5b5f81c8cd718803809807df822a1262","cover":"","updatetime":"1697698031","height":0,"width":0,"video":"","sort":100,"version":0,"cover2":"","appkey":"init","duration":4,"extra":{},"polyglot":{"en":"Game Over "},"category":"79079757,","audit":0,"is_ugc":0,"type":"audio"},{"id":"1005491","ufid":"10731165","name":"Correct Answer","file":"http:\/\/rdfile.oss-cn-hangzhou.aliyuncs.com\/filemanage\/init\/audio\/54\/a3131e39c70e651e7df49680abf526ee\/6cabc9044af6cd8d4a54c4ba5255e009.mp3?nonce=b56233606a4f397cd4961695c0e6700b","cover":"","updatetime":"1697698017","height":0,"width":0,"video":"","sort":100,"version":0,"cover2":"","appkey":"init","duration":2,"extra":{},"polyglot":{"en":"Correct Answer"},"category":"79079757,","audit":0,"is_ugc":0,"type":"audio"},{"id":"1005490","ufid":"26264267","name":"Machinery","file":"http:\/\/rdfile.oss-cn-hangzhou.aliyuncs.com\/filemanage\/init\/audio\/54\/86599a879f8b9f37c97f29398a74f1d6\/bf436575c7cb8461a1bacab6a2a0105a.mp3?nonce=488502bbd0e9a42bd68d12406ec41d28","cover":"","updatetime":"1697698018","height":0,"width":0,"video":"","sort":100,"version":0,"cover2":"","appkey":"init","duration":4,"extra":{},"polyglot":{"en":"Machinery"},"category":"79079757,","audit":0,"is_ugc":0,"type":"audio"},{"id":"1005489","ufid":"94783643","name":"Destiny","file":"http:\/\/rdfile.oss-cn-hangzhou.aliyuncs.com\/filemanage\/init\/audio\/54\/acb1d9f3bbd313faf2c514a018dc2064\/002cace8112bc410ff63c329b5ecd956.mp3?nonce=4b46cce0f91adda34db9c300a6163b06","cover":"","updatetime":"1697698021","height":0,"width":0,"video":"","sort":100,"version":0,"cover2":"","appkey":"init","duration":6,"extra":{},"polyglot":{"en":"Destiny"},"category":"79079757,","audit":0,"is_ugc":0,"type":"audio"},{"id":"1005488","ufid":"19483879","name":"Nervous Heartbeat","file":"http:\/\/rdfile.oss-cn-hangzhou.aliyuncs.com\/filemanage\/init\/audio\/54\/e5bb5a5e5df04264d881d1703f8b8cba\/1219ef43f691d7df96f2ff97571cfd57.mp3?nonce=acdd54b12c64fca423391dfbb080afa6","cover":"","updatetime":"1697698019","height":0,"width":0,"video":"","sort":100,"version":0,"cover2":"","appkey":"init","duration":4,"extra":{},"polyglot":{"en":"Nervous Heartbeat"},"category":"79079757,","audit":0,"is_ugc":0,"type":"audio"},{"id":"1005487","ufid":"46497822","name":"Chinese Wind","file":"http:\/\/rdfile.oss-cn-hangzhou.aliyuncs.com\/filemanage\/init\/audio\/54\/a59fff69681e2b2431f1d0130958cd7d\/c19675f5a5b28bb1487124ab7dfc0874.mp3?nonce=2789a9752e5860b75abc043d73493970","cover":"","updatetime":"1697698032","height":0,"width":0,"video":"","sort":100,"version":0,"cover2":"","appkey":"init","duration":6,"extra":{},"polyglot":{"en":"Chinese Wind"},"category":"79079757,","audit":0,"is_ugc":0,"type":"audio"},{"id":"1005486","ufid":"78518042","name":"Ghost","file":"http:\/\/rdfile.oss-cn-hangzhou.aliyuncs.com\/filemanage\/init\/audio\/54\/b6c946f93673571f8c930b529bb20232\/7f7665c53c358fa450b7c4ea7d88f4bd.mp3?nonce=5b5f81c8cd718803809807df822a1262","cover":"","updatetime":"1697698031","height":0,"width":0,"video":"","sort":100,"version":0,"cover2":"","appkey":"init","duration":9,"extra":{},"polyglot":{"en":"Ghost"},"category":"79079757,","audit":0,"is_ugc":0,"type":"audio"}]}}