{"code":0,"msg":"success","data":{"total":86,"per_page":20,"current_page":2,"last_page":5,"data":[{"id":"1024545","ufid":"97755719","name":"\u6728\u684c\u62bd\u5c49\u6ed1\u52a8\u5f00\u542f","file":"http:\/\/rdfile.oss-cn-hangzhou.aliyuncs.com\/filemanage\/init\/audio\/97755719.mp3?nonce=3a4aac4de01075640fe1daefe458b886","cover":"","updatetime":"1697698318","height":0,"width":0,"video":"","sort":0,"version":157,"cover2":"","appkey":"init","duration":2,"extra":{},"polyglot":[],"category":"90817263,","audit":0,"is_ugc":0,"type":"audio"},{"id":"1024544","ufid":"72264176","name":"\u62c9\u94fe\u62c9\u8d77\u58f0\u97f3","file":"http:\/\/rdfile.oss-cn-hangzhou.aliyuncs.com\/filemanage\/init\/audio\/72264176.mp3?nonce=57866dd3c87ee9724cda7d185a1ca633","cover":"","updatetime":"1697698317","height":0,"width":0,"video":"","sort":0,"version":157,"cover2":"","appkey":"init","duration":1,"extra":{},"polyglot":[],"category":"90817263,","audit":0,"is_ugc":0,"type":"audio"},{"id":"1024543","ufid":"25230673","name":"\u5feb\u901f\u4ece\u4e66\u67b6\u4e0a\u53d6\u4e0b\u4e00\u672c\u4e66","file":"http:\/\/rdfile.oss-cn-hangzhou.aliyuncs.com\/filemanage\/init\/audio\/25230673.mp3?nonce=57866dd3c87ee9724cda7d185a1ca633","cover":"","updatetime":"1697698317","height":0,"width":0,"video":"","sort":0,"version":157,"cover2":"","appkey":"init","duration":1,"extra":{},"polyglot":[],"category":"90817263,","audit":0,"is_ugc":0,"type":"audio"},{"id":"1024542","ufid":"77995423","name":"\u5f00\u95e8\u94a5\u5319\u58f0\u53cd\u9501\u58f0","file":"http:\/\/rdfile.oss-cn-hangzhou.aliyuncs.com\/filemanage\/init\/audio\/77995423.mp3?nonce=57866dd3c87ee9724cda7d185a1ca633","cover":"","updatetime":"1697698317","height":0,"width":0,"video":"","sort":0,"version":157,"cover2":"","appkey":"init","duration":18,"extra":{},"polyglot":[],"category":"90817263,","audit":0,"is_ugc":0,"type":"audio"},{"id":"1024541","ufid":"61661869","name":"\u5bb6\u7528\u626b\u5e1a\u5237\u6bdb\u8d77\u76b1","file":"http:\/\/rdfile.oss-cn-hangzhou.aliyuncs.com\/filemanage\/init\/audio\/61661869.mp3?nonce=57866dd3c87ee9724cda7d185a1ca633","cover":"","updatetime":"1697698317","height":0,"width":0,"video":"","sort":0,"version":157,"cover2":"","appkey":"init","duration":4,"extra":{},"polyglot":[],"category":"90817263,","audit":0,"is_ugc":0,"type":"audio"},{"id":"1024540","ufid":"10583122","name":"\u5bb6\u7528\u6392\u6c14\u6247\u8fd0\u884c","file":"http:\/\/rdfile.oss-cn-hangzhou.aliyuncs.com\/filemanage\/init\/audio\/10583122.mp3?nonce=e2d55132ee455166d08479687f6372ec","cover":"","updatetime":"1697698316","height":0,"width":0,"video":"","sort":0,"version":157,"cover2":"","appkey":"init","duration":46,"extra":{},"polyglot":[],"category":"90817263,","audit":0,"is_ugc":0,"type":"audio"},{"id":"1024539","ufid":"36061415","name":"\u51fb\u4e2d\u5851\u6599\u7ba1","file":"http:\/\/rdfile.oss-cn-hangzhou.aliyuncs.com\/filemanage\/init\/audio\/36061415.mp3?nonce=e2d55132ee455166d08479687f6372ec","cover":"","updatetime":"1697698316","height":0,"width":0,"video":"","sort":0,"version":157,"cover2":"","appkey":"init","duration":1,"extra":{},"polyglot":[],"category":"90817263,","audit":0,"is_ugc":0,"type":"audio"},{"id":"1024538","ufid":"51138161","name":"\u559d\u9178\u5976\u65f6\u5019\u7684\u5438\u7ba1\u58f0","file":"http:\/\/rdfile.oss-cn-hangzhou.aliyuncs.com\/filemanage\/init\/audio\/51138161.mp3?nonce=e2d55132ee455166d08479687f6372ec","cover":"","updatetime":"1697698316","height":0,"width":0,"video":"","sort":0,"version":157,"cover2":"","appkey":"init","duration":3,"extra":{},"polyglot":[],"category":"90817263,","audit":0,"is_ugc":0,"type":"audio"},{"id":"1024537","ufid":"29327402","name":"\u5173\u95e8\u58f0","file":"http:\/\/rdfile.oss-cn-hangzhou.aliyuncs.com\/filemanage\/init\/audio\/29327402.mp3?nonce=e2d55132ee455166d08479687f6372ec","cover":"","updatetime":"1697698316","height":0,"width":0,"video":"","sort":0,"version":157,"cover2":"","appkey":"init","duration":1,"extra":{},"polyglot":[],"category":"90817263,","audit":0,"is_ugc":0,"type":"audio"},{"id":"1024536","ufid":"31740551","name":"\u94a2\u7ba1\u6389\u843d\u5728\u6c34\u6ce5\u5730","file":"http:\/\/rdfile.oss-cn-hangzhou.aliyuncs.com\/filemanage\/init\/audio\/31740551.mp3?nonce=e2d55132ee455166d08479687f6372ec","cover":"","updatetime":"1697698316","height":0,"width":0,"video":"","sort":0,"version":157,"cover2":"","appkey":"init","duration":2,"extra":{},"polyglot":[],"category":"90817263,","audit":0,"is_ugc":0,"type":"audio"},{"id":"1024535","ufid":"31630640","name":"\u653e\u4e0b\u7897","file":"http:\/\/rdfile.oss-cn-hangzhou.aliyuncs.com\/filemanage\/init\/audio\/31630640.mp3?nonce=27431e3184c65bf77d0c82236e7c0716","cover":"","updatetime":"1697698315","height":0,"width":0,"video":"","sort":0,"version":157,"cover2":"","appkey":"init","duration":1,"extra":{},"polyglot":[],"category":"90817263,","audit":0,"is_ugc":0,"type":"audio"},{"id":"1024534","ufid":"30310192","name":"\u8033\u8fb9\u5851\u6599\u7eb8\u7684\u63c9\u634f\u58f0","file":"http:\/\/rdfile.oss-cn-hangzhou.aliyuncs.com\/filemanage\/init\/audio\/30310192.mp3?nonce=27431e3184c65bf77d0c82236e7c0716","cover":"","updatetime":"1697698315","height":0,"width":0,"video":"","sort":0,"version":157,"cover2":"","appkey":"init","duration":4,"extra":{},"polyglot":[],"category":"90817263,","audit":0,"is_ugc":0,"type":"audio"},{"id":"1024533","ufid":"51901239","name":"\u5927\u7269\u54c1\u843d\u6c34\u58f0\u77ed\u6682\u6c34\u82b1","file":"http:\/\/rdfile.oss-cn-hangzhou.aliyuncs.com\/filemanage\/init\/audio\/51901239.mp3?nonce=27431e3184c65bf77d0c82236e7c0716","cover":"","updatetime":"1697698315","height":0,"width":0,"video":"","sort":0,"version":157,"cover2":"","appkey":"init","duration":2,"extra":{},"polyglot":[],"category":"90817263,","audit":0,"is_ugc":0,"type":"audio"},{"id":"1024532","ufid":"47846284","name":"\u5927\u91cf\u7ec6\u788e\u6c99\u77f3\u6eda\u843d","file":"http:\/\/rdfile.oss-cn-hangzhou.aliyuncs.com\/filemanage\/init\/audio\/47846284.mp3?nonce=27431e3184c65bf77d0c82236e7c0716","cover":"","updatetime":"1697698315","height":0,"width":0,"video":"","sort":0,"version":157,"cover2":"","appkey":"init","duration":3,"extra":{},"polyglot":[],"category":"90817263,","audit":0,"is_ugc":0,"type":"audio"},{"id":"1024531","ufid":"10249269","name":"\u6253\u5f00\u8f66\u95e8","file":"http:\/\/rdfile.oss-cn-hangzhou.aliyuncs.com\/filemanage\/init\/audio\/10249269.mp3?nonce=92418649a5d5ec988d305ea36165522d","cover":"","updatetime":"1697698314","height":0,"width":0,"video":"","sort":0,"version":157,"cover2":"","appkey":"init","duration":1,"extra":{},"polyglot":[],"category":"90817263,","audit":0,"is_ugc":0,"type":"audio"},{"id":"1024530","ufid":"72320617","name":"\u4f20\u7edf\u8001\u65e7\u8863\u67dc\u5173\u95e8\u58f0","file":"http:\/\/rdfile.oss-cn-hangzhou.aliyuncs.com\/filemanage\/init\/audio\/72320617.mp3?nonce=92418649a5d5ec988d305ea36165522d","cover":"","updatetime":"1697698314","height":0,"width":0,"video":"","sort":0,"version":157,"cover2":"","appkey":"init","duration":8,"extra":{},"polyglot":[],"category":"90817263,","audit":0,"is_ugc":0,"type":"audio"},{"id":"1024529","ufid":"87434540","name":"\u53a8\u623f\u7897\u67dc\u63a8\u62c9\u58f0","file":"http:\/\/rdfile.oss-cn-hangzhou.aliyuncs.com\/filemanage\/init\/audio\/87434540.mp3?nonce=92418649a5d5ec988d305ea36165522d","cover":"","updatetime":"1697698314","height":0,"width":0,"video":"","sort":0,"version":157,"cover2":"","appkey":"init","duration":13,"extra":{},"polyglot":[],"category":"90817263,","audit":0,"is_ugc":0,"type":"audio"},{"id":"1024528","ufid":"46871391","name":"\u62e8\u6d6a\u9f13","file":"http:\/\/rdfile.oss-cn-hangzhou.aliyuncs.com\/filemanage\/init\/audio\/46871391.mp3?nonce=f422bbcefa2e2fca94476a70a81e7cac","cover":"","updatetime":"1697698313","height":0,"width":0,"video":"","sort":0,"version":157,"cover2":"","appkey":"init","duration":1,"extra":{},"polyglot":[],"category":"90817263,","audit":0,"is_ugc":0,"type":"audio"},{"id":"1024527","ufid":"72686272","name":"\u80cc\u5305\u6447\u52a8","file":"http:\/\/rdfile.oss-cn-hangzhou.aliyuncs.com\/filemanage\/init\/audio\/72686272.mp3?nonce=f422bbcefa2e2fca94476a70a81e7cac","cover":"","updatetime":"1697698313","height":0,"width":0,"video":"","sort":0,"version":157,"cover2":"","appkey":"init","duration":17,"extra":{},"polyglot":[],"category":"90817263,","audit":0,"is_ugc":0,"type":"audio"},{"id":"1024526","ufid":"28280415","name":"\u4fdd\u6e29\u676f\u5012\u6c34\u58f0","file":"http:\/\/rdfile.oss-cn-hangzhou.aliyuncs.com\/filemanage\/init\/audio\/28280415.mp3?nonce=f422bbcefa2e2fca94476a70a81e7cac","cover":"","updatetime":"1697698313","height":0,"width":0,"video":"","sort":0,"version":157,"cover2":"","appkey":"init","duration":18,"extra":{},"polyglot":[],"category":"90817263,","audit":0,"is_ugc":0,"type":"audio"}]}}