{"code":0,"msg":"success","data":{"total":61,"per_page":20,"current_page":2,"last_page":4,"data":[{"id":"1024092","ufid":"92087619","name":"\u94c3\u94db","file":"http:\/\/rdfile.oss-cn-hangzhou.aliyuncs.com\/filemanage\/init\/audio\/92087619.mp3?nonce=3552332bebc07c197250855e71f7e089","cover":"","updatetime":"1697698202","height":0,"width":0,"video":"","sort":0,"version":157,"cover2":"","appkey":"init","duration":7,"extra":{},"polyglot":[],"category":"90925581,","audit":0,"is_ugc":0,"type":"audio"},{"id":"1024091","ufid":"91315008","name":"\u64c2\u9f13","file":"http:\/\/rdfile.oss-cn-hangzhou.aliyuncs.com\/filemanage\/init\/audio\/91315008.mp3?nonce=3552332bebc07c197250855e71f7e089","cover":"","updatetime":"1697698202","height":0,"width":0,"video":"","sort":0,"version":157,"cover2":"","appkey":"init","duration":6,"extra":{},"polyglot":[],"category":"90925581,","audit":0,"is_ugc":0,"type":"audio"},{"id":"1024090","ufid":"18537115","name":"\u519b\u9f13","file":"http:\/\/rdfile.oss-cn-hangzhou.aliyuncs.com\/filemanage\/init\/audio\/18537115.mp3?nonce=3552332bebc07c197250855e71f7e089","cover":"","updatetime":"1697698202","height":0,"width":0,"video":"","sort":0,"version":157,"cover2":"","appkey":"init","duration":2,"extra":{},"polyglot":[],"category":"90925581,","audit":0,"is_ugc":0,"type":"audio"},{"id":"1024089","ufid":"35975073","name":"\u91d1\u5c5e\u64e6\u7247\u6253\u51fb\u97f3\u6548","file":"http:\/\/rdfile.oss-cn-hangzhou.aliyuncs.com\/filemanage\/init\/audio\/35975073.mp3?nonce=45275e910bd8ba5d0257271c28c144a9","cover":"","updatetime":"1697698201","height":0,"width":0,"video":"","sort":0,"version":157,"cover2":"","appkey":"init","duration":3,"extra":{},"polyglot":[],"category":"90925581,","audit":0,"is_ugc":0,"type":"audio"},{"id":"1024088","ufid":"14661014","name":"\u67b6\u5b50\u9f13\u91d1\u5c5e\u7247\u97f3\u6548","file":"http:\/\/rdfile.oss-cn-hangzhou.aliyuncs.com\/filemanage\/init\/audio\/14661014.mp3?nonce=45275e910bd8ba5d0257271c28c144a9","cover":"","updatetime":"1697698201","height":0,"width":0,"video":"","sort":0,"version":157,"cover2":"","appkey":"init","duration":2,"extra":{},"polyglot":[],"category":"90925581,","audit":0,"is_ugc":0,"type":"audio"},{"id":"1024087","ufid":"58017450","name":"\u53e4\u7b5d","file":"http:\/\/rdfile.oss-cn-hangzhou.aliyuncs.com\/filemanage\/init\/audio\/58017450.mp3?nonce=45275e910bd8ba5d0257271c28c144a9","cover":"","updatetime":"1697698201","height":0,"width":0,"video":"","sort":0,"version":157,"cover2":"","appkey":"init","duration":3,"extra":{},"polyglot":[],"category":"90925581,","audit":0,"is_ugc":0,"type":"audio"},{"id":"1024086","ufid":"90358325","name":"\u94a2\u7434 \u60ca\u609a\u5371\u673a\u9884\u611f","file":"http:\/\/rdfile.oss-cn-hangzhou.aliyuncs.com\/filemanage\/init\/audio\/90358325.mp3?nonce=45275e910bd8ba5d0257271c28c144a9","cover":"","updatetime":"1697698201","height":0,"width":0,"video":"","sort":0,"version":157,"cover2":"","appkey":"init","duration":7,"extra":{},"polyglot":[],"category":"90925581,","audit":0,"is_ugc":0,"type":"audio"},{"id":"1024085","ufid":"51814240","name":"\u5f53\u5f53\u5f53~","file":"http:\/\/rdfile.oss-cn-hangzhou.aliyuncs.com\/filemanage\/init\/audio\/51814240.mp3?nonce=757e7bee0ec4348fa376612c7649886d","cover":"","updatetime":"1697698200","height":0,"width":0,"video":"","sort":0,"version":157,"cover2":"","appkey":"init","duration":4,"extra":{},"polyglot":[],"category":"90925581,","audit":0,"is_ugc":0,"type":"audio"},{"id":"1024084","ufid":"65628248","name":"\u5355\u7c27\u7ba1","file":"http:\/\/rdfile.oss-cn-hangzhou.aliyuncs.com\/filemanage\/init\/audio\/65628248.mp3?nonce=757e7bee0ec4348fa376612c7649886d","cover":"","updatetime":"1697698200","height":0,"width":0,"video":"","sort":0,"version":157,"cover2":"","appkey":"init","duration":5,"extra":{},"polyglot":[],"category":"90925581,","audit":0,"is_ugc":0,"type":"audio"},{"id":"1024083","ufid":"44193541","name":"\u5927\u63d0\u7434","file":"http:\/\/rdfile.oss-cn-hangzhou.aliyuncs.com\/filemanage\/init\/audio\/44193541.mp3?nonce=757e7bee0ec4348fa376612c7649886d","cover":"","updatetime":"1697698200","height":0,"width":0,"video":"","sort":0,"version":157,"cover2":"","appkey":"init","duration":4,"extra":{},"polyglot":[],"category":"90925581,","audit":0,"is_ugc":0,"type":"audio"},{"id":"1024082","ufid":"10562573","name":"\u7eaf\u9f13-\u821e\u5343\u5e74","file":"http:\/\/rdfile.oss-cn-hangzhou.aliyuncs.com\/filemanage\/init\/audio\/10562573.mp3?nonce=757e7bee0ec4348fa376612c7649886d","cover":"","updatetime":"1697698200","height":0,"width":0,"video":"","sort":0,"version":157,"cover2":"","appkey":"init","duration":61,"extra":{},"polyglot":[],"category":"90925581,","audit":0,"is_ugc":0,"type":"audio"},{"id":"1024081","ufid":"16046355","name":"\u957f\u7b1b","file":"http:\/\/rdfile.oss-cn-hangzhou.aliyuncs.com\/filemanage\/init\/audio\/16046355.mp3?nonce=3a4aaf132622eb7f6d17e89fd2e0fc03","cover":"","updatetime":"1697698199","height":0,"width":0,"video":"","sort":0,"version":157,"cover2":"","appkey":"init","duration":4,"extra":{},"polyglot":[],"category":"90925581,","audit":0,"is_ugc":0,"type":"audio"},{"id":"1024080","ufid":"55079300","name":"\u85cf\u4f20\u5927\u949f\u58f0","file":"http:\/\/rdfile.oss-cn-hangzhou.aliyuncs.com\/filemanage\/init\/audio\/55079300.mp3?nonce=3a4aaf132622eb7f6d17e89fd2e0fc03","cover":"","updatetime":"1697698199","height":0,"width":0,"video":"","sort":0,"version":157,"cover2":"","appkey":"init","duration":18,"extra":{},"polyglot":[],"category":"90925581,","audit":0,"is_ugc":0,"type":"audio"},{"id":"1024079","ufid":"68563661","name":"\u60b2\u4f24\u7684\u4e8b\u60c5\u53d1\u751f \u94a2\u7434","file":"http:\/\/rdfile.oss-cn-hangzhou.aliyuncs.com\/filemanage\/init\/audio\/68563661.mp3?nonce=3a4aaf132622eb7f6d17e89fd2e0fc03","cover":"","updatetime":"1697698199","height":0,"width":0,"video":"","sort":0,"version":157,"cover2":"","appkey":"init","duration":8,"extra":{},"polyglot":[],"category":"90925581,","audit":0,"is_ugc":0,"type":"audio"},{"id":"1024078","ufid":"79050650","name":"\u516b\u97f3\u76d2","file":"http:\/\/rdfile.oss-cn-hangzhou.aliyuncs.com\/filemanage\/init\/audio\/79050650.mp3?nonce=91aa836eb1fce8424f33f8219f1eaa6f","cover":"","updatetime":"1697698198","height":0,"width":0,"video":"","sort":0,"version":157,"cover2":"","appkey":"init","duration":26,"extra":{},"polyglot":[],"category":"90925581,","audit":0,"is_ugc":0,"type":"audio"},{"id":"1019747","ufid":"63346080","name":"\u94a2\u7434","file":"http:\/\/rdfile.oss-cn-hangzhou.aliyuncs.com\/filemanage\/init\/audio\/63346080.mp3?nonce=45275e910bd8ba5d0257271c28c144a9","cover":"http:\/\/rdfile.oss-cn-hangzhou.aliyuncs.com\/filemanage\/init\/audio\/63346080.jpeg?nonce=45275e910bd8ba5d0257271c28c144a9","updatetime":"1697698201","height":0,"width":0,"video":"","sort":0,"version":0,"cover2":"","appkey":"init","duration":3,"extra":{},"polyglot":[],"category":"0","audit":0,"is_ugc":0,"type":"audio"},{"id":"1019746","ufid":"62275188","name":"\u7af9\u7b1b","file":"http:\/\/rdfile.oss-cn-hangzhou.aliyuncs.com\/filemanage\/init\/audio\/62275188.mp3?nonce=a91b24a96af7d816feadcbe958bb561a","cover":"http:\/\/rdfile.oss-cn-hangzhou.aliyuncs.com\/filemanage\/init\/audio\/62275188.jpeg?nonce=a91b24a96af7d816feadcbe958bb561a","updatetime":"1697698207","height":0,"width":0,"video":"","sort":0,"version":0,"cover2":"","appkey":"init","duration":11,"extra":{},"polyglot":[],"category":"0","audit":0,"is_ugc":0,"type":"audio"},{"id":"1019745","ufid":"59930172","name":"\u5c0f\u519b\u9f13","file":"http:\/\/rdfile.oss-cn-hangzhou.aliyuncs.com\/filemanage\/init\/audio\/59930172.mp3?nonce=9d0818e30e0fe3edc4b0314f3ca222b6","cover":"http:\/\/rdfile.oss-cn-hangzhou.aliyuncs.com\/filemanage\/init\/audio\/59930172.jpeg?nonce=9d0818e30e0fe3edc4b0314f3ca222b6","updatetime":"1697698206","height":0,"width":0,"video":"","sort":0,"version":0,"cover2":"","appkey":"init","duration":1,"extra":{},"polyglot":[],"category":"0","audit":0,"is_ugc":0,"type":"audio"},{"id":"1019744","ufid":"54077585","name":"\u7ad6\u7434","file":"http:\/\/rdfile.oss-cn-hangzhou.aliyuncs.com\/filemanage\/init\/audio\/54077585.mp3?nonce=27d44d9abc8f151eb95cd24c0b883015","cover":"http:\/\/rdfile.oss-cn-hangzhou.aliyuncs.com\/filemanage\/init\/audio\/54077585.jpeg?nonce=27d44d9abc8f151eb95cd24c0b883015","updatetime":"1697698204","height":0,"width":0,"video":"","sort":0,"version":0,"cover2":"","appkey":"init","duration":9,"extra":{},"polyglot":[],"category":"0","audit":0,"is_ugc":0,"type":"audio"},{"id":"1019743","ufid":"17924259","name":"\u4e09\u89d2\u94c1","file":"http:\/\/rdfile.oss-cn-hangzhou.aliyuncs.com\/filemanage\/init\/audio\/17924259.mp3?nonce=cfcd208495d565ef66e7dff9f98764da","cover":"http:\/\/rdfile.oss-cn-hangzhou.aliyuncs.com\/filemanage\/init\/audio\/17924259.jpeg?nonce=cfcd208495d565ef66e7dff9f98764da","updatetime":"0","height":0,"width":0,"video":"","sort":0,"version":0,"cover2":"","appkey":"init","duration":3,"extra":{},"polyglot":[],"category":"0","audit":0,"is_ugc":0,"type":"audio"}]}}