{"code":0,"msg":"success","data":{"total":46,"per_page":20,"current_page":2,"last_page":3,"data":[{"id":"1024599","ufid":"91825437","name":"\u732a\u516b\u6212-\u7334\u54e5\u6551\u6211","file":"http:\/\/rdfile.oss-cn-hangzhou.aliyuncs.com\/filemanage\/init\/audio\/91825437.mp3?nonce=4b4f093aa89f06f7d7f7f7521fcb3661","cover":"","updatetime":"1697698331","height":0,"width":0,"video":"","sort":0,"version":157,"cover2":"","appkey":"init","duration":2,"extra":{},"polyglot":[],"category":"94922262,","audit":0,"is_ugc":0,"type":"audio"},{"id":"1024598","ufid":"55959434","name":"\u732a\u516b\u6212-\u8be5\u6b7b\u7684\u5f3c\u9a6c\u6e29","file":"http:\/\/rdfile.oss-cn-hangzhou.aliyuncs.com\/filemanage\/init\/audio\/55959434.mp3?nonce=4b4f093aa89f06f7d7f7f7521fcb3661","cover":"","updatetime":"1697698331","height":0,"width":0,"video":"","sort":0,"version":157,"cover2":"","appkey":"init","duration":3,"extra":{},"polyglot":[],"category":"94922262,","audit":0,"is_ugc":0,"type":"audio"},{"id":"1024597","ufid":"31106026","name":"\u732a\u516b\u6212-\u5403\u8001\u732a\u4e00\u8019","file":"http:\/\/rdfile.oss-cn-hangzhou.aliyuncs.com\/filemanage\/init\/audio\/31106026.mp3?nonce=4b4f093aa89f06f7d7f7f7521fcb3661","cover":"","updatetime":"1697698331","height":0,"width":0,"video":"","sort":0,"version":157,"cover2":"","appkey":"init","duration":3,"extra":{},"polyglot":[],"category":"94922262,","audit":0,"is_ugc":0,"type":"audio"},{"id":"1024596","ufid":"62486516","name":"\u7476-\u8fd9\u662f\u8c01\u7684\u5c0f\u9e7f","file":"http:\/\/rdfile.oss-cn-hangzhou.aliyuncs.com\/filemanage\/init\/audio\/62486516.mp3?nonce=2e7427d3ec0a9016f6cdff4ed1e3ab3b","cover":"","updatetime":"1697698330","height":0,"width":0,"video":"","sort":0,"version":157,"cover2":"","appkey":"init","duration":2,"extra":{},"polyglot":[],"category":"94922262,","audit":0,"is_ugc":0,"type":"audio"},{"id":"1024595","ufid":"80333056","name":"\u5b59\u5c1a\u9999-\u53ea\u662f\u5916\u8868\u751c\u7f8e","file":"http:\/\/rdfile.oss-cn-hangzhou.aliyuncs.com\/filemanage\/init\/audio\/80333056.mp3?nonce=2e7427d3ec0a9016f6cdff4ed1e3ab3b","cover":"","updatetime":"1697698330","height":0,"width":0,"video":"","sort":0,"version":157,"cover2":"","appkey":"init","duration":2,"extra":{},"polyglot":[],"category":"94922262,","audit":0,"is_ugc":0,"type":"audio"},{"id":"1024594","ufid":"17970958","name":"\u5b59\u5c1a\u9999-\u7cd6\u679c\u5192\u9669","file":"http:\/\/rdfile.oss-cn-hangzhou.aliyuncs.com\/filemanage\/init\/audio\/17970958.mp3?nonce=2e7427d3ec0a9016f6cdff4ed1e3ab3b","cover":"","updatetime":"1697698330","height":0,"width":0,"video":"","sort":0,"version":157,"cover2":"","appkey":"init","duration":11,"extra":{},"polyglot":[],"category":"94922262,","audit":0,"is_ugc":0,"type":"audio"},{"id":"1024593","ufid":"57529337","name":"\u5b59\u5c1a\u9999-\u9001\u4f60\u51fa\u5c40","file":"http:\/\/rdfile.oss-cn-hangzhou.aliyuncs.com\/filemanage\/init\/audio\/57529337.mp3?nonce=9a792debf705a3bb2b95a9e4124980d9","cover":"","updatetime":"1697698329","height":0,"width":0,"video":"","sort":0,"version":157,"cover2":"","appkey":"init","duration":2,"extra":{},"polyglot":[],"category":"94922262,","audit":0,"is_ugc":0,"type":"audio"},{"id":"1024592","ufid":"61411622","name":"\u5b59\u5c1a\u9999-\u8f7b\u677e\u5f97\u5206","file":"http:\/\/rdfile.oss-cn-hangzhou.aliyuncs.com\/filemanage\/init\/audio\/61411622.mp3?nonce=9a792debf705a3bb2b95a9e4124980d9","cover":"","updatetime":"1697698329","height":0,"width":0,"video":"","sort":0,"version":157,"cover2":"","appkey":"init","duration":2,"extra":{},"polyglot":[],"category":"94922262,","audit":0,"is_ugc":0,"type":"audio"},{"id":"1024591","ufid":"52771068","name":"\u5b59\u5c1a\u9999-\u56f0\u5728\u57ce\u5821\u91cc\u7684\u516c\u4e3b","file":"http:\/\/rdfile.oss-cn-hangzhou.aliyuncs.com\/filemanage\/init\/audio\/52771068.mp3?nonce=9a792debf705a3bb2b95a9e4124980d9","cover":"","updatetime":"1697698329","height":0,"width":0,"video":"","sort":0,"version":157,"cover2":"","appkey":"init","duration":5,"extra":{},"polyglot":[],"category":"94922262,","audit":0,"is_ugc":0,"type":"audio"},{"id":"1024590","ufid":"43829757","name":"\u5b59\u5c1a\u9999-\u597d\u5427\u590d\u6d3b","file":"http:\/\/rdfile.oss-cn-hangzhou.aliyuncs.com\/filemanage\/init\/audio\/43829757.mp3?nonce=9a792debf705a3bb2b95a9e4124980d9","cover":"","updatetime":"1697698329","height":0,"width":0,"video":"","sort":0,"version":157,"cover2":"","appkey":"init","duration":3,"extra":{},"polyglot":[],"category":"94922262,","audit":0,"is_ugc":0,"type":"audio"},{"id":"1024589","ufid":"76980931","name":"\u5b59\u5c1a\u9999-\u653b\u51fb\u97f3\u65481","file":"http:\/\/rdfile.oss-cn-hangzhou.aliyuncs.com\/filemanage\/init\/audio\/76980931.mp3?nonce=ad6dc357afb1184ae01b968138f5ed82","cover":"","updatetime":"1697698328","height":0,"width":0,"video":"","sort":0,"version":157,"cover2":"","appkey":"init","duration":2,"extra":{},"polyglot":[],"category":"94922262,","audit":0,"is_ugc":0,"type":"audio"},{"id":"1024588","ufid":"54295123","name":"\u5b59\u5c1a\u9999-\u83dc\u9e1f","file":"http:\/\/rdfile.oss-cn-hangzhou.aliyuncs.com\/filemanage\/init\/audio\/54295123.mp3?nonce=ad6dc357afb1184ae01b968138f5ed82","cover":"","updatetime":"1697698328","height":0,"width":0,"video":"","sort":0,"version":157,"cover2":"","appkey":"init","duration":3,"extra":{},"polyglot":[],"category":"94922262,","audit":0,"is_ugc":0,"type":"audio"},{"id":"1024587","ufid":"19057355","name":"\u53f8\u9a6c\u61ff-\u9884\u8a00\u5373\u5c06\u5b9e\u73b0","file":"http:\/\/rdfile.oss-cn-hangzhou.aliyuncs.com\/filemanage\/init\/audio\/19057355.mp3?nonce=ad6dc357afb1184ae01b968138f5ed82","cover":"","updatetime":"1697698328","height":0,"width":0,"video":"","sort":0,"version":157,"cover2":"","appkey":"init","duration":16,"extra":{},"polyglot":[],"category":"94922262,","audit":0,"is_ugc":0,"type":"audio"},{"id":"1024586","ufid":"73618840","name":"\u53f8\u9a6c\u61ff-\u4e00\u5bf9\u53ef\u601c\u7684\u540e\u8f88","file":"http:\/\/rdfile.oss-cn-hangzhou.aliyuncs.com\/filemanage\/init\/audio\/73618840.mp3?nonce=ad6dc357afb1184ae01b968138f5ed82","cover":"","updatetime":"1697698328","height":0,"width":0,"video":"","sort":0,"version":157,"cover2":"","appkey":"init","duration":8,"extra":{},"polyglot":[],"category":"94922262,","audit":0,"is_ugc":0,"type":"audio"},{"id":"1024585","ufid":"79280029","name":"\u53f8\u9a6c\u61ff-\u8fc5\u901f","file":"http:\/\/rdfile.oss-cn-hangzhou.aliyuncs.com\/filemanage\/init\/audio\/79280029.mp3?nonce=ad6dc357afb1184ae01b968138f5ed82","cover":"","updatetime":"1697698328","height":0,"width":0,"video":"","sort":0,"version":157,"cover2":"","appkey":"init","duration":4,"extra":{},"polyglot":[],"category":"94922262,","audit":0,"is_ugc":0,"type":"audio"},{"id":"1024584","ufid":"21907917","name":"\u53f8\u9a6c\u61ff-\u6211\u65e0\u5904\u4e0d\u5728","file":"http:\/\/rdfile.oss-cn-hangzhou.aliyuncs.com\/filemanage\/init\/audio\/21907917.mp3?nonce=6ef4a6e6263f79c584cd7371caa189e7","cover":"","updatetime":"1697698327","height":0,"width":0,"video":"","sort":0,"version":157,"cover2":"","appkey":"init","duration":3,"extra":{},"polyglot":[],"category":"94922262,","audit":0,"is_ugc":0,"type":"audio"},{"id":"1024583","ufid":"59271035","name":"\u53f8\u9a6c\u61ff-\u9003\u65e0\u53ef\u9003","file":"http:\/\/rdfile.oss-cn-hangzhou.aliyuncs.com\/filemanage\/init\/audio\/59271035.mp3?nonce=6ef4a6e6263f79c584cd7371caa189e7","cover":"","updatetime":"1697698327","height":0,"width":0,"video":"","sort":0,"version":157,"cover2":"","appkey":"init","duration":4,"extra":{},"polyglot":[],"category":"94922262,","audit":0,"is_ugc":0,"type":"audio"},{"id":"1024582","ufid":"96345426","name":"\u53f8\u9a6c\u61ff-\u4eb2\u773c\u89c1\u8bc1","file":"http:\/\/rdfile.oss-cn-hangzhou.aliyuncs.com\/filemanage\/init\/audio\/96345426.mp3?nonce=6ef4a6e6263f79c584cd7371caa189e7","cover":"","updatetime":"1697698327","height":0,"width":0,"video":"","sort":0,"version":157,"cover2":"","appkey":"init","duration":4,"extra":{},"polyglot":[],"category":"94922262,","audit":0,"is_ugc":0,"type":"audio"},{"id":"1024581","ufid":"66329392","name":"\u53f8\u9a6c\u61ff-\u671f\u5f85\u4e0b\u4e00\u4e2a\u5e78\u8fd0\u8005","file":"http:\/\/rdfile.oss-cn-hangzhou.aliyuncs.com\/filemanage\/init\/audio\/66329392.mp3?nonce=6ef4a6e6263f79c584cd7371caa189e7","cover":"","updatetime":"1697698327","height":0,"width":0,"video":"","sort":0,"version":157,"cover2":"","appkey":"init","duration":3,"extra":{},"polyglot":[],"category":"94922262,","audit":0,"is_ugc":0,"type":"audio"},{"id":"1024580","ufid":"81549285","name":"\u53f8\u9a6c\u61ff-\u51dd\u89c6\u6df1\u6e0a","file":"http:\/\/rdfile.oss-cn-hangzhou.aliyuncs.com\/filemanage\/init\/audio\/81549285.mp3?nonce=1f1dd6318e0b1d198356a3a47774685b","cover":"","updatetime":"1697698326","height":0,"width":0,"video":"","sort":0,"version":157,"cover2":"","appkey":"init","duration":4,"extra":{},"polyglot":[],"category":"94922262,","audit":0,"is_ugc":0,"type":"audio"}]}}