{"code":0,"msg":"success","data":{"total":56,"per_page":10,"current_page":3,"last_page":6,"data":[{"id":"1015268","ufid":"60442328","name":"\u7aef\u5348\u5b89\u5eb7","file":"http:\/\/rdfile.oss-cn-hangzhou.aliyuncs.com\/filemanage\/e069b36c568d909f\/templateapi\/16541572064882\/file.zip?nonce=cfcd208495d565ef66e7dff9f98764da","cover":"http:\/\/rdfile.oss-cn-hangzhou.aliyuncs.com\/filemanage\/e069b36c568d909f\/templateapi\/16541572064882\/cover.webp?nonce=cfcd208495d565ef66e7dff9f98764da","updatetime":"0","height":1280,"width":720,"video":"http:\/\/rdfile.oss-cn-hangzhou.aliyuncs.com\/filemanage\/e069b36c568d909f\/templateapi\/16541572064882\/video.mp4?nonce=cfcd208495d565ef66e7dff9f98764da","sort":0,"version":153,"cover2":"","appkey":"init","duration":0,"extra":{},"polyglot":[],"category":"0","audit":0,"is_ugc":0,"text_need":0,"picture_need":0,"video_need":1,"type":"templateapi"},{"id":"1015257","ufid":"11774546","name":"\u516d\u4e00\uff0c\u5feb\u4e50","file":"http:\/\/rdfile.oss-cn-hangzhou.aliyuncs.com\/filemanage\/e069b36c568d909f\/templateapi\/16540707303542\/file.zip?nonce=cfcd208495d565ef66e7dff9f98764da","cover":"http:\/\/rdfile.oss-cn-hangzhou.aliyuncs.com\/filemanage\/e069b36c568d909f\/templateapi\/16540707303542\/cover.webp?nonce=cfcd208495d565ef66e7dff9f98764da","updatetime":"0","height":633,"width":356,"video":"http:\/\/rdfile.oss-cn-hangzhou.aliyuncs.com\/filemanage\/e069b36c568d909f\/templateapi\/16540707303542\/video.mp4?nonce=cfcd208495d565ef66e7dff9f98764da","sort":0,"version":153,"cover2":"","appkey":"init","duration":0,"extra":{},"polyglot":[],"category":"0","audit":0,"is_ugc":0,"text_need":7,"picture_need":4,"video_need":0,"type":"templateapi"},{"id":"1015242","ufid":"95620016","name":"\u516d\u4e00\u513f\u7ae5\u8282\u5feb\u4e50","file":"http:\/\/rdfile.oss-cn-hangzhou.aliyuncs.com\/filemanage\/e069b36c568d909f\/templateapi\/16538950046297\/file.zip?nonce=cfcd208495d565ef66e7dff9f98764da","cover":"http:\/\/rdfile.oss-cn-hangzhou.aliyuncs.com\/filemanage\/e069b36c568d909f\/templateapi\/16538950046297\/cover.webp?nonce=cfcd208495d565ef66e7dff9f98764da","updatetime":"0","height":1280,"width":720,"video":"http:\/\/rdfile.oss-cn-hangzhou.aliyuncs.com\/filemanage\/e069b36c568d909f\/templateapi\/16538950046297\/video.mp4?nonce=cfcd208495d565ef66e7dff9f98764da","sort":0,"version":153,"cover2":"","appkey":"init","duration":0,"extra":{},"polyglot":[],"category":"0","audit":0,"is_ugc":0,"text_need":0,"picture_need":0,"video_need":4,"type":"templateapi"},{"id":"1015213","ufid":"88807309","name":"\u6210\u8bed\u62dc\u65b0\u5e74","file":"http:\/\/rdfile.oss-cn-hangzhou.aliyuncs.com\/filemanage\/e069b36c568d909f\/templateapi\/16533855683958\/file.zip?nonce=7e2b0cff8a7695103d3b6542620ae5d6","cover":"http:\/\/rdfile.oss-cn-hangzhou.aliyuncs.com\/filemanage\/e069b36c568d909f\/templateapi\/16533855683958\/cover.webp?nonce=7e2b0cff8a7695103d3b6542620ae5d6","updatetime":"1684895288","height":633,"width":356,"video":"http:\/\/rdfile.oss-cn-hangzhou.aliyuncs.com\/filemanage\/e069b36c568d909f\/templateapi\/16533855683958\/video.mp4?nonce=7e2b0cff8a7695103d3b6542620ae5d6","sort":0,"version":153,"cover2":"","appkey":"init","duration":0,"extra":{},"polyglot":[],"category":"0","audit":0,"is_ugc":0,"text_need":9,"picture_need":0,"video_need":1,"type":"templateapi"},{"id":"1015149","ufid":"57882475","name":"NBA\u5f0f\u751f\u65e5\u5feb\u4e50","file":"http:\/\/rdfile.oss-cn-hangzhou.aliyuncs.com\/filemanage\/e069b36c568d909f\/templateapi\/16526735375404\/file.zip?nonce=9bb9594c4b8d8fda63baab95341e89d6","cover":"http:\/\/rdfile.oss-cn-hangzhou.aliyuncs.com\/filemanage\/e069b36c568d909f\/templateapi\/16526735375404\/cover.webp?nonce=9bb9594c4b8d8fda63baab95341e89d6","updatetime":"1684895379","height":1280,"width":720,"video":"http:\/\/rdfile.oss-cn-hangzhou.aliyuncs.com\/filemanage\/e069b36c568d909f\/templateapi\/16526735375404\/video.mp4?nonce=9bb9594c4b8d8fda63baab95341e89d6","sort":0,"version":153,"cover2":"","appkey":"init","duration":0,"extra":{},"polyglot":[],"category":"0","audit":0,"is_ugc":0,"text_need":0,"picture_need":0,"video_need":1,"type":"templateapi"},{"id":"1014988","ufid":"16966318","name":"\u611f\u6069\u6bcd\u4eb2\u8282","file":"http:\/\/rdfile.oss-cn-hangzhou.aliyuncs.com\/filemanage\/e069b36c568d909f\/templateapi\/16520822526933\/file.zip?nonce=cfcd208495d565ef66e7dff9f98764da","cover":"http:\/\/rdfile.oss-cn-hangzhou.aliyuncs.com\/filemanage\/e069b36c568d909f\/templateapi\/16520822526933\/cover.webp?nonce=cfcd208495d565ef66e7dff9f98764da","updatetime":"0","height":1280,"width":720,"video":"http:\/\/rdfile.oss-cn-hangzhou.aliyuncs.com\/filemanage\/e069b36c568d909f\/templateapi\/16520822526933\/video.mp4?nonce=cfcd208495d565ef66e7dff9f98764da","sort":0,"version":153,"cover2":"","appkey":"init","duration":0,"extra":{},"polyglot":[],"category":"0","audit":0,"is_ugc":0,"text_need":0,"picture_need":0,"video_need":5,"type":"templateapi"},{"id":"1014973","ufid":"30623120","name":"\u6bcd\u4eb2\u8282","file":"http:\/\/rdfile.oss-cn-hangzhou.aliyuncs.com\/filemanage\/e069b36c568d909f\/templateapi\/16518921674797\/file.zip?nonce=cfcd208495d565ef66e7dff9f98764da","cover":"http:\/\/rdfile.oss-cn-hangzhou.aliyuncs.com\/filemanage\/e069b36c568d909f\/templateapi\/16518921674797\/cover.webp?nonce=cfcd208495d565ef66e7dff9f98764da","updatetime":"0","height":1231,"width":693,"video":"http:\/\/rdfile.oss-cn-hangzhou.aliyuncs.com\/filemanage\/e069b36c568d909f\/templateapi\/16518921674797\/video.mp4?nonce=cfcd208495d565ef66e7dff9f98764da","sort":0,"version":152,"cover2":"","appkey":"init","duration":0,"extra":{},"polyglot":[],"category":"0","audit":0,"is_ugc":0,"text_need":2,"picture_need":0,"video_need":1,"type":"templateapi"},{"id":"1014962","ufid":"94035569","name":"\u7acb\u590f","file":"http:\/\/rdfile.oss-cn-hangzhou.aliyuncs.com\/filemanage\/e069b36c568d909f\/templateapi\/16517215641831\/file.zip?nonce=cfcd208495d565ef66e7dff9f98764da","cover":"http:\/\/rdfile.oss-cn-hangzhou.aliyuncs.com\/filemanage\/e069b36c568d909f\/templateapi\/16517215641831\/cover.webp?nonce=cfcd208495d565ef66e7dff9f98764da","updatetime":"0","height":1231,"width":693,"video":"http:\/\/rdfile.oss-cn-hangzhou.aliyuncs.com\/filemanage\/e069b36c568d909f\/templateapi\/16517215641831\/video.mp4?nonce=cfcd208495d565ef66e7dff9f98764da","sort":0,"version":152,"cover2":"","appkey":"init","duration":0,"extra":{},"polyglot":[],"category":"0","audit":0,"is_ugc":0,"text_need":3,"picture_need":0,"video_need":1,"type":"templateapi"},{"id":"1014765","ufid":"13787052","name":"\u751f\u65e5\u5feb\u4e50","file":"http:\/\/rdfile.oss-cn-hangzhou.aliyuncs.com\/filemanage\/e069b36c568d909f\/templateapi\/16496427363247\/file.zip?nonce=cfcd208495d565ef66e7dff9f98764da","cover":"http:\/\/rdfile.oss-cn-hangzhou.aliyuncs.com\/filemanage\/e069b36c568d909f\/templateapi\/16496427363247\/cover.png?nonce=cfcd208495d565ef66e7dff9f98764da&x-oss-process=style\/templateapi","updatetime":"0","height":1060,"width":596,"video":"http:\/\/rdfile.oss-cn-hangzhou.aliyuncs.com\/filemanage\/e069b36c568d909f\/templateapi\/16496427363247\/video.mp4?nonce=cfcd208495d565ef66e7dff9f98764da","sort":0,"version":152,"cover2":"","appkey":"init","duration":0,"extra":{},"polyglot":[],"category":"0","audit":0,"is_ugc":0,"text_need":2,"picture_need":6,"video_need":0,"type":"templateapi"},{"id":"1014682","ufid":"48447660","name":"\u6e05\u660e","file":"http:\/\/rdfile.oss-cn-hangzhou.aliyuncs.com\/filemanage\/e069b36c568d909f\/templateapi\/16481728925883\/file.zip?nonce=cfcd208495d565ef66e7dff9f98764da","cover":"http:\/\/rdfile.oss-cn-hangzhou.aliyuncs.com\/filemanage\/e069b36c568d909f\/templateapi\/16481728925883\/cover.png?nonce=cfcd208495d565ef66e7dff9f98764da&x-oss-process=style\/templateapi","updatetime":"0","height":1280,"width":720,"video":"http:\/\/rdfile.oss-cn-hangzhou.aliyuncs.com\/filemanage\/e069b36c568d909f\/templateapi\/16481728925883\/video.mp4?nonce=cfcd208495d565ef66e7dff9f98764da","sort":0,"version":150,"cover2":"","appkey":"init","duration":0,"extra":{},"polyglot":[],"category":"0","audit":0,"is_ugc":0,"text_need":0,"picture_need":3,"video_need":0,"type":"templateapi"}]}}