{"code":0,"msg":"success","data":{"total":636,"per_page":10,"current_page":3,"last_page":64,"data":[{"id":"1020697","ufid":"18363898","name":"\u5987\u5973\u8282\u8f93\u5165\u6846","file":"http:\/\/rdfile.oss-cn-hangzhou.aliyuncs.com\/filemanage\/e069b36c568d909f\/templateapi\/16782394472900\/file.zip?nonce=361dc9f6ae0f8edcefae1734622ac635","cover":"http:\/\/rdfile.oss-cn-hangzhou.aliyuncs.com\/filemanage\/e069b36c568d909f\/templateapi\/16782394472900\/cover.webp?nonce=361dc9f6ae0f8edcefae1734622ac635","updatetime":"1704186637","height":1059,"width":794,"video":"http:\/\/rdfile.oss-cn-hangzhou.aliyuncs.com\/filemanage\/e069b36c568d909f\/templateapi\/16782394472900\/video.mp4?nonce=361dc9f6ae0f8edcefae1734622ac635","sort":0,"version":161,"cover2":"","appkey":"init","duration":0,"extra":{},"polyglot":{"en":"Women"},"category":"0","audit":0,"is_ugc":0,"text_need":0,"picture_need":0,"video_need":1,"type":"templateapi"},{"id":"1020669","ufid":"73158771","name":"\u53cc\u5f00\u5c4f\u5f00\u573a\u6548\u679c","file":"http:\/\/rdfile.oss-cn-hangzhou.aliyuncs.com\/filemanage\/e069b36c568d909f\/templateapi\/16777514111713\/file.zip?nonce=361dc9f6ae0f8edcefae1734622ac635","cover":"http:\/\/rdfile.oss-cn-hangzhou.aliyuncs.com\/filemanage\/e069b36c568d909f\/templateapi\/16777514111713\/cover.webp?nonce=361dc9f6ae0f8edcefae1734622ac635","updatetime":"1704186637","height":607,"width":1080,"video":"http:\/\/rdfile.oss-cn-hangzhou.aliyuncs.com\/filemanage\/e069b36c568d909f\/templateapi\/16777514111713\/video.mp4?nonce=361dc9f6ae0f8edcefae1734622ac635","sort":0,"version":159,"cover2":"","appkey":"init","duration":0,"extra":{},"polyglot":{"en":"Double screen opening effect"},"category":"0","audit":0,"is_ugc":0,"text_need":1,"picture_need":0,"video_need":3,"type":"templateapi"},{"id":"1020653","ufid":"98945453","name":"\u9633\u6625\u4e09\u6708","file":"http:\/\/rdfile.oss-cn-hangzhou.aliyuncs.com\/filemanage\/e069b36c568d909f\/templateapi\/16775737207662\/file.zip?nonce=361dc9f6ae0f8edcefae1734622ac635","cover":"http:\/\/rdfile.oss-cn-hangzhou.aliyuncs.com\/filemanage\/e069b36c568d909f\/templateapi\/16775737207662\/cover.webp?nonce=361dc9f6ae0f8edcefae1734622ac635","updatetime":"1704186637","height":607,"width":1080,"video":"http:\/\/rdfile.oss-cn-hangzhou.aliyuncs.com\/filemanage\/e069b36c568d909f\/templateapi\/16775737207662\/video.mp4?nonce=361dc9f6ae0f8edcefae1734622ac635","sort":0,"version":159,"cover2":"","appkey":"init","duration":0,"extra":{},"polyglot":{"en":"Sunny spring March"},"category":"0","audit":0,"is_ugc":0,"text_need":5,"picture_need":0,"video_need":1,"type":"templateapi"},{"id":"1020641","ufid":"36412487","name":"\u7535\u5f71\u843d\u5e55\u6548\u679c","file":"http:\/\/rdfile.oss-cn-hangzhou.aliyuncs.com\/filemanage\/e069b36c568d909f\/templateapi\/16774935875191\/file.zip?nonce=c747841466f77ad06447aa7224c146bb","cover":"http:\/\/rdfile.oss-cn-hangzhou.aliyuncs.com\/filemanage\/e069b36c568d909f\/templateapi\/16774935875191\/cover.webp?nonce=c747841466f77ad06447aa7224c146bb","updatetime":"1704186636","height":607,"width":1080,"video":"http:\/\/rdfile.oss-cn-hangzhou.aliyuncs.com\/filemanage\/e069b36c568d909f\/templateapi\/16774935875191\/video.mp4?nonce=c747841466f77ad06447aa7224c146bb","sort":0,"version":159,"cover2":"","appkey":"init","duration":0,"extra":{},"polyglot":{"en":"Movie ending effect"},"category":"0","audit":0,"is_ugc":0,"text_need":2,"picture_need":0,"video_need":1,"type":"templateapi"},{"id":"1020628","ufid":"47736218","name":"\u5f00\u5f80\u6625\u65e5\u7684\u5217\u8f66","file":"http:\/\/rdfile.oss-cn-hangzhou.aliyuncs.com\/filemanage\/e069b36c568d909f\/templateapi\/16772297336845\/file.zip?nonce=c747841466f77ad06447aa7224c146bb","cover":"http:\/\/rdfile.oss-cn-hangzhou.aliyuncs.com\/filemanage\/e069b36c568d909f\/templateapi\/16772297336845\/cover.webp?nonce=c747841466f77ad06447aa7224c146bb","updatetime":"1704186636","height":1059,"width":794,"video":"http:\/\/rdfile.oss-cn-hangzhou.aliyuncs.com\/filemanage\/e069b36c568d909f\/templateapi\/16772297336845\/video.mp4?nonce=c747841466f77ad06447aa7224c146bb","sort":0,"version":159,"cover2":"","appkey":"init","duration":0,"extra":{},"polyglot":{"en":"Train bound for spring"},"category":"0","audit":0,"is_ugc":0,"text_need":1,"picture_need":0,"video_need":6,"type":"templateapi"},{"id":"1020575","ufid":"94439846","name":"\u7f51\u683c\u62a5\u7eb8","file":"http:\/\/rdfile.oss-cn-hangzhou.aliyuncs.com\/filemanage\/e069b36c568d909f\/templateapi\/16765424577226\/file.zip?nonce=9235d170ef8008d35eae8adfec99ae9f","cover":"http:\/\/rdfile.oss-cn-hangzhou.aliyuncs.com\/filemanage\/e069b36c568d909f\/templateapi\/16765424577226\/cover.webp?nonce=9235d170ef8008d35eae8adfec99ae9f","updatetime":"1704186635","height":1280,"width":720,"video":"http:\/\/rdfile.oss-cn-hangzhou.aliyuncs.com\/filemanage\/e069b36c568d909f\/templateapi\/16765424577226\/video.mp4?nonce=9235d170ef8008d35eae8adfec99ae9f","sort":0,"version":160,"cover2":"","appkey":"init","duration":0,"extra":{},"polyglot":{"en":"Grid newspaper"},"category":"0","audit":0,"is_ugc":0,"text_need":0,"picture_need":18,"video_need":0,"type":"templateapi"},{"id":"1020568","ufid":"17614938","name":"\u9c7c\u773c\u53d8\u8272\u5361\u70b9","file":"http:\/\/rdfile.oss-cn-hangzhou.aliyuncs.com\/filemanage\/e069b36c568d909f\/templateapi\/16765180658418\/file.zip?nonce=9235d170ef8008d35eae8adfec99ae9f","cover":"http:\/\/rdfile.oss-cn-hangzhou.aliyuncs.com\/filemanage\/e069b36c568d909f\/templateapi\/16765180658418\/cover.webp?nonce=9235d170ef8008d35eae8adfec99ae9f","updatetime":"1704186635","height":720,"width":720,"video":"http:\/\/rdfile.oss-cn-hangzhou.aliyuncs.com\/filemanage\/e069b36c568d909f\/templateapi\/16765180658418\/video.mp4?nonce=9235d170ef8008d35eae8adfec99ae9f","sort":0,"version":159,"cover2":"","appkey":"init","duration":0,"extra":{},"polyglot":{"en":"Right time change fisheye"},"category":"0","audit":0,"is_ugc":0,"text_need":0,"picture_need":28,"video_need":0,"type":"templateapi"},{"id":"1020563","ufid":"98823706","name":"\u64ad\u653e\u754c\u9762\u73a9\u6cd5","file":"http:\/\/rdfile.oss-cn-hangzhou.aliyuncs.com\/filemanage\/e069b36c568d909f\/templateapi\/16764553415035\/file.zip?nonce=0c83666adf36e2be101b5661ae6116bf","cover":"http:\/\/rdfile.oss-cn-hangzhou.aliyuncs.com\/filemanage\/e069b36c568d909f\/templateapi\/16764553415035\/cover.webp?nonce=0c83666adf36e2be101b5661ae6116bf","updatetime":"1704186634","height":608,"width":1080,"video":"http:\/\/rdfile.oss-cn-hangzhou.aliyuncs.com\/filemanage\/e069b36c568d909f\/templateapi\/16764553415035\/video.mp4?nonce=0c83666adf36e2be101b5661ae6116bf","sort":0,"version":159,"cover2":"","appkey":"init","duration":0,"extra":{},"polyglot":{"en":"How to play the interface"},"category":"0","audit":0,"is_ugc":0,"text_need":0,"picture_need":0,"video_need":1,"type":"templateapi"},{"id":"1020506","ufid":"50575011","name":"\u6c34\u5370\u753b","file":"http:\/\/rdfile.oss-cn-hangzhou.aliyuncs.com\/filemanage\/e069b36c568d909f\/templateapi\/16763672514568\/file.zip?nonce=0c83666adf36e2be101b5661ae6116bf","cover":"http:\/\/rdfile.oss-cn-hangzhou.aliyuncs.com\/filemanage\/e069b36c568d909f\/templateapi\/16763672514568\/cover.webp?nonce=0c83666adf36e2be101b5661ae6116bf","updatetime":"1704186634","height":1280,"width":720,"video":"http:\/\/rdfile.oss-cn-hangzhou.aliyuncs.com\/filemanage\/e069b36c568d909f\/templateapi\/16763672514568\/video.mp4?nonce=0c83666adf36e2be101b5661ae6116bf","sort":0,"version":160,"cover2":"","appkey":"init","duration":0,"extra":{},"polyglot":{"en":"Watermark painting"},"category":"0","audit":0,"is_ugc":0,"text_need":0,"picture_need":3,"video_need":0,"type":"templateapi"},{"id":"1020505","ufid":"33130836","name":"\u60c5\u4eba\u8282\u5e78\u8fd0\u5927\u62bd\u5956","file":"http:\/\/rdfile.oss-cn-hangzhou.aliyuncs.com\/filemanage\/e069b36c568d909f\/templateapi\/16763642533274\/file.zip?nonce=0c83666adf36e2be101b5661ae6116bf","cover":"http:\/\/rdfile.oss-cn-hangzhou.aliyuncs.com\/filemanage\/e069b36c568d909f\/templateapi\/16763642533274\/cover.webp?nonce=0c83666adf36e2be101b5661ae6116bf","updatetime":"1704186634","height":1058,"width":832,"video":"http:\/\/rdfile.oss-cn-hangzhou.aliyuncs.com\/filemanage\/e069b36c568d909f\/templateapi\/16763642533274\/video.mp4?nonce=0c83666adf36e2be101b5661ae6116bf","sort":0,"version":159,"cover2":"","appkey":"init","duration":0,"extra":{},"polyglot":{"en":"Valentine"},"category":"0","audit":0,"is_ugc":0,"text_need":3,"picture_need":0,"video_need":1,"type":"templateapi"}]}}