{"code":0,"msg":"success","data":{"total":173,"per_page":10,"current_page":3,"last_page":18,"data":[{"id":"1016569","ufid":"57858410","name":"\u559c\u5e16","file":"http:\/\/rdfile.oss-cn-hangzhou.aliyuncs.com\/filemanage\/e069b36c568d909f\/templateapi\/16693680638790\/file.zip?nonce=4e5e300a4c6e6b4cdf371c1aa97c7624","cover":"http:\/\/rdfile.oss-cn-hangzhou.aliyuncs.com\/filemanage\/e069b36c568d909f\/templateapi\/16693680638790\/cover.webp?nonce=4e5e300a4c6e6b4cdf371c1aa97c7624","updatetime":"1704185991","height":1059,"width":794,"video":"http:\/\/rdfile.oss-cn-hangzhou.aliyuncs.com\/filemanage\/e069b36c568d909f\/templateapi\/16693680638790\/video.mp4?nonce=4e5e300a4c6e6b4cdf371c1aa97c7624","sort":0,"version":155,"cover2":"","appkey":"init","duration":0,"extra":{},"polyglot":{"en":"Wedding invitation"},"category":"0","audit":0,"is_ugc":0,"text_need":5,"picture_need":2,"video_need":0,"type":"templateapi"},{"id":"1016546","ufid":"71695585","name":"\u611f\u6069\u8282\u5361\u724c\u6545\u4e8b","file":"http:\/\/rdfile.oss-cn-hangzhou.aliyuncs.com\/filemanage\/e069b36c568d909f\/templateapi\/16692837325928\/file.zip?nonce=433de8afcf62bb797b0875324be1a12f","cover":"http:\/\/rdfile.oss-cn-hangzhou.aliyuncs.com\/filemanage\/e069b36c568d909f\/templateapi\/16692837325928\/cover.webp?nonce=433de8afcf62bb797b0875324be1a12f","updatetime":"1704185990","height":1059,"width":596,"video":"http:\/\/rdfile.oss-cn-hangzhou.aliyuncs.com\/filemanage\/e069b36c568d909f\/templateapi\/16692837325928\/video.mp4?nonce=433de8afcf62bb797b0875324be1a12f","sort":0,"version":155,"cover2":"","appkey":"init","duration":0,"extra":{},"polyglot":{"en":"Thanksgiving Card Story"},"category":"0","audit":0,"is_ugc":0,"text_need":4,"picture_need":0,"video_need":3,"type":"templateapi"},{"id":"1016396","ufid":"76648429","name":"\u8e22\u817f\u53d8\u88c5","file":"http:\/\/rdfile.oss-cn-hangzhou.aliyuncs.com\/filemanage\/e069b36c568d909f\/templateapi\/16679776662779\/file.zip?nonce=8e9beae7b098d6f2d0d45672a31d02f0","cover":"http:\/\/rdfile.oss-cn-hangzhou.aliyuncs.com\/filemanage\/e069b36c568d909f\/templateapi\/16679776662779\/cover.webp?nonce=8e9beae7b098d6f2d0d45672a31d02f0","updatetime":"1704185977","height":1920,"width":1080,"video":"http:\/\/rdfile.oss-cn-hangzhou.aliyuncs.com\/filemanage\/e069b36c568d909f\/templateapi\/16679776662779\/video.mp4?nonce=8e9beae7b098d6f2d0d45672a31d02f0","sort":0,"version":154,"cover2":"","appkey":"6ecb39f1c12f1a35","duration":0,"extra":{},"polyglot":{"en":"Kicks and crossdressing"},"category":"0","audit":0,"is_ugc":0,"text_need":0,"picture_need":0,"video_need":3,"type":"templateapi"},{"id":"1016394","ufid":"47229797","name":"\u697c\u9053\u53d8\u88c5","file":"http:\/\/rdfile.oss-cn-hangzhou.aliyuncs.com\/filemanage\/e069b36c568d909f\/templateapi\/16679744979880\/file.zip?nonce=8e9beae7b098d6f2d0d45672a31d02f0","cover":"http:\/\/rdfile.oss-cn-hangzhou.aliyuncs.com\/filemanage\/e069b36c568d909f\/templateapi\/16679744979880\/cover.webp?nonce=8e9beae7b098d6f2d0d45672a31d02f0","updatetime":"1704185977","height":1920,"width":1080,"video":"http:\/\/rdfile.oss-cn-hangzhou.aliyuncs.com\/filemanage\/e069b36c568d909f\/templateapi\/16679744979880\/video.mp4?nonce=8e9beae7b098d6f2d0d45672a31d02f0","sort":0,"version":154,"cover2":"","appkey":"6ecb39f1c12f1a35","duration":0,"extra":{},"polyglot":{"en":"Cross-dressing on the corridor"},"category":"0","audit":0,"is_ugc":0,"text_need":0,"picture_need":0,"video_need":2,"type":"templateapi"},{"id":"1015280","ufid":"30309792","name":"\u6613\u70ca\u5343\u73ba\u9001\u9ad8\u8003\u795d\u798f","file":"http:\/\/rdfile.oss-cn-hangzhou.aliyuncs.com\/filemanage\/e069b36c568d909f\/templateapi\/16545845621703\/file.zip?nonce=190226cba39d4660f7bcf2b21119e3cb","cover":"http:\/\/rdfile.oss-cn-hangzhou.aliyuncs.com\/filemanage\/e069b36c568d909f\/templateapi\/16545845621703\/cover.webp?nonce=190226cba39d4660f7bcf2b21119e3cb","updatetime":"1704185874","height":607,"width":1080,"video":"http:\/\/rdfile.oss-cn-hangzhou.aliyuncs.com\/filemanage\/e069b36c568d909f\/templateapi\/16545845621703\/video.mp4?nonce=190226cba39d4660f7bcf2b21119e3cb","sort":0,"version":153,"cover2":"","appkey":"init","duration":0,"extra":{},"polyglot":{"en":"Yi Yang Qianxi sends college entrance examination blessings"},"category":"0","audit":0,"is_ugc":0,"text_need":0,"picture_need":0,"video_need":7,"type":"templateapi"},{"id":"1015274","ufid":"28053192","name":"\u9ad8\u8003\u52a0\u6cb9","file":"http:\/\/rdfile.oss-cn-hangzhou.aliyuncs.com\/filemanage\/e069b36c568d909f\/templateapi\/16544939729703\/file.zip?nonce=190226cba39d4660f7bcf2b21119e3cb","cover":"http:\/\/rdfile.oss-cn-hangzhou.aliyuncs.com\/filemanage\/e069b36c568d909f\/templateapi\/16544939729703\/cover.webp?nonce=190226cba39d4660f7bcf2b21119e3cb","updatetime":"1704185874","height":1230,"width":692,"video":"http:\/\/rdfile.oss-cn-hangzhou.aliyuncs.com\/filemanage\/e069b36c568d909f\/templateapi\/16544939729703\/video.mp4?nonce=190226cba39d4660f7bcf2b21119e3cb","sort":0,"version":153,"cover2":"","appkey":"init","duration":0,"extra":{},"polyglot":{"en":"Come on for the college entrance examination"},"category":"0","audit":0,"is_ugc":0,"text_need":1,"picture_need":0,"video_need":1,"type":"templateapi"},{"id":"1020563","ufid":"98823706","name":"\u64ad\u653e\u754c\u9762\u73a9\u6cd5","file":"http:\/\/rdfile.oss-cn-hangzhou.aliyuncs.com\/filemanage\/e069b36c568d909f\/templateapi\/16764553415035\/file.zip?nonce=0c83666adf36e2be101b5661ae6116bf","cover":"http:\/\/rdfile.oss-cn-hangzhou.aliyuncs.com\/filemanage\/e069b36c568d909f\/templateapi\/16764553415035\/cover.webp?nonce=0c83666adf36e2be101b5661ae6116bf","updatetime":"1704186634","height":608,"width":1080,"video":"http:\/\/rdfile.oss-cn-hangzhou.aliyuncs.com\/filemanage\/e069b36c568d909f\/templateapi\/16764553415035\/video.mp4?nonce=0c83666adf36e2be101b5661ae6116bf","sort":0,"version":159,"cover2":"","appkey":"init","duration":0,"extra":{},"polyglot":{"en":"How to play the interface"},"category":"0","audit":0,"is_ugc":0,"text_need":0,"picture_need":0,"video_need":1,"type":"templateapi"},{"id":"1020309","ufid":"30075122","name":"\u9542\u7a7a\u521b\u610f\u6392\u7248\u5f00\u573a\u6548\u679c","file":"http:\/\/rdfile.oss-cn-hangzhou.aliyuncs.com\/filemanage\/e069b36c568d909f\/templateapi\/16729969802725\/file.zip?nonce=bd76f995301e47b5fac417000b286319","cover":"http:\/\/rdfile.oss-cn-hangzhou.aliyuncs.com\/filemanage\/e069b36c568d909f\/templateapi\/16729969802725\/cover.webp?nonce=bd76f995301e47b5fac417000b286319","updatetime":"1704186629","height":607,"width":1080,"video":"http:\/\/rdfile.oss-cn-hangzhou.aliyuncs.com\/filemanage\/e069b36c568d909f\/templateapi\/16729969802725\/video.mp4?nonce=bd76f995301e47b5fac417000b286319","sort":0,"version":158,"cover2":"","appkey":"init","duration":0,"extra":{},"polyglot":{"en":"Hollow creative layout opening effect"},"category":"0","audit":0,"is_ugc":0,"text_need":0,"picture_need":0,"video_need":1,"type":"templateapi"},{"id":"1016420","ufid":"73650038","name":"\u751f\u65e5\u795d\u798f\u5012\u8ba1\u65f6","file":"http:\/\/rdfile.oss-cn-hangzhou.aliyuncs.com\/filemanage\/e069b36c568d909f\/templateapi\/16684145503282\/file.zip?nonce=5a79e0ae5b7d1f4ddb9f3d15f74b7b9d","cover":"http:\/\/rdfile.oss-cn-hangzhou.aliyuncs.com\/filemanage\/e069b36c568d909f\/templateapi\/16684145503282\/cover.webp?nonce=5a79e0ae5b7d1f4ddb9f3d15f74b7b9d","updatetime":"1704185981","height":1746,"width":983,"video":"http:\/\/rdfile.oss-cn-hangzhou.aliyuncs.com\/filemanage\/e069b36c568d909f\/templateapi\/16684145503282\/video.mp4?nonce=5a79e0ae5b7d1f4ddb9f3d15f74b7b9d","sort":0,"version":155,"cover2":"","appkey":"init","duration":0,"extra":{},"polyglot":{"en":"Birthday wishes countdown"},"category":"0","audit":0,"is_ugc":0,"text_need":1,"picture_need":0,"video_need":3,"type":"templateapi"},{"id":"1016387","ufid":"54217533","name":"\u7acb\u51ac","file":"http:\/\/rdfile.oss-cn-hangzhou.aliyuncs.com\/filemanage\/e069b36c568d909f\/templateapi\/16678138404255\/file.zip?nonce=7a450176e02ead0d50a9cb1976a9f2d1","cover":"http:\/\/rdfile.oss-cn-hangzhou.aliyuncs.com\/filemanage\/e069b36c568d909f\/templateapi\/16678138404255\/cover.webp?nonce=7a450176e02ead0d50a9cb1976a9f2d1","updatetime":"1704185976","height":608,"width":1080,"video":"http:\/\/rdfile.oss-cn-hangzhou.aliyuncs.com\/filemanage\/e069b36c568d909f\/templateapi\/16678138404255\/video.mp4?nonce=7a450176e02ead0d50a9cb1976a9f2d1","sort":0,"version":155,"cover2":"","appkey":"init","duration":0,"extra":{},"polyglot":{"en":"Beginning of winter"},"category":"0","audit":0,"is_ugc":0,"text_need":0,"picture_need":0,"video_need":11,"type":"templateapi"}]}}