{"code":0,"msg":"success","data":{"total":636,"per_page":10,"current_page":44,"last_page":64,"data":[{"id":"1013048","ufid":"87782581","name":"\u591a\u5c4f\u5361\u70b9","file":"http:\/\/rdfile.oss-cn-hangzhou.aliyuncs.com\/filemanage\/e069b36c568d909f\/templateapi\/16405821966702\/file.zip?nonce=3878fe3741efa85d6d1717a8ae0065a8","cover":"http:\/\/rdfile.oss-cn-hangzhou.aliyuncs.com\/filemanage\/e069b36c568d909f\/templateapi\/16405821966702\/cover.png?nonce=3878fe3741efa85d6d1717a8ae0065a8&x-oss-process=style\/templateapi","updatetime":"1704185742","height":1231,"width":693,"video":"http:\/\/rdfile.oss-cn-hangzhou.aliyuncs.com\/filemanage\/e069b36c568d909f\/templateapi\/16405821966702\/video.mp4?nonce=3878fe3741efa85d6d1717a8ae0065a8","sort":100,"version":150,"cover2":"","appkey":"init","duration":0,"extra":{},"polyglot":{"en":"Right time multi screen"},"category":"0","audit":0,"is_ugc":0,"text_need":0,"picture_need":1,"video_need":0,"type":"templateapi"},{"id":"1013042","ufid":"10144988","name":"\u5e73\u5b89\u591c","file":"http:\/\/rdfile.oss-cn-hangzhou.aliyuncs.com\/filemanage\/e069b36c568d909f\/templateapi\/16403169115183\/file.zip?nonce=539851e235f93b42ff20a9e077937bad","cover":"http:\/\/rdfile.oss-cn-hangzhou.aliyuncs.com\/filemanage\/e069b36c568d909f\/templateapi\/16403169115183\/cover.png?nonce=539851e235f93b42ff20a9e077937bad&x-oss-process=style\/templateapi","updatetime":"1704185741","height":1230,"width":692,"video":"http:\/\/rdfile.oss-cn-hangzhou.aliyuncs.com\/filemanage\/e069b36c568d909f\/templateapi\/16403169115183\/video.mp4?nonce=539851e235f93b42ff20a9e077937bad","sort":100,"version":150,"cover2":"","appkey":"init","duration":0,"extra":{},"polyglot":{"en":"Christmas Eve"},"category":"0","audit":0,"is_ugc":0,"text_need":3,"picture_need":2,"video_need":0,"type":"templateapi"},{"id":"1013012","ufid":"90739485","name":"\u9177\u70ab\u6b7b\u795e\u53d8\u8eab","file":"http:\/\/rdfile.oss-cn-hangzhou.aliyuncs.com\/filemanage\/e069b36c568d909f\/templateapi\/16402453544077\/file.zip?nonce=e5c87e86dac7abd196504dbaed53d816","cover":"http:\/\/rdfile.oss-cn-hangzhou.aliyuncs.com\/filemanage\/e069b36c568d909f\/templateapi\/16402453544077\/cover.png?nonce=e5c87e86dac7abd196504dbaed53d816&x-oss-process=style\/templateapi","updatetime":"1704185737","height":1284,"width":722,"video":"http:\/\/rdfile.oss-cn-hangzhou.aliyuncs.com\/filemanage\/e069b36c568d909f\/templateapi\/16402453544077\/video.mp4?nonce=e5c87e86dac7abd196504dbaed53d816","sort":100,"version":150,"cover2":"","appkey":"init","duration":0,"extra":{},"polyglot":{"en":"Cool Death Transformation"},"category":"0","audit":0,"is_ugc":0,"text_need":0,"picture_need":1,"video_need":0,"type":"templateapi"},{"id":"1012987","ufid":"51647057","name":"\u51ac\u81f3\u5feb\u4e50","file":"http:\/\/rdfile.oss-cn-hangzhou.aliyuncs.com\/filemanage\/e069b36c568d909f\/templateapi\/16400572062081\/file.zip?nonce=7671257744611edb367223815d97d86d","cover":"http:\/\/rdfile.oss-cn-hangzhou.aliyuncs.com\/filemanage\/e069b36c568d909f\/templateapi\/16400572062081\/cover.png?nonce=7671257744611edb367223815d97d86d&x-oss-process=style\/templateapi","updatetime":"1704185736","height":1230,"width":692,"video":"http:\/\/rdfile.oss-cn-hangzhou.aliyuncs.com\/filemanage\/e069b36c568d909f\/templateapi\/16400572062081\/video.mp4?nonce=7671257744611edb367223815d97d86d","sort":100,"version":150,"cover2":"","appkey":"init","duration":0,"extra":{},"polyglot":{"en":"Happy winter solstice"},"category":"0","audit":0,"is_ugc":0,"text_need":4,"picture_need":9,"video_need":0,"type":"templateapi"},{"id":"1012986","ufid":"28157183","name":"\u5723\u8bde\u8282\u5feb\u4e50","file":"http:\/\/rdfile.oss-cn-hangzhou.aliyuncs.com\/filemanage\/e069b36c568d909f\/templateapi\/16399934343291\/file.zip?nonce=7671257744611edb367223815d97d86d","cover":"http:\/\/rdfile.oss-cn-hangzhou.aliyuncs.com\/filemanage\/e069b36c568d909f\/templateapi\/16399934343291\/cover.png?nonce=7671257744611edb367223815d97d86d&x-oss-process=style\/templateapi","updatetime":"1704185736","height":1231,"width":693,"video":"http:\/\/rdfile.oss-cn-hangzhou.aliyuncs.com\/filemanage\/e069b36c568d909f\/templateapi\/16399934343291\/video.mp4?nonce=7671257744611edb367223815d97d86d","sort":100,"version":150,"cover2":"","appkey":"init","duration":0,"extra":{},"polyglot":{"en":"Merry Christmas"},"category":"0","audit":0,"is_ugc":0,"text_need":0,"picture_need":2,"video_need":0,"type":"templateapi"},{"id":"1012982","ufid":"85433287","name":"\u9047\u89c1\u4f60\u6211\u5f88\u559c\u6b22","file":"http:\/\/rdfile.oss-cn-hangzhou.aliyuncs.com\/filemanage\/e069b36c568d909f\/templateapi\/16399708663496\/file.zip?nonce=7671257744611edb367223815d97d86d","cover":"http:\/\/rdfile.oss-cn-hangzhou.aliyuncs.com\/filemanage\/e069b36c568d909f\/templateapi\/16399708663496\/cover.png?nonce=7671257744611edb367223815d97d86d&x-oss-process=style\/templateapi","updatetime":"1704185736","height":1230,"width":692,"video":"http:\/\/rdfile.oss-cn-hangzhou.aliyuncs.com\/filemanage\/e069b36c568d909f\/templateapi\/16399708663496\/video.mp4?nonce=7671257744611edb367223815d97d86d","sort":100,"version":150,"cover2":"","appkey":"init","duration":0,"extra":{},"polyglot":{"en":"I like you very much when I meet you"},"category":"0","audit":0,"is_ugc":0,"text_need":2,"picture_need":1,"video_need":0,"type":"templateapi"},{"id":"1012978","ufid":"58784410","name":"\u751f\u6d3b\u660e\u6717\uff0c\u4e07\u7269\u53ef\u7231","file":"http:\/\/rdfile.oss-cn-hangzhou.aliyuncs.com\/filemanage\/e069b36c568d909f\/templateapi\/16397295958427\/file.zip?nonce=55658f3d0be66b1e314148ea94b601c3","cover":"http:\/\/rdfile.oss-cn-hangzhou.aliyuncs.com\/filemanage\/e069b36c568d909f\/templateapi\/16397295958427\/cover.png?nonce=55658f3d0be66b1e314148ea94b601c3&x-oss-process=style\/templateapi","updatetime":"1704185735","height":1230,"width":692,"video":"http:\/\/rdfile.oss-cn-hangzhou.aliyuncs.com\/filemanage\/e069b36c568d909f\/templateapi\/16397295958427\/video.mp4?nonce=55658f3d0be66b1e314148ea94b601c3","sort":100,"version":150,"cover2":"","appkey":"init","duration":0,"extra":{},"polyglot":{"en":"Life is bright and everything is lovely"},"category":"0","audit":0,"is_ugc":0,"text_need":0,"picture_need":3,"video_need":0,"type":"templateapi"},{"id":"1012977","ufid":"40400791","name":"\u9000\u51fa\u9152\u573a\u544a\u77e5\u4e66","file":"http:\/\/rdfile.oss-cn-hangzhou.aliyuncs.com\/filemanage\/e069b36c568d909f\/templateapi\/16397149524714\/file.zip?nonce=55658f3d0be66b1e314148ea94b601c3","cover":"http:\/\/rdfile.oss-cn-hangzhou.aliyuncs.com\/filemanage\/e069b36c568d909f\/templateapi\/16397149524714\/cover.png?nonce=55658f3d0be66b1e314148ea94b601c3&x-oss-process=style\/templateapi","updatetime":"1704185735","height":1080,"width":607,"video":"http:\/\/rdfile.oss-cn-hangzhou.aliyuncs.com\/filemanage\/e069b36c568d909f\/templateapi\/16397149524714\/video.mp4?nonce=55658f3d0be66b1e314148ea94b601c3","sort":100,"version":150,"cover2":"","appkey":"init","duration":0,"extra":{},"polyglot":{"en":"Notice of exiting the hotel"},"category":"0","audit":0,"is_ugc":0,"text_need":0,"picture_need":0,"video_need":1,"type":"templateapi"},{"id":"1012974","ufid":"15374940","name":"\u6211\u5c45\u7136\u662f\u7537\u4e3b\u89d2","file":"http:\/\/rdfile.oss-cn-hangzhou.aliyuncs.com\/filemanage\/e069b36c568d909f\/templateapi\/16397099029360\/file.zip?nonce=a5592e4eac9c578d6a30a37a94945276","cover":"http:\/\/rdfile.oss-cn-hangzhou.aliyuncs.com\/filemanage\/e069b36c568d909f\/templateapi\/16397099029360\/cover.png?nonce=a5592e4eac9c578d6a30a37a94945276&x-oss-process=style\/templateapi","updatetime":"1704185734","height":1080,"width":607,"video":"http:\/\/rdfile.oss-cn-hangzhou.aliyuncs.com\/filemanage\/e069b36c568d909f\/templateapi\/16397099029360\/video.mp4?nonce=a5592e4eac9c578d6a30a37a94945276","sort":100,"version":150,"cover2":"","appkey":"init","duration":0,"extra":{},"polyglot":{"en":"I"},"category":"0","audit":0,"is_ugc":0,"text_need":0,"picture_need":0,"video_need":1,"type":"templateapi"},{"id":"1012954","ufid":"92292862","name":"\u7a0b\u5e8f\u5458\u4e4b\u6b4c","file":"http:\/\/rdfile.oss-cn-hangzhou.aliyuncs.com\/filemanage\/e069b36c568d909f\/templateapi\/16393860857279\/file.zip?nonce=a5592e4eac9c578d6a30a37a94945276","cover":"http:\/\/rdfile.oss-cn-hangzhou.aliyuncs.com\/filemanage\/e069b36c568d909f\/templateapi\/16393860857279\/cover.png?nonce=a5592e4eac9c578d6a30a37a94945276&x-oss-process=style\/templateapi","updatetime":"1704185734","height":1080,"width":607,"video":"http:\/\/rdfile.oss-cn-hangzhou.aliyuncs.com\/filemanage\/e069b36c568d909f\/templateapi\/16393860857279\/video.mp4?nonce=a5592e4eac9c578d6a30a37a94945276","sort":100,"version":149,"cover2":"","appkey":"init","duration":0,"extra":{},"polyglot":{"en":"Programmer"},"category":"0","audit":0,"is_ugc":0,"text_need":0,"picture_need":0,"video_need":1,"type":"templateapi"}]}}