{"code":0,"msg":"success","data":{"total":636,"per_page":10,"current_page":16,"last_page":64,"data":[{"id":"1016355","ufid":"38866989","name":"\u665a\u5b89\u7231\u751f\u6d3b\u7231\u81ea\u5df1","file":"http:\/\/rdfile.oss-cn-hangzhou.aliyuncs.com\/filemanage\/e069b36c568d909f\/templateapi\/16674446816796\/file.zip?nonce=d693be29db2d01c1de6636e72101daf2","cover":"http:\/\/rdfile.oss-cn-hangzhou.aliyuncs.com\/filemanage\/e069b36c568d909f\/templateapi\/16674446816796\/cover.webp?nonce=d693be29db2d01c1de6636e72101daf2","updatetime":"1704185972","height":810,"width":1080,"video":"http:\/\/rdfile.oss-cn-hangzhou.aliyuncs.com\/filemanage\/e069b36c568d909f\/templateapi\/16674446816796\/video.mp4?nonce=d693be29db2d01c1de6636e72101daf2","sort":0,"version":154,"cover2":"","appkey":"init","duration":0,"extra":{},"polyglot":{"en":"Good night love life love yourself"},"category":"0","audit":0,"is_ugc":0,"text_need":7,"picture_need":0,"video_need":1,"type":"templateapi"},{"id":"1016353","ufid":"65316687","name":"\u60ac\u6eba \u97f3\u4e50\u5361\u70b9","file":"http:\/\/rdfile.oss-cn-hangzhou.aliyuncs.com\/filemanage\/e069b36c568d909f\/templateapi\/16673806572970\/file.zip?nonce=d693be29db2d01c1de6636e72101daf2","cover":"http:\/\/rdfile.oss-cn-hangzhou.aliyuncs.com\/filemanage\/e069b36c568d909f\/templateapi\/16673806572970\/cover.webp?nonce=d693be29db2d01c1de6636e72101daf2","updatetime":"1704185972","height":1280,"width":720,"video":"http:\/\/rdfile.oss-cn-hangzhou.aliyuncs.com\/filemanage\/e069b36c568d909f\/templateapi\/16673806572970\/video.mp4?nonce=d693be29db2d01c1de6636e72101daf2","sort":0,"version":154,"cover2":"","appkey":"init","duration":0,"extra":{},"polyglot":{"en":"Right time music Hanging and drowning"},"category":"0","audit":0,"is_ugc":0,"text_need":0,"picture_need":0,"video_need":4,"type":"templateapi"},{"id":"1016352","ufid":"36219576","name":"\u9542\u7a7a\u6587\u5b57\u5206\u5272\u5f00\u573a","file":"http:\/\/rdfile.oss-cn-hangzhou.aliyuncs.com\/filemanage\/e069b36c568d909f\/templateapi\/16673777115537\/file.zip?nonce=8fb4779c7ae8fde8fd671013b4a6100f","cover":"http:\/\/rdfile.oss-cn-hangzhou.aliyuncs.com\/filemanage\/e069b36c568d909f\/templateapi\/16673777115537\/cover.webp?nonce=8fb4779c7ae8fde8fd671013b4a6100f","updatetime":"1704185971","height":607,"width":1080,"video":"http:\/\/rdfile.oss-cn-hangzhou.aliyuncs.com\/filemanage\/e069b36c568d909f\/templateapi\/16673777115537\/video.mp4?nonce=8fb4779c7ae8fde8fd671013b4a6100f","sort":0,"version":153,"cover2":"","appkey":"init","duration":0,"extra":{},"polyglot":{"en":"Hollow text segmentation opening"},"category":"0","audit":0,"is_ugc":0,"text_need":0,"picture_need":0,"video_need":1,"type":"templateapi"},{"id":"1016349","ufid":"30718064","name":"\u597d\u597d\u7231\u81ea\u5df1","file":"http:\/\/rdfile.oss-cn-hangzhou.aliyuncs.com\/filemanage\/e069b36c568d909f\/templateapi\/16673751049281\/file.zip?nonce=8fb4779c7ae8fde8fd671013b4a6100f","cover":"http:\/\/rdfile.oss-cn-hangzhou.aliyuncs.com\/filemanage\/e069b36c568d909f\/templateapi\/16673751049281\/cover.webp?nonce=8fb4779c7ae8fde8fd671013b4a6100f","updatetime":"1704185971","height":1746,"width":983,"video":"http:\/\/rdfile.oss-cn-hangzhou.aliyuncs.com\/filemanage\/e069b36c568d909f\/templateapi\/16673751049281\/video.mp4?nonce=8fb4779c7ae8fde8fd671013b4a6100f","sort":0,"version":155,"cover2":"","appkey":"init","duration":0,"extra":{},"polyglot":{"en":"Love yourself"},"category":"0","audit":0,"is_ugc":0,"text_need":0,"picture_need":10,"video_need":0,"type":"templateapi"},{"id":"1016346","ufid":"88525341","name":"\u5907\u5fd8\u5f55","file":"http:\/\/rdfile.oss-cn-hangzhou.aliyuncs.com\/filemanage\/e069b36c568d909f\/templateapi\/16673708561063\/file.zip?nonce=8fb4779c7ae8fde8fd671013b4a6100f","cover":"http:\/\/rdfile.oss-cn-hangzhou.aliyuncs.com\/filemanage\/e069b36c568d909f\/templateapi\/16673708561063\/cover.webp?nonce=8fb4779c7ae8fde8fd671013b4a6100f","updatetime":"1704185971","height":1748,"width":1005,"video":"http:\/\/rdfile.oss-cn-hangzhou.aliyuncs.com\/filemanage\/e069b36c568d909f\/templateapi\/16673708561063\/video.mp4?nonce=8fb4779c7ae8fde8fd671013b4a6100f","sort":0,"version":154,"cover2":"","appkey":"init","duration":0,"extra":{},"polyglot":{"en":"Memo"},"category":"0","audit":0,"is_ugc":0,"text_need":1,"picture_need":0,"video_need":2,"type":"templateapi"},{"id":"1016344","ufid":"34020473","name":"\u4f59\u60c5\u672a\u4e86","file":"http:\/\/rdfile.oss-cn-hangzhou.aliyuncs.com\/filemanage\/e069b36c568d909f\/templateapi\/16673613514227\/file.zip?nonce=8fb4779c7ae8fde8fd671013b4a6100f","cover":"http:\/\/rdfile.oss-cn-hangzhou.aliyuncs.com\/filemanage\/e069b36c568d909f\/templateapi\/16673613514227\/cover.webp?nonce=8fb4779c7ae8fde8fd671013b4a6100f","updatetime":"1704185971","height":1748,"width":1005,"video":"http:\/\/rdfile.oss-cn-hangzhou.aliyuncs.com\/filemanage\/e069b36c568d909f\/templateapi\/16673613514227\/video.mp4?nonce=8fb4779c7ae8fde8fd671013b4a6100f","sort":0,"version":154,"cover2":"","appkey":"init","duration":0,"extra":{},"polyglot":{"en":"Remaining feeling"},"category":"0","audit":0,"is_ugc":0,"text_need":8,"picture_need":0,"video_need":3,"type":"templateapi"},{"id":"1016341","ufid":"48223811","name":"\u63a5\u5316\u53d1 \u53d8\u88c5","file":"http:\/\/rdfile.oss-cn-hangzhou.aliyuncs.com\/filemanage\/e069b36c568d909f\/templateapi\/16673600557849\/file.zip?nonce=8fb4779c7ae8fde8fd671013b4a6100f","cover":"http:\/\/rdfile.oss-cn-hangzhou.aliyuncs.com\/filemanage\/e069b36c568d909f\/templateapi\/16673600557849\/cover.webp?nonce=8fb4779c7ae8fde8fd671013b4a6100f","updatetime":"1704185971","height":1920,"width":1080,"video":"http:\/\/rdfile.oss-cn-hangzhou.aliyuncs.com\/filemanage\/e069b36c568d909f\/templateapi\/16673600557849\/video.mp4?nonce=8fb4779c7ae8fde8fd671013b4a6100f","sort":0,"version":154,"cover2":"","appkey":"6ecb39f1c12f1a35","duration":0,"extra":{},"polyglot":{"en":"Hair extensions Cross-dressing"},"category":"0","audit":0,"is_ugc":0,"text_need":0,"picture_need":0,"video_need":3,"type":"templateapi"},{"id":"1016336","ufid":"22239625","name":"\u6478\u817f\u6740\u53d8\u88c5","file":"http:\/\/rdfile.oss-cn-hangzhou.aliyuncs.com\/filemanage\/e069b36c568d909f\/templateapi\/16672885181392\/file.zip?nonce=8fb4779c7ae8fde8fd671013b4a6100f","cover":"http:\/\/rdfile.oss-cn-hangzhou.aliyuncs.com\/filemanage\/e069b36c568d909f\/templateapi\/16672885181392\/cover.webp?nonce=8fb4779c7ae8fde8fd671013b4a6100f","updatetime":"1704185971","height":1919,"width":1080,"video":"http:\/\/rdfile.oss-cn-hangzhou.aliyuncs.com\/filemanage\/e069b36c568d909f\/templateapi\/16672885181392\/video.mp4?nonce=8fb4779c7ae8fde8fd671013b4a6100f","sort":0,"version":154,"cover2":"","appkey":"6ecb39f1c12f1a35","duration":0,"extra":{},"polyglot":{"en":"Touching legs to kill cross-dressing"},"category":"0","audit":0,"is_ugc":0,"text_need":0,"picture_need":0,"video_need":2,"type":"templateapi"},{"id":"1016335","ufid":"80255506","name":"\u6027\u611f\u5fa1\u59d0\u7f8e\u62cd","file":"http:\/\/rdfile.oss-cn-hangzhou.aliyuncs.com\/filemanage\/e069b36c568d909f\/templateapi\/16672846078873\/file.zip?nonce=7f9018a81484088c7922010e836ad12a","cover":"http:\/\/rdfile.oss-cn-hangzhou.aliyuncs.com\/filemanage\/e069b36c568d909f\/templateapi\/16672846078873\/cover.webp?nonce=7f9018a81484088c7922010e836ad12a","updatetime":"1704185970","height":1280,"width":720,"video":"http:\/\/rdfile.oss-cn-hangzhou.aliyuncs.com\/filemanage\/e069b36c568d909f\/templateapi\/16672846078873\/video.mp4?nonce=7f9018a81484088c7922010e836ad12a","sort":0,"version":154,"cover2":"","appkey":"init","duration":0,"extra":{},"polyglot":{"en":"Sexy Royal Sister Beautiful Photos"},"category":"0","audit":0,"is_ugc":0,"text_need":0,"picture_need":0,"video_need":4,"type":"templateapi"},{"id":"1016334","ufid":"14788151","name":"\u6e05\u65b0\u590f\u65e5\u5c11\u5973\u7f8e\u62cd","file":"http:\/\/rdfile.oss-cn-hangzhou.aliyuncs.com\/filemanage\/e069b36c568d909f\/templateapi\/16672738498296\/file.zip?nonce=7f9018a81484088c7922010e836ad12a","cover":"http:\/\/rdfile.oss-cn-hangzhou.aliyuncs.com\/filemanage\/e069b36c568d909f\/templateapi\/16672738498296\/cover.webp?nonce=7f9018a81484088c7922010e836ad12a","updatetime":"1704185970","height":1920,"width":1080,"video":"http:\/\/rdfile.oss-cn-hangzhou.aliyuncs.com\/filemanage\/e069b36c568d909f\/templateapi\/16672738498296\/video.mp4?nonce=7f9018a81484088c7922010e836ad12a","sort":0,"version":154,"cover2":"","appkey":"init","duration":0,"extra":{},"polyglot":{"en":"Fresh summer girl beauty shots"},"category":"0","audit":0,"is_ugc":0,"text_need":0,"picture_need":0,"video_need":6,"type":"templateapi"}]}}