{"code":0,"msg":"success","data":{"total":636,"per_page":10,"current_page":8,"last_page":64,"data":[{"id":"1016641","ufid":"93821136","name":"\u521b\u610f\u8499\u7248\u8f6c\u573a","file":"http:\/\/rdfile.oss-cn-hangzhou.aliyuncs.com\/filemanage\/e069b36c568d909f\/templateapi\/16698878588388\/file.zip?nonce=cfcd208495d565ef66e7dff9f98764da","cover":"http:\/\/rdfile.oss-cn-hangzhou.aliyuncs.com\/filemanage\/e069b36c568d909f\/templateapi\/16698878588388\/cover.webp?nonce=cfcd208495d565ef66e7dff9f98764da","updatetime":"0","height":1080,"width":1920,"video":"http:\/\/rdfile.oss-cn-hangzhou.aliyuncs.com\/filemanage\/e069b36c568d909f\/templateapi\/16698878588388\/video.mp4?nonce=cfcd208495d565ef66e7dff9f98764da","sort":0,"version":156,"cover2":"","appkey":"init","duration":0,"extra":{},"polyglot":[],"category":"0","audit":0,"is_ugc":0,"text_need":0,"picture_need":0,"video_need":23,"type":"templateapi"},{"id":"1016628","ufid":"31552931","name":"Loveit\u821e\u8e48","file":"http:\/\/rdfile.oss-cn-hangzhou.aliyuncs.com\/filemanage\/e069b36c568d909f\/templateapi\/16698751775073\/file.zip?nonce=cfcd208495d565ef66e7dff9f98764da","cover":"http:\/\/rdfile.oss-cn-hangzhou.aliyuncs.com\/filemanage\/e069b36c568d909f\/templateapi\/16698751775073\/cover.webp?nonce=cfcd208495d565ef66e7dff9f98764da","updatetime":"0","height":1920,"width":1080,"video":"http:\/\/rdfile.oss-cn-hangzhou.aliyuncs.com\/filemanage\/e069b36c568d909f\/templateapi\/16698751775073\/video.mp4?nonce=cfcd208495d565ef66e7dff9f98764da","sort":0,"version":156,"cover2":"","appkey":"6ecb39f1c12f1a35","duration":0,"extra":{},"polyglot":[],"category":"0","audit":0,"is_ugc":0,"text_need":0,"picture_need":0,"video_need":1,"type":"templateapi"},{"id":"1016625","ufid":"98386640","name":"\u5e26\u4e0a\u4f60\u7684\u732b\u79d2\u53d8\u9ed1\u8c79","file":"http:\/\/rdfile.oss-cn-hangzhou.aliyuncs.com\/filemanage\/e069b36c568d909f\/templateapi\/16698712431706\/file.zip?nonce=f0778b80f5dd6a769db6a23c1098386d","cover":"http:\/\/rdfile.oss-cn-hangzhou.aliyuncs.com\/filemanage\/e069b36c568d909f\/templateapi\/16698712431706\/cover.webp?nonce=f0778b80f5dd6a769db6a23c1098386d","updatetime":"1684896148","height":1920,"width":1080,"video":"http:\/\/rdfile.oss-cn-hangzhou.aliyuncs.com\/filemanage\/e069b36c568d909f\/templateapi\/16698712431706\/video.mp4?nonce=f0778b80f5dd6a769db6a23c1098386d","sort":0,"version":156,"cover2":"","appkey":"init","duration":0,"extra":{},"polyglot":[],"category":"0","audit":0,"is_ugc":0,"text_need":0,"picture_need":0,"video_need":2,"type":"templateapi"},{"id":"1016619","ufid":"79586398","name":"\u7247\u5c3e","file":"http:\/\/rdfile.oss-cn-hangzhou.aliyuncs.com\/filemanage\/e069b36c568d909f\/templateapi\/16698101941169\/file.zip?nonce=dceea261fe6b01526774991fe44fe932","cover":"http:\/\/rdfile.oss-cn-hangzhou.aliyuncs.com\/filemanage\/e069b36c568d909f\/templateapi\/16698101941169\/cover.webp?nonce=dceea261fe6b01526774991fe44fe932","updatetime":"1684897963","height":608,"width":1080,"video":"http:\/\/rdfile.oss-cn-hangzhou.aliyuncs.com\/filemanage\/e069b36c568d909f\/templateapi\/16698101941169\/video.mp4?nonce=dceea261fe6b01526774991fe44fe932","sort":0,"version":155,"cover2":"","appkey":"init","duration":0,"extra":{},"polyglot":[],"category":"0","audit":0,"is_ugc":0,"text_need":1,"picture_need":0,"video_need":0,"type":"templateapi"},{"id":"1016608","ufid":"52396594","name":"\u9ad8\u7ea7\u7167\u7247\u5c55\u793a","file":"http:\/\/rdfile.oss-cn-hangzhou.aliyuncs.com\/filemanage\/e069b36c568d909f\/templateapi\/16698017419763\/file.zip?nonce=cfcd208495d565ef66e7dff9f98764da","cover":"http:\/\/rdfile.oss-cn-hangzhou.aliyuncs.com\/filemanage\/e069b36c568d909f\/templateapi\/16698017419763\/cover.webp?nonce=cfcd208495d565ef66e7dff9f98764da","updatetime":"0","height":1920,"width":1080,"video":"http:\/\/rdfile.oss-cn-hangzhou.aliyuncs.com\/filemanage\/e069b36c568d909f\/templateapi\/16698017419763\/video.mp4?nonce=cfcd208495d565ef66e7dff9f98764da","sort":0,"version":156,"cover2":"","appkey":"init","duration":0,"extra":{},"polyglot":[],"category":"0","audit":0,"is_ugc":0,"text_need":0,"picture_need":0,"video_need":3,"type":"templateapi"},{"id":"1016605","ufid":"13714401","name":"Catch My Breath \u97f3\u4e50\u5361\u70b9","file":"http:\/\/rdfile.oss-cn-hangzhou.aliyuncs.com\/filemanage\/e069b36c568d909f\/templateapi\/16697973576310\/file.zip?nonce=cfcd208495d565ef66e7dff9f98764da","cover":"http:\/\/rdfile.oss-cn-hangzhou.aliyuncs.com\/filemanage\/e069b36c568d909f\/templateapi\/16697973576310\/cover.webp?nonce=cfcd208495d565ef66e7dff9f98764da","updatetime":"0","height":1080,"width":1920,"video":"http:\/\/rdfile.oss-cn-hangzhou.aliyuncs.com\/filemanage\/e069b36c568d909f\/templateapi\/16697973576310\/video.mp4?nonce=cfcd208495d565ef66e7dff9f98764da","sort":0,"version":156,"cover2":"","appkey":"init","duration":0,"extra":{},"polyglot":[],"category":"0","audit":0,"is_ugc":0,"text_need":0,"picture_need":0,"video_need":16,"type":"templateapi"},{"id":"1016601","ufid":"46706490","name":"\u9ad8\u7ea7\u5ba3\u4f20\u6a21\u677f","file":"http:\/\/rdfile.oss-cn-hangzhou.aliyuncs.com\/filemanage\/e069b36c568d909f\/templateapi\/16697863368354\/file.zip?nonce=cfcd208495d565ef66e7dff9f98764da","cover":"http:\/\/rdfile.oss-cn-hangzhou.aliyuncs.com\/filemanage\/e069b36c568d909f\/templateapi\/16697863368354\/cover.webp?nonce=cfcd208495d565ef66e7dff9f98764da","updatetime":"0","height":1080,"width":1920,"video":"http:\/\/rdfile.oss-cn-hangzhou.aliyuncs.com\/filemanage\/e069b36c568d909f\/templateapi\/16697863368354\/video.mp4?nonce=cfcd208495d565ef66e7dff9f98764da","sort":0,"version":156,"cover2":"","appkey":"init","duration":0,"extra":{},"polyglot":[],"category":"0","audit":0,"is_ugc":0,"text_need":0,"picture_need":0,"video_need":9,"type":"templateapi"},{"id":"1016595","ufid":"69351008","name":"\u89c6\u9891\u8fdb\u5ea6\u6761","file":"http:\/\/rdfile.oss-cn-hangzhou.aliyuncs.com\/filemanage\/e069b36c568d909f\/templateapi\/16697204054621\/file.zip?nonce=1567f1c762a30fc6e1d956d13c74f114","cover":"http:\/\/rdfile.oss-cn-hangzhou.aliyuncs.com\/filemanage\/e069b36c568d909f\/templateapi\/16697204054621\/cover.webp?nonce=1567f1c762a30fc6e1d956d13c74f114","updatetime":"1684914888","height":607,"width":1080,"video":"http:\/\/rdfile.oss-cn-hangzhou.aliyuncs.com\/filemanage\/e069b36c568d909f\/templateapi\/16697204054621\/video.mp4?nonce=1567f1c762a30fc6e1d956d13c74f114","sort":0,"version":155,"cover2":"","appkey":"init","duration":0,"extra":{},"polyglot":[],"category":"0","audit":0,"is_ugc":0,"text_need":5,"picture_need":0,"video_need":1,"type":"templateapi"},{"id":"1016594","ufid":"99305841","name":"\u9ad8\u7ea7\u611f\u5927\u7247","file":"http:\/\/rdfile.oss-cn-hangzhou.aliyuncs.com\/filemanage\/e069b36c568d909f\/templateapi\/16697144683309\/file.zip?nonce=cfcd208495d565ef66e7dff9f98764da","cover":"http:\/\/rdfile.oss-cn-hangzhou.aliyuncs.com\/filemanage\/e069b36c568d909f\/templateapi\/16697144683309\/cover.webp?nonce=cfcd208495d565ef66e7dff9f98764da","updatetime":"0","height":1080,"width":1920,"video":"http:\/\/rdfile.oss-cn-hangzhou.aliyuncs.com\/filemanage\/e069b36c568d909f\/templateapi\/16697144683309\/video.mp4?nonce=cfcd208495d565ef66e7dff9f98764da","sort":0,"version":156,"cover2":"","appkey":"init","duration":0,"extra":{},"polyglot":[],"category":"0","audit":0,"is_ugc":0,"text_need":0,"picture_need":0,"video_need":13,"type":"templateapi"},{"id":"1016593","ufid":"53182474","name":"\u70ab\u9177\u7279\u6548","file":"http:\/\/rdfile.oss-cn-hangzhou.aliyuncs.com\/filemanage\/e069b36c568d909f\/templateapi\/16697091927007\/file.zip?nonce=cfcd208495d565ef66e7dff9f98764da","cover":"http:\/\/rdfile.oss-cn-hangzhou.aliyuncs.com\/filemanage\/e069b36c568d909f\/templateapi\/16697091927007\/cover.webp?nonce=cfcd208495d565ef66e7dff9f98764da","updatetime":"0","height":1080,"width":1920,"video":"http:\/\/rdfile.oss-cn-hangzhou.aliyuncs.com\/filemanage\/e069b36c568d909f\/templateapi\/16697091927007\/video.mp4?nonce=cfcd208495d565ef66e7dff9f98764da","sort":0,"version":156,"cover2":"","appkey":"init","duration":0,"extra":{},"polyglot":[],"category":"0","audit":0,"is_ugc":0,"text_need":0,"picture_need":0,"video_need":2,"type":"templateapi"}]}}