{"code":0,"msg":"success","data":{"total":173,"per_page":10,"current_page":8,"last_page":18,"data":[{"id":"1015418","ufid":"81604102","name":"\u300a\u8d77\u98ce\u4e86\u300b\u6b4c\u8bcd\u5b57\u5e55","file":"http:\/\/rdfile.oss-cn-hangzhou.aliyuncs.com\/filemanage\/e069b36c568d909f\/templateapi\/16559693943084\/file.zip?nonce=3acc658d220c7a4ddb0bd12d21eb54e0","cover":"http:\/\/rdfile.oss-cn-hangzhou.aliyuncs.com\/filemanage\/e069b36c568d909f\/templateapi\/16559693943084\/cover.webp?nonce=3acc658d220c7a4ddb0bd12d21eb54e0","updatetime":"1704185882","height":1280,"width":720,"video":"http:\/\/rdfile.oss-cn-hangzhou.aliyuncs.com\/filemanage\/e069b36c568d909f\/templateapi\/16559693943084\/video.mp4?nonce=3acc658d220c7a4ddb0bd12d21eb54e0","sort":0,"version":153,"cover2":"","appkey":"init","duration":0,"extra":{},"polyglot":null,"category":"0","audit":0,"is_ugc":0,"text_need":0,"picture_need":0,"video_need":1,"type":"templateapi"},{"id":"1015228","ufid":"81931460","name":"\u4f60\u5728\u6211\u5fc3\u91cc\u4e0b\u4e86\u4e00\u573a\u96e8","file":"http:\/\/rdfile.oss-cn-hangzhou.aliyuncs.com\/filemanage\/e069b36c568d909f\/templateapi\/16535581686572\/file.zip?nonce=44dbd85a416976f75205c98fbb1d38ed","cover":"http:\/\/rdfile.oss-cn-hangzhou.aliyuncs.com\/filemanage\/e069b36c568d909f\/templateapi\/16535581686572\/cover.webp?nonce=44dbd85a416976f75205c98fbb1d38ed","updatetime":"1704185870","height":632,"width":356,"video":"http:\/\/rdfile.oss-cn-hangzhou.aliyuncs.com\/filemanage\/e069b36c568d909f\/templateapi\/16535581686572\/video.mp4?nonce=44dbd85a416976f75205c98fbb1d38ed","sort":0,"version":153,"cover2":"","appkey":"init","duration":0,"extra":{},"polyglot":{"en":"You made a rain in my heart"},"category":"0","audit":0,"is_ugc":0,"text_need":4,"picture_need":1,"video_need":0,"type":"templateapi"},{"id":"1015356","ufid":"64745044","name":"3D\u52a8\u753b\u5361\u70b9","file":"http:\/\/rdfile.oss-cn-hangzhou.aliyuncs.com\/filemanage\/e069b36c568d909f\/templateapi\/16552745738653\/file.zip?nonce=f09214ba9bfe62db202d9d87000a5fb8","cover":"http:\/\/rdfile.oss-cn-hangzhou.aliyuncs.com\/filemanage\/e069b36c568d909f\/templateapi\/16552745738653\/cover.webp?nonce=f09214ba9bfe62db202d9d87000a5fb8","updatetime":"1704185880","height":1280,"width":720,"video":"http:\/\/rdfile.oss-cn-hangzhou.aliyuncs.com\/filemanage\/e069b36c568d909f\/templateapi\/16552745738653\/video.mp4?nonce=f09214ba9bfe62db202d9d87000a5fb8","sort":0,"version":153,"cover2":"","appkey":"init","duration":0,"extra":{},"polyglot":{"en":"Right time 3D animation"},"category":"0","audit":0,"is_ugc":0,"text_need":0,"picture_need":0,"video_need":8,"type":"templateapi"},{"id":"1014884","ufid":"52589959","name":"\u5361\u7247\u76f8\u518c","file":"http:\/\/rdfile.oss-cn-hangzhou.aliyuncs.com\/filemanage\/e069b36c568d909f\/templateapi\/16508559371048\/file.zip?nonce=ec09c7f9ddc955c45bc231645438b8d6","cover":"http:\/\/rdfile.oss-cn-hangzhou.aliyuncs.com\/filemanage\/e069b36c568d909f\/templateapi\/16508559371048\/cover.webp?nonce=ec09c7f9ddc955c45bc231645438b8d6","updatetime":"1704185849","height":720,"width":1278,"video":"http:\/\/rdfile.oss-cn-hangzhou.aliyuncs.com\/filemanage\/e069b36c568d909f\/templateapi\/16508559371048\/video.mp4?nonce=ec09c7f9ddc955c45bc231645438b8d6","sort":0,"version":152,"cover2":"","appkey":"init","duration":0,"extra":{},"polyglot":{"en":"Card album"},"category":"0","audit":0,"is_ugc":0,"text_need":0,"picture_need":23,"video_need":0,"type":"templateapi"},{"id":"1016060","ufid":"29856400","name":"\u751f\u6d3b\u6c1b\u56f4\u611f\u526a\u8f91","file":"http:\/\/rdfile.oss-cn-hangzhou.aliyuncs.com\/filemanage\/e069b36c568d909f\/templateapi\/16642683433319\/file.zip?nonce=4e04310ae494e150d630edadc79c3f49","cover":"http:\/\/rdfile.oss-cn-hangzhou.aliyuncs.com\/filemanage\/e069b36c568d909f\/templateapi\/16642683433319\/cover.webp?nonce=4e04310ae494e150d630edadc79c3f49","updatetime":"1704185938","height":1080,"width":1440,"video":"http:\/\/rdfile.oss-cn-hangzhou.aliyuncs.com\/filemanage\/e069b36c568d909f\/templateapi\/16642683433319\/video.mp4?nonce=4e04310ae494e150d630edadc79c3f49","sort":0,"version":153,"cover2":"","appkey":"init","duration":0,"extra":{},"polyglot":{"en":"Life atmosphere clip"},"category":"0","audit":0,"is_ugc":0,"text_need":0,"picture_need":0,"video_need":7,"type":"templateapi"},{"id":"1016054","ufid":"67083720","name":"\u753b\u68461","file":"http:\/\/rdfile.oss-cn-hangzhou.aliyuncs.com\/filemanage\/e069b36c568d909f\/templateapi\/16641889618038\/file.zip?nonce=59d286cce026402427cd0fc8a9b51a48","cover":"http:\/\/rdfile.oss-cn-hangzhou.aliyuncs.com\/filemanage\/e069b36c568d909f\/templateapi\/16641889618038\/cover.webp?nonce=59d286cce026402427cd0fc8a9b51a48","updatetime":"1704185937","height":1280,"width":720,"video":"http:\/\/rdfile.oss-cn-hangzhou.aliyuncs.com\/filemanage\/e069b36c568d909f\/templateapi\/16641889618038\/video.mp4?nonce=59d286cce026402427cd0fc8a9b51a48","sort":0,"version":153,"cover2":"","appkey":"init","duration":0,"extra":{},"polyglot":{"en":"Frame 1"},"category":"0","audit":0,"is_ugc":0,"text_need":0,"picture_need":0,"video_need":3,"type":"templateapi"},{"id":"1014875","ufid":"24383727","name":"\u7a7a\u95f4\u89c6\u89d2","file":"http:\/\/rdfile.oss-cn-hangzhou.aliyuncs.com\/filemanage\/e069b36c568d909f\/templateapi\/16506208095575\/file.zip?nonce=0a7b33713a90dc1115b3d26c7579901c","cover":"http:\/\/rdfile.oss-cn-hangzhou.aliyuncs.com\/filemanage\/e069b36c568d909f\/templateapi\/16506208095575\/cover.webp?nonce=0a7b33713a90dc1115b3d26c7579901c","updatetime":"1704185848","height":1278,"width":720,"video":"http:\/\/rdfile.oss-cn-hangzhou.aliyuncs.com\/filemanage\/e069b36c568d909f\/templateapi\/16506208095575\/video.mp4?nonce=0a7b33713a90dc1115b3d26c7579901c","sort":0,"version":152,"cover2":"","appkey":"init","duration":0,"extra":{},"polyglot":{"en":"Spatial perspective"},"category":"0","audit":0,"is_ugc":0,"text_need":0,"picture_need":28,"video_need":0,"type":"templateapi"},{"id":"1014871","ufid":"84709665","name":"\u5c42\u53e0\u5927\u7247","file":"http:\/\/rdfile.oss-cn-hangzhou.aliyuncs.com\/filemanage\/e069b36c568d909f\/templateapi\/16505365436183\/file.zip?nonce=0a7b33713a90dc1115b3d26c7579901c","cover":"http:\/\/rdfile.oss-cn-hangzhou.aliyuncs.com\/filemanage\/e069b36c568d909f\/templateapi\/16505365436183\/cover.webp?nonce=0a7b33713a90dc1115b3d26c7579901c","updatetime":"1704185848","height":720,"width":1280,"video":"http:\/\/rdfile.oss-cn-hangzhou.aliyuncs.com\/filemanage\/e069b36c568d909f\/templateapi\/16505365436183\/video.mp4?nonce=0a7b33713a90dc1115b3d26c7579901c","sort":0,"version":152,"cover2":"","appkey":"init","duration":0,"extra":{},"polyglot":{"en":"Stacked blockbusters"},"category":"0","audit":0,"is_ugc":0,"text_need":0,"picture_need":36,"video_need":0,"type":"templateapi"},{"id":"1014873","ufid":"74452313","name":"\u8c03\u67e5\u4e2d","file":"http:\/\/rdfile.oss-cn-hangzhou.aliyuncs.com\/filemanage\/e069b36c568d909f\/templateapi\/16506079878091\/file.zip?nonce=0a7b33713a90dc1115b3d26c7579901c","cover":"http:\/\/rdfile.oss-cn-hangzhou.aliyuncs.com\/filemanage\/e069b36c568d909f\/templateapi\/16506079878091\/cover.webp?nonce=0a7b33713a90dc1115b3d26c7579901c","updatetime":"1704185848","height":720,"width":1252,"video":"http:\/\/rdfile.oss-cn-hangzhou.aliyuncs.com\/filemanage\/e069b36c568d909f\/templateapi\/16506079878091\/video.mp4?nonce=0a7b33713a90dc1115b3d26c7579901c","sort":0,"version":152,"cover2":"","appkey":"init","duration":0,"extra":{},"polyglot":{"en":"Survey"},"category":"0","audit":0,"is_ugc":0,"text_need":0,"picture_need":0,"video_need":9,"type":"templateapi"},{"id":"1014790","ufid":"57401620","name":"\u5f88\u60f3\u67d0\u4eba","file":"http:\/\/rdfile.oss-cn-hangzhou.aliyuncs.com\/filemanage\/e069b36c568d909f\/templateapi\/16498449376883\/file.zip?nonce=1ee65edd0fbb9a0066632f200c4ea150","cover":"http:\/\/rdfile.oss-cn-hangzhou.aliyuncs.com\/filemanage\/e069b36c568d909f\/templateapi\/16498449376883\/cover.png?nonce=1ee65edd0fbb9a0066632f200c4ea150&x-oss-process=style\/templateapi","updatetime":"1704185844","height":633,"width":356,"video":"http:\/\/rdfile.oss-cn-hangzhou.aliyuncs.com\/filemanage\/e069b36c568d909f\/templateapi\/16498449376883\/video.mp4?nonce=1ee65edd0fbb9a0066632f200c4ea150","sort":0,"version":152,"cover2":"","appkey":"init","duration":0,"extra":{},"polyglot":{"en":"Miss someone very much"},"category":"0","audit":0,"is_ugc":0,"text_need":5,"picture_need":5,"video_need":0,"type":"templateapi"}]}}