{"code":0,"msg":"success","data":{"total":143,"per_page":20,"current_page":4,"last_page":8,"data":[{"id":"1024479","ufid":"54145887","name":"\u6b27\u62c9\u6b27\u62c9","file":"http:\/\/rdfile.oss-cn-hangzhou.aliyuncs.com\/filemanage\/init\/audio\/54145887.mp3?nonce=112c8da0a04116a13a74b31a69524e59","cover":"","updatetime":"1697698299","height":0,"width":0,"video":"","sort":0,"version":157,"cover2":"","appkey":"init","duration":4,"extra":{},"polyglot":[],"category":"27108401,","audit":0,"is_ugc":0,"type":"audio"},{"id":"1024478","ufid":"51355192","name":"\u4f60\u6253\u6211\u64a4","file":"http:\/\/rdfile.oss-cn-hangzhou.aliyuncs.com\/filemanage\/init\/audio\/51355192.mp3?nonce=e0817705c90c52aee34844432444c0b5","cover":"","updatetime":"1697698298","height":0,"width":0,"video":"","sort":0,"version":157,"cover2":"","appkey":"init","duration":12,"extra":{},"polyglot":[],"category":"27108401,","audit":0,"is_ugc":0,"type":"audio"},{"id":"1024477","ufid":"81577182","name":"\u4f60\u4e0d\u8981\u8fc7\u6765\u554a","file":"http:\/\/rdfile.oss-cn-hangzhou.aliyuncs.com\/filemanage\/init\/audio\/81577182.mp3?nonce=6f473508f77fe7a5c2d0573cbed36197","cover":"","updatetime":"1697698297","height":0,"width":0,"video":"","sort":0,"version":157,"cover2":"","appkey":"init","duration":3,"extra":{},"polyglot":[],"category":"27108401,","audit":0,"is_ugc":0,"type":"audio"},{"id":"1024476","ufid":"84943880","name":"\u7eb3\u5c3c-\u55ef \u6000\u7591 \u7591\u611f","file":"http:\/\/rdfile.oss-cn-hangzhou.aliyuncs.com\/filemanage\/init\/audio\/84943880.mp3?nonce=6f473508f77fe7a5c2d0573cbed36197","cover":"","updatetime":"1697698297","height":0,"width":0,"video":"","sort":0,"version":157,"cover2":"","appkey":"init","duration":1,"extra":{},"polyglot":[],"category":"27108401,","audit":0,"is_ugc":0,"type":"audio"},{"id":"1024475","ufid":"55976628","name":"\u62ff\u6765\u5427\u4f60","file":"http:\/\/rdfile.oss-cn-hangzhou.aliyuncs.com\/filemanage\/init\/audio\/55976628.mp3?nonce=693635ab6c72c94dc74f264d54fc1d68","cover":"","updatetime":"1697698296","height":0,"width":0,"video":"","sort":0,"version":157,"cover2":"","appkey":"init","duration":1,"extra":{},"polyglot":[],"category":"27108401,","audit":0,"is_ugc":0,"type":"audio"},{"id":"1024474","ufid":"36598839","name":"\u9b54\u6cd5\u94c3\u94db","file":"http:\/\/rdfile.oss-cn-hangzhou.aliyuncs.com\/filemanage\/init\/audio\/36598839.mp3?nonce=693635ab6c72c94dc74f264d54fc1d68","cover":"","updatetime":"1697698296","height":0,"width":0,"video":"","sort":0,"version":157,"cover2":"","appkey":"init","duration":4,"extra":{},"polyglot":[],"category":"27108401,","audit":0,"is_ugc":0,"type":"audio"},{"id":"1024473","ufid":"49222625","name":"\u5362\u672c\u4f1f-\u5362\u5f0f\u72d2\u72d2\u7b11","file":"http:\/\/rdfile.oss-cn-hangzhou.aliyuncs.com\/filemanage\/init\/audio\/49222625.mp3?nonce=693635ab6c72c94dc74f264d54fc1d68","cover":"","updatetime":"1697698296","height":0,"width":0,"video":"","sort":0,"version":157,"cover2":"","appkey":"init","duration":3,"extra":{},"polyglot":[],"category":"27108401,","audit":0,"is_ugc":0,"type":"audio"},{"id":"1024472","ufid":"16100229","name":"\u730e\u6740\u65f6\u523b","file":"http:\/\/rdfile.oss-cn-hangzhou.aliyuncs.com\/filemanage\/init\/audio\/16100229.mp3?nonce=eed291fd731807d97bffd81e1ebec3e3","cover":"","updatetime":"1697698295","height":0,"width":0,"video":"","sort":0,"version":157,"cover2":"","appkey":"init","duration":3,"extra":{},"polyglot":[],"category":"27108401,","audit":0,"is_ugc":0,"type":"audio"},{"id":"1024471","ufid":"50545863","name":"\u7ec3\u4e60\u65f6\u957f\u4e24\u5e74\u534a \u5531\u8df3\u7bee\u7403","file":"http:\/\/rdfile.oss-cn-hangzhou.aliyuncs.com\/filemanage\/init\/audio\/50545863.mp3?nonce=eed291fd731807d97bffd81e1ebec3e3","cover":"","updatetime":"1697698295","height":0,"width":0,"video":"","sort":0,"version":157,"cover2":"","appkey":"init","duration":58,"extra":{},"polyglot":[],"category":"27108401,","audit":0,"is_ugc":0,"type":"audio"},{"id":"1024470","ufid":"94770960","name":"\u8fde\u7eed\u95ee\u53f7","file":"http:\/\/rdfile.oss-cn-hangzhou.aliyuncs.com\/filemanage\/init\/audio\/94770960.mp3?nonce=eed291fd731807d97bffd81e1ebec3e3","cover":"","updatetime":"1697698295","height":0,"width":0,"video":"","sort":0,"version":157,"cover2":"","appkey":"init","duration":2,"extra":{},"polyglot":[],"category":"27108401,","audit":0,"is_ugc":0,"type":"audio"},{"id":"1024469","ufid":"80816542","name":"\u674e\u5b8f\u4f1f \u66dd\u5d1b\u5594\u566a\u5582","file":"http:\/\/rdfile.oss-cn-hangzhou.aliyuncs.com\/filemanage\/init\/audio\/80816542.mp3?nonce=eed291fd731807d97bffd81e1ebec3e3","cover":"","updatetime":"1697698295","height":0,"width":0,"video":"","sort":0,"version":157,"cover2":"","appkey":"init","duration":2,"extra":{},"polyglot":[],"category":"27108401,","audit":0,"is_ugc":0,"type":"audio"},{"id":"1024468","ufid":"21297942","name":"\u72c2\u7b11 \u554a\u54c8\u54c8\u54c8\u54c8\u54c7\u54e6\u54c7\u54e6","file":"http:\/\/rdfile.oss-cn-hangzhou.aliyuncs.com\/filemanage\/init\/audio\/21297942.mp3?nonce=4baa8d885bb036ffdf30c72ffe557680","cover":"","updatetime":"1697698293","height":0,"width":0,"video":"","sort":0,"version":157,"cover2":"","appkey":"init","duration":4,"extra":{},"polyglot":[],"category":"27108401,","audit":0,"is_ugc":0,"type":"audio"},{"id":"1024467","ufid":"39144482","name":"\u5feb\u901f\u673a\u68b0\u952e\u76d8\u6253\u5b57\u97f3\u6548","file":"http:\/\/rdfile.oss-cn-hangzhou.aliyuncs.com\/filemanage\/init\/audio\/39144482.mp3?nonce=4baa8d885bb036ffdf30c72ffe557680","cover":"","updatetime":"1697698293","height":0,"width":0,"video":"","sort":0,"version":157,"cover2":"","appkey":"init","duration":21,"extra":{},"polyglot":[],"category":"27108401,","audit":0,"is_ugc":0,"type":"audio"},{"id":"1024466","ufid":"57780375","name":"\u53ef\u8389-\u51b2\u523a\u5f00\u59cb","file":"http:\/\/rdfile.oss-cn-hangzhou.aliyuncs.com\/filemanage\/init\/audio\/57780375.mp3?nonce=4baa8d885bb036ffdf30c72ffe557680","cover":"","updatetime":"1697698293","height":0,"width":0,"video":"","sort":0,"version":157,"cover2":"","appkey":"init","duration":3,"extra":{},"polyglot":[],"category":"27108401,","audit":0,"is_ugc":0,"type":"audio"},{"id":"1024465","ufid":"16349763","name":"\u53ef\u7231 \u54bb","file":"http:\/\/rdfile.oss-cn-hangzhou.aliyuncs.com\/filemanage\/init\/audio\/16349763.mp3?nonce=4baa8d885bb036ffdf30c72ffe557680","cover":"","updatetime":"1697698293","height":0,"width":0,"video":"","sort":0,"version":157,"cover2":"","appkey":"init","duration":1,"extra":{},"polyglot":[],"category":"27108401,","audit":0,"is_ugc":0,"type":"audio"},{"id":"1024464","ufid":"20232059","name":"\u5361\u5176\u8131\u79bb\u592a","file":"http:\/\/rdfile.oss-cn-hangzhou.aliyuncs.com\/filemanage\/init\/audio\/20232059.mp3?nonce=6736cd8492e911795469b7db82adef9c","cover":"","updatetime":"1697698292","height":0,"width":0,"video":"","sort":0,"version":157,"cover2":"","appkey":"init","duration":31,"extra":{},"polyglot":[],"category":"27108401,","audit":0,"is_ugc":0,"type":"audio"},{"id":"1024463","ufid":"12591485","name":"\u60ca\uff01","file":"http:\/\/rdfile.oss-cn-hangzhou.aliyuncs.com\/filemanage\/init\/audio\/12591485.mp3?nonce=6736cd8492e911795469b7db82adef9c","cover":"","updatetime":"1697698292","height":0,"width":0,"video":"","sort":0,"version":157,"cover2":"","appkey":"init","duration":1,"extra":{},"polyglot":[],"category":"27108401,","audit":0,"is_ugc":0,"type":"audio"},{"id":"1024462","ufid":"92640184","name":"\u6770\u54e5\u4e0d\u8981\u5566","file":"http:\/\/rdfile.oss-cn-hangzhou.aliyuncs.com\/filemanage\/init\/audio\/92640184.mp3?nonce=6736cd8492e911795469b7db82adef9c","cover":"","updatetime":"1697698292","height":0,"width":0,"video":"","sort":0,"version":157,"cover2":"","appkey":"init","duration":137,"extra":{},"polyglot":[],"category":"27108401,","audit":0,"is_ugc":0,"type":"audio"},{"id":"1024461","ufid":"25700468","name":"\u811a\u8e22\u76db\u590f","file":"http:\/\/rdfile.oss-cn-hangzhou.aliyuncs.com\/filemanage\/init\/audio\/25700468.mp3?nonce=3f711896c69f6ae58503040abfc42e01","cover":"","updatetime":"1697698291","height":0,"width":0,"video":"","sort":0,"version":157,"cover2":"","appkey":"init","duration":11,"extra":{},"polyglot":[],"category":"27108401,","audit":0,"is_ugc":0,"type":"audio"},{"id":"1024460","ufid":"93005559","name":"\u80f6\u5377\u76f8\u673a\u5feb\u95e8\u58f0","file":"http:\/\/rdfile.oss-cn-hangzhou.aliyuncs.com\/filemanage\/init\/audio\/93005559.mp3?nonce=3f711896c69f6ae58503040abfc42e01","cover":"","updatetime":"1697698291","height":0,"width":0,"video":"","sort":0,"version":157,"cover2":"","appkey":"init","duration":3,"extra":{},"polyglot":[],"category":"27108401,","audit":0,"is_ugc":0,"type":"audio"}]}}