{"code":0,"msg":"success","data":{"total":283,"per_page":20,"current_page":4,"last_page":15,"data":[{"id":"1024367","ufid":"46409705","name":"\u6211\u662f\u4e3a\u7761\u89c9\u800c\u751f\u7684\u9ad8\u8d35\u7684\u7f8a","file":"http:\/\/rdfile.oss-cn-hangzhou.aliyuncs.com\/filemanage\/init\/audio\/46409705.mp3?nonce=7bdf6e5e56fa8e379ebd4fdd6915ca8e","cover":"","updatetime":"1697698264","height":0,"width":0,"video":"","sort":0,"version":157,"cover2":"","appkey":"init","duration":6,"extra":{},"polyglot":[],"category":"40610022,","audit":0,"is_ugc":0,"type":"audio"},{"id":"1024366","ufid":"69770626","name":"\u6211\u662f\u8001\u864e\u8001\u864e","file":"http:\/\/rdfile.oss-cn-hangzhou.aliyuncs.com\/filemanage\/init\/audio\/69770626.mp3?nonce=7bdf6e5e56fa8e379ebd4fdd6915ca8e","cover":"","updatetime":"1697698264","height":0,"width":0,"video":"","sort":0,"version":157,"cover2":"","appkey":"init","duration":17,"extra":{},"polyglot":[],"category":"40610022,","audit":0,"is_ugc":0,"type":"audio"},{"id":"1024365","ufid":"15063233","name":"\u6211\u4eec\u600e\u4e48\u544a\u522b\u5462","file":"http:\/\/rdfile.oss-cn-hangzhou.aliyuncs.com\/filemanage\/init\/audio\/15063233.mp3?nonce=7bdf6e5e56fa8e379ebd4fdd6915ca8e","cover":"","updatetime":"1697698264","height":0,"width":0,"video":"","sort":0,"version":157,"cover2":"","appkey":"init","duration":12,"extra":{},"polyglot":[],"category":"40610022,","audit":0,"is_ugc":0,"type":"audio"},{"id":"1024364","ufid":"25691557","name":"\u6211\u4eec\u7b80\u76f4\u662f\u840c\u59b9\u7684\u4ee3\u8868","file":"http:\/\/rdfile.oss-cn-hangzhou.aliyuncs.com\/filemanage\/init\/audio\/25691557.mp3?nonce=7bdf6e5e56fa8e379ebd4fdd6915ca8e","cover":"","updatetime":"1697698264","height":0,"width":0,"video":"","sort":0,"version":157,"cover2":"","appkey":"init","duration":15,"extra":{},"polyglot":[],"category":"40610022,","audit":0,"is_ugc":0,"type":"audio"},{"id":"1024363","ufid":"92785001","name":"\u6211\u4eec\u7684\u773c\u795e\u65e0\u975e\u662f\u5728\u5de6\u9762","file":"http:\/\/rdfile.oss-cn-hangzhou.aliyuncs.com\/filemanage\/init\/audio\/92785001.mp3?nonce=94ff9df96543d3f0821a08de450615d8","cover":"","updatetime":"1697698263","height":0,"width":0,"video":"","sort":0,"version":157,"cover2":"","appkey":"init","duration":10,"extra":{},"polyglot":[],"category":"40610022,","audit":0,"is_ugc":0,"type":"audio"},{"id":"1024362","ufid":"99568819","name":"\u6211\u6ca1\u4e8b\u5c31\u5403\u6e9c\u6e9c\u6885 \u4f60\u522b\u7ba1","file":"http:\/\/rdfile.oss-cn-hangzhou.aliyuncs.com\/filemanage\/init\/audio\/99568819.mp3?nonce=94ff9df96543d3f0821a08de450615d8","cover":"","updatetime":"1697698263","height":0,"width":0,"video":"","sort":0,"version":157,"cover2":"","appkey":"init","duration":16,"extra":{},"polyglot":[],"category":"40610022,","audit":0,"is_ugc":0,"type":"audio"},{"id":"1024361","ufid":"28363221","name":"\u6211\u88c2\u5f00\u4e86 PDD","file":"http:\/\/rdfile.oss-cn-hangzhou.aliyuncs.com\/filemanage\/init\/audio\/28363221.mp3?nonce=94ff9df96543d3f0821a08de450615d8","cover":"","updatetime":"1697698263","height":0,"width":0,"video":"","sort":0,"version":157,"cover2":"","appkey":"init","duration":4,"extra":{},"polyglot":[],"category":"40610022,","audit":0,"is_ugc":0,"type":"audio"},{"id":"1024360","ufid":"81303431","name":"\u6211\u5c31\u4e0d\u4fe1\u6211\u5c31\u5199\u4e0d\u51fa\u8bba\u6587-","file":"http:\/\/rdfile.oss-cn-hangzhou.aliyuncs.com\/filemanage\/init\/audio\/81303431.mp3?nonce=94ff9df96543d3f0821a08de450615d8","cover":"","updatetime":"1697698263","height":0,"width":0,"video":"","sort":0,"version":157,"cover2":"","appkey":"init","duration":10,"extra":{},"polyglot":[],"category":"40610022,","audit":0,"is_ugc":0,"type":"audio"},{"id":"1024359","ufid":"52809782","name":"\u6211\u5c06\u6765\u8981\u5f53\u4e00\u4e2a\u5154\u5b50\u8b66\u5b98","file":"http:\/\/rdfile.oss-cn-hangzhou.aliyuncs.com\/filemanage\/init\/audio\/52809782.mp3?nonce=4292d9a0f4cca0afe961109bed090835","cover":"","updatetime":"1697698262","height":0,"width":0,"video":"","sort":0,"version":157,"cover2":"","appkey":"init","duration":4,"extra":{},"polyglot":[],"category":"40610022,","audit":0,"is_ugc":0,"type":"audio"},{"id":"1024358","ufid":"12195395","name":"\u6211\u8fd8\u6ca1\u8c22\u8c22\u6211\u7684ikun\u4eec\u5462","file":"http:\/\/rdfile.oss-cn-hangzhou.aliyuncs.com\/filemanage\/init\/audio\/12195395.mp3?nonce=0cbba6e2a6c6d8e3f312a84af1bf51ab","cover":"","updatetime":"1697698305","height":0,"width":0,"video":"","sort":0,"version":157,"cover2":"","appkey":"init","duration":3,"extra":{},"polyglot":[],"category":"40610022,","audit":0,"is_ugc":0,"type":"audio"},{"id":"1024357","ufid":"15403693","name":"\u6211\u5f88\u96be\u641e\u54e6","file":"http:\/\/rdfile.oss-cn-hangzhou.aliyuncs.com\/filemanage\/init\/audio\/15403693.mp3?nonce=4292d9a0f4cca0afe961109bed090835","cover":"","updatetime":"1697698262","height":0,"width":0,"video":"","sort":0,"version":157,"cover2":"","appkey":"init","duration":16,"extra":{},"polyglot":[],"category":"40610022,","audit":0,"is_ugc":0,"type":"audio"},{"id":"1024356","ufid":"52954609","name":"\u6211\u597d\u4e0d\u5bb9\u6613\u5fc3\u52a8\u4e00\u6b21","file":"http:\/\/rdfile.oss-cn-hangzhou.aliyuncs.com\/filemanage\/init\/audio\/52954609.mp3?nonce=4292d9a0f4cca0afe961109bed090835","cover":"","updatetime":"1697698262","height":0,"width":0,"video":"","sort":0,"version":157,"cover2":"","appkey":"init","duration":15,"extra":{},"polyglot":[],"category":"40610022,","audit":0,"is_ugc":0,"type":"audio"},{"id":"1024355","ufid":"86963855","name":"\u6211\u7684\u7f8e\u65e0\u5173\u5927\u724cIcould w","file":"http:\/\/rdfile.oss-cn-hangzhou.aliyuncs.com\/filemanage\/init\/audio\/86963855.mp3?nonce=4292d9a0f4cca0afe961109bed090835","cover":"","updatetime":"1697698262","height":0,"width":0,"video":"","sort":0,"version":157,"cover2":"","appkey":"init","duration":29,"extra":{},"polyglot":[],"category":"40610022,","audit":0,"is_ugc":0,"type":"audio"},{"id":"1024354","ufid":"29661265","name":"\u6211\u6253\u7b97\u5728\u5341\u4e8c\u6708\u7684\u6700\u540e\u4e00","file":"http:\/\/rdfile.oss-cn-hangzhou.aliyuncs.com\/filemanage\/init\/audio\/29661265.mp3?nonce=1a0877946fe7e110c6c037a96fa5e992","cover":"","updatetime":"1697698261","height":0,"width":0,"video":"","sort":0,"version":157,"cover2":"","appkey":"init","duration":13,"extra":{},"polyglot":[],"category":"40610022,","audit":0,"is_ugc":0,"type":"audio"},{"id":"1024353","ufid":"75480369","name":"\u5fd8\u4e86\u59d3\u540d\u7684\u8bf7\u8ddf\u6211\u6765","file":"http:\/\/rdfile.oss-cn-hangzhou.aliyuncs.com\/filemanage\/init\/audio\/75480369.mp3?nonce=1a0877946fe7e110c6c037a96fa5e992","cover":"","updatetime":"1697698261","height":0,"width":0,"video":"","sort":0,"version":157,"cover2":"","appkey":"init","duration":6,"extra":{},"polyglot":[],"category":"40610022,","audit":0,"is_ugc":0,"type":"audio"},{"id":"1024352","ufid":"96434261","name":"\u738b\u8005\u6ee4\u955cbgm","file":"http:\/\/rdfile.oss-cn-hangzhou.aliyuncs.com\/filemanage\/init\/audio\/96434261.mp3?nonce=0cbba6e2a6c6d8e3f312a84af1bf51ab","cover":"","updatetime":"1697698305","height":0,"width":0,"video":"","sort":0,"version":157,"cover2":"","appkey":"init","duration":7,"extra":{},"polyglot":[],"category":"40610022,","audit":0,"is_ugc":0,"type":"audio"},{"id":"1024351","ufid":"93855213","name":"\u4e07\u7269\u7686\u662f\u5988","file":"http:\/\/rdfile.oss-cn-hangzhou.aliyuncs.com\/filemanage\/init\/audio\/93855213.mp3?nonce=1a0877946fe7e110c6c037a96fa5e992","cover":"","updatetime":"1697698261","height":0,"width":0,"video":"","sort":0,"version":157,"cover2":"","appkey":"init","duration":14,"extra":{},"polyglot":[],"category":"40610022,","audit":0,"is_ugc":0,"type":"audio"},{"id":"1024350","ufid":"10065518","name":"\u5a03\u5a03\u4e22","file":"http:\/\/rdfile.oss-cn-hangzhou.aliyuncs.com\/filemanage\/init\/audio\/10065518.mp3?nonce=9d897fe174a0911b26112a1668651c44","cover":"","updatetime":"1697698260","height":0,"width":0,"video":"","sort":0,"version":157,"cover2":"","appkey":"init","duration":15,"extra":{},"polyglot":[],"category":"40610022,","audit":0,"is_ugc":0,"type":"audio"},{"id":"1024349","ufid":"40397518","name":"\u54c7\u4ec0\u4e48\u8fd9\u662f\u4ec0\u4e48","file":"http:\/\/rdfile.oss-cn-hangzhou.aliyuncs.com\/filemanage\/init\/audio\/40397518.mp3?nonce=9d897fe174a0911b26112a1668651c44","cover":"","updatetime":"1697698260","height":0,"width":0,"video":"","sort":0,"version":157,"cover2":"","appkey":"init","duration":15,"extra":{},"polyglot":[],"category":"40610022,","audit":0,"is_ugc":0,"type":"audio"},{"id":"1024348","ufid":"43753216","name":"\u6316\u5440\u6316\u5440\u6316","file":"http:\/\/rdfile.oss-cn-hangzhou.aliyuncs.com\/filemanage\/init\/audio\/43753216.mp3?nonce=9d897fe174a0911b26112a1668651c44","cover":"","updatetime":"1697698260","height":0,"width":0,"video":"","sort":0,"version":157,"cover2":"","appkey":"init","duration":41,"extra":{},"polyglot":[],"category":"40610022,","audit":0,"is_ugc":0,"type":"audio"}]}}