{"code":0,"msg":"success","data":{"total":62,"per_page":20,"current_page":4,"last_page":4,"data":[{"id":"1023905","ufid":"96514549","name":"\u4e0d\u8fc7\u6211\u62d2\u7edd","file":"http:\/\/rdfile.oss-cn-hangzhou.aliyuncs.com\/filemanage\/init\/audio\/96514549.mp3?nonce=4e9bf96ef070aabbb4c12d926632f43c","cover":"","updatetime":"1697698159","height":0,"width":0,"video":"","sort":0,"version":157,"cover2":"","appkey":"init","duration":2,"extra":{},"polyglot":[],"category":"53914448,","audit":0,"is_ugc":0,"type":"audio"},{"id":"1023904","ufid":"50508110","name":"\u5b9d\u53ef\u68a6-\u6211\u662f\u8c01","file":"http:\/\/rdfile.oss-cn-hangzhou.aliyuncs.com\/filemanage\/init\/audio\/50508110.mp3?nonce=4e9bf96ef070aabbb4c12d926632f43c","cover":"","updatetime":"1697698159","height":0,"width":0,"video":"","sort":0,"version":157,"cover2":"","appkey":"init","duration":6,"extra":{},"polyglot":[],"category":"53914448,","audit":0,"is_ugc":0,"type":"audio"}]}}