{"code":0,"msg":"success","data":{"total":102,"per_page":20,"current_page":4,"last_page":6,"data":[{"id":"1005465","ufid":"20879267","name":"Oh!","file":"http:\/\/rdfile.oss-cn-hangzhou.aliyuncs.com\/filemanage\/init\/audio\/54\/872104d83a41639eaf94dd876c865c1f\/c917dcdc8ef588ef7d40cd399a3457ac.mp3?nonce=915ee8b64826eb52121e9c363a024819","cover":"","updatetime":"1697698022","height":0,"width":0,"video":"","sort":100,"version":0,"cover2":"","appkey":"init","duration":1,"extra":{},"polyglot":{"en":"Oh!"},"category":"79079757,","audit":0,"is_ugc":0,"type":"audio"},{"id":"1005464","ufid":"24458295","name":"Arouse","file":"http:\/\/rdfile.oss-cn-hangzhou.aliyuncs.com\/filemanage\/init\/audio\/54\/0e587309e382f0ad99ab2e79f0d3374e\/5e02398bc4b76dd02047fea0a7a3ac95.mp3?nonce=0ea0b286233a49f9525094f7c4504ae4","cover":"","updatetime":"1697698023","height":0,"width":0,"video":"","sort":100,"version":0,"cover2":"","appkey":"init","duration":1,"extra":{},"polyglot":{"en":"Arouse"},"category":"79079757,","audit":0,"is_ugc":0,"type":"audio"},{"id":"1005463","ufid":"52008307","name":"Nictation","file":"http:\/\/rdfile.oss-cn-hangzhou.aliyuncs.com\/filemanage\/init\/audio\/54\/7488f1a0e4008096c0fe48dae977c693\/595c5990170b12de5b9386d54e41ccf4.mp3?nonce=2789a9752e5860b75abc043d73493970","cover":"","updatetime":"1697698032","height":0,"width":0,"video":"","sort":100,"version":0,"cover2":"","appkey":"init","duration":1,"extra":{},"polyglot":{"en":"Nictation"},"category":"79079757,","audit":0,"is_ugc":0,"type":"audio"},{"id":"1005462","ufid":"67129792","name":"To Open","file":"http:\/\/rdfile.oss-cn-hangzhou.aliyuncs.com\/filemanage\/init\/audio\/54\/70927f064e46b761fdcc8c0a2ec739fc\/159e8c9b492937537bcf618826f824b1.mp3?nonce=18045c29ea595fc7f87febc89688bd87","cover":"","updatetime":"1697698034","height":0,"width":0,"video":"","sort":100,"version":0,"cover2":"","appkey":"init","duration":1,"extra":{},"polyglot":{"en":"To Open"},"category":"79079757,","audit":0,"is_ugc":0,"type":"audio"},{"id":"1005461","ufid":"62809114","name":"Kiss","file":"http:\/\/rdfile.oss-cn-hangzhou.aliyuncs.com\/filemanage\/init\/audio\/54\/efa9fdce240d8e865f5b921609155a20\/ed3e25e3e219d4e3fc7e6078e1ce3ea2.mp3?nonce=0ea0b286233a49f9525094f7c4504ae4","cover":"","updatetime":"1697698023","height":0,"width":0,"video":"","sort":100,"version":0,"cover2":"","appkey":"init","duration":1,"extra":{},"polyglot":{"en":"Kiss"},"category":"79079757,","audit":0,"is_ugc":0,"type":"audio"},{"id":"1005460","ufid":"57359792","name":"Whistle ","file":"http:\/\/rdfile.oss-cn-hangzhou.aliyuncs.com\/filemanage\/init\/audio\/54\/611fe89d4b8e1e99cd26f94268025dd1\/9aeab41bbcc8cdf331e9b16c8190b983.mp3?nonce=40773a6b4a24ca0dfaa4dd9bf20333c9","cover":"","updatetime":"1697698020","height":0,"width":0,"video":"","sort":100,"version":0,"cover2":"","appkey":"init","duration":1,"extra":{},"polyglot":{"en":"Whistle "},"category":"79079757,","audit":0,"is_ugc":0,"type":"audio"},{"id":"1005459","ufid":"95163134","name":"Sob","file":"http:\/\/rdfile.oss-cn-hangzhou.aliyuncs.com\/filemanage\/init\/audio\/54\/f08989d6733863f6b492729888b7add1\/0ada3a281954b6ea46d8b85afe8c3de4.mp3?nonce=18045c29ea595fc7f87febc89688bd87","cover":"","updatetime":"1697698034","height":0,"width":0,"video":"","sort":100,"version":0,"cover2":"","appkey":"init","duration":1,"extra":{},"polyglot":{"en":"Sob"},"category":"79079757,","audit":0,"is_ugc":0,"type":"audio"},{"id":"1005458","ufid":"26838789","name":"Sword Collision","file":"http:\/\/rdfile.oss-cn-hangzhou.aliyuncs.com\/filemanage\/init\/audio\/54\/f6813c6fe88dc95ab8c71242e0fe0598\/ed3ac9aef8fef0f938a2e81d7c8aa45b.mp3?nonce=928c44f4e3c839903db63fa9de5b1a2b","cover":"","updatetime":"1697698014","height":0,"width":0,"video":"","sort":100,"version":0,"cover2":"","appkey":"init","duration":1,"extra":{},"polyglot":{"en":"Sword Collision"},"category":"79079757,","audit":0,"is_ugc":0,"type":"audio"},{"id":"1005457","ufid":"78316605","name":"Bingo","file":"http:\/\/rdfile.oss-cn-hangzhou.aliyuncs.com\/filemanage\/init\/audio\/54\/0eb4720a08a61e2e6360c995b87ade7c\/6b99fc04045eae98af76b6eb6a259cef.mp3?nonce=8178bcf60e138b3645bc38e4edc12aee","cover":"","updatetime":"1697698011","height":0,"width":0,"video":"","sort":100,"version":0,"cover2":"","appkey":"init","duration":2,"extra":{},"polyglot":{"en":"Bingo"},"category":"79079757,","audit":0,"is_ugc":0,"type":"audio"},{"id":"1005456","ufid":"29628179","name":"Cannot Help But","file":"http:\/\/rdfile.oss-cn-hangzhou.aliyuncs.com\/filemanage\/init\/audio\/54\/7769ce85c0ae434a5cb07775753cd008\/07d7e5fad7512a1c148929c66ce1540d.mp3?nonce=c4ea9479da3ff27b280c14e98fc33ecc","cover":"","updatetime":"1697698028","height":0,"width":0,"video":"","sort":100,"version":0,"cover2":"","appkey":"init","duration":2,"extra":{},"polyglot":{"en":"Cannot Help But"},"category":"79079757,","audit":0,"is_ugc":0,"type":"audio"},{"id":"1005455","ufid":"90161538","name":"Dizzy","file":"http:\/\/rdfile.oss-cn-hangzhou.aliyuncs.com\/filemanage\/init\/audio\/54\/b47031b67cfff4f301eaefffbe2cabad\/b091fdcd4594e12dedac60135018fc12.mp3?nonce=2789a9752e5860b75abc043d73493970","cover":"","updatetime":"1697698032","height":0,"width":0,"video":"","sort":100,"version":0,"cover2":"","appkey":"init","duration":2,"extra":{},"polyglot":{"en":"Dizzy"},"category":"79079757,","audit":0,"is_ugc":0,"type":"audio"},{"id":"1005454","ufid":"59772030","name":"Query","file":"http:\/\/rdfile.oss-cn-hangzhou.aliyuncs.com\/filemanage\/init\/audio\/54\/daa13e011bc8dfe24d334906c6e4398d\/9822c60db4d9f49c20ba67a188d5c86f.mp3?nonce=5b5f81c8cd718803809807df822a1262","cover":"","updatetime":"1697698031","height":0,"width":0,"video":"","sort":100,"version":0,"cover2":"","appkey":"init","duration":1,"extra":{},"polyglot":{"en":"Query"},"category":"79079757,","audit":0,"is_ugc":0,"type":"audio"},{"id":"1005453","ufid":"94757805","name":"Come On The Stage","file":"http:\/\/rdfile.oss-cn-hangzhou.aliyuncs.com\/filemanage\/init\/audio\/54\/bb521bd4e589d4e77433cbb1c3f44181\/621eb020926ed8c1bba297cf90459804.mp3?nonce=8ce3bb5edad3aa053bd4d1eedc39a8e1","cover":"","updatetime":"1697698013","height":0,"width":0,"video":"","sort":100,"version":0,"cover2":"","appkey":"init","duration":2,"extra":{},"polyglot":{"en":"Come On The Stage"},"category":"79079757,","audit":0,"is_ugc":0,"type":"audio"},{"id":"1005452","ufid":"76966330","name":"Thick Spring","file":"http:\/\/rdfile.oss-cn-hangzhou.aliyuncs.com\/filemanage\/init\/audio\/54\/32b365acac16908307a3e2a378045e72\/cf8296312297fe3828a189ec6b6bf7e0.mp3?nonce=cfcd208495d565ef66e7dff9f98764da","cover":"","updatetime":"0","height":0,"width":0,"video":"","sort":100,"version":0,"cover2":"","appkey":"init","duration":1,"extra":{},"polyglot":{"en":"Thick Spring"},"category":"79079757,","audit":0,"is_ugc":0,"type":"audio"},{"id":"1005451","ufid":"31391888","name":"Flash Of Light","file":"http:\/\/rdfile.oss-cn-hangzhou.aliyuncs.com\/filemanage\/init\/audio\/54\/19742003b5d23dd42ab670024b0371d2\/2a95bbaac9a58a1fde8ac08f86201f70.mp3?nonce=cfcd208495d565ef66e7dff9f98764da","cover":"","updatetime":"0","height":0,"width":0,"video":"","sort":100,"version":0,"cover2":"","appkey":"init","duration":1,"extra":{},"polyglot":{"en":"Flash Of Light"},"category":"79079757,","audit":0,"is_ugc":0,"type":"audio"},{"id":"1005450","ufid":"78229977","name":"Konck One` S Head Against A Brick Wall ","file":"http:\/\/rdfile.oss-cn-hangzhou.aliyuncs.com\/filemanage\/init\/audio\/54\/893e425df49f9e564a85bfd045224435\/ef2218bdbca44105d7e20a0ffdba726d.mp3?nonce=cfcd208495d565ef66e7dff9f98764da","cover":"","updatetime":"0","height":0,"width":0,"video":"","sort":100,"version":0,"cover2":"","appkey":"init","duration":2,"extra":{},"polyglot":{"en":"Konck One` S Head Against A Brick Wall "},"category":"79079757,","audit":0,"is_ugc":0,"type":"audio"},{"id":"1005449","ufid":"40953780","name":"Soft Spring","file":"http:\/\/rdfile.oss-cn-hangzhou.aliyuncs.com\/filemanage\/init\/audio\/54\/bfc9acae1c5af7653a754e27dca67612\/1a4ff88b8e42af4f55e2d98d69fe0afb.mp3?nonce=f3cf3435dadc76d3bcb4e1d28310fc51","cover":"","updatetime":"1697698024","height":0,"width":0,"video":"","sort":100,"version":0,"cover2":"","appkey":"init","duration":2,"extra":{},"polyglot":{"en":"Soft Spring"},"category":"79079757,","audit":0,"is_ugc":0,"type":"audio"},{"id":"1005448","ufid":"25942653","name":"Crow","file":"http:\/\/rdfile.oss-cn-hangzhou.aliyuncs.com\/filemanage\/init\/audio\/54\/eeda894d7180f8c175b3d42cc4ae3e89\/fceb5a1820d841ad0a3531aca5ff0520.mp3?nonce=88c105db434008a10e10ca3c69d5dd57","cover":"","updatetime":"1697698348","height":0,"width":0,"video":"","sort":100,"version":0,"cover2":"","appkey":"init","duration":2,"extra":{},"polyglot":{"en":"Crow"},"category":"79079757,","audit":0,"is_ugc":0,"type":"audio"},{"id":"1005447","ufid":"45116086","name":"\u6210\u529f","file":"http:\/\/rdfile.oss-cn-hangzhou.aliyuncs.com\/filemanage\/init\/audio\/54\/eca43105cf849e239d03e3f5b6ba98eb\/330363dfc524cff2488f2ebde0500896.mp3?nonce=9c4d004ee49d8c34b6f261cb7b2b999d","cover":"","updatetime":"1697698048","height":0,"width":0,"video":"","sort":100,"version":0,"cover2":"","appkey":"init","duration":5,"extra":{},"polyglot":{"en":"\u6210\u529f"},"category":"79079757,","audit":0,"is_ugc":0,"type":"audio"},{"id":"1005446","ufid":"43786919","name":"Make Mistakes","file":"http:\/\/rdfile.oss-cn-hangzhou.aliyuncs.com\/filemanage\/init\/audio\/54\/5a85d6202c54c175c47f02a962adb30e\/ad8e01fe719bf1a5af82ee0d100d246b.mp3?nonce=8ce3bb5edad3aa053bd4d1eedc39a8e1","cover":"","updatetime":"1697698013","height":0,"width":0,"video":"","sort":100,"version":0,"cover2":"","appkey":"init","duration":1,"extra":{},"polyglot":{"en":"Make Mistakes"},"category":"79079757,","audit":0,"is_ugc":0,"type":"audio"}]}}