{"code":0,"msg":"success","data":{"total":81,"per_page":20,"current_page":5,"last_page":5,"data":[{"id":"1005156","ufid":"14762937","name":"All Good In The Wood","file":"http:\/\/rdfile.oss-cn-hangzhou.aliyuncs.com\/filemanage\/init\/cloud_music\/1542012184626\/file.mp3?nonce=cfcd208495d565ef66e7dff9f98764da","cover":"","updatetime":"0","height":0,"width":0,"video":"","sort":100,"version":0,"cover2":"","appkey":"init","duration":34,"extra":{},"polyglot":{"en":"All Good In The Wood"},"category":"74711967,","audit":0,"is_ugc":0,"type":"cloud_music"}]}}