{"code":0,"msg":"success","data":{"total":81,"per_page":20,"current_page":3,"last_page":5,"data":[{"id":"1005196","ufid":"89843013","name":"Panama Hat","file":"http:\/\/rdfile.oss-cn-hangzhou.aliyuncs.com\/filemanage\/init\/cloud_music\/1542012185936\/file.mp3?nonce=cfcd208495d565ef66e7dff9f98764da","cover":"","updatetime":"0","height":0,"width":0,"video":"","sort":100,"version":0,"cover2":"","appkey":"init","duration":110,"extra":{},"polyglot":{"en":"Panama Hat"},"category":"74711967,","audit":0,"is_ugc":0,"type":"cloud_music"},{"id":"1005195","ufid":"70826160","name":"Open Road","file":"http:\/\/rdfile.oss-cn-hangzhou.aliyuncs.com\/filemanage\/init\/cloud_music\/1542012185630\/file.mp3?nonce=cfcd208495d565ef66e7dff9f98764da","cover":"","updatetime":"0","height":0,"width":0,"video":"","sort":100,"version":0,"cover2":"","appkey":"init","duration":83,"extra":{},"polyglot":{"en":"Open Road"},"category":"74711967,","audit":0,"is_ugc":0,"type":"cloud_music"},{"id":"1005194","ufid":"82619805","name":"Noel","file":"http:\/\/rdfile.oss-cn-hangzhou.aliyuncs.com\/filemanage\/init\/cloud_music\/1542012185580\/file.mp3?nonce=cfcd208495d565ef66e7dff9f98764da","cover":"","updatetime":"0","height":0,"width":0,"video":"","sort":100,"version":0,"cover2":"","appkey":"init","duration":53,"extra":{},"polyglot":{"en":"Noel"},"category":"74711967,","audit":0,"is_ugc":0,"type":"cloud_music"},{"id":"1005193","ufid":"58752167","name":"Night Rave","file":"http:\/\/rdfile.oss-cn-hangzhou.aliyuncs.com\/filemanage\/init\/cloud_music\/1542012185652\/file.mp3?nonce=cfcd208495d565ef66e7dff9f98764da","cover":"","updatetime":"0","height":0,"width":0,"video":"","sort":100,"version":0,"cover2":"","appkey":"init","duration":91,"extra":{},"polyglot":{"en":"Night Rave"},"category":"74711967,","audit":0,"is_ugc":0,"type":"cloud_music"},{"id":"1005192","ufid":"45879247","name":"Mountain Sun","file":"http:\/\/rdfile.oss-cn-hangzhou.aliyuncs.com\/filemanage\/init\/cloud_music\/1542012185277\/file.mp3?nonce=cfcd208495d565ef66e7dff9f98764da","cover":"","updatetime":"0","height":0,"width":0,"video":"","sort":100,"version":0,"cover2":"","appkey":"init","duration":135,"extra":{},"polyglot":{"en":"Mountain Sun"},"category":"74711967,","audit":0,"is_ugc":0,"type":"cloud_music"},{"id":"1005191","ufid":"80359299","name":"ModernRockBoy","file":"http:\/\/rdfile.oss-cn-hangzhou.aliyuncs.com\/filemanage\/init\/cloud_music\/1542012185928\/file.mp3?nonce=cfcd208495d565ef66e7dff9f98764da","cover":"","updatetime":"0","height":0,"width":0,"video":"","sort":100,"version":0,"cover2":"","appkey":"init","duration":167,"extra":{},"polyglot":{"en":"ModernRockBoy"},"category":"74711967,","audit":0,"is_ugc":0,"type":"cloud_music"},{"id":"1005190","ufid":"47918896","name":"Medium Rock","file":"http:\/\/rdfile.oss-cn-hangzhou.aliyuncs.com\/filemanage\/init\/cloud_music\/1542012185658\/file.mp3?nonce=cfcd208495d565ef66e7dff9f98764da","cover":"","updatetime":"0","height":0,"width":0,"video":"","sort":100,"version":0,"cover2":"","appkey":"init","duration":234,"extra":{},"polyglot":{"en":"Medium Rock"},"category":"74711967,","audit":0,"is_ugc":0,"type":"cloud_music"},{"id":"1005189","ufid":"40305059","name":"Marathon Man","file":"http:\/\/rdfile.oss-cn-hangzhou.aliyuncs.com\/filemanage\/init\/cloud_music\/1542012185873\/file.mp3?nonce=cfcd208495d565ef66e7dff9f98764da","cover":"","updatetime":"0","height":0,"width":0,"video":"","sort":100,"version":0,"cover2":"","appkey":"init","duration":145,"extra":{},"polyglot":{"en":"Marathon Man"},"category":"74711967,","audit":0,"is_ugc":0,"type":"cloud_music"},{"id":"1005188","ufid":"97873620","name":"Ligthning Bugs","file":"http:\/\/rdfile.oss-cn-hangzhou.aliyuncs.com\/filemanage\/init\/cloud_music\/1542012185794\/file.mp3?nonce=cfcd208495d565ef66e7dff9f98764da","cover":"","updatetime":"0","height":0,"width":0,"video":"","sort":100,"version":0,"cover2":"","appkey":"init","duration":96,"extra":{},"polyglot":{"en":"Ligthning Bugs"},"category":"74711967,","audit":0,"is_ugc":0,"type":"cloud_music"},{"id":"1005187","ufid":"55527984","name":"Lazy Day","file":"http:\/\/rdfile.oss-cn-hangzhou.aliyuncs.com\/filemanage\/init\/cloud_music\/1542012185779\/file.mp3?nonce=cfcd208495d565ef66e7dff9f98764da","cover":"","updatetime":"0","height":0,"width":0,"video":"","sort":100,"version":0,"cover2":"","appkey":"init","duration":134,"extra":{},"polyglot":{"en":"Lazy Day"},"category":"74711967,","audit":0,"is_ugc":0,"type":"cloud_music"},{"id":"1005186","ufid":"98337955","name":"Lagos 2030 A","file":"http:\/\/rdfile.oss-cn-hangzhou.aliyuncs.com\/filemanage\/init\/cloud_music\/1542012185909\/file.mp3?nonce=cfcd208495d565ef66e7dff9f98764da","cover":"","updatetime":"0","height":0,"width":0,"video":"","sort":100,"version":0,"cover2":"","appkey":"init","duration":123,"extra":{},"polyglot":{"en":"Lagos 2030 A"},"category":"74711967,","audit":0,"is_ugc":0,"type":"cloud_music"},{"id":"1005185","ufid":"37269523","name":"Jumpin Boogie Woogie","file":"http:\/\/rdfile.oss-cn-hangzhou.aliyuncs.com\/filemanage\/init\/cloud_music\/1542012185120\/file.mp3?nonce=cfcd208495d565ef66e7dff9f98764da","cover":"","updatetime":"0","height":0,"width":0,"video":"","sort":100,"version":0,"cover2":"","appkey":"init","duration":183,"extra":{},"polyglot":{"en":"Jumpin Boogie Woogie"},"category":"74711967,","audit":0,"is_ugc":0,"type":"cloud_music"},{"id":"1005184","ufid":"49714620","name":"JoyToTheWorld","file":"http:\/\/rdfile.oss-cn-hangzhou.aliyuncs.com\/filemanage\/init\/cloud_music\/1542012185253\/file.mp3?nonce=cfcd208495d565ef66e7dff9f98764da","cover":"","updatetime":"0","height":0,"width":0,"video":"","sort":100,"version":0,"cover2":"","appkey":"init","duration":168,"extra":{},"polyglot":{"en":"JoyToTheWorld"},"category":"74711967,","audit":0,"is_ugc":0,"type":"cloud_music"},{"id":"1005183","ufid":"15402035","name":"Jenny's Theme","file":"http:\/\/rdfile.oss-cn-hangzhou.aliyuncs.com\/filemanage\/init\/cloud_music\/1542012185283\/file.mp3?nonce=cfcd208495d565ef66e7dff9f98764da","cover":"","updatetime":"0","height":0,"width":0,"video":"","sort":100,"version":0,"cover2":"","appkey":"init","duration":46,"extra":{},"polyglot":{"en":"Jenny's Theme"},"category":"74711967,","audit":0,"is_ugc":0,"type":"cloud_music"},{"id":"1005182","ufid":"14706148","name":"I Saw Three Ships","file":"http:\/\/rdfile.oss-cn-hangzhou.aliyuncs.com\/filemanage\/init\/cloud_music\/1542012185209\/file.mp3?nonce=cfcd208495d565ef66e7dff9f98764da","cover":"","updatetime":"0","height":0,"width":0,"video":"","sort":100,"version":0,"cover2":"","appkey":"init","duration":115,"extra":{},"polyglot":{"en":"I Saw Three Ships"},"category":"74711967,","audit":0,"is_ugc":0,"type":"cloud_music"},{"id":"1005181","ufid":"59308962","name":"I Like Peanuts","file":"http:\/\/rdfile.oss-cn-hangzhou.aliyuncs.com\/filemanage\/init\/cloud_music\/1542012185875\/file.mp3?nonce=cfcd208495d565ef66e7dff9f98764da","cover":"","updatetime":"0","height":0,"width":0,"video":"","sort":100,"version":0,"cover2":"","appkey":"init","duration":86,"extra":{},"polyglot":{"en":"I Like Peanuts"},"category":"74711967,","audit":0,"is_ugc":0,"type":"cloud_music"},{"id":"1005180","ufid":"78999179","name":"Hoedown","file":"http:\/\/rdfile.oss-cn-hangzhou.aliyuncs.com\/filemanage\/init\/cloud_music\/1542012185433\/file.mp3?nonce=cfcd208495d565ef66e7dff9f98764da","cover":"","updatetime":"0","height":0,"width":0,"video":"","sort":100,"version":0,"cover2":"","appkey":"init","duration":134,"extra":{},"polyglot":{"en":"Hoedown"},"category":"74711967,","audit":0,"is_ugc":0,"type":"cloud_music"},{"id":"1005179","ufid":"49295915","name":"Hitman","file":"http:\/\/rdfile.oss-cn-hangzhou.aliyuncs.com\/filemanage\/init\/cloud_music\/1542012185171\/file.mp3?nonce=cfcd208495d565ef66e7dff9f98764da","cover":"","updatetime":"0","height":0,"width":0,"video":"","sort":100,"version":0,"cover2":"","appkey":"init","duration":201,"extra":{},"polyglot":{"en":"Hitman"},"category":"74711967,","audit":0,"is_ugc":0,"type":"cloud_music"},{"id":"1005178","ufid":"75809013","name":"HappyLittleElves","file":"http:\/\/rdfile.oss-cn-hangzhou.aliyuncs.com\/filemanage\/init\/cloud_music\/1542012185459\/file.mp3?nonce=cfcd208495d565ef66e7dff9f98764da","cover":"","updatetime":"0","height":0,"width":0,"video":"","sort":100,"version":0,"cover2":"","appkey":"init","duration":35,"extra":{},"polyglot":{"en":"HappyLittleElves"},"category":"74711967,","audit":0,"is_ugc":0,"type":"cloud_music"},{"id":"1005177","ufid":"22116576","name":"Happy Strummin","file":"http:\/\/rdfile.oss-cn-hangzhou.aliyuncs.com\/filemanage\/init\/cloud_music\/1542012185835\/file.mp3?nonce=cfcd208495d565ef66e7dff9f98764da","cover":"","updatetime":"0","height":0,"width":0,"video":"","sort":100,"version":0,"cover2":"","appkey":"init","duration":134,"extra":{},"polyglot":{"en":"Happy Strummin"},"category":"74711967,","audit":0,"is_ugc":0,"type":"cloud_music"}]}}