{"code":0,"msg":"success","data":{"total":58,"per_page":20,"current_page":3,"last_page":3,"data":[{"id":"1005029","ufid":"64058356","name":"Harsh Alien Machine","file":"http:\/\/rdfile.oss-cn-hangzhou.aliyuncs.com\/filemanage\/init\/cloud_music\/1542012183653\/file.mp3?nonce=cfcd208495d565ef66e7dff9f98764da","cover":"","updatetime":"0","height":0,"width":0,"video":"","sort":100,"version":0,"cover2":"","appkey":"init","duration":93,"extra":{},"polyglot":{"en":"Harsh Alien Machine"},"category":"75028754,","audit":0,"is_ugc":0,"type":"cloud_music"},{"id":"1005028","ufid":"44091116","name":"Funky Junky","file":"http:\/\/rdfile.oss-cn-hangzhou.aliyuncs.com\/filemanage\/init\/cloud_music\/1542012183435\/file.mp3?nonce=cfcd208495d565ef66e7dff9f98764da","cover":"","updatetime":"0","height":0,"width":0,"video":"","sort":100,"version":0,"cover2":"","appkey":"init","duration":139,"extra":{},"polyglot":{"en":"Funky Junky"},"category":"75028754,","audit":0,"is_ugc":0,"type":"cloud_music"},{"id":"1005027","ufid":"67204073","name":"Forest Rhythm","file":"http:\/\/rdfile.oss-cn-hangzhou.aliyuncs.com\/filemanage\/init\/cloud_music\/1542012183774\/file.mp3?nonce=cfcd208495d565ef66e7dff9f98764da","cover":"","updatetime":"0","height":0,"width":0,"video":"","sort":100,"version":0,"cover2":"","appkey":"init","duration":233,"extra":{},"polyglot":{"en":"Forest Rhythm"},"category":"75028754,","audit":0,"is_ugc":0,"type":"cloud_music"},{"id":"1005026","ufid":"83453603","name":"First Noel (Instrumental)","file":"http:\/\/rdfile.oss-cn-hangzhou.aliyuncs.com\/filemanage\/init\/cloud_music\/1542012183519\/file.mp3?nonce=cfcd208495d565ef66e7dff9f98764da","cover":"","updatetime":"0","height":0,"width":0,"video":"","sort":100,"version":0,"cover2":"","appkey":"init","duration":141,"extra":{},"polyglot":{"en":"First Noel (Instrumental)"},"category":"75028754,","audit":0,"is_ugc":0,"type":"cloud_music"},{"id":"1005025","ufid":"65833168","name":"Figth Scene","file":"http:\/\/rdfile.oss-cn-hangzhou.aliyuncs.com\/filemanage\/init\/cloud_music\/1542012183211\/file.mp3?nonce=cfcd208495d565ef66e7dff9f98764da","cover":"","updatetime":"0","height":0,"width":0,"video":"","sort":100,"version":0,"cover2":"","appkey":"init","duration":141,"extra":{},"polyglot":{"en":"Figth Scene"},"category":"75028754,","audit":0,"is_ugc":0,"type":"cloud_music"},{"id":"1005024","ufid":"17785344","name":"Essence","file":"http:\/\/rdfile.oss-cn-hangzhou.aliyuncs.com\/filemanage\/init\/cloud_music\/1542012183856\/file.mp3?nonce=cfcd208495d565ef66e7dff9f98764da","cover":"","updatetime":"0","height":0,"width":0,"video":"","sort":100,"version":0,"cover2":"","appkey":"init","duration":130,"extra":{},"polyglot":{"en":"Essence"},"category":"75028754,","audit":0,"is_ugc":0,"type":"cloud_music"},{"id":"1005023","ufid":"61543455","name":"Essence 2","file":"http:\/\/rdfile.oss-cn-hangzhou.aliyuncs.com\/filemanage\/init\/cloud_music\/1542012183376\/file.mp3?nonce=cfcd208495d565ef66e7dff9f98764da","cover":"","updatetime":"0","height":0,"width":0,"video":"","sort":100,"version":0,"cover2":"","appkey":"init","duration":229,"extra":{},"polyglot":{"en":"Essence 2"},"category":"75028754,","audit":0,"is_ugc":0,"type":"cloud_music"},{"id":"1005022","ufid":"31798864","name":"Ectoplasm","file":"http:\/\/rdfile.oss-cn-hangzhou.aliyuncs.com\/filemanage\/init\/cloud_music\/1542012183658\/file.mp3?nonce=cfcd208495d565ef66e7dff9f98764da","cover":"","updatetime":"0","height":0,"width":0,"video":"","sort":100,"version":0,"cover2":"","appkey":"init","duration":158,"extra":{},"polyglot":{"en":"Ectoplasm"},"category":"75028754,","audit":0,"is_ugc":0,"type":"cloud_music"},{"id":"1005021","ufid":"18017757","name":"Drifting2","file":"http:\/\/rdfile.oss-cn-hangzhou.aliyuncs.com\/filemanage\/init\/cloud_music\/1542012183559\/file.mp3?nonce=cfcd208495d565ef66e7dff9f98764da","cover":"","updatetime":"0","height":0,"width":0,"video":"","sort":100,"version":0,"cover2":"","appkey":"init","duration":238,"extra":{},"polyglot":{"en":"Drifting2"},"category":"75028754,","audit":0,"is_ugc":0,"type":"cloud_music"},{"id":"1005020","ufid":"38834914","name":"DestinationUnknown","file":"http:\/\/rdfile.oss-cn-hangzhou.aliyuncs.com\/filemanage\/init\/cloud_music\/1542012183649\/file.mp3?nonce=cfcd208495d565ef66e7dff9f98764da","cover":"","updatetime":"0","height":0,"width":0,"video":"","sort":100,"version":0,"cover2":"","appkey":"init","duration":72,"extra":{},"polyglot":{"en":"DestinationUnknown"},"category":"75028754,","audit":0,"is_ugc":0,"type":"cloud_music"},{"id":"1005019","ufid":"21834142","name":"Delusion 32","file":"http:\/\/rdfile.oss-cn-hangzhou.aliyuncs.com\/filemanage\/init\/cloud_music\/1542012183311\/file.mp3?nonce=cfcd208495d565ef66e7dff9f98764da","cover":"","updatetime":"0","height":0,"width":0,"video":"","sort":100,"version":0,"cover2":"","appkey":"init","duration":57,"extra":{},"polyglot":{"en":"Delusion 32"},"category":"75028754,","audit":0,"is_ugc":0,"type":"cloud_music"},{"id":"1005018","ufid":"41738961","name":"Deep Space","file":"http:\/\/rdfile.oss-cn-hangzhou.aliyuncs.com\/filemanage\/init\/cloud_music\/1542012183324\/file.mp3?nonce=cfcd208495d565ef66e7dff9f98764da","cover":"","updatetime":"0","height":0,"width":0,"video":"","sort":100,"version":0,"cover2":"","appkey":"init","duration":304,"extra":{},"polyglot":{"en":"Deep Space"},"category":"75028754,","audit":0,"is_ugc":0,"type":"cloud_music"},{"id":"1005017","ufid":"22754457","name":"Cold Morning","file":"http:\/\/rdfile.oss-cn-hangzhou.aliyuncs.com\/filemanage\/init\/cloud_music\/1542012183959\/file.mp3?nonce=cfcd208495d565ef66e7dff9f98764da","cover":"","updatetime":"0","height":0,"width":0,"video":"","sort":100,"version":0,"cover2":"","appkey":"init","duration":165,"extra":{},"polyglot":{"en":"Cold Morning"},"category":"75028754,","audit":0,"is_ugc":0,"type":"cloud_music"},{"id":"1005016","ufid":"26707857","name":"Beginning","file":"http:\/\/rdfile.oss-cn-hangzhou.aliyuncs.com\/filemanage\/init\/cloud_music\/1542012183939\/file.mp3?nonce=cfcd208495d565ef66e7dff9f98764da","cover":"","updatetime":"0","height":0,"width":0,"video":"","sort":100,"version":0,"cover2":"","appkey":"init","duration":81,"extra":{},"polyglot":{"en":"Beginning"},"category":"75028754,","audit":0,"is_ugc":0,"type":"cloud_music"},{"id":"1005015","ufid":"83376995","name":"Atlantis","file":"http:\/\/rdfile.oss-cn-hangzhou.aliyuncs.com\/filemanage\/init\/cloud_music\/1542012183466\/file.mp3?nonce=cfcd208495d565ef66e7dff9f98764da","cover":"","updatetime":"0","height":0,"width":0,"video":"","sort":100,"version":0,"cover2":"","appkey":"init","duration":114,"extra":{},"polyglot":{"en":"Atlantis"},"category":"75028754,","audit":0,"is_ugc":0,"type":"cloud_music"},{"id":"1005014","ufid":"49478450","name":"AlienSunset","file":"http:\/\/rdfile.oss-cn-hangzhou.aliyuncs.com\/filemanage\/init\/cloud_music\/1542012183452\/file.mp3?nonce=cfcd208495d565ef66e7dff9f98764da","cover":"","updatetime":"0","height":0,"width":0,"video":"","sort":100,"version":0,"cover2":"","appkey":"init","duration":117,"extra":{},"polyglot":{"en":"AlienSunset"},"category":"75028754,","audit":0,"is_ugc":0,"type":"cloud_music"},{"id":"1005013","ufid":"43963331","name":"A Darker Heart","file":"http:\/\/rdfile.oss-cn-hangzhou.aliyuncs.com\/filemanage\/init\/cloud_music\/1542012183882\/file.mp3?nonce=cfcd208495d565ef66e7dff9f98764da","cover":"","updatetime":"0","height":0,"width":0,"video":"","sort":100,"version":0,"cover2":"","appkey":"init","duration":272,"extra":{},"polyglot":{"en":"A Darker Heart"},"category":"75028754,","audit":0,"is_ugc":0,"type":"cloud_music"},{"id":"1005012","ufid":"57271805","name":"5 Cents Back","file":"http:\/\/rdfile.oss-cn-hangzhou.aliyuncs.com\/filemanage\/init\/cloud_music\/1542012183499\/file.mp3?nonce=cfcd208495d565ef66e7dff9f98764da","cover":"","updatetime":"0","height":0,"width":0,"video":"","sort":100,"version":0,"cover2":"","appkey":"init","duration":127,"extra":{},"polyglot":{"en":"5 Cents Back"},"category":"75028754,","audit":0,"is_ugc":0,"type":"cloud_music"}]}}