{"code":0,"msg":"success","data":{"total":48,"per_page":20,"current_page":3,"last_page":3,"data":[{"id":"1005077","ufid":"60882862","name":"Dark City","file":"http:\/\/rdfile.oss-cn-hangzhou.aliyuncs.com\/filemanage\/init\/cloud_music\/1542012183726\/file.mp3?nonce=cfcd208495d565ef66e7dff9f98764da","cover":"","updatetime":"0","height":0,"width":0,"video":"","sort":100,"version":0,"cover2":"","appkey":"init","duration":172,"extra":{},"polyglot":{"en":"Dark City"},"category":"84596108,","audit":0,"is_ugc":0,"type":"cloud_music"},{"id":"1005076","ufid":"91604916","name":"Cycles","file":"http:\/\/rdfile.oss-cn-hangzhou.aliyuncs.com\/filemanage\/init\/cloud_music\/1542012183416\/file.mp3?nonce=cfcd208495d565ef66e7dff9f98764da","cover":"","updatetime":"0","height":0,"width":0,"video":"","sort":100,"version":0,"cover2":"","appkey":"init","duration":219,"extra":{},"polyglot":{"en":"Cycles"},"category":"84596108,","audit":0,"is_ugc":0,"type":"cloud_music"},{"id":"1005075","ufid":"85967252","name":"Cool Blast - Disco Ultralounge","file":"http:\/\/rdfile.oss-cn-hangzhou.aliyuncs.com\/filemanage\/init\/cloud_music\/1542012183561\/file.mp3?nonce=cfcd208495d565ef66e7dff9f98764da","cover":"","updatetime":"0","height":0,"width":0,"video":"","sort":100,"version":0,"cover2":"","appkey":"init","duration":77,"extra":{},"polyglot":{"en":"Cool Blast - Disco Ultralounge"},"category":"84596108,","audit":0,"is_ugc":0,"type":"cloud_music"},{"id":"1005074","ufid":"67127190","name":"Cliff Side","file":"http:\/\/rdfile.oss-cn-hangzhou.aliyuncs.com\/filemanage\/init\/cloud_music\/1542012183855\/file.mp3?nonce=cfcd208495d565ef66e7dff9f98764da","cover":"","updatetime":"0","height":0,"width":0,"video":"","sort":100,"version":0,"cover2":"","appkey":"init","duration":148,"extra":{},"polyglot":{"en":"Cliff Side"},"category":"84596108,","audit":0,"is_ugc":0,"type":"cloud_music"},{"id":"1005073","ufid":"16029208","name":"Carnival De Brazil","file":"http:\/\/rdfile.oss-cn-hangzhou.aliyuncs.com\/filemanage\/init\/cloud_music\/1542012183741\/file.mp3?nonce=cfcd208495d565ef66e7dff9f98764da","cover":"","updatetime":"0","height":0,"width":0,"video":"","sort":100,"version":0,"cover2":"","appkey":"init","duration":89,"extra":{},"polyglot":{"en":"Carnival De Brazil"},"category":"84596108,","audit":0,"is_ugc":0,"type":"cloud_music"},{"id":"1005072","ufid":"81879725","name":"Before Dawn","file":"http:\/\/rdfile.oss-cn-hangzhou.aliyuncs.com\/filemanage\/init\/cloud_music\/1542012183608\/file.mp3?nonce=cfcd208495d565ef66e7dff9f98764da","cover":"","updatetime":"0","height":0,"width":0,"video":"","sort":100,"version":0,"cover2":"","appkey":"init","duration":107,"extra":{},"polyglot":{"en":"Before Dawn"},"category":"84596108,","audit":0,"is_ugc":0,"type":"cloud_music"},{"id":"1005071","ufid":"18863037","name":"Autumn Sunset","file":"http:\/\/rdfile.oss-cn-hangzhou.aliyuncs.com\/filemanage\/init\/cloud_music\/1542012183619\/file.mp3?nonce=cfcd208495d565ef66e7dff9f98764da","cover":"","updatetime":"0","height":0,"width":0,"video":"","sort":100,"version":0,"cover2":"","appkey":"init","duration":97,"extra":{},"polyglot":{"en":"Autumn Sunset"},"category":"84596108,","audit":0,"is_ugc":0,"type":"cloud_music"},{"id":"1005070","ufid":"80885415","name":"Act Three","file":"http:\/\/rdfile.oss-cn-hangzhou.aliyuncs.com\/filemanage\/init\/cloud_music\/1542012183834\/file.mp3?nonce=cfcd208495d565ef66e7dff9f98764da","cover":"","updatetime":"0","height":0,"width":0,"video":"","sort":100,"version":0,"cover2":"","appkey":"init","duration":202,"extra":{},"polyglot":{"en":"Act Three"},"category":"84596108,","audit":0,"is_ugc":0,"type":"cloud_music"}]}}