{"code":0,"msg":"success","data":{"total":636,"per_page":10,"current_page":56,"last_page":64,"data":[{"id":"1012036","ufid":"52393359","name":"\u5012\u653e","file":"http:\/\/rdfile.oss-cn-hangzhou.aliyuncs.com\/filemanage\/e069b36c568d909f\/templateapi\/16279000656606\/file.zip?nonce=cfcd208495d565ef66e7dff9f98764da","cover":"http:\/\/rdfile.oss-cn-hangzhou.aliyuncs.com\/filemanage\/e069b36c568d909f\/templateapi\/16279000656606\/cover.png?nonce=cfcd208495d565ef66e7dff9f98764da&x-oss-process=style\/templateapi","updatetime":"0","height":1280,"width":720,"video":"http:\/\/rdfile.oss-cn-hangzhou.aliyuncs.com\/filemanage\/e069b36c568d909f\/templateapi\/16279000656606\/video.mp4?nonce=cfcd208495d565ef66e7dff9f98764da","sort":100,"version":147,"cover2":"","appkey":"init","duration":0,"extra":{},"polyglot":[],"category":"0","audit":0,"is_ugc":0,"text_need":0,"picture_need":0,"video_need":1,"type":"templateapi"},{"id":"1012034","ufid":"46359463","name":"\u590d\u53e4\u6b4c\u8bcd","file":"http:\/\/rdfile.oss-cn-hangzhou.aliyuncs.com\/filemanage\/e069b36c568d909f\/templateapi\/16278966231099\/file.zip?nonce=38755a588aceabca4c259f99e891d9bd","cover":"http:\/\/rdfile.oss-cn-hangzhou.aliyuncs.com\/filemanage\/e069b36c568d909f\/templateapi\/16278966231099\/cover.png?nonce=38755a588aceabca4c259f99e891d9bd&x-oss-process=style\/templateapi","updatetime":"1684912629","height":1280,"width":1280,"video":"http:\/\/rdfile.oss-cn-hangzhou.aliyuncs.com\/filemanage\/e069b36c568d909f\/templateapi\/16278966231099\/video.mp4?nonce=38755a588aceabca4c259f99e891d9bd","sort":100,"version":147,"cover2":"","appkey":"init","duration":0,"extra":{},"polyglot":[],"category":"0","audit":0,"is_ugc":0,"text_need":6,"picture_need":0,"video_need":6,"type":"templateapi"},{"id":"1012032","ufid":"83003893","name":"\u66f2\u7ebf\u53d8\u901f","file":"http:\/\/rdfile.oss-cn-hangzhou.aliyuncs.com\/filemanage\/e069b36c568d909f\/templateapi\/16278942772411\/file.zip?nonce=96018ba21bc438f6bc9619d722dbb0ab","cover":"http:\/\/rdfile.oss-cn-hangzhou.aliyuncs.com\/filemanage\/e069b36c568d909f\/templateapi\/16278942772411\/cover.png?nonce=96018ba21bc438f6bc9619d722dbb0ab&x-oss-process=style\/templateapi","updatetime":"1684895022","height":720,"width":1280,"video":"http:\/\/rdfile.oss-cn-hangzhou.aliyuncs.com\/filemanage\/e069b36c568d909f\/templateapi\/16278942772411\/video.mp4?nonce=96018ba21bc438f6bc9619d722dbb0ab","sort":100,"version":147,"cover2":"","appkey":"init","duration":0,"extra":{},"polyglot":[],"category":"0","audit":0,"is_ugc":0,"text_need":0,"picture_need":0,"video_need":1,"type":"templateapi"},{"id":"1012023","ufid":"17472692","name":"\u6ee1\u6ee1\u7684\u7231","file":"http:\/\/rdfile.oss-cn-hangzhou.aliyuncs.com\/filemanage\/e069b36c568d909f\/templateapi\/16276389408561\/file.zip?nonce=57b962b73f7e1d715b002896c08993af","cover":"http:\/\/rdfile.oss-cn-hangzhou.aliyuncs.com\/filemanage\/e069b36c568d909f\/templateapi\/16276389408561\/cover.png?nonce=57b962b73f7e1d715b002896c08993af&x-oss-process=style\/templateapi","updatetime":"1684914967","height":1280,"width":720,"video":"http:\/\/rdfile.oss-cn-hangzhou.aliyuncs.com\/filemanage\/e069b36c568d909f\/templateapi\/16276389408561\/video.mp4?nonce=57b962b73f7e1d715b002896c08993af","sort":100,"version":147,"cover2":"","appkey":"init","duration":0,"extra":{},"polyglot":[],"category":"0","audit":0,"is_ugc":0,"text_need":0,"picture_need":0,"video_need":6,"type":"templateapi"},{"id":"1012022","ufid":"50070017","name":"\u6797\u95f4\u5c0f\u9053","file":"http:\/\/rdfile.oss-cn-hangzhou.aliyuncs.com\/filemanage\/e069b36c568d909f\/templateapi\/16276387848009\/file.zip?nonce=cfcd208495d565ef66e7dff9f98764da","cover":"http:\/\/rdfile.oss-cn-hangzhou.aliyuncs.com\/filemanage\/e069b36c568d909f\/templateapi\/16276387848009\/cover.png?nonce=cfcd208495d565ef66e7dff9f98764da&x-oss-process=style\/templateapi","updatetime":"0","height":1280,"width":720,"video":"http:\/\/rdfile.oss-cn-hangzhou.aliyuncs.com\/filemanage\/e069b36c568d909f\/templateapi\/16276387848009\/video.mp4?nonce=cfcd208495d565ef66e7dff9f98764da","sort":100,"version":147,"cover2":"","appkey":"init","duration":0,"extra":{},"polyglot":[],"category":"0","audit":0,"is_ugc":0,"text_need":0,"picture_need":0,"video_need":1,"type":"templateapi"},{"id":"1012020","ufid":"87394324","name":"\u53d8\u8272\u5c01\u9762","file":"http:\/\/rdfile.oss-cn-hangzhou.aliyuncs.com\/filemanage\/e069b36c568d909f\/templateapi\/16276349393668\/file.zip?nonce=cfcd208495d565ef66e7dff9f98764da","cover":"http:\/\/rdfile.oss-cn-hangzhou.aliyuncs.com\/filemanage\/e069b36c568d909f\/templateapi\/16276349393668\/cover.png?nonce=cfcd208495d565ef66e7dff9f98764da&x-oss-process=style\/templateapi","updatetime":"0","height":1280,"width":720,"video":"http:\/\/rdfile.oss-cn-hangzhou.aliyuncs.com\/filemanage\/e069b36c568d909f\/templateapi\/16276349393668\/video.mp4?nonce=cfcd208495d565ef66e7dff9f98764da","sort":100,"version":147,"cover2":"","appkey":"init","duration":0,"extra":{},"polyglot":[],"category":"0","audit":0,"is_ugc":0,"text_need":0,"picture_need":4,"video_need":0,"type":"templateapi"},{"id":"1012016","ufid":"19887121","name":"\u5907\u5fd8\u5f55","file":"http:\/\/rdfile.oss-cn-hangzhou.aliyuncs.com\/filemanage\/e069b36c568d909f\/templateapi\/16276297107679\/file.zip?nonce=cfcd208495d565ef66e7dff9f98764da","cover":"http:\/\/rdfile.oss-cn-hangzhou.aliyuncs.com\/filemanage\/e069b36c568d909f\/templateapi\/16276297107679\/cover.png?nonce=cfcd208495d565ef66e7dff9f98764da&x-oss-process=style\/templateapi","updatetime":"0","height":1280,"width":720,"video":"http:\/\/rdfile.oss-cn-hangzhou.aliyuncs.com\/filemanage\/e069b36c568d909f\/templateapi\/16276297107679\/video.mp4?nonce=cfcd208495d565ef66e7dff9f98764da","sort":100,"version":147,"cover2":"","appkey":"init","duration":0,"extra":{},"polyglot":[],"category":"0","audit":0,"is_ugc":0,"text_need":0,"picture_need":15,"video_need":0,"type":"templateapi"},{"id":"1012014","ufid":"30622913","name":"\u751f\u6d3b\u65e5\u8bb0","file":"http:\/\/rdfile.oss-cn-hangzhou.aliyuncs.com\/filemanage\/e069b36c568d909f\/templateapi\/16276295496561\/file.zip?nonce=9c3e3f3ceefc4357328b226b141facae","cover":"http:\/\/rdfile.oss-cn-hangzhou.aliyuncs.com\/filemanage\/e069b36c568d909f\/templateapi\/16276295496561\/cover.png?nonce=9c3e3f3ceefc4357328b226b141facae&x-oss-process=style\/templateapi","updatetime":"1684914160","height":720,"width":1280,"video":"http:\/\/rdfile.oss-cn-hangzhou.aliyuncs.com\/filemanage\/e069b36c568d909f\/templateapi\/16276295496561\/video.mp4?nonce=9c3e3f3ceefc4357328b226b141facae","sort":100,"version":147,"cover2":"","appkey":"init","duration":0,"extra":{},"polyglot":[],"category":"0","audit":0,"is_ugc":0,"text_need":5,"picture_need":0,"video_need":2,"type":"templateapi"},{"id":"1012006","ufid":"63951489","name":"\u4e0d\u89c4\u5219\u8499\u677f","file":"http:\/\/rdfile.oss-cn-hangzhou.aliyuncs.com\/filemanage\/e069b36c568d909f\/templateapi\/16275535063887\/file.zip?nonce=cfcd208495d565ef66e7dff9f98764da","cover":"http:\/\/rdfile.oss-cn-hangzhou.aliyuncs.com\/filemanage\/e069b36c568d909f\/templateapi\/16275535063887\/cover.png?nonce=cfcd208495d565ef66e7dff9f98764da&x-oss-process=style\/templateapi","updatetime":"0","height":1280,"width":720,"video":"http:\/\/rdfile.oss-cn-hangzhou.aliyuncs.com\/filemanage\/e069b36c568d909f\/templateapi\/16275535063887\/video.mp4?nonce=cfcd208495d565ef66e7dff9f98764da","sort":100,"version":147,"cover2":"","appkey":"init","duration":0,"extra":{},"polyglot":[],"category":"0","audit":0,"is_ugc":0,"text_need":0,"picture_need":0,"video_need":4,"type":"templateapi"},{"id":"1011998","ufid":"66660815","name":"I LOVE YOU","file":"http:\/\/rdfile.oss-cn-hangzhou.aliyuncs.com\/filemanage\/e069b36c568d909f\/templateapi\/16275397828696\/file.zip?nonce=cfcd208495d565ef66e7dff9f98764da","cover":"http:\/\/rdfile.oss-cn-hangzhou.aliyuncs.com\/filemanage\/e069b36c568d909f\/templateapi\/16275397828696\/cover.png?nonce=cfcd208495d565ef66e7dff9f98764da&x-oss-process=style\/templateapi","updatetime":"0","height":1280,"width":720,"video":"http:\/\/rdfile.oss-cn-hangzhou.aliyuncs.com\/filemanage\/e069b36c568d909f\/templateapi\/16275397828696\/video.mp4?nonce=cfcd208495d565ef66e7dff9f98764da","sort":100,"version":147,"cover2":"","appkey":"init","duration":0,"extra":{},"polyglot":[],"category":"0","audit":0,"is_ugc":0,"text_need":0,"picture_need":8,"video_need":0,"type":"templateapi"}]}}