{"code":0,"msg":"success","data":{"total":636,"per_page":10,"current_page":32,"last_page":64,"data":[{"id":"1015219","ufid":"21396900","name":"\u6ed1\u52a8\u76f8\u518c","file":"http:\/\/rdfile.oss-cn-hangzhou.aliyuncs.com\/filemanage\/e069b36c568d909f\/templateapi\/16534627521969\/file.zip?nonce=1e4ef6c4d16ed1731d523a72b32cf62e","cover":"http:\/\/rdfile.oss-cn-hangzhou.aliyuncs.com\/filemanage\/e069b36c568d909f\/templateapi\/16534627521969\/cover.webp?nonce=1e4ef6c4d16ed1731d523a72b32cf62e","updatetime":"1684898107","height":607,"width":1080,"video":"http:\/\/rdfile.oss-cn-hangzhou.aliyuncs.com\/filemanage\/e069b36c568d909f\/templateapi\/16534627521969\/video.mp4?nonce=1e4ef6c4d16ed1731d523a72b32cf62e","sort":0,"version":153,"cover2":"","appkey":"init","duration":0,"extra":{},"polyglot":[],"category":"0","audit":0,"is_ugc":0,"text_need":0,"picture_need":0,"video_need":3,"type":"templateapi"},{"id":"1015213","ufid":"88807309","name":"\u6210\u8bed\u62dc\u65b0\u5e74","file":"http:\/\/rdfile.oss-cn-hangzhou.aliyuncs.com\/filemanage\/e069b36c568d909f\/templateapi\/16533855683958\/file.zip?nonce=7e2b0cff8a7695103d3b6542620ae5d6","cover":"http:\/\/rdfile.oss-cn-hangzhou.aliyuncs.com\/filemanage\/e069b36c568d909f\/templateapi\/16533855683958\/cover.webp?nonce=7e2b0cff8a7695103d3b6542620ae5d6","updatetime":"1684895288","height":633,"width":356,"video":"http:\/\/rdfile.oss-cn-hangzhou.aliyuncs.com\/filemanage\/e069b36c568d909f\/templateapi\/16533855683958\/video.mp4?nonce=7e2b0cff8a7695103d3b6542620ae5d6","sort":0,"version":153,"cover2":"","appkey":"init","duration":0,"extra":{},"polyglot":[],"category":"0","audit":0,"is_ugc":0,"text_need":9,"picture_need":0,"video_need":1,"type":"templateapi"},{"id":"1015192","ufid":"71214609","name":"\u9b54\u517d\u4e16\u754c","file":"http:\/\/rdfile.oss-cn-hangzhou.aliyuncs.com\/filemanage\/e069b36c568d909f\/templateapi\/16532719609414\/file.zip?nonce=79d1148f1ea5bb8c578ce02b6157d96b","cover":"http:\/\/rdfile.oss-cn-hangzhou.aliyuncs.com\/filemanage\/e069b36c568d909f\/templateapi\/16532719609414\/cover.webp?nonce=79d1148f1ea5bb8c578ce02b6157d96b","updatetime":"1684911918","height":634,"width":357,"video":"http:\/\/rdfile.oss-cn-hangzhou.aliyuncs.com\/filemanage\/e069b36c568d909f\/templateapi\/16532719609414\/video.mp4?nonce=79d1148f1ea5bb8c578ce02b6157d96b","sort":0,"version":153,"cover2":"","appkey":"init","duration":0,"extra":{},"polyglot":[],"category":"0","audit":0,"is_ugc":0,"text_need":0,"picture_need":1,"video_need":0,"type":"templateapi"},{"id":"1015177","ufid":"33064704","name":"\u5c0f\u9ec4\u4eba","file":"http:\/\/rdfile.oss-cn-hangzhou.aliyuncs.com\/filemanage\/e069b36c568d909f\/templateapi\/16529544291549\/file.zip?nonce=b788c609e9d57da406af39af6a184151","cover":"http:\/\/rdfile.oss-cn-hangzhou.aliyuncs.com\/filemanage\/e069b36c568d909f\/templateapi\/16529544291549\/cover.webp?nonce=b788c609e9d57da406af39af6a184151","updatetime":"1684911932","height":632,"width":356,"video":"http:\/\/rdfile.oss-cn-hangzhou.aliyuncs.com\/filemanage\/e069b36c568d909f\/templateapi\/16529544291549\/video.mp4?nonce=b788c609e9d57da406af39af6a184151","sort":0,"version":153,"cover2":"","appkey":"init","duration":0,"extra":{},"polyglot":[],"category":"0","audit":0,"is_ugc":0,"text_need":0,"picture_need":0,"video_need":1,"type":"templateapi"},{"id":"1015175","ufid":"41101900","name":"3D\u7acb\u4f53\u611f\u7535\u5f71\u843d\u5e55","file":"http:\/\/rdfile.oss-cn-hangzhou.aliyuncs.com\/filemanage\/e069b36c568d909f\/templateapi\/16529498849370\/file.zip?nonce=7bf07a85cdf71b66c125e60ccd31ce07","cover":"http:\/\/rdfile.oss-cn-hangzhou.aliyuncs.com\/filemanage\/e069b36c568d909f\/templateapi\/16529498849370\/cover.webp?nonce=7bf07a85cdf71b66c125e60ccd31ce07","updatetime":"1684898091","height":915,"width":1080,"video":"http:\/\/rdfile.oss-cn-hangzhou.aliyuncs.com\/filemanage\/e069b36c568d909f\/templateapi\/16529498849370\/video.mp4?nonce=7bf07a85cdf71b66c125e60ccd31ce07","sort":0,"version":153,"cover2":"","appkey":"init","duration":0,"extra":{},"polyglot":[],"category":"0","audit":0,"is_ugc":0,"text_need":0,"picture_need":0,"video_need":1,"type":"templateapi"},{"id":"1015149","ufid":"57882475","name":"NBA\u5f0f\u751f\u65e5\u5feb\u4e50","file":"http:\/\/rdfile.oss-cn-hangzhou.aliyuncs.com\/filemanage\/e069b36c568d909f\/templateapi\/16526735375404\/file.zip?nonce=9bb9594c4b8d8fda63baab95341e89d6","cover":"http:\/\/rdfile.oss-cn-hangzhou.aliyuncs.com\/filemanage\/e069b36c568d909f\/templateapi\/16526735375404\/cover.webp?nonce=9bb9594c4b8d8fda63baab95341e89d6","updatetime":"1684895379","height":1280,"width":720,"video":"http:\/\/rdfile.oss-cn-hangzhou.aliyuncs.com\/filemanage\/e069b36c568d909f\/templateapi\/16526735375404\/video.mp4?nonce=9bb9594c4b8d8fda63baab95341e89d6","sort":0,"version":153,"cover2":"","appkey":"init","duration":0,"extra":{},"polyglot":[],"category":"0","audit":0,"is_ugc":0,"text_need":0,"picture_need":0,"video_need":1,"type":"templateapi"},{"id":"1015143","ufid":"41632886","name":"\u6c34\u6676\u7403","file":"http:\/\/rdfile.oss-cn-hangzhou.aliyuncs.com\/filemanage\/e069b36c568d909f\/templateapi\/16524356234663\/file.zip?nonce=cfcd208495d565ef66e7dff9f98764da","cover":"http:\/\/rdfile.oss-cn-hangzhou.aliyuncs.com\/filemanage\/e069b36c568d909f\/templateapi\/16524356234663\/cover.webp?nonce=cfcd208495d565ef66e7dff9f98764da","updatetime":"0","height":1152,"width":648,"video":"http:\/\/rdfile.oss-cn-hangzhou.aliyuncs.com\/filemanage\/e069b36c568d909f\/templateapi\/16524356234663\/video.mp4?nonce=cfcd208495d565ef66e7dff9f98764da","sort":0,"version":152,"cover2":"","appkey":"init","duration":0,"extra":{},"polyglot":[],"category":"0","audit":0,"is_ugc":0,"text_need":0,"picture_need":0,"video_need":5,"type":"templateapi"},{"id":"1015112","ufid":"47297217","name":"\u4eba\u7269\u8dd1\u8fdb\u753b\u4e2d","file":"http:\/\/rdfile.oss-cn-hangzhou.aliyuncs.com\/filemanage\/e069b36c568d909f\/templateapi\/16522625337405\/file.zip?nonce=7fae56b1619fe8ebd4835b54e3cb0c60","cover":"http:\/\/rdfile.oss-cn-hangzhou.aliyuncs.com\/filemanage\/e069b36c568d909f\/templateapi\/16522625337405\/cover.jpg?nonce=7fae56b1619fe8ebd4835b54e3cb0c60&x-oss-process=style\/templateapi","updatetime":"1684896651","height":607,"width":1080,"video":"http:\/\/rdfile.oss-cn-hangzhou.aliyuncs.com\/filemanage\/e069b36c568d909f\/templateapi\/16522625337405\/video.mp4?nonce=7fae56b1619fe8ebd4835b54e3cb0c60","sort":0,"version":152,"cover2":"","appkey":"init","duration":0,"extra":{},"polyglot":[],"category":"0","audit":0,"is_ugc":0,"text_need":0,"picture_need":0,"video_need":2,"type":"templateapi"},{"id":"1015023","ufid":"17977677","name":"\u6d41\u52a8\u7167\u7247\u5899","file":"http:\/\/rdfile.oss-cn-hangzhou.aliyuncs.com\/filemanage\/e069b36c568d909f\/templateapi\/16522520128476\/file.zip?nonce=cfcd208495d565ef66e7dff9f98764da","cover":"http:\/\/rdfile.oss-cn-hangzhou.aliyuncs.com\/filemanage\/e069b36c568d909f\/templateapi\/16522520128476\/cover.webp?nonce=cfcd208495d565ef66e7dff9f98764da","updatetime":"0","height":633,"width":1125,"video":"http:\/\/rdfile.oss-cn-hangzhou.aliyuncs.com\/filemanage\/e069b36c568d909f\/templateapi\/16522520128476\/video.mp4?nonce=cfcd208495d565ef66e7dff9f98764da","sort":0,"version":152,"cover2":"","appkey":"init","duration":0,"extra":{},"polyglot":[],"category":"0","audit":0,"is_ugc":0,"text_need":0,"picture_need":12,"video_need":0,"type":"templateapi"},{"id":"1014988","ufid":"16966318","name":"\u611f\u6069\u6bcd\u4eb2\u8282","file":"http:\/\/rdfile.oss-cn-hangzhou.aliyuncs.com\/filemanage\/e069b36c568d909f\/templateapi\/16520822526933\/file.zip?nonce=cfcd208495d565ef66e7dff9f98764da","cover":"http:\/\/rdfile.oss-cn-hangzhou.aliyuncs.com\/filemanage\/e069b36c568d909f\/templateapi\/16520822526933\/cover.webp?nonce=cfcd208495d565ef66e7dff9f98764da","updatetime":"0","height":1280,"width":720,"video":"http:\/\/rdfile.oss-cn-hangzhou.aliyuncs.com\/filemanage\/e069b36c568d909f\/templateapi\/16520822526933\/video.mp4?nonce=cfcd208495d565ef66e7dff9f98764da","sort":0,"version":153,"cover2":"","appkey":"init","duration":0,"extra":{},"polyglot":[],"category":"0","audit":0,"is_ugc":0,"text_need":0,"picture_need":0,"video_need":5,"type":"templateapi"}]}}