{"code":0,"msg":"success","data":{"total":636,"per_page":10,"current_page":57,"last_page":64,"data":[{"id":"1011984","ufid":"87763068","name":"5\u5c4fvlog","file":"http:\/\/rdfile.oss-cn-hangzhou.aliyuncs.com\/filemanage\/e069b36c568d909f\/templateapi\/16275307826692\/file.zip?nonce=46d8a8f2c85ede42a2b70bfbde8c33f0","cover":"http:\/\/rdfile.oss-cn-hangzhou.aliyuncs.com\/filemanage\/e069b36c568d909f\/templateapi\/16275307826692\/cover.png?nonce=46d8a8f2c85ede42a2b70bfbde8c33f0&x-oss-process=style\/templateapi","updatetime":"1704185670","height":1280,"width":720,"video":"http:\/\/rdfile.oss-cn-hangzhou.aliyuncs.com\/filemanage\/e069b36c568d909f\/templateapi\/16275307826692\/video.mp4?nonce=46d8a8f2c85ede42a2b70bfbde8c33f0","sort":100,"version":147,"cover2":"","appkey":"init","duration":0,"extra":{},"polyglot":{"en":"5 screen vlog"},"category":"0","audit":0,"is_ugc":0,"text_need":0,"picture_need":0,"video_need":5,"type":"templateapi"},{"id":"1011980","ufid":"83714217","name":"\u98ce\u8f66","file":"http:\/\/rdfile.oss-cn-hangzhou.aliyuncs.com\/filemanage\/e069b36c568d909f\/templateapi\/16275291696489\/file.zip?nonce=46d8a8f2c85ede42a2b70bfbde8c33f0","cover":"http:\/\/rdfile.oss-cn-hangzhou.aliyuncs.com\/filemanage\/e069b36c568d909f\/templateapi\/16275291696489\/cover.png?nonce=46d8a8f2c85ede42a2b70bfbde8c33f0&x-oss-process=style\/templateapi","updatetime":"1704185670","height":1280,"width":720,"video":"http:\/\/rdfile.oss-cn-hangzhou.aliyuncs.com\/filemanage\/e069b36c568d909f\/templateapi\/16275291696489\/video.mp4?nonce=46d8a8f2c85ede42a2b70bfbde8c33f0","sort":100,"version":147,"cover2":"","appkey":"init","duration":0,"extra":{},"polyglot":{"en":"Windmill"},"category":"0","audit":0,"is_ugc":0,"text_need":0,"picture_need":0,"video_need":9,"type":"templateapi"},{"id":"1011973","ufid":"66728536","name":"\u5230\u5904\u662f\u9633\u5149","file":"http:\/\/rdfile.oss-cn-hangzhou.aliyuncs.com\/filemanage\/e069b36c568d909f\/templateapi\/16274681898898\/file.zip?nonce=aa710166906a1f1d169700ef4c3418b1","cover":"http:\/\/rdfile.oss-cn-hangzhou.aliyuncs.com\/filemanage\/e069b36c568d909f\/templateapi\/16274681898898\/cover.png?nonce=aa710166906a1f1d169700ef4c3418b1&x-oss-process=style\/templateapi","updatetime":"1704185668","height":1280,"width":720,"video":"http:\/\/rdfile.oss-cn-hangzhou.aliyuncs.com\/filemanage\/e069b36c568d909f\/templateapi\/16274681898898\/video.mp4?nonce=aa710166906a1f1d169700ef4c3418b1","sort":100,"version":147,"cover2":"","appkey":"init","duration":0,"extra":{},"polyglot":{"en":"There is sunshine everywhere"},"category":"0","audit":0,"is_ugc":0,"text_need":0,"picture_need":0,"video_need":8,"type":"templateapi"},{"id":"1011954","ufid":"45071068","name":"\u5206\u683c\u573a\u666f","file":"http:\/\/rdfile.oss-cn-hangzhou.aliyuncs.com\/filemanage\/e069b36c568d909f\/templateapi\/16274589272569\/file.zip?nonce=aa710166906a1f1d169700ef4c3418b1","cover":"http:\/\/rdfile.oss-cn-hangzhou.aliyuncs.com\/filemanage\/e069b36c568d909f\/templateapi\/16274589272569\/cover.png?nonce=aa710166906a1f1d169700ef4c3418b1&x-oss-process=style\/templateapi","updatetime":"1704185668","height":1080,"width":607,"video":"http:\/\/rdfile.oss-cn-hangzhou.aliyuncs.com\/filemanage\/e069b36c568d909f\/templateapi\/16274589272569\/video.mp4?nonce=aa710166906a1f1d169700ef4c3418b1","sort":100,"version":147,"cover2":"","appkey":"init","duration":0,"extra":{},"polyglot":{"en":"Framed scenes"},"category":"0","audit":0,"is_ugc":0,"text_need":0,"picture_need":0,"video_need":4,"type":"templateapi"},{"id":"1011950","ufid":"55807151","name":"\u52a8\u6001\u5207\u5272","file":"http:\/\/rdfile.oss-cn-hangzhou.aliyuncs.com\/filemanage\/e069b36c568d909f\/templateapi\/16274540871152\/file.zip?nonce=aa710166906a1f1d169700ef4c3418b1","cover":"http:\/\/rdfile.oss-cn-hangzhou.aliyuncs.com\/filemanage\/e069b36c568d909f\/templateapi\/16274540871152\/cover.png?nonce=aa710166906a1f1d169700ef4c3418b1&x-oss-process=style\/templateapi","updatetime":"1704185668","height":1080,"width":607,"video":"http:\/\/rdfile.oss-cn-hangzhou.aliyuncs.com\/filemanage\/e069b36c568d909f\/templateapi\/16274540871152\/video.mp4?nonce=aa710166906a1f1d169700ef4c3418b1","sort":100,"version":147,"cover2":"","appkey":"init","duration":0,"extra":{},"polyglot":{"en":"Dynamic cutting"},"category":"0","audit":0,"is_ugc":0,"text_need":0,"picture_need":0,"video_need":4,"type":"templateapi"},{"id":"1011914","ufid":"27473864","name":"\u5982\u771f\u5982\u5047","file":"http:\/\/rdfile.oss-cn-hangzhou.aliyuncs.com\/filemanage\/e069b36c568d909f\/templateapi\/16273727677354\/file.zip?nonce=0b773f41530e0c73cd7234f6c232b7a8","cover":"http:\/\/rdfile.oss-cn-hangzhou.aliyuncs.com\/filemanage\/e069b36c568d909f\/templateapi\/16273727677354\/cover.png?nonce=0b773f41530e0c73cd7234f6c232b7a8&x-oss-process=style\/templateapi","updatetime":"1704185667","height":1080,"width":607,"video":"http:\/\/rdfile.oss-cn-hangzhou.aliyuncs.com\/filemanage\/e069b36c568d909f\/templateapi\/16273727677354\/video.mp4?nonce=0b773f41530e0c73cd7234f6c232b7a8","sort":100,"version":147,"cover2":"","appkey":"init","duration":0,"extra":{},"polyglot":{"en":"True or false"},"category":"0","audit":0,"is_ugc":0,"text_need":4,"picture_need":0,"video_need":4,"type":"templateapi"},{"id":"1011910","ufid":"80998003","name":"\u4e0d\u8981\u70e6\u607c","file":"http:\/\/rdfile.oss-cn-hangzhou.aliyuncs.com\/filemanage\/e069b36c568d909f\/templateapi\/16273674202245\/file.zip?nonce=0b773f41530e0c73cd7234f6c232b7a8","cover":"http:\/\/rdfile.oss-cn-hangzhou.aliyuncs.com\/filemanage\/e069b36c568d909f\/templateapi\/16273674202245\/cover.png?nonce=0b773f41530e0c73cd7234f6c232b7a8&x-oss-process=style\/templateapi","updatetime":"1704185667","height":1280,"width":720,"video":"http:\/\/rdfile.oss-cn-hangzhou.aliyuncs.com\/filemanage\/e069b36c568d909f\/templateapi\/16273674202245\/video.mp4?nonce=0b773f41530e0c73cd7234f6c232b7a8","sort":100,"version":147,"cover2":"","appkey":"init","duration":0,"extra":{},"polyglot":{"en":"Don"},"category":"0","audit":0,"is_ugc":0,"text_need":4,"picture_need":1,"video_need":0,"type":"templateapi"},{"id":"1011883","ufid":"99357871","name":"\u72ec\u767d","file":"http:\/\/rdfile.oss-cn-hangzhou.aliyuncs.com\/filemanage\/e069b36c568d909f\/templateapi\/16269458205776\/file.zip?nonce=15ffe34b573323b7e618f214a7f19179","cover":"http:\/\/rdfile.oss-cn-hangzhou.aliyuncs.com\/filemanage\/e069b36c568d909f\/templateapi\/16269458205776\/cover.png?nonce=15ffe34b573323b7e618f214a7f19179&x-oss-process=style\/templateapi","updatetime":"1704185664","height":1080,"width":1920,"video":"http:\/\/rdfile.oss-cn-hangzhou.aliyuncs.com\/filemanage\/e069b36c568d909f\/templateapi\/16269458205776\/video.mp4?nonce=15ffe34b573323b7e618f214a7f19179","sort":100,"version":147,"cover2":"","appkey":"init","duration":0,"extra":{},"polyglot":{"en":"Monologue"},"category":"0","audit":0,"is_ugc":0,"text_need":11,"picture_need":0,"video_need":10,"type":"templateapi"},{"id":"1011880","ufid":"89829858","name":"Happy Today","file":"http:\/\/rdfile.oss-cn-hangzhou.aliyuncs.com\/filemanage\/e069b36c568d909f\/templateapi\/16269407456474\/file.zip?nonce=15ffe34b573323b7e618f214a7f19179","cover":"http:\/\/rdfile.oss-cn-hangzhou.aliyuncs.com\/filemanage\/e069b36c568d909f\/templateapi\/16269407456474\/cover.png?nonce=15ffe34b573323b7e618f214a7f19179&x-oss-process=style\/templateapi","updatetime":"1704185664","height":1080,"width":1878,"video":"http:\/\/rdfile.oss-cn-hangzhou.aliyuncs.com\/filemanage\/e069b36c568d909f\/templateapi\/16269407456474\/video.mp4?nonce=15ffe34b573323b7e618f214a7f19179","sort":100,"version":147,"cover2":"","appkey":"init","duration":0,"extra":{},"polyglot":{"en":"Happy Today"},"category":"0","audit":0,"is_ugc":0,"text_need":6,"picture_need":0,"video_need":5,"type":"templateapi"},{"id":"1011879","ufid":"91816797","name":"\u5927\u7247","file":"http:\/\/rdfile.oss-cn-hangzhou.aliyuncs.com\/filemanage\/e069b36c568d909f\/templateapi\/16269376678931\/file.zip?nonce=15ffe34b573323b7e618f214a7f19179","cover":"http:\/\/rdfile.oss-cn-hangzhou.aliyuncs.com\/filemanage\/e069b36c568d909f\/templateapi\/16269376678931\/cover.png?nonce=15ffe34b573323b7e618f214a7f19179&x-oss-process=style\/templateapi","updatetime":"1704185664","height":1080,"width":607,"video":"http:\/\/rdfile.oss-cn-hangzhou.aliyuncs.com\/filemanage\/e069b36c568d909f\/templateapi\/16269376678931\/video.mp4?nonce=15ffe34b573323b7e618f214a7f19179","sort":100,"version":147,"cover2":"","appkey":"init","duration":0,"extra":{},"polyglot":{"en":"Blockbuster"},"category":"0","audit":0,"is_ugc":0,"text_need":5,"picture_need":0,"video_need":4,"type":"templateapi"}]}}