{"code":0,"msg":"success","data":{"total":636,"per_page":10,"current_page":19,"last_page":64,"data":[{"id":"1016299","ufid":"51773923","name":"I wanted you \u97f3\u4e50\u5361\u70b9","file":"http:\/\/rdfile.oss-cn-hangzhou.aliyuncs.com\/filemanage\/e069b36c568d909f\/templateapi\/16666047981270\/file.zip?nonce=5960c05586e08629fa9b28fff44dea8b","cover":"http:\/\/rdfile.oss-cn-hangzhou.aliyuncs.com\/filemanage\/e069b36c568d909f\/templateapi\/16666047981270\/cover.webp?nonce=5960c05586e08629fa9b28fff44dea8b","updatetime":"1704185965","height":1920,"width":1080,"video":"http:\/\/rdfile.oss-cn-hangzhou.aliyuncs.com\/filemanage\/e069b36c568d909f\/templateapi\/16666047981270\/video.mp4?nonce=5960c05586e08629fa9b28fff44dea8b","sort":0,"version":154,"cover2":"","appkey":"init","duration":0,"extra":{},"polyglot":{"en":"Right time music I want you"},"category":"0","audit":0,"is_ugc":0,"text_need":0,"picture_need":0,"video_need":6,"type":"templateapi"},{"id":"1016296","ufid":"36303244","name":"\u6211\u4ee5\u4e3a\u5fd8\u4e86\u60f3\u5ff5","file":"http:\/\/rdfile.oss-cn-hangzhou.aliyuncs.com\/filemanage\/e069b36c568d909f\/templateapi\/16666009177659\/file.zip?nonce=ace9ca6e6d5df0b439010ca6f3ac6f6c","cover":"http:\/\/rdfile.oss-cn-hangzhou.aliyuncs.com\/filemanage\/e069b36c568d909f\/templateapi\/16666009177659\/cover.webp?nonce=ace9ca6e6d5df0b439010ca6f3ac6f6c","updatetime":"1704185964","height":1920,"width":1080,"video":"http:\/\/rdfile.oss-cn-hangzhou.aliyuncs.com\/filemanage\/e069b36c568d909f\/templateapi\/16666009177659\/video.mp4?nonce=ace9ca6e6d5df0b439010ca6f3ac6f6c","sort":0,"version":154,"cover2":"","appkey":"init","duration":0,"extra":{},"polyglot":{"en":"I thought I forgot to miss you"},"category":"0","audit":0,"is_ugc":0,"text_need":0,"picture_need":0,"video_need":4,"type":"templateapi"},{"id":"1016293","ufid":"39254945","name":"\u70ed\u95e8\u97f3\u4e50\u6e05\u7eaf\u8857\u62cd","file":"http:\/\/rdfile.oss-cn-hangzhou.aliyuncs.com\/filemanage\/e069b36c568d909f\/templateapi\/16665955455721\/file.zip?nonce=ace9ca6e6d5df0b439010ca6f3ac6f6c","cover":"http:\/\/rdfile.oss-cn-hangzhou.aliyuncs.com\/filemanage\/e069b36c568d909f\/templateapi\/16665955455721\/cover.webp?nonce=ace9ca6e6d5df0b439010ca6f3ac6f6c","updatetime":"1704185964","height":1920,"width":1080,"video":"http:\/\/rdfile.oss-cn-hangzhou.aliyuncs.com\/filemanage\/e069b36c568d909f\/templateapi\/16665955455721\/video.mp4?nonce=ace9ca6e6d5df0b439010ca6f3ac6f6c","sort":0,"version":154,"cover2":"","appkey":"init","duration":0,"extra":{},"polyglot":{"en":"Popular music innocent street shots"},"category":"0","audit":0,"is_ugc":0,"text_need":0,"picture_need":0,"video_need":5,"type":"templateapi"},{"id":"1016286","ufid":"58828523","name":"\u5c0f\u9ec4\u4eba\u53ef\u7231\u5361\u70b9","file":"http:\/\/rdfile.oss-cn-hangzhou.aliyuncs.com\/filemanage\/e069b36c568d909f\/templateapi\/16663463086707\/file.zip?nonce=2b50c8774c67cb203677c5ddbb4a3316","cover":"http:\/\/rdfile.oss-cn-hangzhou.aliyuncs.com\/filemanage\/e069b36c568d909f\/templateapi\/16663463086707\/cover.webp?nonce=2b50c8774c67cb203677c5ddbb4a3316","updatetime":"1704185963","height":1920,"width":1080,"video":"http:\/\/rdfile.oss-cn-hangzhou.aliyuncs.com\/filemanage\/e069b36c568d909f\/templateapi\/16663463086707\/video.mp4?nonce=2b50c8774c67cb203677c5ddbb4a3316","sort":0,"version":153,"cover2":"","appkey":"init","duration":0,"extra":{},"polyglot":{"en":"Right time Minions are cute"},"category":"0","audit":0,"is_ugc":0,"text_need":0,"picture_need":0,"video_need":15,"type":"templateapi"},{"id":"1016243","ufid":"81971222","name":"\u5927\u5c4f\u5e55\u5e7f\u544a","file":"http:\/\/rdfile.oss-cn-hangzhou.aliyuncs.com\/filemanage\/e069b36c568d909f\/templateapi\/16663364258228\/file.zip?nonce=613e7fdf6fc5654fe4a8681110de52f3","cover":"http:\/\/rdfile.oss-cn-hangzhou.aliyuncs.com\/filemanage\/e069b36c568d909f\/templateapi\/16663364258228\/cover.webp?nonce=613e7fdf6fc5654fe4a8681110de52f3","updatetime":"1704185959","height":1748,"width":1005,"video":"http:\/\/rdfile.oss-cn-hangzhou.aliyuncs.com\/filemanage\/e069b36c568d909f\/templateapi\/16663364258228\/video.mp4?nonce=613e7fdf6fc5654fe4a8681110de52f3","sort":0,"version":153,"cover2":"","appkey":"6ecb39f1c12f1a35","duration":0,"extra":{},"polyglot":{"en":"Big screen advertising"},"category":"0","audit":0,"is_ugc":0,"text_need":1,"picture_need":0,"video_need":1,"type":"templateapi"},{"id":"1016242","ufid":"53646515","name":"\u5f53\u4eca\u4e16\u4e0a \u6211\u6700\u9753\u4ed4","file":"http:\/\/rdfile.oss-cn-hangzhou.aliyuncs.com\/filemanage\/e069b36c568d909f\/templateapi\/16663356887240\/file.zip?nonce=613e7fdf6fc5654fe4a8681110de52f3","cover":"http:\/\/rdfile.oss-cn-hangzhou.aliyuncs.com\/filemanage\/e069b36c568d909f\/templateapi\/16663356887240\/cover.webp?nonce=613e7fdf6fc5654fe4a8681110de52f3","updatetime":"1704185959","height":1920,"width":1080,"video":"http:\/\/rdfile.oss-cn-hangzhou.aliyuncs.com\/filemanage\/e069b36c568d909f\/templateapi\/16663356887240\/video.mp4?nonce=613e7fdf6fc5654fe4a8681110de52f3","sort":0,"version":153,"cover2":"","appkey":"init","duration":0,"extra":{},"polyglot":{"en":"I am the most handsome boy in the world today"},"category":"0","audit":0,"is_ugc":0,"text_need":0,"picture_need":1,"video_need":1,"type":"templateapi"},{"id":"1016241","ufid":"42922110","name":"\u5723\u8bde\u8282\u821e\u8e48","file":"http:\/\/rdfile.oss-cn-hangzhou.aliyuncs.com\/filemanage\/e069b36c568d909f\/templateapi\/16663335822566\/file.zip?nonce=613e7fdf6fc5654fe4a8681110de52f3","cover":"http:\/\/rdfile.oss-cn-hangzhou.aliyuncs.com\/filemanage\/e069b36c568d909f\/templateapi\/16663335822566\/cover.webp?nonce=613e7fdf6fc5654fe4a8681110de52f3","updatetime":"1704185959","height":1920,"width":1080,"video":"http:\/\/rdfile.oss-cn-hangzhou.aliyuncs.com\/filemanage\/e069b36c568d909f\/templateapi\/16663335822566\/video.mp4?nonce=613e7fdf6fc5654fe4a8681110de52f3","sort":0,"version":153,"cover2":"","appkey":"6ecb39f1c12f1a35","duration":0,"extra":{},"polyglot":{"en":"Christmas dance"},"category":"0","audit":0,"is_ugc":0,"text_need":0,"picture_need":0,"video_need":1,"type":"templateapi"},{"id":"1016240","ufid":"17868036","name":"\u5bb6\u4eba\u4eec\u54b1\u4eec\u7eaf\u7cb9","file":"http:\/\/rdfile.oss-cn-hangzhou.aliyuncs.com\/filemanage\/e069b36c568d909f\/templateapi\/16663248256880\/file.zip?nonce=613e7fdf6fc5654fe4a8681110de52f3","cover":"http:\/\/rdfile.oss-cn-hangzhou.aliyuncs.com\/filemanage\/e069b36c568d909f\/templateapi\/16663248256880\/cover.webp?nonce=613e7fdf6fc5654fe4a8681110de52f3","updatetime":"1704185959","height":1920,"width":1080,"video":"http:\/\/rdfile.oss-cn-hangzhou.aliyuncs.com\/filemanage\/e069b36c568d909f\/templateapi\/16663248256880\/video.mp4?nonce=613e7fdf6fc5654fe4a8681110de52f3","sort":0,"version":153,"cover2":"","appkey":"init","duration":0,"extra":{},"polyglot":{"en":"Family, we are pure"},"category":"0","audit":0,"is_ugc":0,"text_need":0,"picture_need":0,"video_need":3,"type":"templateapi"},{"id":"1016237","ufid":"21460801","name":"\u96ea\u82b1\u6162\u52a8\u4f5c","file":"http:\/\/rdfile.oss-cn-hangzhou.aliyuncs.com\/filemanage\/e069b36c568d909f\/templateapi\/16662582549524\/file.zip?nonce=684e4ee9a759d4757a522b1e364b4385","cover":"http:\/\/rdfile.oss-cn-hangzhou.aliyuncs.com\/filemanage\/e069b36c568d909f\/templateapi\/16662582549524\/cover.webp?nonce=684e4ee9a759d4757a522b1e364b4385","updatetime":"1704185958","height":1920,"width":1080,"video":"http:\/\/rdfile.oss-cn-hangzhou.aliyuncs.com\/filemanage\/e069b36c568d909f\/templateapi\/16662582549524\/video.mp4?nonce=684e4ee9a759d4757a522b1e364b4385","sort":0,"version":153,"cover2":"","appkey":"init","duration":0,"extra":{},"polyglot":{"en":"Snow slow motion"},"category":"0","audit":0,"is_ugc":0,"text_need":0,"picture_need":0,"video_need":3,"type":"templateapi"},{"id":"1016236","ufid":"18817810","name":"\u70ab\u9177\u5361\u70b9\u6162\u52a8\u4f5c","file":"http:\/\/rdfile.oss-cn-hangzhou.aliyuncs.com\/filemanage\/e069b36c568d909f\/templateapi\/16662543969769\/file.zip?nonce=684e4ee9a759d4757a522b1e364b4385","cover":"http:\/\/rdfile.oss-cn-hangzhou.aliyuncs.com\/filemanage\/e069b36c568d909f\/templateapi\/16662543969769\/cover.webp?nonce=684e4ee9a759d4757a522b1e364b4385","updatetime":"1704185958","height":1920,"width":1080,"video":"http:\/\/rdfile.oss-cn-hangzhou.aliyuncs.com\/filemanage\/e069b36c568d909f\/templateapi\/16662543969769\/video.mp4?nonce=684e4ee9a759d4757a522b1e364b4385","sort":0,"version":153,"cover2":"","appkey":"init","duration":0,"extra":{},"polyglot":{"en":"Right time cool slow motion"},"category":"0","audit":0,"is_ugc":0,"text_need":0,"picture_need":0,"video_need":1,"type":"templateapi"}]}}