{"code":0,"msg":"success","data":{"total":35,"per_page":10,"current_page":2,"last_page":4,"data":[{"id":"1016362","ufid":"45637962","name":"\u65e9\u5b89\u6109\u5feb\u65b0\u4e00\u5929","file":"http:\/\/rdfile.oss-cn-hangzhou.aliyuncs.com\/filemanage\/e069b36c568d909f\/templateapi\/16674635791557\/file.zip?nonce=5123e40239856e8996e52d0505be6169","cover":"http:\/\/rdfile.oss-cn-hangzhou.aliyuncs.com\/filemanage\/e069b36c568d909f\/templateapi\/16674635791557\/cover.webp?nonce=5123e40239856e8996e52d0505be6169","updatetime":"1684896392","height":810,"width":1080,"video":"http:\/\/rdfile.oss-cn-hangzhou.aliyuncs.com\/filemanage\/e069b36c568d909f\/templateapi\/16674635791557\/video.mp4?nonce=5123e40239856e8996e52d0505be6169","sort":0,"version":154,"cover2":"","appkey":"init","duration":0,"extra":{},"polyglot":[],"category":"0","audit":0,"is_ugc":0,"text_need":7,"picture_need":0,"video_need":1,"type":"templateapi"},{"id":"1016355","ufid":"38866989","name":"\u665a\u5b89\u7231\u751f\u6d3b\u7231\u81ea\u5df1","file":"http:\/\/rdfile.oss-cn-hangzhou.aliyuncs.com\/filemanage\/e069b36c568d909f\/templateapi\/16674446816796\/file.zip?nonce=d842493f27d2fc91a1ca877d2946954c","cover":"http:\/\/rdfile.oss-cn-hangzhou.aliyuncs.com\/filemanage\/e069b36c568d909f\/templateapi\/16674446816796\/cover.webp?nonce=d842493f27d2fc91a1ca877d2946954c","updatetime":"1684896399","height":810,"width":1080,"video":"http:\/\/rdfile.oss-cn-hangzhou.aliyuncs.com\/filemanage\/e069b36c568d909f\/templateapi\/16674446816796\/video.mp4?nonce=d842493f27d2fc91a1ca877d2946954c","sort":0,"version":154,"cover2":"","appkey":"init","duration":0,"extra":{},"polyglot":[],"category":"0","audit":0,"is_ugc":0,"text_need":7,"picture_need":0,"video_need":1,"type":"templateapi"},{"id":"1016352","ufid":"36219576","name":"\u9542\u7a7a\u6587\u5b57\u5206\u5272\u5f00\u573a","file":"http:\/\/rdfile.oss-cn-hangzhou.aliyuncs.com\/filemanage\/e069b36c568d909f\/templateapi\/16673777115537\/file.zip?nonce=8b2a5e7d382b074b169438133431c6c2","cover":"http:\/\/rdfile.oss-cn-hangzhou.aliyuncs.com\/filemanage\/e069b36c568d909f\/templateapi\/16673777115537\/cover.webp?nonce=8b2a5e7d382b074b169438133431c6c2","updatetime":"1684898383","height":607,"width":1080,"video":"http:\/\/rdfile.oss-cn-hangzhou.aliyuncs.com\/filemanage\/e069b36c568d909f\/templateapi\/16673777115537\/video.mp4?nonce=8b2a5e7d382b074b169438133431c6c2","sort":0,"version":153,"cover2":"","appkey":"init","duration":0,"extra":{},"polyglot":[],"category":"0","audit":0,"is_ugc":0,"text_need":0,"picture_need":0,"video_need":1,"type":"templateapi"},{"id":"1016344","ufid":"34020473","name":"\u4f59\u60c5\u672a\u4e86","file":"http:\/\/rdfile.oss-cn-hangzhou.aliyuncs.com\/filemanage\/e069b36c568d909f\/templateapi\/16673613514227\/file.zip?nonce=44f943aa03ddbbec8aeec7790af26851","cover":"http:\/\/rdfile.oss-cn-hangzhou.aliyuncs.com\/filemanage\/e069b36c568d909f\/templateapi\/16673613514227\/cover.webp?nonce=44f943aa03ddbbec8aeec7790af26851","updatetime":"1684896450","height":1748,"width":1005,"video":"http:\/\/rdfile.oss-cn-hangzhou.aliyuncs.com\/filemanage\/e069b36c568d909f\/templateapi\/16673613514227\/video.mp4?nonce=44f943aa03ddbbec8aeec7790af26851","sort":0,"version":154,"cover2":"","appkey":"init","duration":0,"extra":{},"polyglot":[],"category":"0","audit":0,"is_ugc":0,"text_need":8,"picture_need":0,"video_need":3,"type":"templateapi"},{"id":"1016180","ufid":"90096902","name":"\u624b\u5199\u4fe1","file":"http:\/\/rdfile.oss-cn-hangzhou.aliyuncs.com\/filemanage\/e069b36c568d909f\/templateapi\/16656558725104\/file.zip?nonce=de930a4603f735aa04fc3822f6fcaadf","cover":"http:\/\/rdfile.oss-cn-hangzhou.aliyuncs.com\/filemanage\/e069b36c568d909f\/templateapi\/16656558725104\/cover.webp?nonce=de930a4603f735aa04fc3822f6fcaadf","updatetime":"1684897529","height":1059,"width":795,"video":"http:\/\/rdfile.oss-cn-hangzhou.aliyuncs.com\/filemanage\/e069b36c568d909f\/templateapi\/16656558725104\/video.mp4?nonce=de930a4603f735aa04fc3822f6fcaadf","sort":0,"version":153,"cover2":"","appkey":"init","duration":0,"extra":{},"polyglot":[],"category":"0","audit":0,"is_ugc":0,"text_need":2,"picture_need":0,"video_need":1,"type":"templateapi"},{"id":"1016135","ufid":"24094250","name":"\u5165\u79cb\u4e86","file":"http:\/\/rdfile.oss-cn-hangzhou.aliyuncs.com\/filemanage\/e069b36c568d909f\/templateapi\/16653920697317\/file.zip?nonce=5f4b82d20bb9c6f9796ffa4bab17f0e7","cover":"http:\/\/rdfile.oss-cn-hangzhou.aliyuncs.com\/filemanage\/e069b36c568d909f\/templateapi\/16653920697317\/cover.webp?nonce=5f4b82d20bb9c6f9796ffa4bab17f0e7","updatetime":"1684896476","height":1236,"width":727,"video":"http:\/\/rdfile.oss-cn-hangzhou.aliyuncs.com\/filemanage\/e069b36c568d909f\/templateapi\/16653920697317\/video.mp4?nonce=5f4b82d20bb9c6f9796ffa4bab17f0e7","sort":0,"version":153,"cover2":"","appkey":"init","duration":0,"extra":{},"polyglot":[],"category":"0","audit":0,"is_ugc":0,"text_need":6,"picture_need":1,"video_need":0,"type":"templateapi"},{"id":"1016005","ufid":"54700302","name":"\u79cb\u65e5\u9886\u609f","file":"http:\/\/rdfile.oss-cn-hangzhou.aliyuncs.com\/filemanage\/e069b36c568d909f\/templateapi\/16630604933906\/file.zip?nonce=1df4f3c787db62a097874fabe40d323a","cover":"http:\/\/rdfile.oss-cn-hangzhou.aliyuncs.com\/filemanage\/e069b36c568d909f\/templateapi\/16630604933906\/cover.webp?nonce=1df4f3c787db62a097874fabe40d323a","updatetime":"1684896506","height":1275,"width":718,"video":"http:\/\/rdfile.oss-cn-hangzhou.aliyuncs.com\/filemanage\/e069b36c568d909f\/templateapi\/16630604933906\/video.mp4?nonce=1df4f3c787db62a097874fabe40d323a","sort":0,"version":153,"cover2":"","appkey":"init","duration":0,"extra":{},"polyglot":[],"category":"0","audit":0,"is_ugc":0,"text_need":1,"picture_need":1,"video_need":0,"type":"templateapi"},{"id":"1015911","ufid":"15064434","name":"\u6587\u5b57\u70df\u96fe\u663e\u73b0\u6548\u679c","file":"http:\/\/rdfile.oss-cn-hangzhou.aliyuncs.com\/filemanage\/e069b36c568d909f\/templateapi\/16608983007130\/file.zip?nonce=753a6ba5e1a1037ee21d32216d011438","cover":"http:\/\/rdfile.oss-cn-hangzhou.aliyuncs.com\/filemanage\/e069b36c568d909f\/templateapi\/16608983007130\/cover.webp?nonce=753a6ba5e1a1037ee21d32216d011438","updatetime":"1684912277","height":1060,"width":596,"video":"http:\/\/rdfile.oss-cn-hangzhou.aliyuncs.com\/filemanage\/e069b36c568d909f\/templateapi\/16608983007130\/video.mp4?nonce=753a6ba5e1a1037ee21d32216d011438","sort":0,"version":153,"cover2":"","appkey":"init","duration":0,"extra":{},"polyglot":[],"category":"0","audit":0,"is_ugc":0,"text_need":1,"picture_need":0,"video_need":1,"type":"templateapi"},{"id":"1015418","ufid":"81604102","name":"\u300a\u8d77\u98ce\u4e86\u300b\u6b4c\u8bcd\u5b57\u5e55","file":"http:\/\/rdfile.oss-cn-hangzhou.aliyuncs.com\/filemanage\/e069b36c568d909f\/templateapi\/16559693943084\/file.zip?nonce=6c3f94f27b2113070249c12192527e3d","cover":"http:\/\/rdfile.oss-cn-hangzhou.aliyuncs.com\/filemanage\/e069b36c568d909f\/templateapi\/16559693943084\/cover.webp?nonce=6c3f94f27b2113070249c12192527e3d","updatetime":"1684911577","height":1280,"width":720,"video":"http:\/\/rdfile.oss-cn-hangzhou.aliyuncs.com\/filemanage\/e069b36c568d909f\/templateapi\/16559693943084\/video.mp4?nonce=6c3f94f27b2113070249c12192527e3d","sort":0,"version":153,"cover2":"","appkey":"init","duration":0,"extra":{},"polyglot":[],"category":"0","audit":0,"is_ugc":0,"text_need":0,"picture_need":0,"video_need":1,"type":"templateapi"},{"id":"1015228","ufid":"81931460","name":"\u4f60\u5728\u6211\u5fc3\u91cc\u4e0b\u4e86\u4e00\u573a\u96e8","file":"http:\/\/rdfile.oss-cn-hangzhou.aliyuncs.com\/filemanage\/e069b36c568d909f\/templateapi\/16535581686572\/file.zip?nonce=bc46c10c50bf6669fb7125884e200055","cover":"http:\/\/rdfile.oss-cn-hangzhou.aliyuncs.com\/filemanage\/e069b36c568d909f\/templateapi\/16535581686572\/cover.webp?nonce=bc46c10c50bf6669fb7125884e200055","updatetime":"1684895308","height":632,"width":356,"video":"http:\/\/rdfile.oss-cn-hangzhou.aliyuncs.com\/filemanage\/e069b36c568d909f\/templateapi\/16535581686572\/video.mp4?nonce=bc46c10c50bf6669fb7125884e200055","sort":0,"version":153,"cover2":"","appkey":"init","duration":0,"extra":{},"polyglot":[],"category":"0","audit":0,"is_ugc":0,"text_need":4,"picture_need":1,"video_need":0,"type":"templateapi"}]}}