{"code":0,"msg":"success","data":{"total":22,"per_page":10,"current_page":2,"last_page":3,"data":[{"id":"1014744","ufid":"23845867","name":"\u6cbb\u6108\u8857\u666f","file":"http:\/\/rdfile.oss-cn-hangzhou.aliyuncs.com\/filemanage\/e069b36c568d909f\/templateapi\/16492295055649\/file.zip?nonce=9df18d2985ba645927ed68d5d1c34d1f","cover":"http:\/\/rdfile.oss-cn-hangzhou.aliyuncs.com\/filemanage\/e069b36c568d909f\/templateapi\/16492295055649\/cover.png?nonce=9df18d2985ba645927ed68d5d1c34d1f&x-oss-process=style\/templateapi","updatetime":"1684914916","height":1280,"width":720,"video":"http:\/\/rdfile.oss-cn-hangzhou.aliyuncs.com\/filemanage\/e069b36c568d909f\/templateapi\/16492295055649\/video.mp4?nonce=9df18d2985ba645927ed68d5d1c34d1f","sort":0,"version":150,"cover2":"","appkey":"init","duration":0,"extra":{},"polyglot":[],"category":"0","audit":0,"is_ugc":0,"text_need":0,"picture_need":9,"video_need":0,"type":"templateapi"},{"id":"1012933","ufid":"79288232","name":"\u7f8e\u597d\u7684\u4e00\u5929\u5440","file":"http:\/\/rdfile.oss-cn-hangzhou.aliyuncs.com\/filemanage\/e069b36c568d909f\/templateapi\/16388484362990\/file.zip?nonce=c64b20b10ad617f7e214c2409355b754","cover":"http:\/\/rdfile.oss-cn-hangzhou.aliyuncs.com\/filemanage\/e069b36c568d909f\/templateapi\/16388484362990\/cover.png?nonce=c64b20b10ad617f7e214c2409355b754&x-oss-process=style\/templateapi","updatetime":"1684914922","height":1230,"width":692,"video":"http:\/\/rdfile.oss-cn-hangzhou.aliyuncs.com\/filemanage\/e069b36c568d909f\/templateapi\/16388484362990\/video.mp4?nonce=c64b20b10ad617f7e214c2409355b754","sort":100,"version":149,"cover2":"","appkey":"init","duration":0,"extra":{},"polyglot":[],"category":"0","audit":0,"is_ugc":0,"text_need":1,"picture_need":8,"video_need":0,"type":"templateapi"},{"id":"1012918","ufid":"84266417","name":"\u56fe\u7247\u6a21\u677f","file":"http:\/\/rdfile.oss-cn-hangzhou.aliyuncs.com\/filemanage\/e069b36c568d909f\/templateapi\/16385179118707\/file.zip?nonce=2f56116dbd86844f7256cd34825cf891","cover":"http:\/\/rdfile.oss-cn-hangzhou.aliyuncs.com\/filemanage\/e069b36c568d909f\/templateapi\/16385179118707\/cover.png?nonce=2f56116dbd86844f7256cd34825cf891&x-oss-process=style\/templateapi","updatetime":"1684914927","height":1260,"width":945,"video":"http:\/\/rdfile.oss-cn-hangzhou.aliyuncs.com\/filemanage\/e069b36c568d909f\/templateapi\/16385179118707\/video.mp4?nonce=2f56116dbd86844f7256cd34825cf891","sort":100,"version":148,"cover2":"","appkey":"init","duration":0,"extra":{},"polyglot":[],"category":"0","audit":0,"is_ugc":0,"text_need":0,"picture_need":16,"video_need":0,"type":"templateapi"},{"id":"1012906","ufid":"97456515","name":"\u79cb\u65e5\u5143\u6c14","file":"http:\/\/rdfile.oss-cn-hangzhou.aliyuncs.com\/filemanage\/e069b36c568d909f\/templateapi\/16379214864133\/file.zip?nonce=b7fcde5e77f970c105cd48b6784611d8","cover":"http:\/\/rdfile.oss-cn-hangzhou.aliyuncs.com\/filemanage\/e069b36c568d909f\/templateapi\/16379214864133\/cover.png?nonce=b7fcde5e77f970c105cd48b6784611d8&x-oss-process=style\/templateapi","updatetime":"1684914939","height":1080,"width":607,"video":"http:\/\/rdfile.oss-cn-hangzhou.aliyuncs.com\/filemanage\/e069b36c568d909f\/templateapi\/16379214864133\/video.mp4?nonce=b7fcde5e77f970c105cd48b6784611d8","sort":100,"version":149,"cover2":"","appkey":"init","duration":0,"extra":{},"polyglot":[],"category":"0","audit":0,"is_ugc":0,"text_need":0,"picture_need":8,"video_need":0,"type":"templateapi"},{"id":"1012904","ufid":"24434327","name":"\u6211\u7684\u5feb\u4e502021","file":"http:\/\/rdfile.oss-cn-hangzhou.aliyuncs.com\/filemanage\/e069b36c568d909f\/templateapi\/16379129433550\/file.zip?nonce=ad4d429b1445663fb7a7008b3d8d0bfe","cover":"http:\/\/rdfile.oss-cn-hangzhou.aliyuncs.com\/filemanage\/e069b36c568d909f\/templateapi\/16379129433550\/cover.png?nonce=ad4d429b1445663fb7a7008b3d8d0bfe&x-oss-process=style\/templateapi","updatetime":"1684914944","height":1080,"width":607,"video":"http:\/\/rdfile.oss-cn-hangzhou.aliyuncs.com\/filemanage\/e069b36c568d909f\/templateapi\/16379129433550\/video.mp4?nonce=ad4d429b1445663fb7a7008b3d8d0bfe","sort":100,"version":149,"cover2":"","appkey":"init","duration":0,"extra":{},"polyglot":[],"category":"0","audit":0,"is_ugc":0,"text_need":0,"picture_need":32,"video_need":0,"type":"templateapi"},{"id":"1012432","ufid":"12729219","name":"\u5468\u672b\u6109\u5feb","file":"http:\/\/rdfile.oss-cn-hangzhou.aliyuncs.com\/filemanage\/e069b36c568d909f\/templateapi\/16326422467013\/file.zip?nonce=0ea7c1663d94a97a13560da7594917c5","cover":"http:\/\/rdfile.oss-cn-hangzhou.aliyuncs.com\/filemanage\/e069b36c568d909f\/templateapi\/16326422467013\/cover.png?nonce=0ea7c1663d94a97a13560da7594917c5&x-oss-process=style\/templateapi","updatetime":"1684914950","height":1280,"width":720,"video":"http:\/\/rdfile.oss-cn-hangzhou.aliyuncs.com\/filemanage\/e069b36c568d909f\/templateapi\/16326422467013\/video.mp4?nonce=0ea7c1663d94a97a13560da7594917c5","sort":100,"version":148,"cover2":"","appkey":"init","duration":0,"extra":{},"polyglot":[],"category":"0","audit":0,"is_ugc":0,"text_need":1,"picture_need":14,"video_need":0,"type":"templateapi"},{"id":"1012330","ufid":"59663074","name":"\u5370\u8c61","file":"http:\/\/rdfile.oss-cn-hangzhou.aliyuncs.com\/filemanage\/e069b36c568d909f\/templateapi\/16304838409180\/file.zip?nonce=909248856f1615ab7edd5a901a3c3611","cover":"http:\/\/rdfile.oss-cn-hangzhou.aliyuncs.com\/filemanage\/e069b36c568d909f\/templateapi\/16304838409180\/cover.png?nonce=909248856f1615ab7edd5a901a3c3611&x-oss-process=style\/templateapi","updatetime":"1684914955","height":1080,"width":1920,"video":"http:\/\/rdfile.oss-cn-hangzhou.aliyuncs.com\/filemanage\/e069b36c568d909f\/templateapi\/16304838409180\/video.mp4?nonce=909248856f1615ab7edd5a901a3c3611","sort":100,"version":147,"cover2":"","appkey":"init","duration":0,"extra":{},"polyglot":[],"category":"0","audit":0,"is_ugc":0,"text_need":0,"picture_need":0,"video_need":10,"type":"templateapi"},{"id":"1012273","ufid":"52823545","name":"\u8bb0\u5f55\u751f\u6d3b","file":"http:\/\/rdfile.oss-cn-hangzhou.aliyuncs.com\/filemanage\/e069b36c568d909f\/templateapi\/16303045841109\/file.zip?nonce=372399692a5b612a1de6548170188645","cover":"http:\/\/rdfile.oss-cn-hangzhou.aliyuncs.com\/filemanage\/e069b36c568d909f\/templateapi\/16303045841109\/cover.png?nonce=372399692a5b612a1de6548170188645&x-oss-process=style\/templateapi","updatetime":"1684914961","height":1280,"width":720,"video":"http:\/\/rdfile.oss-cn-hangzhou.aliyuncs.com\/filemanage\/e069b36c568d909f\/templateapi\/16303045841109\/video.mp4?nonce=372399692a5b612a1de6548170188645","sort":100,"version":147,"cover2":"","appkey":"init","duration":0,"extra":{},"polyglot":[],"category":"0","audit":0,"is_ugc":0,"text_need":0,"picture_need":0,"video_need":8,"type":"templateapi"},{"id":"1012023","ufid":"17472692","name":"\u6ee1\u6ee1\u7684\u7231","file":"http:\/\/rdfile.oss-cn-hangzhou.aliyuncs.com\/filemanage\/e069b36c568d909f\/templateapi\/16276389408561\/file.zip?nonce=57b962b73f7e1d715b002896c08993af","cover":"http:\/\/rdfile.oss-cn-hangzhou.aliyuncs.com\/filemanage\/e069b36c568d909f\/templateapi\/16276389408561\/cover.png?nonce=57b962b73f7e1d715b002896c08993af&x-oss-process=style\/templateapi","updatetime":"1684914967","height":1280,"width":720,"video":"http:\/\/rdfile.oss-cn-hangzhou.aliyuncs.com\/filemanage\/e069b36c568d909f\/templateapi\/16276389408561\/video.mp4?nonce=57b962b73f7e1d715b002896c08993af","sort":100,"version":147,"cover2":"","appkey":"init","duration":0,"extra":{},"polyglot":[],"category":"0","audit":0,"is_ugc":0,"text_need":0,"picture_need":0,"video_need":6,"type":"templateapi"},{"id":"1011883","ufid":"99357871","name":"\u72ec\u767d","file":"http:\/\/rdfile.oss-cn-hangzhou.aliyuncs.com\/filemanage\/e069b36c568d909f\/templateapi\/16269458205776\/file.zip?nonce=834ff8783652d03e0f62a52082d074ef","cover":"http:\/\/rdfile.oss-cn-hangzhou.aliyuncs.com\/filemanage\/e069b36c568d909f\/templateapi\/16269458205776\/cover.png?nonce=834ff8783652d03e0f62a52082d074ef&x-oss-process=style\/templateapi","updatetime":"1684914974","height":1080,"width":1920,"video":"http:\/\/rdfile.oss-cn-hangzhou.aliyuncs.com\/filemanage\/e069b36c568d909f\/templateapi\/16269458205776\/video.mp4?nonce=834ff8783652d03e0f62a52082d074ef","sort":100,"version":147,"cover2":"","appkey":"init","duration":0,"extra":{},"polyglot":[],"category":"0","audit":0,"is_ugc":0,"text_need":11,"picture_need":0,"video_need":10,"type":"templateapi"}]}}