{"code":0,"msg":"success","data":{"total":636,"per_page":10,"current_page":2,"last_page":64,"data":[{"id":"1020733","ufid":"81071701","name":"\u7f8e\u5973\u795d\u798f","file":"http:\/\/rdfile.oss-cn-hangzhou.aliyuncs.com\/filemanage\/e069b36c568d909f\/templateapi\/16787849926854\/file.zip?nonce=25c96fb3c5b462bc04bd50bc3e807530","cover":"http:\/\/rdfile.oss-cn-hangzhou.aliyuncs.com\/filemanage\/e069b36c568d909f\/templateapi\/16787849926854\/cover.webp?nonce=25c96fb3c5b462bc04bd50bc3e807530","updatetime":"1704186640","height":720,"width":1280,"video":"http:\/\/rdfile.oss-cn-hangzhou.aliyuncs.com\/filemanage\/e069b36c568d909f\/templateapi\/16787849926854\/video.mp4?nonce=25c96fb3c5b462bc04bd50bc3e807530","sort":0,"version":161,"cover2":"","appkey":"6ecb39f1c12f1a35","duration":0,"extra":{},"polyglot":{"en":"Beauty blessings"},"category":"0","audit":0,"is_ugc":0,"text_need":0,"picture_need":0,"video_need":0,"type":"templateapi"},{"id":"1020732","ufid":"24551894","name":"\u7f8e\u5973\u4e3e\u724c\u795d\u798f","file":"http:\/\/rdfile.oss-cn-hangzhou.aliyuncs.com\/filemanage\/e069b36c568d909f\/templateapi\/16787846731305\/file.zip?nonce=25c96fb3c5b462bc04bd50bc3e807530","cover":"http:\/\/rdfile.oss-cn-hangzhou.aliyuncs.com\/filemanage\/e069b36c568d909f\/templateapi\/16787846731305\/cover.webp?nonce=25c96fb3c5b462bc04bd50bc3e807530","updatetime":"1704186640","height":1280,"width":720,"video":"http:\/\/rdfile.oss-cn-hangzhou.aliyuncs.com\/filemanage\/e069b36c568d909f\/templateapi\/16787846731305\/video.mp4?nonce=25c96fb3c5b462bc04bd50bc3e807530","sort":0,"version":161,"cover2":"","appkey":"6ecb39f1c12f1a35","duration":0,"extra":{},"polyglot":{"en":"Beautiful woman holding placard to bless"},"category":"0","audit":0,"is_ugc":0,"text_need":0,"picture_need":0,"video_need":0,"type":"templateapi"},{"id":"1020730","ufid":"77963760","name":"\u7a7a\u95f4\u7ad9","file":"http:\/\/rdfile.oss-cn-hangzhou.aliyuncs.com\/filemanage\/e069b36c568d909f\/templateapi\/16787842099250\/file.zip?nonce=85d37e9b3d96d052cc76fef096629e13","cover":"http:\/\/rdfile.oss-cn-hangzhou.aliyuncs.com\/filemanage\/e069b36c568d909f\/templateapi\/16787842099250\/cover.webp?nonce=85d37e9b3d96d052cc76fef096629e13","updatetime":"1704186639","height":1280,"width":720,"video":"http:\/\/rdfile.oss-cn-hangzhou.aliyuncs.com\/filemanage\/e069b36c568d909f\/templateapi\/16787842099250\/video.mp4?nonce=85d37e9b3d96d052cc76fef096629e13","sort":0,"version":161,"cover2":"","appkey":"6ecb39f1c12f1a35","duration":0,"extra":{},"polyglot":{"en":"Space station"},"category":"0","audit":0,"is_ugc":0,"text_need":0,"picture_need":0,"video_need":0,"type":"templateapi"},{"id":"1020729","ufid":"95694536","name":"\u4e3e\u724c\u5e7f\u544a","file":"http:\/\/rdfile.oss-cn-hangzhou.aliyuncs.com\/filemanage\/e069b36c568d909f\/templateapi\/16787839531915\/file.zip?nonce=85d37e9b3d96d052cc76fef096629e13","cover":"http:\/\/rdfile.oss-cn-hangzhou.aliyuncs.com\/filemanage\/e069b36c568d909f\/templateapi\/16787839531915\/cover.webp?nonce=85d37e9b3d96d052cc76fef096629e13","updatetime":"1704186639","height":1280,"width":720,"video":"http:\/\/rdfile.oss-cn-hangzhou.aliyuncs.com\/filemanage\/e069b36c568d909f\/templateapi\/16787839531915\/video.mp4?nonce=85d37e9b3d96d052cc76fef096629e13","sort":0,"version":161,"cover2":"","appkey":"6ecb39f1c12f1a35","duration":0,"extra":{},"polyglot":{"en":"Advertisement"},"category":"0","audit":0,"is_ugc":0,"text_need":0,"picture_need":0,"video_need":0,"type":"templateapi"},{"id":"1020728","ufid":"87705863","name":"\u5e7f\u544a\u724c","file":"http:\/\/rdfile.oss-cn-hangzhou.aliyuncs.com\/filemanage\/e069b36c568d909f\/templateapi\/16787836259113\/file.zip?nonce=85d37e9b3d96d052cc76fef096629e13","cover":"http:\/\/rdfile.oss-cn-hangzhou.aliyuncs.com\/filemanage\/e069b36c568d909f\/templateapi\/16787836259113\/cover.webp?nonce=85d37e9b3d96d052cc76fef096629e13","updatetime":"1704186639","height":1280,"width":720,"video":"http:\/\/rdfile.oss-cn-hangzhou.aliyuncs.com\/filemanage\/e069b36c568d909f\/templateapi\/16787836259113\/video.mp4?nonce=85d37e9b3d96d052cc76fef096629e13","sort":0,"version":161,"cover2":"","appkey":"6ecb39f1c12f1a35","duration":0,"extra":{},"polyglot":{"en":"Billboard"},"category":"0","audit":0,"is_ugc":0,"text_need":0,"picture_need":0,"video_need":0,"type":"templateapi"},{"id":"1020727","ufid":"88863160","name":"\u7231\u5fc3\u70df\u82b1\u8868\u767d","file":"http:\/\/rdfile.oss-cn-hangzhou.aliyuncs.com\/filemanage\/e069b36c568d909f\/templateapi\/16787833078897\/file.zip?nonce=85d37e9b3d96d052cc76fef096629e13","cover":"http:\/\/rdfile.oss-cn-hangzhou.aliyuncs.com\/filemanage\/e069b36c568d909f\/templateapi\/16787833078897\/cover.webp?nonce=85d37e9b3d96d052cc76fef096629e13","updatetime":"1704186639","height":1280,"width":720,"video":"http:\/\/rdfile.oss-cn-hangzhou.aliyuncs.com\/filemanage\/e069b36c568d909f\/templateapi\/16787833078897\/video.mp4?nonce=85d37e9b3d96d052cc76fef096629e13","sort":0,"version":161,"cover2":"","appkey":"6ecb39f1c12f1a35","duration":0,"extra":{},"polyglot":{"en":"Confession of love fireworks"},"category":"0","audit":0,"is_ugc":0,"text_need":0,"picture_need":0,"video_need":0,"type":"templateapi"},{"id":"1020726","ufid":"42463781","name":"\u8fea\u62dc\u76f8\u6846","file":"http:\/\/rdfile.oss-cn-hangzhou.aliyuncs.com\/filemanage\/e069b36c568d909f\/templateapi\/16787829292002\/file.zip?nonce=85d37e9b3d96d052cc76fef096629e13","cover":"http:\/\/rdfile.oss-cn-hangzhou.aliyuncs.com\/filemanage\/e069b36c568d909f\/templateapi\/16787829292002\/cover.webp?nonce=85d37e9b3d96d052cc76fef096629e13","updatetime":"1704186639","height":1280,"width":720,"video":"http:\/\/rdfile.oss-cn-hangzhou.aliyuncs.com\/filemanage\/e069b36c568d909f\/templateapi\/16787829292002\/video.mp4?nonce=85d37e9b3d96d052cc76fef096629e13","sort":0,"version":161,"cover2":"","appkey":"6ecb39f1c12f1a35","duration":0,"extra":{},"polyglot":{"en":"Dubai photo frame"},"category":"0","audit":0,"is_ugc":0,"text_need":0,"picture_need":0,"video_need":1,"type":"templateapi"},{"id":"1020725","ufid":"89218751","name":"\u7f8e\u5973\u4e3e\u724c","file":"http:\/\/rdfile.oss-cn-hangzhou.aliyuncs.com\/filemanage\/e069b36c568d909f\/templateapi\/16787818904050\/file.zip?nonce=85d37e9b3d96d052cc76fef096629e13","cover":"http:\/\/rdfile.oss-cn-hangzhou.aliyuncs.com\/filemanage\/e069b36c568d909f\/templateapi\/16787818904050\/cover.webp?nonce=85d37e9b3d96d052cc76fef096629e13","updatetime":"1704186639","height":1280,"width":720,"video":"http:\/\/rdfile.oss-cn-hangzhou.aliyuncs.com\/filemanage\/e069b36c568d909f\/templateapi\/16787818904050\/video.mp4?nonce=85d37e9b3d96d052cc76fef096629e13","sort":0,"version":161,"cover2":"","appkey":"6ecb39f1c12f1a35","duration":0,"extra":{},"polyglot":{"en":"Beautiful girl holding a sign"},"category":"0","audit":0,"is_ugc":0,"text_need":0,"picture_need":0,"video_need":1,"type":"templateapi"},{"id":"1020724","ufid":"22167103","name":"\u4e0d\u8d1f\u65f6\u5149","file":"http:\/\/rdfile.oss-cn-hangzhou.aliyuncs.com\/filemanage\/e069b36c568d909f\/templateapi\/16787780065442\/file.zip?nonce=033a08448b44b89ad67ba4fe4e26828c","cover":"http:\/\/rdfile.oss-cn-hangzhou.aliyuncs.com\/filemanage\/e069b36c568d909f\/templateapi\/16787780065442\/cover.webp?nonce=033a08448b44b89ad67ba4fe4e26828c","updatetime":"1704186638","height":1280,"width":720,"video":"http:\/\/rdfile.oss-cn-hangzhou.aliyuncs.com\/filemanage\/e069b36c568d909f\/templateapi\/16787780065442\/video.mp4?nonce=033a08448b44b89ad67ba4fe4e26828c","sort":0,"version":161,"cover2":"","appkey":"init","duration":0,"extra":{},"polyglot":{"en":"Live up to time"},"category":"0","audit":0,"is_ugc":0,"text_need":0,"picture_need":0,"video_need":13,"type":"templateapi"},{"id":"1020713","ufid":"64787127","name":"\u6625\u65e5\u788e\u7247","file":"http:\/\/rdfile.oss-cn-hangzhou.aliyuncs.com\/filemanage\/e069b36c568d909f\/templateapi\/16786934027114\/file.zip?nonce=033a08448b44b89ad67ba4fe4e26828c","cover":"http:\/\/rdfile.oss-cn-hangzhou.aliyuncs.com\/filemanage\/e069b36c568d909f\/templateapi\/16786934027114\/cover.webp?nonce=033a08448b44b89ad67ba4fe4e26828c","updatetime":"1704186638","height":1746,"width":982,"video":"http:\/\/rdfile.oss-cn-hangzhou.aliyuncs.com\/filemanage\/e069b36c568d909f\/templateapi\/16786934027114\/video.mp4?nonce=033a08448b44b89ad67ba4fe4e26828c","sort":0,"version":161,"cover2":"","appkey":"init","duration":0,"extra":{},"polyglot":{"en":"Fragments of spring"},"category":"0","audit":0,"is_ugc":0,"text_need":4,"picture_need":0,"video_need":18,"type":"templateapi"}]}}