{"code":0,"msg":"success","data":{"total":173,"per_page":10,"current_page":2,"last_page":18,"data":[{"id":"1019403","ufid":"98275037","name":"\u51ac\u81f3","file":"http:\/\/rdfile.oss-cn-hangzhou.aliyuncs.com\/filemanage\/e069b36c568d909f\/templateapi\/16716805076769\/file.zip?nonce=e5173e6de24d28dd5f9609a00f31077b","cover":"http:\/\/rdfile.oss-cn-hangzhou.aliyuncs.com\/filemanage\/e069b36c568d909f\/templateapi\/16716805076769\/cover.webp?nonce=e5173e6de24d28dd5f9609a00f31077b","updatetime":"1704186473","height":1058,"width":595,"video":"http:\/\/rdfile.oss-cn-hangzhou.aliyuncs.com\/filemanage\/e069b36c568d909f\/templateapi\/16716805076769\/video.mp4?nonce=e5173e6de24d28dd5f9609a00f31077b","sort":0,"version":158,"cover2":"","appkey":"init","duration":0,"extra":{},"polyglot":{"en":"Winter solstice"},"category":"0","audit":0,"is_ugc":0,"text_need":0,"picture_need":0,"video_need":2,"type":"templateapi"},{"id":"1015564","ufid":"89946769","name":"\u6b4c\u8bcd\u64ad\u653e\u5668","file":"http:\/\/rdfile.oss-cn-hangzhou.aliyuncs.com\/filemanage\/e069b36c568d909f\/templateapi\/16576224161917\/file.zip?nonce=f9fd7fed3baf47c9a258a0d7a6d02628","cover":"http:\/\/rdfile.oss-cn-hangzhou.aliyuncs.com\/filemanage\/e069b36c568d909f\/templateapi\/16576224161917\/cover.webp?nonce=f9fd7fed3baf47c9a258a0d7a6d02628","updatetime":"1704185885","height":1280,"width":720,"video":"http:\/\/rdfile.oss-cn-hangzhou.aliyuncs.com\/filemanage\/e069b36c568d909f\/templateapi\/16576224161917\/video.mp4?nonce=f9fd7fed3baf47c9a258a0d7a6d02628","sort":0,"version":153,"cover2":"","appkey":"init","duration":0,"extra":{},"polyglot":{"en":"Lyrics player"},"category":"0","audit":0,"is_ugc":0,"text_need":0,"picture_need":0,"video_need":2,"type":"templateapi"},{"id":"1020653","ufid":"98945453","name":"\u9633\u6625\u4e09\u6708","file":"http:\/\/rdfile.oss-cn-hangzhou.aliyuncs.com\/filemanage\/e069b36c568d909f\/templateapi\/16775737207662\/file.zip?nonce=361dc9f6ae0f8edcefae1734622ac635","cover":"http:\/\/rdfile.oss-cn-hangzhou.aliyuncs.com\/filemanage\/e069b36c568d909f\/templateapi\/16775737207662\/cover.webp?nonce=361dc9f6ae0f8edcefae1734622ac635","updatetime":"1704186637","height":607,"width":1080,"video":"http:\/\/rdfile.oss-cn-hangzhou.aliyuncs.com\/filemanage\/e069b36c568d909f\/templateapi\/16775737207662\/video.mp4?nonce=361dc9f6ae0f8edcefae1734622ac635","sort":0,"version":159,"cover2":"","appkey":"init","duration":0,"extra":{},"polyglot":{"en":"Sunny spring March"},"category":"0","audit":0,"is_ugc":0,"text_need":5,"picture_need":0,"video_need":1,"type":"templateapi"},{"id":"1020628","ufid":"47736218","name":"\u5f00\u5f80\u6625\u65e5\u7684\u5217\u8f66","file":"http:\/\/rdfile.oss-cn-hangzhou.aliyuncs.com\/filemanage\/e069b36c568d909f\/templateapi\/16772297336845\/file.zip?nonce=c747841466f77ad06447aa7224c146bb","cover":"http:\/\/rdfile.oss-cn-hangzhou.aliyuncs.com\/filemanage\/e069b36c568d909f\/templateapi\/16772297336845\/cover.webp?nonce=c747841466f77ad06447aa7224c146bb","updatetime":"1704186636","height":1059,"width":794,"video":"http:\/\/rdfile.oss-cn-hangzhou.aliyuncs.com\/filemanage\/e069b36c568d909f\/templateapi\/16772297336845\/video.mp4?nonce=c747841466f77ad06447aa7224c146bb","sort":0,"version":159,"cover2":"","appkey":"init","duration":0,"extra":{},"polyglot":{"en":"Train bound for spring"},"category":"0","audit":0,"is_ugc":0,"text_need":1,"picture_need":0,"video_need":6,"type":"templateapi"},{"id":"1016700","ufid":"24390097","name":"\u5bff\u53f8\u5e7f\u544a","file":"http:\/\/rdfile.oss-cn-hangzhou.aliyuncs.com\/filemanage\/e069b36c568d909f\/templateapi\/16709250913882\/file.zip?nonce=398c87b8864407c434c78e96091d2059","cover":"http:\/\/rdfile.oss-cn-hangzhou.aliyuncs.com\/filemanage\/e069b36c568d909f\/templateapi\/16709250913882\/cover.webp?nonce=398c87b8864407c434c78e96091d2059","updatetime":"1704186004","height":608,"width":1080,"video":"http:\/\/rdfile.oss-cn-hangzhou.aliyuncs.com\/filemanage\/e069b36c568d909f\/templateapi\/16709250913882\/video.mp4?nonce=398c87b8864407c434c78e96091d2059","sort":0,"version":155,"cover2":"","appkey":"init","duration":0,"extra":{},"polyglot":{"en":"Sushi advertising"},"category":"0","audit":0,"is_ugc":0,"text_need":2,"picture_need":0,"video_need":0,"type":"templateapi"},{"id":"1016619","ufid":"79586398","name":"\u7247\u5c3e","file":"http:\/\/rdfile.oss-cn-hangzhou.aliyuncs.com\/filemanage\/e069b36c568d909f\/templateapi\/16698101941169\/file.zip?nonce=3fde468a769ebd9637fde0c7e46526de","cover":"http:\/\/rdfile.oss-cn-hangzhou.aliyuncs.com\/filemanage\/e069b36c568d909f\/templateapi\/16698101941169\/cover.webp?nonce=3fde468a769ebd9637fde0c7e46526de","updatetime":"1704185996","height":608,"width":1080,"video":"http:\/\/rdfile.oss-cn-hangzhou.aliyuncs.com\/filemanage\/e069b36c568d909f\/templateapi\/16698101941169\/video.mp4?nonce=3fde468a769ebd9637fde0c7e46526de","sort":0,"version":155,"cover2":"","appkey":"init","duration":0,"extra":{},"polyglot":{"en":"Ending"},"category":"0","audit":0,"is_ugc":0,"text_need":1,"picture_need":0,"video_need":0,"type":"templateapi"},{"id":"1016684","ufid":"68322159","name":"\u90a3\u5e74\u6211\u53cc\u624b\u63d2\u515c","file":"http:\/\/rdfile.oss-cn-hangzhou.aliyuncs.com\/filemanage\/e069b36c568d909f\/templateapi\/16704066609904\/file.zip?nonce=fa4c3bbfe6b38d394cc142e266be590b","cover":"http:\/\/rdfile.oss-cn-hangzhou.aliyuncs.com\/filemanage\/e069b36c568d909f\/templateapi\/16704066609904\/cover.webp?nonce=fa4c3bbfe6b38d394cc142e266be590b","updatetime":"1704186002","height":1920,"width":1080,"video":"http:\/\/rdfile.oss-cn-hangzhou.aliyuncs.com\/filemanage\/e069b36c568d909f\/templateapi\/16704066609904\/video.mp4?nonce=fa4c3bbfe6b38d394cc142e266be590b","sort":0,"version":156,"cover2":"","appkey":"init","duration":0,"extra":{},"polyglot":{"en":"That year I put my hands in my pockets"},"category":"0","audit":0,"is_ugc":0,"text_need":0,"picture_need":0,"video_need":1,"type":"templateapi"},{"id":"1016136","ufid":"40421641","name":"\u6211\u4e0d\u8981\u518d\u60f3\u4f60","file":"http:\/\/rdfile.oss-cn-hangzhou.aliyuncs.com\/filemanage\/e069b36c568d909f\/templateapi\/16653925743721\/file.zip?nonce=aa46bf68424f8ff99962983a0a00bcf0","cover":"http:\/\/rdfile.oss-cn-hangzhou.aliyuncs.com\/filemanage\/e069b36c568d909f\/templateapi\/16653925743721\/cover.webp?nonce=aa46bf68424f8ff99962983a0a00bcf0","updatetime":"1704185945","height":1080,"width":1440,"video":"http:\/\/rdfile.oss-cn-hangzhou.aliyuncs.com\/filemanage\/e069b36c568d909f\/templateapi\/16653925743721\/video.mp4?nonce=aa46bf68424f8ff99962983a0a00bcf0","sort":0,"version":153,"cover2":"","appkey":"init","duration":0,"extra":{},"polyglot":{"en":"I don"},"category":"0","audit":0,"is_ugc":0,"text_need":0,"picture_need":0,"video_need":2,"type":"templateapi"},{"id":"1016625","ufid":"98386640","name":"\u5e26\u4e0a\u4f60\u7684\u732b\u79d2\u53d8\u9ed1\u8c79","file":"http:\/\/rdfile.oss-cn-hangzhou.aliyuncs.com\/filemanage\/e069b36c568d909f\/templateapi\/16698712431706\/file.zip?nonce=3fde468a769ebd9637fde0c7e46526de","cover":"http:\/\/rdfile.oss-cn-hangzhou.aliyuncs.com\/filemanage\/e069b36c568d909f\/templateapi\/16698712431706\/cover.webp?nonce=3fde468a769ebd9637fde0c7e46526de","updatetime":"1704185996","height":1920,"width":1080,"video":"http:\/\/rdfile.oss-cn-hangzhou.aliyuncs.com\/filemanage\/e069b36c568d909f\/templateapi\/16698712431706\/video.mp4?nonce=3fde468a769ebd9637fde0c7e46526de","sort":0,"version":156,"cover2":"","appkey":"init","duration":0,"extra":{},"polyglot":{"en":"Take your cat and turn into a black panther instantly"},"category":"0","audit":0,"is_ugc":0,"text_need":0,"picture_need":0,"video_need":2,"type":"templateapi"},{"id":"1016487","ufid":"70512027","name":"\u4eba\u7269\u5206\u5c4f\u51fa\u573a","file":"http:\/\/rdfile.oss-cn-hangzhou.aliyuncs.com\/filemanage\/e069b36c568d909f\/templateapi\/16686750428733\/file.zip?nonce=82ff07cd2c739adf8be4385ba2d753ff","cover":"http:\/\/rdfile.oss-cn-hangzhou.aliyuncs.com\/filemanage\/e069b36c568d909f\/templateapi\/16686750428733\/cover.webp?nonce=82ff07cd2c739adf8be4385ba2d753ff","updatetime":"1704185984","height":607,"width":1080,"video":"http:\/\/rdfile.oss-cn-hangzhou.aliyuncs.com\/filemanage\/e069b36c568d909f\/templateapi\/16686750428733\/video.mp4?nonce=82ff07cd2c739adf8be4385ba2d753ff","sort":0,"version":155,"cover2":"","appkey":"init","duration":0,"extra":{},"polyglot":{"en":"Characters appear in split screen"},"category":"0","audit":0,"is_ugc":0,"text_need":0,"picture_need":5,"video_need":0,"type":"templateapi"}]}}