{"code":0,"msg":"success","data":{"total":636,"per_page":10,"current_page":54,"last_page":64,"data":[{"id":"1012256","ufid":"83533929","name":"\u957f\u76f8\u5dee\u70b9","file":"http:\/\/rdfile.oss-cn-hangzhou.aliyuncs.com\/filemanage\/e069b36c568d909f\/templateapi\/16299427658210\/file.zip?nonce=d7d20d55b747a2e3a7087453b9accc9d","cover":"http:\/\/rdfile.oss-cn-hangzhou.aliyuncs.com\/filemanage\/e069b36c568d909f\/templateapi\/16299427658210\/cover.png?nonce=d7d20d55b747a2e3a7087453b9accc9d&x-oss-process=style\/templateapi","updatetime":"1704185700","height":1280,"width":720,"video":"http:\/\/rdfile.oss-cn-hangzhou.aliyuncs.com\/filemanage\/e069b36c568d909f\/templateapi\/16299427658210\/video.mp4?nonce=d7d20d55b747a2e3a7087453b9accc9d","sort":100,"version":147,"cover2":"","appkey":"init","duration":0,"extra":{},"polyglot":{"en":"Looks a bit different"},"category":"0","audit":0,"is_ugc":0,"text_need":6,"picture_need":2,"video_need":0,"type":"templateapi"},{"id":"1012245","ufid":"38579544","name":"\u65f6\u5c1a\u5468\u520a","file":"http:\/\/rdfile.oss-cn-hangzhou.aliyuncs.com\/filemanage\/e069b36c568d909f\/templateapi\/16297784133379\/file.zip?nonce=355495a8fc3926cd908bee5d9bbcbc23","cover":"http:\/\/rdfile.oss-cn-hangzhou.aliyuncs.com\/filemanage\/e069b36c568d909f\/templateapi\/16297784133379\/cover.png?nonce=355495a8fc3926cd908bee5d9bbcbc23&x-oss-process=style\/templateapi","updatetime":"1704185699","height":720,"width":405,"video":"http:\/\/rdfile.oss-cn-hangzhou.aliyuncs.com\/filemanage\/e069b36c568d909f\/templateapi\/16297784133379\/video.mp4?nonce=355495a8fc3926cd908bee5d9bbcbc23","sort":100,"version":147,"cover2":"","appkey":"init","duration":0,"extra":{},"polyglot":{"en":"Fashion weekly"},"category":"0","audit":0,"is_ugc":0,"text_need":8,"picture_need":20,"video_need":0,"type":"templateapi"},{"id":"1012235","ufid":"84252024","name":"\u597d\u7269\u63a8\u8350","file":"http:\/\/rdfile.oss-cn-hangzhou.aliyuncs.com\/filemanage\/e069b36c568d909f\/templateapi\/16294437375731\/file.zip?nonce=355495a8fc3926cd908bee5d9bbcbc23","cover":"http:\/\/rdfile.oss-cn-hangzhou.aliyuncs.com\/filemanage\/e069b36c568d909f\/templateapi\/16294437375731\/cover.png?nonce=355495a8fc3926cd908bee5d9bbcbc23&x-oss-process=style\/templateapi","updatetime":"1704185699","height":1280,"width":720,"video":"http:\/\/rdfile.oss-cn-hangzhou.aliyuncs.com\/filemanage\/e069b36c568d909f\/templateapi\/16294437375731\/video.mp4?nonce=355495a8fc3926cd908bee5d9bbcbc23","sort":100,"version":147,"cover2":"","appkey":"init","duration":0,"extra":{},"polyglot":{"en":"Recommend good thing"},"category":"0","audit":0,"is_ugc":0,"text_need":6,"picture_need":0,"video_need":8,"type":"templateapi"},{"id":"1012228","ufid":"11460901","name":"\u670b\u53cb\u5708","file":"http:\/\/rdfile.oss-cn-hangzhou.aliyuncs.com\/filemanage\/e069b36c568d909f\/templateapi\/16292839422596\/file.zip?nonce=355495a8fc3926cd908bee5d9bbcbc23","cover":"http:\/\/rdfile.oss-cn-hangzhou.aliyuncs.com\/filemanage\/e069b36c568d909f\/templateapi\/16292839422596\/cover.png?nonce=355495a8fc3926cd908bee5d9bbcbc23&x-oss-process=style\/templateapi","updatetime":"1704185699","height":1280,"width":720,"video":"http:\/\/rdfile.oss-cn-hangzhou.aliyuncs.com\/filemanage\/e069b36c568d909f\/templateapi\/16292839422596\/video.mp4?nonce=355495a8fc3926cd908bee5d9bbcbc23","sort":100,"version":147,"cover2":"","appkey":"init","duration":0,"extra":{},"polyglot":{"en":"Circle of friends"},"category":"0","audit":0,"is_ugc":0,"text_need":3,"picture_need":2,"video_need":4,"type":"templateapi"},{"id":"1012225","ufid":"45681052","name":"\u591a\u5f69\u5bab\u683c","file":"http:\/\/rdfile.oss-cn-hangzhou.aliyuncs.com\/filemanage\/e069b36c568d909f\/templateapi\/16291843225275\/file.zip?nonce=355495a8fc3926cd908bee5d9bbcbc23","cover":"http:\/\/rdfile.oss-cn-hangzhou.aliyuncs.com\/filemanage\/e069b36c568d909f\/templateapi\/16291843225275\/cover.png?nonce=355495a8fc3926cd908bee5d9bbcbc23&x-oss-process=style\/templateapi","updatetime":"1704185699","height":1280,"width":720,"video":"http:\/\/rdfile.oss-cn-hangzhou.aliyuncs.com\/filemanage\/e069b36c568d909f\/templateapi\/16291843225275\/video.mp4?nonce=355495a8fc3926cd908bee5d9bbcbc23","sort":100,"version":147,"cover2":"","appkey":"init","duration":0,"extra":{},"polyglot":{"en":"Colorful grid"},"category":"0","audit":0,"is_ugc":0,"text_need":0,"picture_need":0,"video_need":6,"type":"templateapi"},{"id":"1012224","ufid":"68637153","name":"\u53e4\u98ce\u7fbd\u6bdb","file":"http:\/\/rdfile.oss-cn-hangzhou.aliyuncs.com\/filemanage\/e069b36c568d909f\/templateapi\/16291834208358\/file.zip?nonce=355495a8fc3926cd908bee5d9bbcbc23","cover":"http:\/\/rdfile.oss-cn-hangzhou.aliyuncs.com\/filemanage\/e069b36c568d909f\/templateapi\/16291834208358\/cover.png?nonce=355495a8fc3926cd908bee5d9bbcbc23&x-oss-process=style\/templateapi","updatetime":"1704185699","height":1280,"width":720,"video":"http:\/\/rdfile.oss-cn-hangzhou.aliyuncs.com\/filemanage\/e069b36c568d909f\/templateapi\/16291834208358\/video.mp4?nonce=355495a8fc3926cd908bee5d9bbcbc23","sort":100,"version":147,"cover2":"","appkey":"init","duration":0,"extra":{},"polyglot":{"en":"Antique feathers"},"category":"0","audit":0,"is_ugc":0,"text_need":0,"picture_need":0,"video_need":5,"type":"templateapi"},{"id":"1012221","ufid":"72963772","name":"\u6362\u5934","file":"http:\/\/rdfile.oss-cn-hangzhou.aliyuncs.com\/filemanage\/e069b36c568d909f\/templateapi\/16291005516346\/file.zip?nonce=10a822c38c260d12c2521ca83ddca58d","cover":"http:\/\/rdfile.oss-cn-hangzhou.aliyuncs.com\/filemanage\/e069b36c568d909f\/templateapi\/16291005516346\/cover.png?nonce=10a822c38c260d12c2521ca83ddca58d&x-oss-process=style\/templateapi","updatetime":"1704185698","height":1280,"width":846,"video":"http:\/\/rdfile.oss-cn-hangzhou.aliyuncs.com\/filemanage\/e069b36c568d909f\/templateapi\/16291005516346\/video.mp4?nonce=10a822c38c260d12c2521ca83ddca58d","sort":100,"version":147,"cover2":"","appkey":"init","duration":0,"extra":{},"polyglot":{"en":"Change heads"},"category":"0","audit":0,"is_ugc":0,"text_need":0,"picture_need":1,"video_need":0,"type":"templateapi"},{"id":"1012118","ufid":"51020032","name":"\u6362\u80cc\u666f","file":"http:\/\/rdfile.oss-cn-hangzhou.aliyuncs.com\/filemanage\/e069b36c568d909f\/templateapi\/16287597601253\/file.zip?nonce=157c1456eaa1ac6a0d85c4c66571f00b","cover":"http:\/\/rdfile.oss-cn-hangzhou.aliyuncs.com\/filemanage\/e069b36c568d909f\/templateapi\/16287597601253\/cover.png?nonce=157c1456eaa1ac6a0d85c4c66571f00b&x-oss-process=style\/templateapi","updatetime":"1704185689","height":1280,"width":720,"video":"http:\/\/rdfile.oss-cn-hangzhou.aliyuncs.com\/filemanage\/e069b36c568d909f\/templateapi\/16287597601253\/video.mp4?nonce=157c1456eaa1ac6a0d85c4c66571f00b","sort":100,"version":147,"cover2":"","appkey":"init","duration":0,"extra":{},"polyglot":{"en":"Replace background"},"category":"0","audit":0,"is_ugc":0,"text_need":5,"picture_need":0,"video_need":1,"type":"templateapi"},{"id":"1012108","ufid":"54115675","name":"\u8377\u5858\u591c\u8272","file":"http:\/\/rdfile.oss-cn-hangzhou.aliyuncs.com\/filemanage\/e069b36c568d909f\/templateapi\/16286716939952\/file.zip?nonce=119af0d5405a599c326fdc7657d8ec3c","cover":"http:\/\/rdfile.oss-cn-hangzhou.aliyuncs.com\/filemanage\/e069b36c568d909f\/templateapi\/16286716939952\/cover.png?nonce=119af0d5405a599c326fdc7657d8ec3c&x-oss-process=style\/templateapi","updatetime":"1704185688","height":1280,"width":736,"video":"http:\/\/rdfile.oss-cn-hangzhou.aliyuncs.com\/filemanage\/e069b36c568d909f\/templateapi\/16286716939952\/video.mp4?nonce=119af0d5405a599c326fdc7657d8ec3c","sort":100,"version":147,"cover2":"","appkey":"init","duration":0,"extra":{},"polyglot":{"en":"Lotus pond night"},"category":"0","audit":0,"is_ugc":0,"text_need":0,"picture_need":0,"video_need":3,"type":"templateapi"},{"id":"1012106","ufid":"38926701","name":"\u5206\u8eab1","file":"http:\/\/rdfile.oss-cn-hangzhou.aliyuncs.com\/filemanage\/e069b36c568d909f\/templateapi\/16286471515173\/file.zip?nonce=119af0d5405a599c326fdc7657d8ec3c","cover":"http:\/\/rdfile.oss-cn-hangzhou.aliyuncs.com\/filemanage\/e069b36c568d909f\/templateapi\/16286471515173\/cover.png?nonce=119af0d5405a599c326fdc7657d8ec3c&x-oss-process=style\/templateapi","updatetime":"1704185688","height":1280,"width":960,"video":"http:\/\/rdfile.oss-cn-hangzhou.aliyuncs.com\/filemanage\/e069b36c568d909f\/templateapi\/16286471515173\/video.mp4?nonce=119af0d5405a599c326fdc7657d8ec3c","sort":100,"version":147,"cover2":"","appkey":"init","duration":0,"extra":{},"polyglot":{"en":"Clone 1"},"category":"0","audit":0,"is_ugc":0,"text_need":0,"picture_need":0,"video_need":4,"type":"templateapi"}]}}