{"code":0,"msg":"success","data":{"total":636,"per_page":10,"current_page":24,"last_page":64,"data":[{"id":"1016067","ufid":"71368999","name":"\u7f8a\u4e86\u4e2a\u7f8a\u901a\u5173\u6a21\u677f","file":"http:\/\/rdfile.oss-cn-hangzhou.aliyuncs.com\/filemanage\/e069b36c568d909f\/templateapi\/16643562525300\/file.zip?nonce=1fdb19b06a150559e2963111a174296e","cover":"http:\/\/rdfile.oss-cn-hangzhou.aliyuncs.com\/filemanage\/e069b36c568d909f\/templateapi\/16643562525300\/cover.webp?nonce=1fdb19b06a150559e2963111a174296e","updatetime":"1704185939","height":1060,"width":596,"video":"http:\/\/rdfile.oss-cn-hangzhou.aliyuncs.com\/filemanage\/e069b36c568d909f\/templateapi\/16643562525300\/video.mp4?nonce=1fdb19b06a150559e2963111a174296e","sort":0,"version":153,"cover2":"","appkey":"init","duration":0,"extra":{},"polyglot":{"en":"Sheep made a sheep customs clearance template"},"category":"0","audit":0,"is_ugc":0,"text_need":0,"picture_need":10,"video_need":0,"type":"templateapi"},{"id":"1016060","ufid":"29856400","name":"\u751f\u6d3b\u6c1b\u56f4\u611f\u526a\u8f91","file":"http:\/\/rdfile.oss-cn-hangzhou.aliyuncs.com\/filemanage\/e069b36c568d909f\/templateapi\/16642683433319\/file.zip?nonce=4e04310ae494e150d630edadc79c3f49","cover":"http:\/\/rdfile.oss-cn-hangzhou.aliyuncs.com\/filemanage\/e069b36c568d909f\/templateapi\/16642683433319\/cover.webp?nonce=4e04310ae494e150d630edadc79c3f49","updatetime":"1704185938","height":1080,"width":1440,"video":"http:\/\/rdfile.oss-cn-hangzhou.aliyuncs.com\/filemanage\/e069b36c568d909f\/templateapi\/16642683433319\/video.mp4?nonce=4e04310ae494e150d630edadc79c3f49","sort":0,"version":153,"cover2":"","appkey":"init","duration":0,"extra":{},"polyglot":{"en":"Life atmosphere clip"},"category":"0","audit":0,"is_ugc":0,"text_need":0,"picture_need":0,"video_need":7,"type":"templateapi"},{"id":"1016059","ufid":"12834902","name":"\u6311\u6218\u6211\u7684\u8f6f\u808b","file":"http:\/\/rdfile.oss-cn-hangzhou.aliyuncs.com\/filemanage\/e069b36c568d909f\/templateapi\/16642659683601\/file.zip?nonce=59d286cce026402427cd0fc8a9b51a48","cover":"http:\/\/rdfile.oss-cn-hangzhou.aliyuncs.com\/filemanage\/e069b36c568d909f\/templateapi\/16642659683601\/cover.webp?nonce=59d286cce026402427cd0fc8a9b51a48","updatetime":"1704185937","height":1225,"width":689,"video":"http:\/\/rdfile.oss-cn-hangzhou.aliyuncs.com\/filemanage\/e069b36c568d909f\/templateapi\/16642659683601\/video.mp4?nonce=59d286cce026402427cd0fc8a9b51a48","sort":0,"version":153,"cover2":"","appkey":"init","duration":0,"extra":{},"polyglot":{"en":"Challenge my weakness"},"category":"0","audit":0,"is_ugc":0,"text_need":0,"picture_need":0,"video_need":4,"type":"templateapi"},{"id":"1016058","ufid":"37412777","name":"\u5361\u70b9\u7167\u7247","file":"http:\/\/rdfile.oss-cn-hangzhou.aliyuncs.com\/filemanage\/e069b36c568d909f\/templateapi\/16642615744301\/file.zip?nonce=59d286cce026402427cd0fc8a9b51a48","cover":"http:\/\/rdfile.oss-cn-hangzhou.aliyuncs.com\/filemanage\/e069b36c568d909f\/templateapi\/16642615744301\/cover.webp?nonce=59d286cce026402427cd0fc8a9b51a48","updatetime":"1704185937","height":1225,"width":689,"video":"http:\/\/rdfile.oss-cn-hangzhou.aliyuncs.com\/filemanage\/e069b36c568d909f\/templateapi\/16642615744301\/video.mp4?nonce=59d286cce026402427cd0fc8a9b51a48","sort":0,"version":153,"cover2":"","appkey":"init","duration":0,"extra":{},"polyglot":{"en":"Right time photo"},"category":"0","audit":0,"is_ugc":0,"text_need":0,"picture_need":3,"video_need":3,"type":"templateapi"},{"id":"1016054","ufid":"67083720","name":"\u753b\u68461","file":"http:\/\/rdfile.oss-cn-hangzhou.aliyuncs.com\/filemanage\/e069b36c568d909f\/templateapi\/16641889618038\/file.zip?nonce=59d286cce026402427cd0fc8a9b51a48","cover":"http:\/\/rdfile.oss-cn-hangzhou.aliyuncs.com\/filemanage\/e069b36c568d909f\/templateapi\/16641889618038\/cover.webp?nonce=59d286cce026402427cd0fc8a9b51a48","updatetime":"1704185937","height":1280,"width":720,"video":"http:\/\/rdfile.oss-cn-hangzhou.aliyuncs.com\/filemanage\/e069b36c568d909f\/templateapi\/16641889618038\/video.mp4?nonce=59d286cce026402427cd0fc8a9b51a48","sort":0,"version":153,"cover2":"","appkey":"init","duration":0,"extra":{},"polyglot":{"en":"Frame 1"},"category":"0","audit":0,"is_ugc":0,"text_need":0,"picture_need":0,"video_need":3,"type":"templateapi"},{"id":"1016053","ufid":"18965727","name":"\u90a3\u4e9b\u4e0e\u6211\u4f5c\u5bf9\u7684\u4eba\u73a9\u6cd5\u5361\u70b9","file":"http:\/\/rdfile.oss-cn-hangzhou.aliyuncs.com\/filemanage\/e069b36c568d909f\/templateapi\/16641836119856\/file.zip?nonce=59d286cce026402427cd0fc8a9b51a48","cover":"http:\/\/rdfile.oss-cn-hangzhou.aliyuncs.com\/filemanage\/e069b36c568d909f\/templateapi\/16641836119856\/cover.webp?nonce=59d286cce026402427cd0fc8a9b51a48","updatetime":"1704185937","height":1225,"width":689,"video":"http:\/\/rdfile.oss-cn-hangzhou.aliyuncs.com\/filemanage\/e069b36c568d909f\/templateapi\/16641836119856\/video.mp4?nonce=59d286cce026402427cd0fc8a9b51a48","sort":0,"version":153,"cover2":"","appkey":"init","duration":0,"extra":{},"polyglot":null,"category":"0","audit":0,"is_ugc":0,"text_need":0,"picture_need":0,"video_need":3,"type":"templateapi"},{"id":"1016048","ufid":"42855320","name":"\u538b\u8feb\u611f\u5361\u70b9\u7167\u7247","file":"http:\/\/rdfile.oss-cn-hangzhou.aliyuncs.com\/filemanage\/e069b36c568d909f\/templateapi\/16641728936408\/file.zip?nonce=368b2a3ea1648debdc3754f87ea2e7ae","cover":"http:\/\/rdfile.oss-cn-hangzhou.aliyuncs.com\/filemanage\/e069b36c568d909f\/templateapi\/16641728936408\/cover.webp?nonce=368b2a3ea1648debdc3754f87ea2e7ae","updatetime":"1704185936","height":1224,"width":918,"video":"http:\/\/rdfile.oss-cn-hangzhou.aliyuncs.com\/filemanage\/e069b36c568d909f\/templateapi\/16641728936408\/video.mp4?nonce=368b2a3ea1648debdc3754f87ea2e7ae","sort":0,"version":153,"cover2":"","appkey":"init","duration":0,"extra":{},"polyglot":{"en":"Right time photo with sense of oppression"},"category":"0","audit":0,"is_ugc":0,"text_need":0,"picture_need":0,"video_need":2,"type":"templateapi"},{"id":"1016046","ufid":"32222733","name":"\u6c1b\u56f4\u5361\u70b9","file":"http:\/\/rdfile.oss-cn-hangzhou.aliyuncs.com\/filemanage\/e069b36c568d909f\/templateapi\/16639229714163\/file.zip?nonce=368b2a3ea1648debdc3754f87ea2e7ae","cover":"http:\/\/rdfile.oss-cn-hangzhou.aliyuncs.com\/filemanage\/e069b36c568d909f\/templateapi\/16639229714163\/cover.webp?nonce=368b2a3ea1648debdc3754f87ea2e7ae","updatetime":"1704185936","height":1225,"width":689,"video":"http:\/\/rdfile.oss-cn-hangzhou.aliyuncs.com\/filemanage\/e069b36c568d909f\/templateapi\/16639229714163\/video.mp4?nonce=368b2a3ea1648debdc3754f87ea2e7ae","sort":0,"version":153,"cover2":"","appkey":"init","duration":0,"extra":{},"polyglot":{"en":"Right time atmosphere"},"category":"0","audit":0,"is_ugc":0,"text_need":0,"picture_need":0,"video_need":9,"type":"templateapi"},{"id":"1016044","ufid":"30533574","name":"\u65e5\u5e38\u751f\u6d3b\u788e\u7247","file":"http:\/\/rdfile.oss-cn-hangzhou.aliyuncs.com\/filemanage\/e069b36c568d909f\/templateapi\/16638378896048\/file.zip?nonce=f911939e7c890c339f60b24b295dd4e2","cover":"http:\/\/rdfile.oss-cn-hangzhou.aliyuncs.com\/filemanage\/e069b36c568d909f\/templateapi\/16638378896048\/cover.webp?nonce=f911939e7c890c339f60b24b295dd4e2","updatetime":"1704185935","height":810,"width":1080,"video":"http:\/\/rdfile.oss-cn-hangzhou.aliyuncs.com\/filemanage\/e069b36c568d909f\/templateapi\/16638378896048\/video.mp4?nonce=f911939e7c890c339f60b24b295dd4e2","sort":0,"version":153,"cover2":"","appkey":"init","duration":0,"extra":{},"polyglot":{"en":"Fragments of daily life"},"category":"0","audit":0,"is_ugc":0,"text_need":0,"picture_need":0,"video_need":8,"type":"templateapi"},{"id":"1016043","ufid":"16389503","name":"\u538b\u8feb\u611f\u5361\u70b9\u7167\u7247","file":"http:\/\/rdfile.oss-cn-hangzhou.aliyuncs.com\/filemanage\/e069b36c568d909f\/templateapi\/16638366826610\/file.zip?nonce=f911939e7c890c339f60b24b295dd4e2","cover":"http:\/\/rdfile.oss-cn-hangzhou.aliyuncs.com\/filemanage\/e069b36c568d909f\/templateapi\/16638366826610\/cover.webp?nonce=f911939e7c890c339f60b24b295dd4e2","updatetime":"1704185935","height":1224,"width":689,"video":"http:\/\/rdfile.oss-cn-hangzhou.aliyuncs.com\/filemanage\/e069b36c568d909f\/templateapi\/16638366826610\/video.mp4?nonce=f911939e7c890c339f60b24b295dd4e2","sort":0,"version":153,"cover2":"","appkey":"init","duration":0,"extra":{},"polyglot":{"en":"Right time photo with sense of oppression"},"category":"0","audit":0,"is_ugc":0,"text_need":0,"picture_need":3,"video_need":0,"type":"templateapi"}]}}