{"code":0,"msg":"success","data":{"total":143,"per_page":20,"current_page":6,"last_page":8,"data":[{"id":"1024439","ufid":"65548960","name":"\u554a\u554a\u554a\u554a\u554a","file":"http:\/\/rdfile.oss-cn-hangzhou.aliyuncs.com\/filemanage\/init\/audio\/65548960.mp3?nonce=ceff4f91c0ae26c750ef4549b6ba9e38","cover":"","updatetime":"1697698283","height":0,"width":0,"video":"","sort":0,"version":157,"cover2":"","appkey":"init","duration":4,"extra":{},"polyglot":[],"category":"27108401,","audit":0,"is_ugc":0,"type":"audio"},{"id":"1024438","ufid":"87450744","name":"\u300a\u7262\u5927\u5185\u5c0f\u66f2\u300bSee you a ","file":"http:\/\/rdfile.oss-cn-hangzhou.aliyuncs.com\/filemanage\/init\/audio\/87450744.mp3?nonce=ceff4f91c0ae26c750ef4549b6ba9e38","cover":"","updatetime":"1697698283","height":0,"width":0,"video":"","sort":0,"version":157,"cover2":"","appkey":"init","duration":125,"extra":{},"polyglot":[],"category":"27108401,","audit":0,"is_ugc":0,"type":"audio"},{"id":"1024437","ufid":"40364104","name":"nice-\u8001\u5934\u641e\u7b11","file":"http:\/\/rdfile.oss-cn-hangzhou.aliyuncs.com\/filemanage\/init\/audio\/40364104.mp3?nonce=6097ecf5c9ebaf863d632d17979701ea","cover":"","updatetime":"1697698282","height":0,"width":0,"video":"","sort":0,"version":157,"cover2":"","appkey":"init","duration":2,"extra":{},"polyglot":[],"category":"27108401,","audit":0,"is_ugc":0,"type":"audio"},{"id":"1024436","ufid":"58422271","name":"life gose on","file":"http:\/\/rdfile.oss-cn-hangzhou.aliyuncs.com\/filemanage\/init\/audio\/58422271.mp3?nonce=6097ecf5c9ebaf863d632d17979701ea","cover":"","updatetime":"1697698282","height":0,"width":0,"video":"","sort":0,"version":157,"cover2":"","appkey":"init","duration":12,"extra":{},"polyglot":[],"category":"27108401,","audit":0,"is_ugc":0,"type":"audio"},{"id":"1024435","ufid":"54056589","name":"i'm Peppa Pig","file":"http:\/\/rdfile.oss-cn-hangzhou.aliyuncs.com\/filemanage\/init\/audio\/54056589.mp3?nonce=04bf15f3717f8e312b0ecafe14ace7d2","cover":"","updatetime":"1697698281","height":0,"width":0,"video":"","sort":0,"version":157,"cover2":"","appkey":"init","duration":9,"extra":{},"polyglot":[],"category":"27108401,","audit":0,"is_ugc":0,"type":"audio"},{"id":"1024434","ufid":"49460169","name":"biu~","file":"http:\/\/rdfile.oss-cn-hangzhou.aliyuncs.com\/filemanage\/init\/audio\/49460169.mp3?nonce=04bf15f3717f8e312b0ecafe14ace7d2","cover":"","updatetime":"1697698281","height":0,"width":0,"video":"","sort":0,"version":157,"cover2":"","appkey":"init","duration":2,"extra":{},"polyglot":[],"category":"27108401,","audit":0,"is_ugc":0,"type":"audio"},{"id":"1024433","ufid":"76896315","name":"To be continued (2)","file":"http:\/\/rdfile.oss-cn-hangzhou.aliyuncs.com\/filemanage\/init\/audio\/76896315.mp3?nonce=04bf15f3717f8e312b0ecafe14ace7d2","cover":"","updatetime":"1697698281","height":0,"width":0,"video":"","sort":0,"version":157,"cover2":"","appkey":"init","duration":12,"extra":{},"polyglot":[],"category":"27108401,","audit":0,"is_ugc":0,"type":"audio"},{"id":"1024432","ufid":"58467388","name":"Q\u5f39\u6ed1\u7a3d\u97f3\u6548","file":"http:\/\/rdfile.oss-cn-hangzhou.aliyuncs.com\/filemanage\/init\/audio\/58467388.mp3?nonce=04bf15f3717f8e312b0ecafe14ace7d2","cover":"","updatetime":"1697698281","height":0,"width":0,"video":"","sort":0,"version":157,"cover2":"","appkey":"init","duration":2,"extra":{},"polyglot":[],"category":"27108401,","audit":0,"is_ugc":0,"type":"audio"},{"id":"1024431","ufid":"26594592","name":"OHHHHHH","file":"http:\/\/rdfile.oss-cn-hangzhou.aliyuncs.com\/filemanage\/init\/audio\/26594592.mp3?nonce=788b6f75657c1b3b4178b3787feb04be","cover":"","updatetime":"1697698280","height":0,"width":0,"video":"","sort":0,"version":157,"cover2":"","appkey":"init","duration":4,"extra":{},"polyglot":[],"category":"27108401,","audit":0,"is_ugc":0,"type":"audio"},{"id":"1024430","ufid":"85320968","name":"Micky Mouse","file":"http:\/\/rdfile.oss-cn-hangzhou.aliyuncs.com\/filemanage\/init\/audio\/85320968.mp3?nonce=788b6f75657c1b3b4178b3787feb04be","cover":"","updatetime":"1697698280","height":0,"width":0,"video":"","sort":0,"version":157,"cover2":"","appkey":"init","duration":10,"extra":{},"polyglot":[],"category":"27108401,","audit":0,"is_ugc":0,"type":"audio"},{"id":"1024429","ufid":"85158019","name":"DING~~\u53ee~~","file":"http:\/\/rdfile.oss-cn-hangzhou.aliyuncs.com\/filemanage\/init\/audio\/85158019.mp3?nonce=86645f4e0bbc5c065c31f1f3618f3cc7","cover":"","updatetime":"1697698279","height":0,"width":0,"video":"","sort":0,"version":157,"cover2":"","appkey":"init","duration":3,"extra":{},"polyglot":[],"category":"27108401,","audit":0,"is_ugc":0,"type":"audio"},{"id":"1024428","ufid":"40230889","name":"Bruh","file":"http:\/\/rdfile.oss-cn-hangzhou.aliyuncs.com\/filemanage\/init\/audio\/40230889.mp3?nonce=86645f4e0bbc5c065c31f1f3618f3cc7","cover":"","updatetime":"1697698279","height":0,"width":0,"video":"","sort":0,"version":157,"cover2":"","appkey":"init","duration":1,"extra":{},"polyglot":[],"category":"27108401,","audit":0,"is_ugc":0,"type":"audio"},{"id":"1019849","ufid":"56114262","name":"\u771f\u9999","file":"http:\/\/rdfile.oss-cn-hangzhou.aliyuncs.com\/filemanage\/init\/audio\/56114262.mp3?nonce=cfcd208495d565ef66e7dff9f98764da","cover":"http:\/\/rdfile.oss-cn-hangzhou.aliyuncs.com\/filemanage\/init\/audio\/56114262.jpeg?nonce=cfcd208495d565ef66e7dff9f98764da","updatetime":"0","height":0,"width":0,"video":"","sort":0,"version":0,"cover2":"","appkey":"init","duration":1,"extra":{},"polyglot":[],"category":"0","audit":0,"is_ugc":0,"type":"audio"},{"id":"1019848","ufid":"96284025","name":"\u9047\u5230\u51e1\u4e8b\u4e0d\u8981\u614c","file":"http:\/\/rdfile.oss-cn-hangzhou.aliyuncs.com\/filemanage\/init\/audio\/96284025.mp3?nonce=cfcd208495d565ef66e7dff9f98764da","cover":"http:\/\/rdfile.oss-cn-hangzhou.aliyuncs.com\/filemanage\/init\/audio\/96284025.jpeg?nonce=cfcd208495d565ef66e7dff9f98764da","updatetime":"0","height":0,"width":0,"video":"","sort":0,"version":0,"cover2":"","appkey":"init","duration":6,"extra":{},"polyglot":[],"category":"0","audit":0,"is_ugc":0,"type":"audio"},{"id":"1019847","ufid":"46043140","name":"\u5f71\u7247\u8f6c\u573a","file":"http:\/\/rdfile.oss-cn-hangzhou.aliyuncs.com\/filemanage\/init\/audio\/46043140.mp3?nonce=cfcd208495d565ef66e7dff9f98764da","cover":"http:\/\/rdfile.oss-cn-hangzhou.aliyuncs.com\/filemanage\/init\/audio\/46043140.jpeg?nonce=cfcd208495d565ef66e7dff9f98764da","updatetime":"0","height":0,"width":0,"video":"","sort":0,"version":0,"cover2":"","appkey":"init","duration":9,"extra":{},"polyglot":[],"category":"0","audit":0,"is_ugc":0,"type":"audio"},{"id":"1019846","ufid":"28924851","name":"\u7591\u95ee-\u554a\uff1f","file":"http:\/\/rdfile.oss-cn-hangzhou.aliyuncs.com\/filemanage\/init\/audio\/28924851.mp3?nonce=cfcd208495d565ef66e7dff9f98764da","cover":"http:\/\/rdfile.oss-cn-hangzhou.aliyuncs.com\/filemanage\/init\/audio\/28924851.jpeg?nonce=cfcd208495d565ef66e7dff9f98764da","updatetime":"0","height":0,"width":0,"video":"","sort":0,"version":0,"cover2":"","appkey":"init","duration":1,"extra":{},"polyglot":[],"category":"0","audit":0,"is_ugc":0,"type":"audio"},{"id":"1019845","ufid":"82903959","name":"\u4e00\u4f1a\u6ef4\uff5e\u54c8\u54c8\u54c8","file":"http:\/\/rdfile.oss-cn-hangzhou.aliyuncs.com\/filemanage\/init\/audio\/82903959.mp3?nonce=cfcd208495d565ef66e7dff9f98764da","cover":"http:\/\/rdfile.oss-cn-hangzhou.aliyuncs.com\/filemanage\/init\/audio\/82903959.jpeg?nonce=cfcd208495d565ef66e7dff9f98764da","updatetime":"0","height":0,"width":0,"video":"","sort":0,"version":0,"cover2":"","appkey":"init","duration":14,"extra":{},"polyglot":[],"category":"0","audit":0,"is_ugc":0,"type":"audio"},{"id":"1019844","ufid":"47396455","name":"\u5174\u594b\u7684\u53eb\u558a","file":"http:\/\/rdfile.oss-cn-hangzhou.aliyuncs.com\/filemanage\/init\/audio\/47396455.mp3?nonce=cfcd208495d565ef66e7dff9f98764da","cover":"http:\/\/rdfile.oss-cn-hangzhou.aliyuncs.com\/filemanage\/init\/audio\/47396455.jpeg?nonce=cfcd208495d565ef66e7dff9f98764da","updatetime":"0","height":0,"width":0,"video":"","sort":0,"version":0,"cover2":"","appkey":"init","duration":6,"extra":{},"polyglot":[],"category":"0","audit":0,"is_ugc":0,"type":"audio"},{"id":"1019843","ufid":"47913879","name":"\u5c0f\u9ec4\u4eba\u7b11","file":"http:\/\/rdfile.oss-cn-hangzhou.aliyuncs.com\/filemanage\/init\/audio\/47913879.mp3?nonce=cfcd208495d565ef66e7dff9f98764da","cover":"http:\/\/rdfile.oss-cn-hangzhou.aliyuncs.com\/filemanage\/init\/audio\/47913879.jpeg?nonce=cfcd208495d565ef66e7dff9f98764da","updatetime":"0","height":0,"width":0,"video":"","sort":0,"version":0,"cover2":"","appkey":"init","duration":4,"extra":{},"polyglot":[],"category":"0","audit":0,"is_ugc":0,"type":"audio"},{"id":"1019842","ufid":"21791041","name":"\u6211\u592a\u96be\u4e86","file":"http:\/\/rdfile.oss-cn-hangzhou.aliyuncs.com\/filemanage\/init\/audio\/21791041.mp3?nonce=cfcd208495d565ef66e7dff9f98764da","cover":"http:\/\/rdfile.oss-cn-hangzhou.aliyuncs.com\/filemanage\/init\/audio\/21791041.jpeg?nonce=cfcd208495d565ef66e7dff9f98764da","updatetime":"0","height":0,"width":0,"video":"","sort":0,"version":0,"cover2":"","appkey":"init","duration":2,"extra":{},"polyglot":[],"category":"0","audit":0,"is_ugc":0,"type":"audio"}]}}