{"code":0,"msg":"success","data":{"total":283,"per_page":20,"current_page":6,"last_page":15,"data":[{"id":"1024327","ufid":"67802898","name":"\u4e0a\u73ed\u4e11\u5173\u6211\u4e0b\u73ed\u4ec0\u4e48\u4e8b\u554a","file":"http:\/\/rdfile.oss-cn-hangzhou.aliyuncs.com\/filemanage\/init\/audio\/67802898.mp3?nonce=1f61fbd2300f21e1c35b264e668bdac1","cover":"","updatetime":"1697698255","height":0,"width":0,"video":"","sort":0,"version":157,"cover2":"","appkey":"init","duration":10,"extra":{},"polyglot":[],"category":"40610022,","audit":0,"is_ugc":0,"type":"audio"},{"id":"1024326","ufid":"95875289","name":"\u5c71\u6b4c\u7248\u751f\u65e5\u5feb\u4e50","file":"http:\/\/rdfile.oss-cn-hangzhou.aliyuncs.com\/filemanage\/init\/audio\/95875289.mp3?nonce=1f61fbd2300f21e1c35b264e668bdac1","cover":"","updatetime":"1697698255","height":0,"width":0,"video":"","sort":0,"version":157,"cover2":"","appkey":"init","duration":17,"extra":{},"polyglot":[],"category":"40610022,","audit":0,"is_ugc":0,"type":"audio"},{"id":"1024325","ufid":"64850255","name":"\u4e09\u53e5\u8bdd\u8ba9\u7537\u4eba\u4e3a\u6211\u82b1\u4e8618\u4e07","file":"http:\/\/rdfile.oss-cn-hangzhou.aliyuncs.com\/filemanage\/init\/audio\/64850255.mp3?nonce=1f61fbd2300f21e1c35b264e668bdac1","cover":"","updatetime":"1697698255","height":0,"width":0,"video":"","sort":0,"version":157,"cover2":"","appkey":"init","duration":7,"extra":{},"polyglot":[],"category":"40610022,","audit":0,"is_ugc":0,"type":"audio"},{"id":"1024324","ufid":"89189048","name":"\u4e09\u767e\u591a\u533b\u4fdd \u6211\u662f\u4e0d\u4f1a\u4ea4","file":"http:\/\/rdfile.oss-cn-hangzhou.aliyuncs.com\/filemanage\/init\/audio\/89189048.mp3?nonce=1f61fbd2300f21e1c35b264e668bdac1","cover":"","updatetime":"1697698255","height":0,"width":0,"video":"","sort":0,"version":157,"cover2":"","appkey":"init","duration":20,"extra":{},"polyglot":[],"category":"40610022,","audit":0,"is_ugc":0,"type":"audio"},{"id":"1024323","ufid":"91865962","name":"\u82e5\u628a\u4f60\u6bd4\u4f5c\u72d7","file":"http:\/\/rdfile.oss-cn-hangzhou.aliyuncs.com\/filemanage\/init\/audio\/91865962.mp3?nonce=1f61fbd2300f21e1c35b264e668bdac1","cover":"","updatetime":"1697698255","height":0,"width":0,"video":"","sort":0,"version":157,"cover2":"","appkey":"init","duration":19,"extra":{},"polyglot":[],"category":"40610022,","audit":0,"is_ugc":0,"type":"audio"},{"id":"1024322","ufid":"12341149","name":"\u5982\u679c\u5728\u5341\u516b \u6211\u6ca1\u80fd\u9001\u4f60\u82b1","file":"http:\/\/rdfile.oss-cn-hangzhou.aliyuncs.com\/filemanage\/init\/audio\/12341149.mp3?nonce=2ab4ded41b656df58803dfff45b9b871","cover":"","updatetime":"1697698254","height":0,"width":0,"video":"","sort":0,"version":157,"cover2":"","appkey":"init","duration":15,"extra":{},"polyglot":[],"category":"40610022,","audit":0,"is_ugc":0,"type":"audio"},{"id":"1024321","ufid":"45838910","name":"\u5bb9\u5b37\u5b37\u662f\u8c01\u6d3e\u4f60\u6765\u52fe\u5f15","file":"http:\/\/rdfile.oss-cn-hangzhou.aliyuncs.com\/filemanage\/init\/audio\/45838910.mp3?nonce=2ab4ded41b656df58803dfff45b9b871","cover":"","updatetime":"1697698254","height":0,"width":0,"video":"","sort":0,"version":157,"cover2":"","appkey":"init","duration":5,"extra":{},"polyglot":[],"category":"40610022,","audit":0,"is_ugc":0,"type":"audio"},{"id":"1024320","ufid":"43669600","name":"\u65e5\u8bed-\u4f60\u603b\u8bf4\u4f60\u662f\u7834\u788e\u7684","file":"http:\/\/rdfile.oss-cn-hangzhou.aliyuncs.com\/filemanage\/init\/audio\/43669600.mp3?nonce=2ab4ded41b656df58803dfff45b9b871","cover":"","updatetime":"1697698254","height":0,"width":0,"video":"","sort":0,"version":157,"cover2":"","appkey":"init","duration":7,"extra":{},"polyglot":[],"category":"40610022,","audit":0,"is_ugc":0,"type":"audio"},{"id":"1024319","ufid":"28868320","name":"\u5168\u4e16\u754c\u90fd\u559c\u6b22\u4f60\u8fd9\u6837\u7684\u5973\u5b69","file":"http:\/\/rdfile.oss-cn-hangzhou.aliyuncs.com\/filemanage\/init\/audio\/28868320.mp3?nonce=2ab4ded41b656df58803dfff45b9b871","cover":"","updatetime":"1697698254","height":0,"width":0,"video":"","sort":0,"version":157,"cover2":"","appkey":"init","duration":16,"extra":{},"polyglot":[],"category":"40610022,","audit":0,"is_ugc":0,"type":"audio"},{"id":"1024318","ufid":"93745402","name":"\u9752\u6d77\u6447","file":"http:\/\/rdfile.oss-cn-hangzhou.aliyuncs.com\/filemanage\/init\/audio\/93745402.mp3?nonce=f4126660b6c7f041318204e4e3dde420","cover":"","updatetime":"1697698253","height":0,"width":0,"video":"","sort":0,"version":157,"cover2":"","appkey":"init","duration":27,"extra":{},"polyglot":[],"category":"40610022,","audit":0,"is_ugc":0,"type":"audio"},{"id":"1024317","ufid":"19744160","name":"\u8304\u5b50\u54ed\u9a6c","file":"http:\/\/rdfile.oss-cn-hangzhou.aliyuncs.com\/filemanage\/init\/audio\/19744160.mp3?nonce=112c8da0a04116a13a74b31a69524e59","cover":"","updatetime":"1697698299","height":0,"width":0,"video":"","sort":0,"version":157,"cover2":"","appkey":"init","duration":21,"extra":{},"polyglot":[],"category":"40610022,","audit":0,"is_ugc":0,"type":"audio"},{"id":"1024316","ufid":"71988646","name":"\u5899\u4e0a\u83ab\u540d\u51fa\u73b0\u4e00\u4e2a\u6d1e\uff0c\u7537","file":"http:\/\/rdfile.oss-cn-hangzhou.aliyuncs.com\/filemanage\/init\/audio\/71988646.mp3?nonce=f4126660b6c7f041318204e4e3dde420","cover":"","updatetime":"1697698253","height":0,"width":0,"video":"","sort":0,"version":157,"cover2":"","appkey":"init","duration":14,"extra":{},"polyglot":[],"category":"40610022,","audit":0,"is_ugc":0,"type":"audio"},{"id":"1024315","ufid":"29699161","name":"\u7f8c\u65cf\u5c0f\u715e\u6768\u8fea","file":"http:\/\/rdfile.oss-cn-hangzhou.aliyuncs.com\/filemanage\/init\/audio\/29699161.mp3?nonce=f4126660b6c7f041318204e4e3dde420","cover":"","updatetime":"1697698253","height":0,"width":0,"video":"","sort":0,"version":157,"cover2":"","appkey":"init","duration":14,"extra":{},"polyglot":[],"category":"40610022,","audit":0,"is_ugc":0,"type":"audio"},{"id":"1024314","ufid":"77088140","name":"\u542f\u52a8\u542f\u52a8","file":"http:\/\/rdfile.oss-cn-hangzhou.aliyuncs.com\/filemanage\/init\/audio\/77088140.mp3?nonce=f4126660b6c7f041318204e4e3dde420","cover":"","updatetime":"1697698253","height":0,"width":0,"video":"","sort":0,"version":157,"cover2":"","appkey":"init","duration":4,"extra":{},"polyglot":[],"category":"40610022,","audit":0,"is_ugc":0,"type":"audio"},{"id":"1024313","ufid":"67490603","name":"\u5947\u514b\u5947\u5ba2\u68d2\u68d2","file":"http:\/\/rdfile.oss-cn-hangzhou.aliyuncs.com\/filemanage\/init\/audio\/67490603.mp3?nonce=270b4ce3dbf4a915758dabf7c09813eb","cover":"","updatetime":"1697698252","height":0,"width":0,"video":"","sort":0,"version":157,"cover2":"","appkey":"init","duration":72,"extra":{},"polyglot":[],"category":"40610022,","audit":0,"is_ugc":0,"type":"audio"},{"id":"1024312","ufid":"92146985","name":"\u4e03\u53f0\u6cb3\u8fdb\u884c\u66f2-\u5218\u8001\u6839\u5927\u821e\u53f0","file":"http:\/\/rdfile.oss-cn-hangzhou.aliyuncs.com\/filemanage\/init\/audio\/92146985.mp3?nonce=270b4ce3dbf4a915758dabf7c09813eb","cover":"","updatetime":"1697698252","height":0,"width":0,"video":"","sort":0,"version":157,"cover2":"","appkey":"init","duration":28,"extra":{},"polyglot":[],"category":"40610022,","audit":0,"is_ugc":0,"type":"audio"},{"id":"1024311","ufid":"24368396","name":"\u4e03\u5341\u4e8c\u53d8\u600e\u4e48\u6837\u7684\u53d8","file":"http:\/\/rdfile.oss-cn-hangzhou.aliyuncs.com\/filemanage\/init\/audio\/24368396.mp3?nonce=270b4ce3dbf4a915758dabf7c09813eb","cover":"","updatetime":"1697698252","height":0,"width":0,"video":"","sort":0,"version":157,"cover2":"","appkey":"init","duration":13,"extra":{},"polyglot":[],"category":"40610022,","audit":0,"is_ugc":0,"type":"audio"},{"id":"1024310","ufid":"46260171","name":"\u7834\u9632\u4e86","file":"http:\/\/rdfile.oss-cn-hangzhou.aliyuncs.com\/filemanage\/init\/audio\/46260171.mp3?nonce=270b4ce3dbf4a915758dabf7c09813eb","cover":"","updatetime":"1697698252","height":0,"width":0,"video":"","sort":0,"version":157,"cover2":"","appkey":"init","duration":46,"extra":{},"polyglot":[],"category":"40610022,","audit":0,"is_ugc":0,"type":"audio"},{"id":"1024309","ufid":"99184530","name":"\u55b7\u9999\u7237\u7237","file":"http:\/\/rdfile.oss-cn-hangzhou.aliyuncs.com\/filemanage\/init\/audio\/99184530.mp3?nonce=ca6c82b7fd9166577bcb1230637172d8","cover":"","updatetime":"1697698251","height":0,"width":0,"video":"","sort":0,"version":157,"cover2":"","appkey":"init","duration":1,"extra":{},"polyglot":[],"category":"40610022,","audit":0,"is_ugc":0,"type":"audio"},{"id":"1024308","ufid":"18242608","name":"\u54e6\u55ef\u8c03","file":"http:\/\/rdfile.oss-cn-hangzhou.aliyuncs.com\/filemanage\/init\/audio\/18242608.mp3?nonce=ca6c82b7fd9166577bcb1230637172d8","cover":"","updatetime":"1697698251","height":0,"width":0,"video":"","sort":0,"version":157,"cover2":"","appkey":"init","duration":10,"extra":{},"polyglot":[],"category":"40610022,","audit":0,"is_ugc":0,"type":"audio"}]}}