{"code":0,"msg":"success","data":{"total":102,"per_page":20,"current_page":6,"last_page":6,"data":[{"id":"1005425","ufid":"93767951","name":"Snap","file":"http:\/\/rdfile.oss-cn-hangzhou.aliyuncs.com\/filemanage\/init\/audio\/54\/537d79d59c1b96f09e67b7bb740aacbb\/051142040029a8731b3beec6086a9ba7.mp3?nonce=c4ea9479da3ff27b280c14e98fc33ecc","cover":"","updatetime":"1697698028","height":0,"width":0,"video":"","sort":100,"version":0,"cover2":"","appkey":"init","duration":2,"extra":{},"polyglot":{"en":"Snap"},"category":"79079757,","audit":0,"is_ugc":0,"type":"audio"},{"id":"1005424","ufid":"21035913","name":"The Baby Cries","file":"http:\/\/rdfile.oss-cn-hangzhou.aliyuncs.com\/filemanage\/init\/audio\/54\/50ad1f058ea1110e7d220132678acac0\/bcb95a9409cc11facdedfafd64ff6a4c.mp3?nonce=a68d08c6afa80a698118a96630c73e03","cover":"","updatetime":"1697698044","height":0,"width":0,"video":"","sort":100,"version":0,"cover2":"","appkey":"init","duration":3,"extra":{},"polyglot":{"en":"The Baby Cries"},"category":"79079757,","audit":0,"is_ugc":0,"type":"audio"}]}}