{"code":0,"msg":"success","data":{"total":636,"per_page":10,"current_page":11,"last_page":64,"data":[{"id":"1016481","ufid":"24637396","name":"slow down \u5fa1\u59d0\u7f8e\u62cd","file":"http:\/\/rdfile.oss-cn-hangzhou.aliyuncs.com\/filemanage\/e069b36c568d909f\/templateapi\/16686667022123\/file.zip?nonce=6f6b14ab074633319a63a5ccad2bdf88","cover":"http:\/\/rdfile.oss-cn-hangzhou.aliyuncs.com\/filemanage\/e069b36c568d909f\/templateapi\/16686667022123\/cover.webp?nonce=6f6b14ab074633319a63a5ccad2bdf88","updatetime":"1704185983","height":1224,"width":689,"video":"http:\/\/rdfile.oss-cn-hangzhou.aliyuncs.com\/filemanage\/e069b36c568d909f\/templateapi\/16686667022123\/video.mp4?nonce=6f6b14ab074633319a63a5ccad2bdf88","sort":0,"version":154,"cover2":"","appkey":"init","duration":0,"extra":{},"polyglot":{"en":"Slow down gentle lady beautiful shooting"},"category":"0","audit":0,"is_ugc":0,"text_need":0,"picture_need":0,"video_need":3,"type":"templateapi"},{"id":"1016480","ufid":"75302229","name":"\u751f\u65e5\u795d\u798f\u7f24\u7eb7\u6709\u7231","file":"http:\/\/rdfile.oss-cn-hangzhou.aliyuncs.com\/filemanage\/e069b36c568d909f\/templateapi\/16685919675328\/file.zip?nonce=6f6b14ab074633319a63a5ccad2bdf88","cover":"http:\/\/rdfile.oss-cn-hangzhou.aliyuncs.com\/filemanage\/e069b36c568d909f\/templateapi\/16685919675328\/cover.webp?nonce=6f6b14ab074633319a63a5ccad2bdf88","updatetime":"1704185983","height":1748,"width":983,"video":"http:\/\/rdfile.oss-cn-hangzhou.aliyuncs.com\/filemanage\/e069b36c568d909f\/templateapi\/16685919675328\/video.mp4?nonce=6f6b14ab074633319a63a5ccad2bdf88","sort":0,"version":155,"cover2":"","appkey":"init","duration":0,"extra":{},"polyglot":{"en":"Colorful and loving birthday wishes"},"category":"0","audit":0,"is_ugc":0,"text_need":1,"picture_need":0,"video_need":1,"type":"templateapi"},{"id":"1016479","ufid":"24460523","name":"\u6325\u624b\u53d8\u88c5","file":"http:\/\/rdfile.oss-cn-hangzhou.aliyuncs.com\/filemanage\/e069b36c568d909f\/templateapi\/16685904164711\/file.zip?nonce=6f6b14ab074633319a63a5ccad2bdf88","cover":"http:\/\/rdfile.oss-cn-hangzhou.aliyuncs.com\/filemanage\/e069b36c568d909f\/templateapi\/16685904164711\/cover.webp?nonce=6f6b14ab074633319a63a5ccad2bdf88","updatetime":"1704185983","height":1920,"width":1080,"video":"http:\/\/rdfile.oss-cn-hangzhou.aliyuncs.com\/filemanage\/e069b36c568d909f\/templateapi\/16685904164711\/video.mp4?nonce=6f6b14ab074633319a63a5ccad2bdf88","sort":0,"version":154,"cover2":"","appkey":"6ecb39f1c12f1a35","duration":0,"extra":{},"polyglot":{"en":"Wave and dress up"},"category":"0","audit":0,"is_ugc":0,"text_need":0,"picture_need":0,"video_need":4,"type":"templateapi"},{"id":"1016476","ufid":"74813222","name":"\u7231\u5fc3\u6162\u52a8\u4f5c","file":"http:\/\/rdfile.oss-cn-hangzhou.aliyuncs.com\/filemanage\/e069b36c568d909f\/templateapi\/16685819511180\/file.zip?nonce=6f6b14ab074633319a63a5ccad2bdf88","cover":"http:\/\/rdfile.oss-cn-hangzhou.aliyuncs.com\/filemanage\/e069b36c568d909f\/templateapi\/16685819511180\/cover.webp?nonce=6f6b14ab074633319a63a5ccad2bdf88","updatetime":"1704185983","height":1225,"width":690,"video":"http:\/\/rdfile.oss-cn-hangzhou.aliyuncs.com\/filemanage\/e069b36c568d909f\/templateapi\/16685819511180\/video.mp4?nonce=6f6b14ab074633319a63a5ccad2bdf88","sort":0,"version":154,"cover2":"","appkey":"init","duration":0,"extra":{},"polyglot":{"en":"Love slow motion"},"category":"0","audit":0,"is_ugc":0,"text_need":0,"picture_need":0,"video_need":1,"type":"templateapi"},{"id":"1016475","ufid":"71633968","name":"\u821e\u8e48\u53d8\u88c52","file":"http:\/\/rdfile.oss-cn-hangzhou.aliyuncs.com\/filemanage\/e069b36c568d909f\/templateapi\/16685792483245\/file.zip?nonce=e03f6ac0d4063cb5fceab9012780e0f0","cover":"http:\/\/rdfile.oss-cn-hangzhou.aliyuncs.com\/filemanage\/e069b36c568d909f\/templateapi\/16685792483245\/cover.webp?nonce=e03f6ac0d4063cb5fceab9012780e0f0","updatetime":"1704185982","height":1224,"width":689,"video":"http:\/\/rdfile.oss-cn-hangzhou.aliyuncs.com\/filemanage\/e069b36c568d909f\/templateapi\/16685792483245\/video.mp4?nonce=e03f6ac0d4063cb5fceab9012780e0f0","sort":0,"version":154,"cover2":"","appkey":"6ecb39f1c12f1a35","duration":0,"extra":{},"polyglot":{"en":"Dance Drag 2"},"category":"0","audit":0,"is_ugc":0,"text_need":0,"picture_need":0,"video_need":2,"type":"templateapi"},{"id":"1016472","ufid":"28146392","name":"\u56db\u5b63\u8f6e\u6362","file":"http:\/\/rdfile.oss-cn-hangzhou.aliyuncs.com\/filemanage\/e069b36c568d909f\/templateapi\/16685073824092\/file.zip?nonce=e03f6ac0d4063cb5fceab9012780e0f0","cover":"http:\/\/rdfile.oss-cn-hangzhou.aliyuncs.com\/filemanage\/e069b36c568d909f\/templateapi\/16685073824092\/cover.webp?nonce=e03f6ac0d4063cb5fceab9012780e0f0","updatetime":"1704185982","height":1746,"width":983,"video":"http:\/\/rdfile.oss-cn-hangzhou.aliyuncs.com\/filemanage\/e069b36c568d909f\/templateapi\/16685073824092\/video.mp4?nonce=e03f6ac0d4063cb5fceab9012780e0f0","sort":0,"version":155,"cover2":"","appkey":"init","duration":0,"extra":{},"polyglot":{"en":"Seasonal rotation"},"category":"0","audit":0,"is_ugc":0,"text_need":0,"picture_need":0,"video_need":4,"type":"templateapi"},{"id":"1016471","ufid":"10535667","name":"\u821e\u8e48\u53d8\u88c5","file":"http:\/\/rdfile.oss-cn-hangzhou.aliyuncs.com\/filemanage\/e069b36c568d909f\/templateapi\/16685053305015\/file.zip?nonce=e03f6ac0d4063cb5fceab9012780e0f0","cover":"http:\/\/rdfile.oss-cn-hangzhou.aliyuncs.com\/filemanage\/e069b36c568d909f\/templateapi\/16685053305015\/cover.webp?nonce=e03f6ac0d4063cb5fceab9012780e0f0","updatetime":"1704185982","height":1920,"width":1080,"video":"http:\/\/rdfile.oss-cn-hangzhou.aliyuncs.com\/filemanage\/e069b36c568d909f\/templateapi\/16685053305015\/video.mp4?nonce=e03f6ac0d4063cb5fceab9012780e0f0","sort":0,"version":154,"cover2":"","appkey":"6ecb39f1c12f1a35","duration":0,"extra":{},"polyglot":{"en":"Dance drag"},"category":"0","audit":0,"is_ugc":0,"text_need":0,"picture_need":0,"video_need":2,"type":"templateapi"},{"id":"1016467","ufid":"24804304","name":"good time \u53d8\u88c5","file":"http:\/\/rdfile.oss-cn-hangzhou.aliyuncs.com\/filemanage\/e069b36c568d909f\/templateapi\/16684966905914\/file.zip?nonce=e03f6ac0d4063cb5fceab9012780e0f0","cover":"http:\/\/rdfile.oss-cn-hangzhou.aliyuncs.com\/filemanage\/e069b36c568d909f\/templateapi\/16684966905914\/cover.webp?nonce=e03f6ac0d4063cb5fceab9012780e0f0","updatetime":"1704185982","height":1225,"width":689,"video":"http:\/\/rdfile.oss-cn-hangzhou.aliyuncs.com\/filemanage\/e069b36c568d909f\/templateapi\/16684966905914\/video.mp4?nonce=e03f6ac0d4063cb5fceab9012780e0f0","sort":0,"version":154,"cover2":"","appkey":"6ecb39f1c12f1a35","duration":0,"extra":{},"polyglot":{"en":"Good time crossdressing"},"category":"0","audit":0,"is_ugc":0,"text_need":1,"picture_need":0,"video_need":3,"type":"templateapi"},{"id":"1016461","ufid":"96427082","name":"yummy \u821e\u8e48","file":"http:\/\/rdfile.oss-cn-hangzhou.aliyuncs.com\/filemanage\/e069b36c568d909f\/templateapi\/16684848066191\/file.zip?nonce=5a79e0ae5b7d1f4ddb9f3d15f74b7b9d","cover":"http:\/\/rdfile.oss-cn-hangzhou.aliyuncs.com\/filemanage\/e069b36c568d909f\/templateapi\/16684848066191\/cover.webp?nonce=5a79e0ae5b7d1f4ddb9f3d15f74b7b9d","updatetime":"1704185981","height":1225,"width":689,"video":"http:\/\/rdfile.oss-cn-hangzhou.aliyuncs.com\/filemanage\/e069b36c568d909f\/templateapi\/16684848066191\/video.mp4?nonce=5a79e0ae5b7d1f4ddb9f3d15f74b7b9d","sort":0,"version":154,"cover2":"","appkey":"6ecb39f1c12f1a35","duration":0,"extra":{},"polyglot":{"en":"Yummy dance"},"category":"0","audit":0,"is_ugc":0,"text_need":0,"picture_need":0,"video_need":1,"type":"templateapi"},{"id":"1016458","ufid":"20653636","name":"Moody \u6162\u52a8\u4f5c","file":"http:\/\/rdfile.oss-cn-hangzhou.aliyuncs.com\/filemanage\/e069b36c568d909f\/templateapi\/16684203082635\/file.zip?nonce=5a79e0ae5b7d1f4ddb9f3d15f74b7b9d","cover":"http:\/\/rdfile.oss-cn-hangzhou.aliyuncs.com\/filemanage\/e069b36c568d909f\/templateapi\/16684203082635\/cover.webp?nonce=5a79e0ae5b7d1f4ddb9f3d15f74b7b9d","updatetime":"1704185981","height":1225,"width":689,"video":"http:\/\/rdfile.oss-cn-hangzhou.aliyuncs.com\/filemanage\/e069b36c568d909f\/templateapi\/16684203082635\/video.mp4?nonce=5a79e0ae5b7d1f4ddb9f3d15f74b7b9d","sort":0,"version":154,"cover2":"","appkey":"init","duration":0,"extra":{},"polyglot":{"en":"Moody slow motion"},"category":"0","audit":0,"is_ugc":0,"text_need":1,"picture_need":0,"video_need":1,"type":"templateapi"}]}}