{"code":0,"msg":"success","data":{"total":636,"per_page":10,"current_page":33,"last_page":64,"data":[{"id":"1014976","ufid":"10148692","name":"\u6bd5\u4e1a","file":"http:\/\/rdfile.oss-cn-hangzhou.aliyuncs.com\/filemanage\/e069b36c568d909f\/templateapi\/16518957355458\/file.zip?nonce=28315d5bd5a33be548620e468442e3ac","cover":"http:\/\/rdfile.oss-cn-hangzhou.aliyuncs.com\/filemanage\/e069b36c568d909f\/templateapi\/16518957355458\/cover.webp?nonce=28315d5bd5a33be548620e468442e3ac","updatetime":"1704185860","height":633,"width":1125,"video":"http:\/\/rdfile.oss-cn-hangzhou.aliyuncs.com\/filemanage\/e069b36c568d909f\/templateapi\/16518957355458\/video.mp4?nonce=28315d5bd5a33be548620e468442e3ac","sort":0,"version":152,"cover2":"","appkey":"init","duration":0,"extra":{},"polyglot":{"en":"Graduate"},"category":"0","audit":0,"is_ugc":0,"text_need":0,"picture_need":0,"video_need":4,"type":"templateapi"},{"id":"1014974","ufid":"65247484","name":"\u56de\u5fc6\u95ea\u73b0","file":"http:\/\/rdfile.oss-cn-hangzhou.aliyuncs.com\/filemanage\/e069b36c568d909f\/templateapi\/16518928688526\/file.zip?nonce=28315d5bd5a33be548620e468442e3ac","cover":"http:\/\/rdfile.oss-cn-hangzhou.aliyuncs.com\/filemanage\/e069b36c568d909f\/templateapi\/16518928688526\/cover.webp?nonce=28315d5bd5a33be548620e468442e3ac","updatetime":"1704185860","height":675,"width":1080,"video":"http:\/\/rdfile.oss-cn-hangzhou.aliyuncs.com\/filemanage\/e069b36c568d909f\/templateapi\/16518928688526\/video.mp4?nonce=28315d5bd5a33be548620e468442e3ac","sort":0,"version":152,"cover2":"","appkey":"init","duration":0,"extra":{},"polyglot":{"en":"Flashbacks"},"category":"0","audit":0,"is_ugc":0,"text_need":0,"picture_need":0,"video_need":10,"type":"templateapi"},{"id":"1014973","ufid":"30623120","name":"\u6bcd\u4eb2\u8282","file":"http:\/\/rdfile.oss-cn-hangzhou.aliyuncs.com\/filemanage\/e069b36c568d909f\/templateapi\/16518921674797\/file.zip?nonce=bc69b6e102f0d6bfb3ab25b40375bdd5","cover":"http:\/\/rdfile.oss-cn-hangzhou.aliyuncs.com\/filemanage\/e069b36c568d909f\/templateapi\/16518921674797\/cover.webp?nonce=bc69b6e102f0d6bfb3ab25b40375bdd5","updatetime":"1704185859","height":1231,"width":693,"video":"http:\/\/rdfile.oss-cn-hangzhou.aliyuncs.com\/filemanage\/e069b36c568d909f\/templateapi\/16518921674797\/video.mp4?nonce=bc69b6e102f0d6bfb3ab25b40375bdd5","sort":0,"version":152,"cover2":"","appkey":"init","duration":0,"extra":{},"polyglot":{"en":"Mother"},"category":"0","audit":0,"is_ugc":0,"text_need":2,"picture_need":0,"video_need":1,"type":"templateapi"},{"id":"1014970","ufid":"62064932","name":"\u5e7c\u513f\u56ed\u6bd5\u4e1a\u5b63","file":"http:\/\/rdfile.oss-cn-hangzhou.aliyuncs.com\/filemanage\/e069b36c568d909f\/templateapi\/16518290141542\/file.zip?nonce=bc69b6e102f0d6bfb3ab25b40375bdd5","cover":"http:\/\/rdfile.oss-cn-hangzhou.aliyuncs.com\/filemanage\/e069b36c568d909f\/templateapi\/16518290141542\/cover.webp?nonce=bc69b6e102f0d6bfb3ab25b40375bdd5","updatetime":"1704185859","height":1280,"width":720,"video":"http:\/\/rdfile.oss-cn-hangzhou.aliyuncs.com\/filemanage\/e069b36c568d909f\/templateapi\/16518290141542\/video.mp4?nonce=bc69b6e102f0d6bfb3ab25b40375bdd5","sort":0,"version":153,"cover2":"","appkey":"init","duration":0,"extra":{},"polyglot":{"en":"Kindergarten Graduation Season"},"category":"0","audit":0,"is_ugc":0,"text_need":0,"picture_need":0,"video_need":10,"type":"templateapi"},{"id":"1014964","ufid":"27191281","name":"\u70ab\u9177\u79d1\u6280\u611f\u5f00\u573a","file":"http:\/\/rdfile.oss-cn-hangzhou.aliyuncs.com\/filemanage\/e069b36c568d909f\/templateapi\/16517392566446\/file.zip?nonce=bc69b6e102f0d6bfb3ab25b40375bdd5","cover":"http:\/\/rdfile.oss-cn-hangzhou.aliyuncs.com\/filemanage\/e069b36c568d909f\/templateapi\/16517392566446\/cover.webp?nonce=bc69b6e102f0d6bfb3ab25b40375bdd5","updatetime":"1704185859","height":607,"width":1080,"video":"http:\/\/rdfile.oss-cn-hangzhou.aliyuncs.com\/filemanage\/e069b36c568d909f\/templateapi\/16517392566446\/video.mp4?nonce=bc69b6e102f0d6bfb3ab25b40375bdd5","sort":0,"version":152,"cover2":"","appkey":"init","duration":0,"extra":{},"polyglot":{"en":"Opening with a cool sense of technology"},"category":"0","audit":0,"is_ugc":0,"text_need":0,"picture_need":0,"video_need":1,"type":"templateapi"},{"id":"1014962","ufid":"94035569","name":"\u7acb\u590f","file":"http:\/\/rdfile.oss-cn-hangzhou.aliyuncs.com\/filemanage\/e069b36c568d909f\/templateapi\/16517215641831\/file.zip?nonce=bc69b6e102f0d6bfb3ab25b40375bdd5","cover":"http:\/\/rdfile.oss-cn-hangzhou.aliyuncs.com\/filemanage\/e069b36c568d909f\/templateapi\/16517215641831\/cover.webp?nonce=bc69b6e102f0d6bfb3ab25b40375bdd5","updatetime":"1704185859","height":1231,"width":693,"video":"http:\/\/rdfile.oss-cn-hangzhou.aliyuncs.com\/filemanage\/e069b36c568d909f\/templateapi\/16517215641831\/video.mp4?nonce=bc69b6e102f0d6bfb3ab25b40375bdd5","sort":0,"version":152,"cover2":"","appkey":"init","duration":0,"extra":{},"polyglot":{"en":"Beginning of Summer"},"category":"0","audit":0,"is_ugc":0,"text_need":3,"picture_need":0,"video_need":1,"type":"templateapi"},{"id":"1014961","ufid":"96473688","name":"\u6211\u4e0d\u60f3\u751f\u513f\u5b50","file":"http:\/\/rdfile.oss-cn-hangzhou.aliyuncs.com\/filemanage\/e069b36c568d909f\/templateapi\/16512025237361\/file.zip?nonce=bc69b6e102f0d6bfb3ab25b40375bdd5","cover":"http:\/\/rdfile.oss-cn-hangzhou.aliyuncs.com\/filemanage\/e069b36c568d909f\/templateapi\/16512025237361\/cover.webp?nonce=bc69b6e102f0d6bfb3ab25b40375bdd5","updatetime":"1704185859","height":1280,"width":720,"video":"http:\/\/rdfile.oss-cn-hangzhou.aliyuncs.com\/filemanage\/e069b36c568d909f\/templateapi\/16512025237361\/video.mp4?nonce=bc69b6e102f0d6bfb3ab25b40375bdd5","sort":0,"version":152,"cover2":"","appkey":"init","duration":0,"extra":{},"polyglot":{"en":"I don"},"category":"0","audit":0,"is_ugc":0,"text_need":0,"picture_need":0,"video_need":4,"type":"templateapi"},{"id":"1014921","ufid":"49078899","name":"\u5929\u7a7a\u4e4b\u955c","file":"http:\/\/rdfile.oss-cn-hangzhou.aliyuncs.com\/filemanage\/e069b36c568d909f\/templateapi\/16510276011154\/file.zip?nonce=e2f35420303d38f3f1cfed16bd48d77c","cover":"http:\/\/rdfile.oss-cn-hangzhou.aliyuncs.com\/filemanage\/e069b36c568d909f\/templateapi\/16510276011154\/cover.webp?nonce=e2f35420303d38f3f1cfed16bd48d77c","updatetime":"1704185854","height":1060,"width":596,"video":"http:\/\/rdfile.oss-cn-hangzhou.aliyuncs.com\/filemanage\/e069b36c568d909f\/templateapi\/16510276011154\/video.mp4?nonce=e2f35420303d38f3f1cfed16bd48d77c","sort":0,"version":152,"cover2":"","appkey":"init","duration":0,"extra":{},"polyglot":{"en":"Sky Mirror"},"category":"0","audit":0,"is_ugc":0,"text_need":0,"picture_need":0,"video_need":2,"type":"templateapi"},{"id":"1014915","ufid":"13735608","name":"\u7535\u89c6\u5f00\u573a","file":"http:\/\/rdfile.oss-cn-hangzhou.aliyuncs.com\/filemanage\/e069b36c568d909f\/templateapi\/16510251755670\/file.zip?nonce=b8513803fc624aac9b787ff878f77d22","cover":"http:\/\/rdfile.oss-cn-hangzhou.aliyuncs.com\/filemanage\/e069b36c568d909f\/templateapi\/16510251755670\/cover.webp?nonce=b8513803fc624aac9b787ff878f77d22","updatetime":"1704185853","height":633,"width":1125,"video":"http:\/\/rdfile.oss-cn-hangzhou.aliyuncs.com\/filemanage\/e069b36c568d909f\/templateapi\/16510251755670\/video.mp4?nonce=b8513803fc624aac9b787ff878f77d22","sort":0,"version":152,"cover2":"","appkey":"init","duration":0,"extra":{},"polyglot":{"en":"TV opening"},"category":"0","audit":0,"is_ugc":0,"text_need":0,"picture_need":0,"video_need":1,"type":"templateapi"},{"id":"1014884","ufid":"52589959","name":"\u5361\u7247\u76f8\u518c","file":"http:\/\/rdfile.oss-cn-hangzhou.aliyuncs.com\/filemanage\/e069b36c568d909f\/templateapi\/16508559371048\/file.zip?nonce=ec09c7f9ddc955c45bc231645438b8d6","cover":"http:\/\/rdfile.oss-cn-hangzhou.aliyuncs.com\/filemanage\/e069b36c568d909f\/templateapi\/16508559371048\/cover.webp?nonce=ec09c7f9ddc955c45bc231645438b8d6","updatetime":"1704185849","height":720,"width":1278,"video":"http:\/\/rdfile.oss-cn-hangzhou.aliyuncs.com\/filemanage\/e069b36c568d909f\/templateapi\/16508559371048\/video.mp4?nonce=ec09c7f9ddc955c45bc231645438b8d6","sort":0,"version":152,"cover2":"","appkey":"init","duration":0,"extra":{},"polyglot":{"en":"Card album"},"category":"0","audit":0,"is_ugc":0,"text_need":0,"picture_need":23,"video_need":0,"type":"templateapi"}]}}