{"code":0,"msg":"success","data":{"total":636,"per_page":10,"current_page":55,"last_page":64,"data":[{"id":"1012105","ufid":"29448391","name":"\u5206\u8eab","file":"http:\/\/rdfile.oss-cn-hangzhou.aliyuncs.com\/filemanage\/e069b36c568d909f\/templateapi\/16285913128876\/file.zip?nonce=119af0d5405a599c326fdc7657d8ec3c","cover":"http:\/\/rdfile.oss-cn-hangzhou.aliyuncs.com\/filemanage\/e069b36c568d909f\/templateapi\/16285913128876\/cover.png?nonce=119af0d5405a599c326fdc7657d8ec3c&x-oss-process=style\/templateapi","updatetime":"1704185688","height":720,"width":1280,"video":"http:\/\/rdfile.oss-cn-hangzhou.aliyuncs.com\/filemanage\/e069b36c568d909f\/templateapi\/16285913128876\/video.mp4?nonce=119af0d5405a599c326fdc7657d8ec3c","sort":100,"version":147,"cover2":"","appkey":"init","duration":0,"extra":{},"polyglot":{"en":"Clone"},"category":"0","audit":0,"is_ugc":0,"text_need":0,"picture_need":0,"video_need":4,"type":"templateapi"},{"id":"1012090","ufid":"79833664","name":"\u6c34\u73e0\u73bb\u7483\u8868\u767d","file":"http:\/\/rdfile.oss-cn-hangzhou.aliyuncs.com\/filemanage\/e069b36c568d909f\/templateapi\/16282456685085\/file.zip?nonce=cd0756ef3d2eae42efcf10f7f5e1a94d","cover":"http:\/\/rdfile.oss-cn-hangzhou.aliyuncs.com\/filemanage\/e069b36c568d909f\/templateapi\/16282456685085\/cover.png?nonce=cd0756ef3d2eae42efcf10f7f5e1a94d&x-oss-process=style\/templateapi","updatetime":"1704185686","height":1280,"width":720,"video":"http:\/\/rdfile.oss-cn-hangzhou.aliyuncs.com\/filemanage\/e069b36c568d909f\/templateapi\/16282456685085\/video.mp4?nonce=cd0756ef3d2eae42efcf10f7f5e1a94d","sort":100,"version":147,"cover2":"","appkey":"init","duration":0,"extra":{},"polyglot":{"en":"Water drop glass confession"},"category":"0","audit":0,"is_ugc":0,"text_need":0,"picture_need":0,"video_need":1,"type":"templateapi"},{"id":"1012089","ufid":"10966691","name":"\u4e03\u5915\u8868\u767d","file":"http:\/\/rdfile.oss-cn-hangzhou.aliyuncs.com\/filemanage\/e069b36c568d909f\/templateapi\/16282455507966\/file.zip?nonce=cd0756ef3d2eae42efcf10f7f5e1a94d","cover":"http:\/\/rdfile.oss-cn-hangzhou.aliyuncs.com\/filemanage\/e069b36c568d909f\/templateapi\/16282455507966\/cover.png?nonce=cd0756ef3d2eae42efcf10f7f5e1a94d&x-oss-process=style\/templateapi","updatetime":"1704185686","height":1280,"width":720,"video":"http:\/\/rdfile.oss-cn-hangzhou.aliyuncs.com\/filemanage\/e069b36c568d909f\/templateapi\/16282455507966\/video.mp4?nonce=cd0756ef3d2eae42efcf10f7f5e1a94d","sort":100,"version":147,"cover2":"","appkey":"init","duration":0,"extra":{},"polyglot":{"en":"Confession on Chinese Valentine"},"category":"0","audit":0,"is_ugc":0,"text_need":0,"picture_need":0,"video_need":2,"type":"templateapi"},{"id":"1012088","ufid":"21578725","name":"\u516d\u5bab\u683c","file":"http:\/\/rdfile.oss-cn-hangzhou.aliyuncs.com\/filemanage\/e069b36c568d909f\/templateapi\/16282438573637\/file.zip?nonce=cd0756ef3d2eae42efcf10f7f5e1a94d","cover":"http:\/\/rdfile.oss-cn-hangzhou.aliyuncs.com\/filemanage\/e069b36c568d909f\/templateapi\/16282438573637\/cover.png?nonce=cd0756ef3d2eae42efcf10f7f5e1a94d&x-oss-process=style\/templateapi","updatetime":"1704185686","height":1280,"width":720,"video":"http:\/\/rdfile.oss-cn-hangzhou.aliyuncs.com\/filemanage\/e069b36c568d909f\/templateapi\/16282438573637\/video.mp4?nonce=cd0756ef3d2eae42efcf10f7f5e1a94d","sort":100,"version":147,"cover2":"","appkey":"init","duration":0,"extra":{},"polyglot":{"en":"6 grid"},"category":"0","audit":0,"is_ugc":0,"text_need":0,"picture_need":0,"video_need":7,"type":"templateapi"},{"id":"1012082","ufid":"51036485","name":"\u753b\u9762\u7ffb\u65b0","file":"http:\/\/rdfile.oss-cn-hangzhou.aliyuncs.com\/filemanage\/e069b36c568d909f\/templateapi\/16281521706852\/file.zip?nonce=c83dfa9f055ab379172cdc6be3a63bee","cover":"http:\/\/rdfile.oss-cn-hangzhou.aliyuncs.com\/filemanage\/e069b36c568d909f\/templateapi\/16281521706852\/cover.png?nonce=c83dfa9f055ab379172cdc6be3a63bee&x-oss-process=style\/templateapi","updatetime":"1704185685","height":720,"width":1280,"video":"http:\/\/rdfile.oss-cn-hangzhou.aliyuncs.com\/filemanage\/e069b36c568d909f\/templateapi\/16281521706852\/video.mp4?nonce=c83dfa9f055ab379172cdc6be3a63bee","sort":100,"version":147,"cover2":"","appkey":"init","duration":0,"extra":{},"polyglot":{"en":"Screen renovation"},"category":"0","audit":0,"is_ugc":0,"text_need":0,"picture_need":0,"video_need":16,"type":"templateapi"},{"id":"1012078","ufid":"76119455","name":"\u5c0f\u57ce\u5c0f\u7231","file":"http:\/\/rdfile.oss-cn-hangzhou.aliyuncs.com\/filemanage\/e069b36c568d909f\/templateapi\/16281466646563\/file.zip?nonce=fb14c386a3d2de598a0fe525e90c1dba","cover":"http:\/\/rdfile.oss-cn-hangzhou.aliyuncs.com\/filemanage\/e069b36c568d909f\/templateapi\/16281466646563\/cover.png?nonce=fb14c386a3d2de598a0fe525e90c1dba&x-oss-process=style\/templateapi","updatetime":"1704185684","height":1280,"width":720,"video":"http:\/\/rdfile.oss-cn-hangzhou.aliyuncs.com\/filemanage\/e069b36c568d909f\/templateapi\/16281466646563\/video.mp4?nonce=fb14c386a3d2de598a0fe525e90c1dba","sort":100,"version":147,"cover2":"","appkey":"init","duration":0,"extra":{},"polyglot":{"en":"Small town little love"},"category":"0","audit":0,"is_ugc":0,"text_need":8,"picture_need":0,"video_need":4,"type":"templateapi"},{"id":"1012051","ufid":"27060041","name":"Marry me","file":"http:\/\/rdfile.oss-cn-hangzhou.aliyuncs.com\/filemanage\/e069b36c568d909f\/templateapi\/16280482352115\/file.zip?nonce=8066f89f023813fbe5d8fef1817f9fef","cover":"http:\/\/rdfile.oss-cn-hangzhou.aliyuncs.com\/filemanage\/e069b36c568d909f\/templateapi\/16280482352115\/cover.png?nonce=8066f89f023813fbe5d8fef1817f9fef&x-oss-process=style\/templateapi","updatetime":"1704185681","height":1280,"width":720,"video":"http:\/\/rdfile.oss-cn-hangzhou.aliyuncs.com\/filemanage\/e069b36c568d909f\/templateapi\/16280482352115\/video.mp4?nonce=8066f89f023813fbe5d8fef1817f9fef","sort":100,"version":147,"cover2":"","appkey":"init","duration":0,"extra":{},"polyglot":{"en":"Marry me"},"category":"0","audit":0,"is_ugc":0,"text_need":10,"picture_need":0,"video_need":10,"type":"templateapi"},{"id":"1012048","ufid":"86929988","name":"\u56db\u5b63\u5982\u4f60","file":"http:\/\/rdfile.oss-cn-hangzhou.aliyuncs.com\/filemanage\/e069b36c568d909f\/templateapi\/16279840951280\/file.zip?nonce=aef0b3d4cc698eefe160612adddf65a5","cover":"http:\/\/rdfile.oss-cn-hangzhou.aliyuncs.com\/filemanage\/e069b36c568d909f\/templateapi\/16279840951280\/cover.png?nonce=aef0b3d4cc698eefe160612adddf65a5&x-oss-process=style\/templateapi","updatetime":"1704185680","height":720,"width":540,"video":"http:\/\/rdfile.oss-cn-hangzhou.aliyuncs.com\/filemanage\/e069b36c568d909f\/templateapi\/16279840951280\/video.mp4?nonce=aef0b3d4cc698eefe160612adddf65a5","sort":100,"version":147,"cover2":"","appkey":"init","duration":0,"extra":{},"polyglot":{"en":"Four seasons like you"},"category":"0","audit":0,"is_ugc":0,"text_need":2,"picture_need":0,"video_need":8,"type":"templateapi"},{"id":"1012047","ufid":"40287146","name":"\u590d\u53e4\u7eb8\u7247","file":"http:\/\/rdfile.oss-cn-hangzhou.aliyuncs.com\/filemanage\/e069b36c568d909f\/templateapi\/16279838904077\/file.zip?nonce=aef0b3d4cc698eefe160612adddf65a5","cover":"http:\/\/rdfile.oss-cn-hangzhou.aliyuncs.com\/filemanage\/e069b36c568d909f\/templateapi\/16279838904077\/cover.png?nonce=aef0b3d4cc698eefe160612adddf65a5&x-oss-process=style\/templateapi","updatetime":"1704185680","height":1280,"width":1280,"video":"http:\/\/rdfile.oss-cn-hangzhou.aliyuncs.com\/filemanage\/e069b36c568d909f\/templateapi\/16279838904077\/video.mp4?nonce=aef0b3d4cc698eefe160612adddf65a5","sort":100,"version":147,"cover2":"","appkey":"init","duration":0,"extra":{},"polyglot":{"en":"Retro paper"},"category":"0","audit":0,"is_ugc":0,"text_need":0,"picture_need":0,"video_need":7,"type":"templateapi"},{"id":"1012046","ufid":"20699353","name":"\u65e9\u5b89","file":"http:\/\/rdfile.oss-cn-hangzhou.aliyuncs.com\/filemanage\/e069b36c568d909f\/templateapi\/16279789986783\/file.zip?nonce=aef0b3d4cc698eefe160612adddf65a5","cover":"http:\/\/rdfile.oss-cn-hangzhou.aliyuncs.com\/filemanage\/e069b36c568d909f\/templateapi\/16279789986783\/cover.png?nonce=aef0b3d4cc698eefe160612adddf65a5&x-oss-process=style\/templateapi","updatetime":"1704185680","height":720,"width":405,"video":"http:\/\/rdfile.oss-cn-hangzhou.aliyuncs.com\/filemanage\/e069b36c568d909f\/templateapi\/16279789986783\/video.mp4?nonce=aef0b3d4cc698eefe160612adddf65a5","sort":100,"version":147,"cover2":"","appkey":"init","duration":0,"extra":{},"polyglot":{"en":"Good morning"},"category":"0","audit":0,"is_ugc":0,"text_need":3,"picture_need":0,"video_need":1,"type":"templateapi"}]}}