{"code":0,"data":{"current_page":2,"data":[{"appkey":"init","cover":"","cover2":"","duration":7,"file":"https://raw.githubusercontent.com/sjianji/Magic-Cut/main/data/audio/63659883/1024661/92291802.mp3","height":0,"id":"1024661","name":"虫子爬动","pictureNeed":0,"sort":0,"textNeed":0,"type":"audio","ufid":"92291802","updatetime":"1697698345","version":157,"video":"","videoNeed":0,"width":0}],"last_page":2,"per_page":20,"total":21},"msg":"success"}