{"code":0,"msg":"success","data":{"total":84,"per_page":10,"current_page":9,"last_page":9,"data":[{"id":"1011350","ufid":"21984256","name":"\u6c38\u4e0d\u6b62\u6b65","file":"http:\/\/rdfile.oss-cn-hangzhou.aliyuncs.com\/filemanage\/e069b36c568d909f\/templateapi\/16255552605910\/file.zip?nonce=d789c5c474767cc8c2862ef19b96a8c6","cover":"http:\/\/rdfile.oss-cn-hangzhou.aliyuncs.com\/filemanage\/e069b36c568d909f\/templateapi\/16255552605910\/cover.png?nonce=d789c5c474767cc8c2862ef19b96a8c6&x-oss-process=style\/templateapi","updatetime":"1684913157","height":1080,"width":1732,"video":"http:\/\/rdfile.oss-cn-hangzhou.aliyuncs.com\/filemanage\/e069b36c568d909f\/templateapi\/16255552605910\/video.mp4?nonce=d789c5c474767cc8c2862ef19b96a8c6","sort":100,"version":146,"cover2":"","appkey":"init","duration":0,"extra":{},"polyglot":[],"category":"0","audit":0,"is_ugc":0,"text_need":0,"picture_need":0,"video_need":10,"type":"templateapi"},{"id":"1011349","ufid":"50465035","name":"\u6237\u5916\u8fd0\u52a8","file":"http:\/\/rdfile.oss-cn-hangzhou.aliyuncs.com\/filemanage\/e069b36c568d909f\/templateapi\/16255451733201\/file.zip?nonce=8f2786db546033aa3eaa6558fcd022e1","cover":"http:\/\/rdfile.oss-cn-hangzhou.aliyuncs.com\/filemanage\/e069b36c568d909f\/templateapi\/16255451733201\/cover.png?nonce=8f2786db546033aa3eaa6558fcd022e1&x-oss-process=style\/templateapi","updatetime":"1684913145","height":1080,"width":1920,"video":"http:\/\/rdfile.oss-cn-hangzhou.aliyuncs.com\/filemanage\/e069b36c568d909f\/templateapi\/16255451733201\/video.mp4?nonce=8f2786db546033aa3eaa6558fcd022e1","sort":100,"version":146,"cover2":"","appkey":"init","duration":0,"extra":{},"polyglot":[],"category":"0","audit":0,"is_ugc":0,"text_need":0,"picture_need":0,"video_need":10,"type":"templateapi"},{"id":"1011348","ufid":"84861285","name":"\u65c5\u884c\u98ce\u5149","file":"http:\/\/rdfile.oss-cn-hangzhou.aliyuncs.com\/filemanage\/e069b36c568d909f\/templateapi\/16255439354322\/file.zip?nonce=6a826d312ba653dfcf93c45b1d7ce724","cover":"http:\/\/rdfile.oss-cn-hangzhou.aliyuncs.com\/filemanage\/e069b36c568d909f\/templateapi\/16255439354322\/cover.png?nonce=6a826d312ba653dfcf93c45b1d7ce724&x-oss-process=style\/templateapi","updatetime":"1684913128","height":1080,"width":1920,"video":"http:\/\/rdfile.oss-cn-hangzhou.aliyuncs.com\/filemanage\/e069b36c568d909f\/templateapi\/16255439354322\/video.mp4?nonce=6a826d312ba653dfcf93c45b1d7ce724","sort":100,"version":146,"cover2":"","appkey":"init","duration":0,"extra":{},"polyglot":[],"category":"0","audit":0,"is_ugc":0,"text_need":0,"picture_need":0,"video_need":10,"type":"templateapi"},{"id":"1009529","ufid":"57703210","name":"\u8bb0\u5f55\u7f8e\u597d","file":"http:\/\/rdfile.oss-cn-hangzhou.aliyuncs.com\/filemanage\/e069b36c568d909f\/templateapi\/16243344514228\/file.zip?nonce=bcd553a0c841a4e3cf430dcf98b212bf","cover":"http:\/\/rdfile.oss-cn-hangzhou.aliyuncs.com\/filemanage\/e069b36c568d909f\/templateapi\/16243344514228\/cover.png?nonce=bcd553a0c841a4e3cf430dcf98b212bf&x-oss-process=style\/templateapi","updatetime":"1684914233","height":1080,"width":607,"video":"http:\/\/rdfile.oss-cn-hangzhou.aliyuncs.com\/filemanage\/e069b36c568d909f\/templateapi\/16243344514228\/video.mp4?nonce=bcd553a0c841a4e3cf430dcf98b212bf","sort":100,"version":146,"cover2":"","appkey":"init","duration":0,"extra":{},"polyglot":[],"category":"0","audit":0,"is_ugc":0,"text_need":1,"picture_need":9,"video_need":0,"type":"templateapi"}]}}