{"code":0,"msg":"success","data":{"total":636,"per_page":10,"current_page":9,"last_page":64,"data":[{"id":"1016592","ufid":"62929038","name":"\u7279\u6548\u5361\u70b9","file":"http:\/\/rdfile.oss-cn-hangzhou.aliyuncs.com\/filemanage\/e069b36c568d909f\/templateapi\/16697070225219\/file.zip?nonce=19e06328d9dfdab6f1b6342fc1b890c6","cover":"http:\/\/rdfile.oss-cn-hangzhou.aliyuncs.com\/filemanage\/e069b36c568d909f\/templateapi\/16697070225219\/cover.webp?nonce=19e06328d9dfdab6f1b6342fc1b890c6","updatetime":"1704185994","height":1080,"width":1920,"video":"http:\/\/rdfile.oss-cn-hangzhou.aliyuncs.com\/filemanage\/e069b36c568d909f\/templateapi\/16697070225219\/video.mp4?nonce=19e06328d9dfdab6f1b6342fc1b890c6","sort":0,"version":156,"cover2":"","appkey":"init","duration":0,"extra":{},"polyglot":{"en":"Right time effect"},"category":"0","audit":0,"is_ugc":0,"text_need":0,"picture_need":0,"video_need":2,"type":"templateapi"},{"id":"1016589","ufid":"83481027","name":"GiGi \u821e\u8e48","file":"http:\/\/rdfile.oss-cn-hangzhou.aliyuncs.com\/filemanage\/e069b36c568d909f\/templateapi\/16696939534452\/file.zip?nonce=19e06328d9dfdab6f1b6342fc1b890c6","cover":"http:\/\/rdfile.oss-cn-hangzhou.aliyuncs.com\/filemanage\/e069b36c568d909f\/templateapi\/16696939534452\/cover.webp?nonce=19e06328d9dfdab6f1b6342fc1b890c6","updatetime":"1704185994","height":1224,"width":689,"video":"http:\/\/rdfile.oss-cn-hangzhou.aliyuncs.com\/filemanage\/e069b36c568d909f\/templateapi\/16696939534452\/video.mp4?nonce=19e06328d9dfdab6f1b6342fc1b890c6","sort":0,"version":156,"cover2":"","appkey":"6ecb39f1c12f1a35","duration":0,"extra":{},"polyglot":{"en":"GiGi Dance"},"category":"0","audit":0,"is_ugc":0,"text_need":0,"picture_need":0,"video_need":1,"type":"templateapi"},{"id":"1016583","ufid":"61962998","name":"2022\u5361\u5854\u5c14\u4e16\u754c\u676f\u9884\u544a","file":"http:\/\/rdfile.oss-cn-hangzhou.aliyuncs.com\/filemanage\/e069b36c568d909f\/templateapi\/16696277767363\/file.zip?nonce=aa288046de16c5f7a4fedb01a754a337","cover":"http:\/\/rdfile.oss-cn-hangzhou.aliyuncs.com\/filemanage\/e069b36c568d909f\/templateapi\/16696277767363\/cover.webp?nonce=aa288046de16c5f7a4fedb01a754a337","updatetime":"1704185993","height":607,"width":1080,"video":"http:\/\/rdfile.oss-cn-hangzhou.aliyuncs.com\/filemanage\/e069b36c568d909f\/templateapi\/16696277767363\/video.mp4?nonce=aa288046de16c5f7a4fedb01a754a337","sort":0,"version":155,"cover2":"","appkey":"init","duration":0,"extra":{},"polyglot":{"en":"2022 Qatar World Cup Preview"},"category":"0","audit":0,"is_ugc":0,"text_need":2,"picture_need":2,"video_need":0,"type":"templateapi"},{"id":"1016582","ufid":"97014002","name":"\u6211\u77e5\u9053 \u97f3\u4e50\u5b57\u5e55","file":"http:\/\/rdfile.oss-cn-hangzhou.aliyuncs.com\/filemanage\/e069b36c568d909f\/templateapi\/16696242065240\/file.zip?nonce=aa288046de16c5f7a4fedb01a754a337","cover":"http:\/\/rdfile.oss-cn-hangzhou.aliyuncs.com\/filemanage\/e069b36c568d909f\/templateapi\/16696242065240\/cover.webp?nonce=aa288046de16c5f7a4fedb01a754a337","updatetime":"1704185993","height":1080,"width":1920,"video":"http:\/\/rdfile.oss-cn-hangzhou.aliyuncs.com\/filemanage\/e069b36c568d909f\/templateapi\/16696242065240\/video.mp4?nonce=aa288046de16c5f7a4fedb01a754a337","sort":0,"version":156,"cover2":"","appkey":"init","duration":0,"extra":{},"polyglot":{"en":"I know music subtitles"},"category":"0","audit":0,"is_ugc":0,"text_need":0,"picture_need":0,"video_need":8,"type":"templateapi"},{"id":"1016571","ufid":"41633948","name":"\u65d7\u888d\u5178\u96c5\u7f8e\u62cd","file":"http:\/\/rdfile.oss-cn-hangzhou.aliyuncs.com\/filemanage\/e069b36c568d909f\/templateapi\/16693689471795\/file.zip?nonce=4e5e300a4c6e6b4cdf371c1aa97c7624","cover":"http:\/\/rdfile.oss-cn-hangzhou.aliyuncs.com\/filemanage\/e069b36c568d909f\/templateapi\/16693689471795\/cover.webp?nonce=4e5e300a4c6e6b4cdf371c1aa97c7624","updatetime":"1704185991","height":1920,"width":1080,"video":"http:\/\/rdfile.oss-cn-hangzhou.aliyuncs.com\/filemanage\/e069b36c568d909f\/templateapi\/16693689471795\/video.mp4?nonce=4e5e300a4c6e6b4cdf371c1aa97c7624","sort":0,"version":154,"cover2":"","appkey":"init","duration":0,"extra":{},"polyglot":{"en":"Elegant cheongsam photos"},"category":"0","audit":0,"is_ugc":0,"text_need":0,"picture_need":0,"video_need":3,"type":"templateapi"},{"id":"1016569","ufid":"57858410","name":"\u559c\u5e16","file":"http:\/\/rdfile.oss-cn-hangzhou.aliyuncs.com\/filemanage\/e069b36c568d909f\/templateapi\/16693680638790\/file.zip?nonce=4e5e300a4c6e6b4cdf371c1aa97c7624","cover":"http:\/\/rdfile.oss-cn-hangzhou.aliyuncs.com\/filemanage\/e069b36c568d909f\/templateapi\/16693680638790\/cover.webp?nonce=4e5e300a4c6e6b4cdf371c1aa97c7624","updatetime":"1704185991","height":1059,"width":794,"video":"http:\/\/rdfile.oss-cn-hangzhou.aliyuncs.com\/filemanage\/e069b36c568d909f\/templateapi\/16693680638790\/video.mp4?nonce=4e5e300a4c6e6b4cdf371c1aa97c7624","sort":0,"version":155,"cover2":"","appkey":"init","duration":0,"extra":{},"polyglot":{"en":"Wedding invitation"},"category":"0","audit":0,"is_ugc":0,"text_need":5,"picture_need":2,"video_need":0,"type":"templateapi"},{"id":"1016546","ufid":"71695585","name":"\u611f\u6069\u8282\u5361\u724c\u6545\u4e8b","file":"http:\/\/rdfile.oss-cn-hangzhou.aliyuncs.com\/filemanage\/e069b36c568d909f\/templateapi\/16692837325928\/file.zip?nonce=433de8afcf62bb797b0875324be1a12f","cover":"http:\/\/rdfile.oss-cn-hangzhou.aliyuncs.com\/filemanage\/e069b36c568d909f\/templateapi\/16692837325928\/cover.webp?nonce=433de8afcf62bb797b0875324be1a12f","updatetime":"1704185990","height":1059,"width":596,"video":"http:\/\/rdfile.oss-cn-hangzhou.aliyuncs.com\/filemanage\/e069b36c568d909f\/templateapi\/16692837325928\/video.mp4?nonce=433de8afcf62bb797b0875324be1a12f","sort":0,"version":155,"cover2":"","appkey":"init","duration":0,"extra":{},"polyglot":{"en":"Thanksgiving Card Story"},"category":"0","audit":0,"is_ugc":0,"text_need":4,"picture_need":0,"video_need":3,"type":"templateapi"},{"id":"1016545","ufid":"36474929","name":"\u54ce\u5466\u5582 \u97f3\u4e50\u5b57\u5e55","file":"http:\/\/rdfile.oss-cn-hangzhou.aliyuncs.com\/filemanage\/e069b36c568d909f\/templateapi\/16692810239877\/file.zip?nonce=433de8afcf62bb797b0875324be1a12f","cover":"http:\/\/rdfile.oss-cn-hangzhou.aliyuncs.com\/filemanage\/e069b36c568d909f\/templateapi\/16692810239877\/cover.webp?nonce=433de8afcf62bb797b0875324be1a12f","updatetime":"1704185990","height":1080,"width":1920,"video":"http:\/\/rdfile.oss-cn-hangzhou.aliyuncs.com\/filemanage\/e069b36c568d909f\/templateapi\/16692810239877\/video.mp4?nonce=433de8afcf62bb797b0875324be1a12f","sort":0,"version":154,"cover2":"","appkey":"init","duration":0,"extra":{},"polyglot":{"en":"Ouch music subtitles"},"category":"0","audit":0,"is_ugc":0,"text_need":0,"picture_need":0,"video_need":9,"type":"templateapi"},{"id":"1016538","ufid":"97733705","name":"\u5170\u4ead\u5e8f \u97f3\u4e50\u5b57\u5e55","file":"http:\/\/rdfile.oss-cn-hangzhou.aliyuncs.com\/filemanage\/e069b36c568d909f\/templateapi\/16691965677096\/file.zip?nonce=433de8afcf62bb797b0875324be1a12f","cover":"http:\/\/rdfile.oss-cn-hangzhou.aliyuncs.com\/filemanage\/e069b36c568d909f\/templateapi\/16691965677096\/cover.webp?nonce=433de8afcf62bb797b0875324be1a12f","updatetime":"1704185990","height":1080,"width":1920,"video":"http:\/\/rdfile.oss-cn-hangzhou.aliyuncs.com\/filemanage\/e069b36c568d909f\/templateapi\/16691965677096\/video.mp4?nonce=433de8afcf62bb797b0875324be1a12f","sort":0,"version":154,"cover2":"","appkey":"init","duration":0,"extra":{},"polyglot":{"en":"Lanting preface music subtitles"},"category":"0","audit":0,"is_ugc":0,"text_need":0,"picture_need":0,"video_need":5,"type":"templateapi"},{"id":"1016527","ufid":"63480895","name":"\u6885\u5c3c\u8036  \u821e\u8e48\u53d8\u88c5","file":"http:\/\/rdfile.oss-cn-hangzhou.aliyuncs.com\/filemanage\/e069b36c568d909f\/templateapi\/16691102713810\/file.zip?nonce=7c1bfc6ea802138b407dd7d44781a525","cover":"http:\/\/rdfile.oss-cn-hangzhou.aliyuncs.com\/filemanage\/e069b36c568d909f\/templateapi\/16691102713810\/cover.webp?nonce=7c1bfc6ea802138b407dd7d44781a525","updatetime":"1704185988","height":1224,"width":689,"video":"http:\/\/rdfile.oss-cn-hangzhou.aliyuncs.com\/filemanage\/e069b36c568d909f\/templateapi\/16691102713810\/video.mp4?nonce=7c1bfc6ea802138b407dd7d44781a525","sort":0,"version":154,"cover2":"","appkey":"6ecb39f1c12f1a35","duration":0,"extra":{},"polyglot":{"en":"Meunier dance costume"},"category":"0","audit":0,"is_ugc":0,"text_need":0,"picture_need":0,"video_need":2,"type":"templateapi"}]}}