{"code":0,"msg":"success","data":{"total":173,"per_page":10,"current_page":9,"last_page":18,"data":[{"id":"1016032","ufid":"58994978","name":"\u5e26\u8f68\u9053\u5706\u70b9\u6eda\u52a8\u6548\u679c","file":"http:\/\/rdfile.oss-cn-hangzhou.aliyuncs.com\/filemanage\/e069b36c568d909f\/templateapi\/16637295721804\/file.zip?nonce=10b2ebdd266343f51e02240cb53c00b7","cover":"http:\/\/rdfile.oss-cn-hangzhou.aliyuncs.com\/filemanage\/e069b36c568d909f\/templateapi\/16637295721804\/cover.webp?nonce=10b2ebdd266343f51e02240cb53c00b7","updatetime":"1704185934","height":1060,"width":596,"video":"http:\/\/rdfile.oss-cn-hangzhou.aliyuncs.com\/filemanage\/e069b36c568d909f\/templateapi\/16637295721804\/video.mp4?nonce=10b2ebdd266343f51e02240cb53c00b7","sort":0,"version":153,"cover2":"","appkey":"init","duration":0,"extra":{},"polyglot":{"en":"With orbital dot scrolling effect"},"category":"0","audit":0,"is_ugc":0,"text_need":3,"picture_need":0,"video_need":2,"type":"templateapi"},{"id":"1016006","ufid":"63524381","name":"\u900f\u660e\u5fae\u4fe1\u5934\u50cf\u58c1\u7eb8","file":"http:\/\/rdfile.oss-cn-hangzhou.aliyuncs.com\/filemanage\/e069b36c568d909f\/templateapi\/16630611008842\/file.zip?nonce=dc78b83cfe948a457221adb80db0c2e1","cover":"http:\/\/rdfile.oss-cn-hangzhou.aliyuncs.com\/filemanage\/e069b36c568d909f\/templateapi\/16630611008842\/cover.webp?nonce=dc78b83cfe948a457221adb80db0c2e1","updatetime":"1704185930","height":1060,"width":596,"video":"http:\/\/rdfile.oss-cn-hangzhou.aliyuncs.com\/filemanage\/e069b36c568d909f\/templateapi\/16630611008842\/video.mp4?nonce=dc78b83cfe948a457221adb80db0c2e1","sort":0,"version":153,"cover2":"","appkey":"init","duration":0,"extra":{},"polyglot":{"en":"Transparent WeChat avatar wallpaper"},"category":"0","audit":0,"is_ugc":0,"text_need":3,"picture_need":5,"video_need":0,"type":"templateapi"},{"id":"1014865","ufid":"51095182","name":"\u5207\u5272\u8f6c\u573a","file":"http:\/\/rdfile.oss-cn-hangzhou.aliyuncs.com\/filemanage\/e069b36c568d909f\/templateapi\/16504292575499\/file.zip?nonce=b56f25d7e2f99eb78fe4168707f0e216","cover":"http:\/\/rdfile.oss-cn-hangzhou.aliyuncs.com\/filemanage\/e069b36c568d909f\/templateapi\/16504292575499\/cover.webp?nonce=b56f25d7e2f99eb78fe4168707f0e216","updatetime":"1704185847","height":720,"width":960,"video":"http:\/\/rdfile.oss-cn-hangzhou.aliyuncs.com\/filemanage\/e069b36c568d909f\/templateapi\/16504292575499\/video.mp4?nonce=b56f25d7e2f99eb78fe4168707f0e216","sort":0,"version":152,"cover2":"","appkey":"init","duration":0,"extra":{},"polyglot":{"en":"Cut transition"},"category":"0","audit":0,"is_ugc":0,"text_need":0,"picture_need":63,"video_need":0,"type":"templateapi"},{"id":"1014829","ufid":"17786974","name":"\u767e\u53f6\u7a97","file":"http:\/\/rdfile.oss-cn-hangzhou.aliyuncs.com\/filemanage\/e069b36c568d909f\/templateapi\/16500069743006\/file.zip?nonce=b59f4b16f3f3889cd7033b819e543fbf","cover":"http:\/\/rdfile.oss-cn-hangzhou.aliyuncs.com\/filemanage\/e069b36c568d909f\/templateapi\/1650352324839\/cover_e069b36c568d909f.jpg?nonce=b59f4b16f3f3889cd7033b819e543fbf&x-oss-process=style\/templateapi","updatetime":"1704185845","height":720,"width":1278,"video":"http:\/\/rdfile.oss-cn-hangzhou.aliyuncs.com\/filemanage\/e069b36c568d909f\/templateapi\/16500069743006\/video.mp4?nonce=b59f4b16f3f3889cd7033b819e543fbf","sort":0,"version":152,"cover2":"","appkey":"init","duration":0,"extra":{},"polyglot":{"en":"Blinds"},"category":"0","audit":0,"is_ugc":0,"text_need":0,"picture_need":30,"video_need":0,"type":"templateapi"},{"id":"1014651","ufid":"87423526","name":"\u7070\u8272\u8f68\u8ff9","file":"http:\/\/rdfile.oss-cn-hangzhou.aliyuncs.com\/filemanage\/e069b36c568d909f\/templateapi\/16480256115681\/file.zip?nonce=f15a8573ab78e88b0a5142877746f4b4","cover":"http:\/\/rdfile.oss-cn-hangzhou.aliyuncs.com\/filemanage\/e069b36c568d909f\/templateapi\/16480256115681\/cover.png?nonce=f15a8573ab78e88b0a5142877746f4b4&x-oss-process=style\/templateapi","updatetime":"1704185827","height":1280,"width":720,"video":"http:\/\/rdfile.oss-cn-hangzhou.aliyuncs.com\/filemanage\/e069b36c568d909f\/templateapi\/16480256115681\/video.mp4?nonce=f15a8573ab78e88b0a5142877746f4b4","sort":0,"version":150,"cover2":"","appkey":"init","duration":0,"extra":{},"polyglot":{"en":"Gray track"},"category":"0","audit":0,"is_ugc":0,"text_need":0,"picture_need":0,"video_need":1,"type":"templateapi"},{"id":"1014385","ufid":"16512633","name":"\u4f24\u5fc3\u592a\u5e73\u6d0b","file":"http:\/\/rdfile.oss-cn-hangzhou.aliyuncs.com\/filemanage\/e069b36c568d909f\/templateapi\/16461070254187\/file.zip?nonce=b764a590ec87d57f073339eddf647a4c","cover":"http:\/\/rdfile.oss-cn-hangzhou.aliyuncs.com\/filemanage\/e069b36c568d909f\/templateapi\/16461070254187\/cover.png?nonce=b764a590ec87d57f073339eddf647a4c&x-oss-process=style\/templateapi","updatetime":"1704185794","height":1230,"width":692,"video":"http:\/\/rdfile.oss-cn-hangzhou.aliyuncs.com\/filemanage\/e069b36c568d909f\/templateapi\/16461070254187\/video.mp4?nonce=b764a590ec87d57f073339eddf647a4c","sort":0,"version":150,"cover2":"","appkey":"init","duration":0,"extra":{},"polyglot":{"en":"Sad pacific"},"category":"0","audit":0,"is_ugc":0,"text_need":1,"picture_need":1,"video_need":0,"type":"templateapi"},{"id":"1015998","ufid":"37041049","name":"\u7167\u7247\u8fd0\u955c","file":"http:\/\/rdfile.oss-cn-hangzhou.aliyuncs.com\/filemanage\/e069b36c568d909f\/templateapi\/16627136371476\/file.zip?nonce=01d0cb09d84c5023cab042621140ed1d","cover":"http:\/\/rdfile.oss-cn-hangzhou.aliyuncs.com\/filemanage\/e069b36c568d909f\/templateapi\/16627136371476\/cover.webp?nonce=01d0cb09d84c5023cab042621140ed1d","updatetime":"1704185929","height":810,"width":1440,"video":"http:\/\/rdfile.oss-cn-hangzhou.aliyuncs.com\/filemanage\/e069b36c568d909f\/templateapi\/16627136371476\/video.mp4?nonce=01d0cb09d84c5023cab042621140ed1d","sort":0,"version":153,"cover2":"","appkey":"init","duration":0,"extra":{},"polyglot":{"en":"Photo mirroring"},"category":"0","audit":0,"is_ugc":0,"text_need":0,"picture_need":0,"video_need":5,"type":"templateapi"},{"id":"1015907","ufid":"61313814","name":"\u7ffb\u9875\u76f8\u518c","file":"http:\/\/rdfile.oss-cn-hangzhou.aliyuncs.com\/filemanage\/e069b36c568d909f\/templateapi\/16606205818634\/file.zip?nonce=dff7872cae746bc7bac9cd2176f3a511","cover":"http:\/\/rdfile.oss-cn-hangzhou.aliyuncs.com\/filemanage\/e069b36c568d909f\/templateapi\/16606205818634\/cover.webp?nonce=dff7872cae746bc7bac9cd2176f3a511","updatetime":"1704185916","height":720,"width":1280,"video":"http:\/\/rdfile.oss-cn-hangzhou.aliyuncs.com\/filemanage\/e069b36c568d909f\/templateapi\/16606205818634\/video.mp4?nonce=dff7872cae746bc7bac9cd2176f3a511","sort":0,"version":153,"cover2":"","appkey":"init","duration":0,"extra":{},"polyglot":{"en":"Flip photo album"},"category":"0","audit":0,"is_ugc":0,"text_need":0,"picture_need":0,"video_need":32,"type":"templateapi"},{"id":"1014764","ufid":"91090996","name":"\u6298\u75d5\u98ce\u666f","file":"http:\/\/rdfile.oss-cn-hangzhou.aliyuncs.com\/filemanage\/e069b36c568d909f\/templateapi\/16494125029190\/file.zip?nonce=85476325e032d7a280edfd86d163aea3","cover":"http:\/\/rdfile.oss-cn-hangzhou.aliyuncs.com\/filemanage\/e069b36c568d909f\/templateapi\/16494125029190\/cover.png?nonce=85476325e032d7a280edfd86d163aea3&x-oss-process=style\/templateapi","updatetime":"1704185841","height":633,"width":356,"video":"http:\/\/rdfile.oss-cn-hangzhou.aliyuncs.com\/filemanage\/e069b36c568d909f\/templateapi\/16494125029190\/video.mp4?nonce=85476325e032d7a280edfd86d163aea3","sort":0,"version":151,"cover2":"","appkey":"init","duration":0,"extra":{},"polyglot":{"en":"Crease landscape"},"category":"0","audit":0,"is_ugc":0,"text_need":0,"picture_need":6,"video_need":0,"type":"templateapi"},{"id":"1014708","ufid":"14847986","name":"3D\u8fd0\u955c","file":"http:\/\/rdfile.oss-cn-hangzhou.aliyuncs.com\/filemanage\/e069b36c568d909f\/templateapi\/16486132799925\/file.zip?nonce=48163da4cb6e6fe33614e1418a8b6b2b","cover":"http:\/\/rdfile.oss-cn-hangzhou.aliyuncs.com\/filemanage\/e069b36c568d909f\/templateapi\/16486132799925\/cover.png?nonce=48163da4cb6e6fe33614e1418a8b6b2b&x-oss-process=style\/templateapi","updatetime":"1704185835","height":1042,"width":720,"video":"http:\/\/rdfile.oss-cn-hangzhou.aliyuncs.com\/filemanage\/e069b36c568d909f\/templateapi\/16486132799925\/video.mp4?nonce=48163da4cb6e6fe33614e1418a8b6b2b","sort":0,"version":150,"cover2":"","appkey":"init","duration":0,"extra":{},"polyglot":{"en":"3D mirror movement"},"category":"0","audit":0,"is_ugc":0,"text_need":0,"picture_need":3,"video_need":0,"type":"templateapi"}]}}