{"code":0,"msg":"success","data":{"total":636,"per_page":10,"current_page":35,"last_page":64,"data":[{"id":"1014866","ufid":"13334676","name":"\u4e5d\u5bab\u683c\u76f8\u518c","file":"http:\/\/rdfile.oss-cn-hangzhou.aliyuncs.com\/filemanage\/e069b36c568d909f\/templateapi\/16504472339391\/file.zip?nonce=b56f25d7e2f99eb78fe4168707f0e216","cover":"http:\/\/rdfile.oss-cn-hangzhou.aliyuncs.com\/filemanage\/e069b36c568d909f\/templateapi\/16504472339391\/cover.webp?nonce=b56f25d7e2f99eb78fe4168707f0e216","updatetime":"1704185847","height":633,"width":633,"video":"http:\/\/rdfile.oss-cn-hangzhou.aliyuncs.com\/filemanage\/e069b36c568d909f\/templateapi\/16504472339391\/video.mp4?nonce=b56f25d7e2f99eb78fe4168707f0e216","sort":0,"version":152,"cover2":"","appkey":"init","duration":0,"extra":{},"polyglot":{"en":"9 grid album"},"category":"0","audit":0,"is_ugc":0,"text_need":0,"picture_need":0,"video_need":1,"type":"templateapi"},{"id":"1014865","ufid":"51095182","name":"\u5207\u5272\u8f6c\u573a","file":"http:\/\/rdfile.oss-cn-hangzhou.aliyuncs.com\/filemanage\/e069b36c568d909f\/templateapi\/16504292575499\/file.zip?nonce=b56f25d7e2f99eb78fe4168707f0e216","cover":"http:\/\/rdfile.oss-cn-hangzhou.aliyuncs.com\/filemanage\/e069b36c568d909f\/templateapi\/16504292575499\/cover.webp?nonce=b56f25d7e2f99eb78fe4168707f0e216","updatetime":"1704185847","height":720,"width":960,"video":"http:\/\/rdfile.oss-cn-hangzhou.aliyuncs.com\/filemanage\/e069b36c568d909f\/templateapi\/16504292575499\/video.mp4?nonce=b56f25d7e2f99eb78fe4168707f0e216","sort":0,"version":152,"cover2":"","appkey":"init","duration":0,"extra":{},"polyglot":{"en":"Cut transition"},"category":"0","audit":0,"is_ugc":0,"text_need":0,"picture_need":63,"video_need":0,"type":"templateapi"},{"id":"1014861","ufid":"78795370","name":"\u6625\u6696\u82b1\u5f00","file":"http:\/\/rdfile.oss-cn-hangzhou.aliyuncs.com\/filemanage\/e069b36c568d909f\/templateapi\/16503610057266\/file.zip?nonce=b56f25d7e2f99eb78fe4168707f0e216","cover":"http:\/\/rdfile.oss-cn-hangzhou.aliyuncs.com\/filemanage\/e069b36c568d909f\/templateapi\/16503610057266\/cover.webp?nonce=b56f25d7e2f99eb78fe4168707f0e216","updatetime":"1704185847","height":633,"width":356,"video":"http:\/\/rdfile.oss-cn-hangzhou.aliyuncs.com\/filemanage\/e069b36c568d909f\/templateapi\/16503610057266\/video.mp4?nonce=b56f25d7e2f99eb78fe4168707f0e216","sort":0,"version":152,"cover2":"","appkey":"init","duration":0,"extra":{},"polyglot":{"en":"Spring is warm and flowers are blooming"},"category":"0","audit":0,"is_ugc":0,"text_need":0,"picture_need":0,"video_need":2,"type":"templateapi"},{"id":"1014858","ufid":"65942328","name":"\u98de\u673a\u70df\u96fe\u73af\u7ed5","file":"http:\/\/rdfile.oss-cn-hangzhou.aliyuncs.com\/filemanage\/e069b36c568d909f\/templateapi\/16503518558946\/file.zip?nonce=b56f25d7e2f99eb78fe4168707f0e216","cover":"http:\/\/rdfile.oss-cn-hangzhou.aliyuncs.com\/filemanage\/e069b36c568d909f\/templateapi\/16503518558946\/cover.png?nonce=b56f25d7e2f99eb78fe4168707f0e216&x-oss-process=style\/templateapi","updatetime":"1704185847","height":1278,"width":720,"video":"http:\/\/rdfile.oss-cn-hangzhou.aliyuncs.com\/filemanage\/e069b36c568d909f\/templateapi\/16503518558946\/video.mp4?nonce=b56f25d7e2f99eb78fe4168707f0e216","sort":0,"version":152,"cover2":"","appkey":"init","duration":0,"extra":{},"polyglot":{"en":"Plane smoke surrounds"},"category":"0","audit":0,"is_ugc":0,"text_need":0,"picture_need":2,"video_need":0,"type":"templateapi"},{"id":"1014854","ufid":"50605566","name":"\u5b63\u8282\u4ea4\u66ff","file":"http:\/\/rdfile.oss-cn-hangzhou.aliyuncs.com\/filemanage\/e069b36c568d909f\/templateapi\/16503450173328\/file.zip?nonce=24d725971bcc09caebac83a8761fe673","cover":"http:\/\/rdfile.oss-cn-hangzhou.aliyuncs.com\/filemanage\/e069b36c568d909f\/templateapi\/1650352037408\/cover_e069b36c568d909f.jpg?nonce=24d725971bcc09caebac83a8761fe673&x-oss-process=style\/templateapi","updatetime":"1704185846","height":720,"width":1278,"video":"http:\/\/rdfile.oss-cn-hangzhou.aliyuncs.com\/filemanage\/e069b36c568d909f\/templateapi\/16503450173328\/video.mp4?nonce=24d725971bcc09caebac83a8761fe673","sort":0,"version":152,"cover2":"","appkey":"init","duration":0,"extra":{},"polyglot":{"en":"Seasonal change"},"category":"0","audit":0,"is_ugc":0,"text_need":0,"picture_need":2,"video_need":0,"type":"templateapi"},{"id":"1014845","ufid":"77007908","name":"\u70ab\u9177\u51fa\u573a","file":"http:\/\/rdfile.oss-cn-hangzhou.aliyuncs.com\/filemanage\/e069b36c568d909f\/templateapi\/16502654993898\/file.zip?nonce=24d725971bcc09caebac83a8761fe673","cover":"http:\/\/rdfile.oss-cn-hangzhou.aliyuncs.com\/filemanage\/e069b36c568d909f\/templateapi\/16502654993898\/cover.webp?nonce=24d725971bcc09caebac83a8761fe673","updatetime":"1704185846","height":607,"width":1080,"video":"http:\/\/rdfile.oss-cn-hangzhou.aliyuncs.com\/filemanage\/e069b36c568d909f\/templateapi\/16502654993898\/video.mp4?nonce=24d725971bcc09caebac83a8761fe673","sort":0,"version":152,"cover2":"","appkey":"init","duration":0,"extra":{},"polyglot":{"en":"Cool appearance"},"category":"0","audit":0,"is_ugc":0,"text_need":0,"picture_need":0,"video_need":7,"type":"templateapi"},{"id":"1014835","ufid":"81943404","name":"\u661f\u661f\u9177\u70ab\u5361\u70b9","file":"http:\/\/rdfile.oss-cn-hangzhou.aliyuncs.com\/filemanage\/e069b36c568d909f\/templateapi\/16500117057568\/file.zip?nonce=24d725971bcc09caebac83a8761fe673","cover":"http:\/\/rdfile.oss-cn-hangzhou.aliyuncs.com\/filemanage\/e069b36c568d909f\/templateapi\/16500117057568\/cover.webp?nonce=24d725971bcc09caebac83a8761fe673","updatetime":"1704185846","height":607,"width":1080,"video":"http:\/\/rdfile.oss-cn-hangzhou.aliyuncs.com\/filemanage\/e069b36c568d909f\/templateapi\/16500117057568\/video.mp4?nonce=24d725971bcc09caebac83a8761fe673","sort":0,"version":152,"cover2":"","appkey":"init","duration":0,"extra":{},"polyglot":{"en":"Right time cool star"},"category":"0","audit":0,"is_ugc":0,"text_need":0,"picture_need":24,"video_need":0,"type":"templateapi"},{"id":"1014830","ufid":"14772410","name":"\u8001\u7167\u7247\u4fee\u590d","file":"http:\/\/rdfile.oss-cn-hangzhou.aliyuncs.com\/filemanage\/e069b36c568d909f\/templateapi\/16500097984390\/file.zip?nonce=b59f4b16f3f3889cd7033b819e543fbf","cover":"http:\/\/rdfile.oss-cn-hangzhou.aliyuncs.com\/filemanage\/e069b36c568d909f\/templateapi\/16500097984390\/cover.webp?nonce=b59f4b16f3f3889cd7033b819e543fbf","updatetime":"1704185845","height":1059,"width":580,"video":"http:\/\/rdfile.oss-cn-hangzhou.aliyuncs.com\/filemanage\/e069b36c568d909f\/templateapi\/16500097984390\/video.mp4?nonce=b59f4b16f3f3889cd7033b819e543fbf","sort":0,"version":152,"cover2":"","appkey":"init","duration":0,"extra":{},"polyglot":{"en":"Old photo restoration"},"category":"0","audit":0,"is_ugc":0,"text_need":0,"picture_need":2,"video_need":0,"type":"templateapi"},{"id":"1014829","ufid":"17786974","name":"\u767e\u53f6\u7a97","file":"http:\/\/rdfile.oss-cn-hangzhou.aliyuncs.com\/filemanage\/e069b36c568d909f\/templateapi\/16500069743006\/file.zip?nonce=b59f4b16f3f3889cd7033b819e543fbf","cover":"http:\/\/rdfile.oss-cn-hangzhou.aliyuncs.com\/filemanage\/e069b36c568d909f\/templateapi\/1650352324839\/cover_e069b36c568d909f.jpg?nonce=b59f4b16f3f3889cd7033b819e543fbf&x-oss-process=style\/templateapi","updatetime":"1704185845","height":720,"width":1278,"video":"http:\/\/rdfile.oss-cn-hangzhou.aliyuncs.com\/filemanage\/e069b36c568d909f\/templateapi\/16500069743006\/video.mp4?nonce=b59f4b16f3f3889cd7033b819e543fbf","sort":0,"version":152,"cover2":"","appkey":"init","duration":0,"extra":{},"polyglot":{"en":"Blinds"},"category":"0","audit":0,"is_ugc":0,"text_need":0,"picture_need":30,"video_need":0,"type":"templateapi"},{"id":"1014827","ufid":"38895971","name":"\u6d77\u8d3c\u738b\u5361\u70b9","file":"http:\/\/rdfile.oss-cn-hangzhou.aliyuncs.com\/filemanage\/e069b36c568d909f\/templateapi\/16500038637022\/file.zip?nonce=b59f4b16f3f3889cd7033b819e543fbf","cover":"http:\/\/rdfile.oss-cn-hangzhou.aliyuncs.com\/filemanage\/e069b36c568d909f\/templateapi\/16500038637022\/cover.png?nonce=b59f4b16f3f3889cd7033b819e543fbf&x-oss-process=style\/templateapi","updatetime":"1704185845","height":720,"width":1280,"video":"http:\/\/rdfile.oss-cn-hangzhou.aliyuncs.com\/filemanage\/e069b36c568d909f\/templateapi\/16500038637022\/video.mp4?nonce=b59f4b16f3f3889cd7033b819e543fbf","sort":0,"version":152,"cover2":"","appkey":"init","duration":0,"extra":{},"polyglot":{"en":"Right time One Piece"},"category":"0","audit":0,"is_ugc":0,"text_need":0,"picture_need":5,"video_need":0,"type":"templateapi"}]}}