{"code":0,"msg":"success","data":{"total":636,"per_page":10,"current_page":41,"last_page":64,"data":[{"id":"1014383","ufid":"54052209","name":"\u6210\u529f\u4e4b\u7236\u662f\u8c01","file":"http:\/\/rdfile.oss-cn-hangzhou.aliyuncs.com\/filemanage\/e069b36c568d909f\/templateapi\/16461052432144\/file.zip?nonce=428445d336726df40bbf9691cb46850b","cover":"http:\/\/rdfile.oss-cn-hangzhou.aliyuncs.com\/filemanage\/e069b36c568d909f\/templateapi\/16461052432144\/cover.png?nonce=428445d336726df40bbf9691cb46850b&x-oss-process=style\/templateapi","updatetime":"1704185793","height":1280,"width":720,"video":"http:\/\/rdfile.oss-cn-hangzhou.aliyuncs.com\/filemanage\/e069b36c568d909f\/templateapi\/16461052432144\/video.mp4?nonce=428445d336726df40bbf9691cb46850b","sort":0,"version":150,"cover2":"","appkey":"init","duration":0,"extra":{},"polyglot":{"en":"Who is the father of success?"},"category":"0","audit":0,"is_ugc":0,"text_need":0,"picture_need":1,"video_need":0,"type":"templateapi"},{"id":"1014380","ufid":"38658262","name":"\u4f60\u597d\uff0c\u6625\u5929","file":"http:\/\/rdfile.oss-cn-hangzhou.aliyuncs.com\/filemanage\/e069b36c568d909f\/templateapi\/16460384244374\/file.zip?nonce=428445d336726df40bbf9691cb46850b","cover":"http:\/\/rdfile.oss-cn-hangzhou.aliyuncs.com\/filemanage\/e069b36c568d909f\/templateapi\/16460384244374\/cover.png?nonce=428445d336726df40bbf9691cb46850b&x-oss-process=style\/templateapi","updatetime":"1704185793","height":608,"width":1080,"video":"http:\/\/rdfile.oss-cn-hangzhou.aliyuncs.com\/filemanage\/e069b36c568d909f\/templateapi\/16460384244374\/video.mp4?nonce=428445d336726df40bbf9691cb46850b","sort":0,"version":150,"cover2":"","appkey":"init","duration":0,"extra":{},"polyglot":{"en":"Hello spring"},"category":"0","audit":0,"is_ugc":0,"text_need":2,"picture_need":15,"video_need":0,"type":"templateapi"},{"id":"1014378","ufid":"95025526","name":"\u8fbe\u53d4\u53f0\u8bcd","file":"http:\/\/rdfile.oss-cn-hangzhou.aliyuncs.com\/filemanage\/e069b36c568d909f\/templateapi\/16460325593062\/file.zip?nonce=428445d336726df40bbf9691cb46850b","cover":"http:\/\/rdfile.oss-cn-hangzhou.aliyuncs.com\/filemanage\/e069b36c568d909f\/templateapi\/16460325593062\/cover.png?nonce=428445d336726df40bbf9691cb46850b&x-oss-process=style\/templateapi","updatetime":"1704185793","height":1280,"width":720,"video":"http:\/\/rdfile.oss-cn-hangzhou.aliyuncs.com\/filemanage\/e069b36c568d909f\/templateapi\/16460325593062\/video.mp4?nonce=428445d336726df40bbf9691cb46850b","sort":0,"version":150,"cover2":"","appkey":"init","duration":0,"extra":{},"polyglot":{"en":"Uncle Da"},"category":"0","audit":0,"is_ugc":0,"text_need":0,"picture_need":0,"video_need":2,"type":"templateapi"},{"id":"1014338","ufid":"39856868","name":"\u5c04\u7bad","file":"http:\/\/rdfile.oss-cn-hangzhou.aliyuncs.com\/filemanage\/e069b36c568d909f\/templateapi\/16460186443257\/file.zip?nonce=88ac7f8d604bfdaf974d26e7f21809ef","cover":"http:\/\/rdfile.oss-cn-hangzhou.aliyuncs.com\/filemanage\/e069b36c568d909f\/templateapi\/16460186443257\/cover.png?nonce=88ac7f8d604bfdaf974d26e7f21809ef&x-oss-process=style\/templateapi","updatetime":"1704185786","height":1280,"width":720,"video":"http:\/\/rdfile.oss-cn-hangzhou.aliyuncs.com\/filemanage\/e069b36c568d909f\/templateapi\/16460186443257\/video.mp4?nonce=88ac7f8d604bfdaf974d26e7f21809ef","sort":0,"version":150,"cover2":"","appkey":"init","duration":0,"extra":{},"polyglot":{"en":"Archery"},"category":"0","audit":0,"is_ugc":0,"text_need":0,"picture_need":0,"video_need":1,"type":"templateapi"},{"id":"1014334","ufid":"98307358","name":"\u50cf\u53ea\u9c7c\u513f\u5728\u4f60\u7684\u8377\u5858~","file":"http:\/\/rdfile.oss-cn-hangzhou.aliyuncs.com\/filemanage\/e069b36c568d909f\/templateapi\/16457819756131\/file.zip?nonce=fb36b538a99ce5cf30142091c7d8ec44","cover":"http:\/\/rdfile.oss-cn-hangzhou.aliyuncs.com\/filemanage\/e069b36c568d909f\/templateapi\/16457819756131\/cover.png?nonce=fb36b538a99ce5cf30142091c7d8ec44&x-oss-process=style\/templateapi","updatetime":"1704185785","height":1230,"width":692,"video":"http:\/\/rdfile.oss-cn-hangzhou.aliyuncs.com\/filemanage\/e069b36c568d909f\/templateapi\/16457819756131\/video.mp4?nonce=fb36b538a99ce5cf30142091c7d8ec44","sort":0,"version":150,"cover2":"","appkey":"init","duration":0,"extra":{},"polyglot":{"en":"Like a fish in your lotus pond~"},"category":"0","audit":0,"is_ugc":0,"text_need":0,"picture_need":16,"video_need":0,"type":"templateapi"},{"id":"1014283","ufid":"63751728","name":"\u51b0\u96f9","file":"http:\/\/rdfile.oss-cn-hangzhou.aliyuncs.com\/filemanage\/e069b36c568d909f\/templateapi\/16454126631640\/file.zip?nonce=c7b23195f735b396af97c1b4b5de0a43","cover":"http:\/\/rdfile.oss-cn-hangzhou.aliyuncs.com\/filemanage\/e069b36c568d909f\/templateapi\/16454126631640\/cover.png?nonce=c7b23195f735b396af97c1b4b5de0a43&x-oss-process=style\/templateapi","updatetime":"1704185779","height":1280,"width":720,"video":"http:\/\/rdfile.oss-cn-hangzhou.aliyuncs.com\/filemanage\/e069b36c568d909f\/templateapi\/16454126631640\/video.mp4?nonce=c7b23195f735b396af97c1b4b5de0a43","sort":0,"version":150,"cover2":"","appkey":"init","duration":0,"extra":{},"polyglot":{"en":"Hail"},"category":"0","audit":0,"is_ugc":0,"text_need":0,"picture_need":0,"video_need":1,"type":"templateapi"},{"id":"1014282","ufid":"16723630","name":"\u65e5\u5e38\u788e\u7247","file":"http:\/\/rdfile.oss-cn-hangzhou.aliyuncs.com\/filemanage\/e069b36c568d909f\/templateapi\/16451678647460\/file.zip?nonce=c7b23195f735b396af97c1b4b5de0a43","cover":"http:\/\/rdfile.oss-cn-hangzhou.aliyuncs.com\/filemanage\/e069b36c568d909f\/templateapi\/16451678647460\/cover.png?nonce=c7b23195f735b396af97c1b4b5de0a43&x-oss-process=style\/templateapi","updatetime":"1704185779","height":1230,"width":692,"video":"http:\/\/rdfile.oss-cn-hangzhou.aliyuncs.com\/filemanage\/e069b36c568d909f\/templateapi\/16451678647460\/video.mp4?nonce=c7b23195f735b396af97c1b4b5de0a43","sort":0,"version":150,"cover2":"","appkey":"init","duration":0,"extra":{},"polyglot":{"en":"Everyday debris"},"category":"0","audit":0,"is_ugc":0,"text_need":0,"picture_need":0,"video_need":2,"type":"templateapi"},{"id":"1014279","ufid":"19395012","name":"\u6211\u505a\u4e86\u4e00\u4e2a\u5f88\u957f\u7684\u68a6","file":"http:\/\/rdfile.oss-cn-hangzhou.aliyuncs.com\/filemanage\/e069b36c568d909f\/templateapi\/16451515474025\/file.zip?nonce=c7b23195f735b396af97c1b4b5de0a43","cover":"http:\/\/rdfile.oss-cn-hangzhou.aliyuncs.com\/filemanage\/e069b36c568d909f\/templateapi\/16451515474025\/cover.png?nonce=c7b23195f735b396af97c1b4b5de0a43&x-oss-process=style\/templateapi","updatetime":"1704185779","height":1080,"width":1920,"video":"http:\/\/rdfile.oss-cn-hangzhou.aliyuncs.com\/filemanage\/e069b36c568d909f\/templateapi\/16451515474025\/video.mp4?nonce=c7b23195f735b396af97c1b4b5de0a43","sort":0,"version":150,"cover2":"","appkey":"init","duration":0,"extra":{},"polyglot":{"en":"I had a long dream"},"category":"0","audit":0,"is_ugc":0,"text_need":0,"picture_need":0,"video_need":15,"type":"templateapi"},{"id":"1014278","ufid":"81305463","name":"\u6211\u8fd8\u662f\u90a3\u4e2a\u7231\u7b11\u7684\u59d1\u5a18","file":"http:\/\/rdfile.oss-cn-hangzhou.aliyuncs.com\/filemanage\/e069b36c568d909f\/templateapi\/16450900866097\/file.zip?nonce=c7b23195f735b396af97c1b4b5de0a43","cover":"http:\/\/rdfile.oss-cn-hangzhou.aliyuncs.com\/filemanage\/e069b36c568d909f\/templateapi\/16450900866097\/cover.png?nonce=c7b23195f735b396af97c1b4b5de0a43&x-oss-process=style\/templateapi","updatetime":"1704185779","height":1080,"width":607,"video":"http:\/\/rdfile.oss-cn-hangzhou.aliyuncs.com\/filemanage\/e069b36c568d909f\/templateapi\/16450900866097\/video.mp4?nonce=c7b23195f735b396af97c1b4b5de0a43","sort":0,"version":150,"cover2":"","appkey":"init","duration":0,"extra":{},"polyglot":{"en":"I"},"category":"0","audit":0,"is_ugc":0,"text_need":0,"picture_need":0,"video_need":21,"type":"templateapi"},{"id":"1014277","ufid":"66660284","name":"\u5bcc\u8c6a\u699c","file":"http:\/\/rdfile.oss-cn-hangzhou.aliyuncs.com\/filemanage\/e069b36c568d909f\/templateapi\/16450064044305\/file.zip?nonce=c7b23195f735b396af97c1b4b5de0a43","cover":"http:\/\/rdfile.oss-cn-hangzhou.aliyuncs.com\/filemanage\/e069b36c568d909f\/templateapi\/16450064044305\/cover.png?nonce=c7b23195f735b396af97c1b4b5de0a43&x-oss-process=style\/templateapi","updatetime":"1704185779","height":1080,"width":607,"video":"http:\/\/rdfile.oss-cn-hangzhou.aliyuncs.com\/filemanage\/e069b36c568d909f\/templateapi\/16450064044305\/video.mp4?nonce=c7b23195f735b396af97c1b4b5de0a43","sort":0,"version":150,"cover2":"","appkey":"init","duration":0,"extra":{},"polyglot":{"en":"Rich list"},"category":"0","audit":0,"is_ugc":0,"text_need":0,"picture_need":0,"video_need":1,"type":"templateapi"}]}}