{"code":0,"msg":"success","data":{"total":84,"per_page":10,"current_page":2,"last_page":9,"data":[{"id":"1016419","ufid":"22066327","name":"\u5170\u4ead\u5e8f\u65d7\u888d\u7f8e\u62cd","file":"http:\/\/rdfile.oss-cn-hangzhou.aliyuncs.com\/filemanage\/e069b36c568d909f\/templateapi\/16684138059153\/file.zip?nonce=cfcd208495d565ef66e7dff9f98764da","cover":"http:\/\/rdfile.oss-cn-hangzhou.aliyuncs.com\/filemanage\/e069b36c568d909f\/templateapi\/16684138059153\/cover.webp?nonce=cfcd208495d565ef66e7dff9f98764da","updatetime":"0","height":1225,"width":689,"video":"http:\/\/rdfile.oss-cn-hangzhou.aliyuncs.com\/filemanage\/e069b36c568d909f\/templateapi\/16684138059153\/video.mp4?nonce=cfcd208495d565ef66e7dff9f98764da","sort":0,"version":154,"cover2":"","appkey":"init","duration":0,"extra":{},"polyglot":[],"category":"0","audit":0,"is_ugc":0,"text_need":0,"picture_need":0,"video_need":3,"type":"templateapi"},{"id":"1016411","ufid":"24923657","name":"\u91ce\u8425\u5c11\u5973\u7f8e\u62cd","file":"http:\/\/rdfile.oss-cn-hangzhou.aliyuncs.com\/filemanage\/e069b36c568d909f\/templateapi\/16681447387232\/file.zip?nonce=cfcd208495d565ef66e7dff9f98764da","cover":"http:\/\/rdfile.oss-cn-hangzhou.aliyuncs.com\/filemanage\/e069b36c568d909f\/templateapi\/16681447387232\/cover.webp?nonce=cfcd208495d565ef66e7dff9f98764da","updatetime":"0","height":1920,"width":1080,"video":"http:\/\/rdfile.oss-cn-hangzhou.aliyuncs.com\/filemanage\/e069b36c568d909f\/templateapi\/16681447387232\/video.mp4?nonce=cfcd208495d565ef66e7dff9f98764da","sort":0,"version":154,"cover2":"","appkey":"init","duration":0,"extra":{},"polyglot":[],"category":"0","audit":0,"is_ugc":0,"text_need":0,"picture_need":0,"video_need":7,"type":"templateapi"},{"id":"1016403","ufid":"26211576","name":"\u5723\u8bde\u7f8e\u62cd","file":"http:\/\/rdfile.oss-cn-hangzhou.aliyuncs.com\/filemanage\/e069b36c568d909f\/templateapi\/16680518719875\/file.zip?nonce=cfcd208495d565ef66e7dff9f98764da","cover":"http:\/\/rdfile.oss-cn-hangzhou.aliyuncs.com\/filemanage\/e069b36c568d909f\/templateapi\/16680518719875\/cover.webp?nonce=cfcd208495d565ef66e7dff9f98764da","updatetime":"0","height":1920,"width":1080,"video":"http:\/\/rdfile.oss-cn-hangzhou.aliyuncs.com\/filemanage\/e069b36c568d909f\/templateapi\/16680518719875\/video.mp4?nonce=cfcd208495d565ef66e7dff9f98764da","sort":0,"version":154,"cover2":"","appkey":"init","duration":0,"extra":{},"polyglot":[],"category":"0","audit":0,"is_ugc":0,"text_need":0,"picture_need":0,"video_need":4,"type":"templateapi"},{"id":"1016392","ufid":"25857145","name":"\u65d7\u888d\u7f8e\u5973\u7f8e\u62cd","file":"http:\/\/rdfile.oss-cn-hangzhou.aliyuncs.com\/filemanage\/e069b36c568d909f\/templateapi\/16678979527242\/file.zip?nonce=cfcd208495d565ef66e7dff9f98764da","cover":"http:\/\/rdfile.oss-cn-hangzhou.aliyuncs.com\/filemanage\/e069b36c568d909f\/templateapi\/16678979527242\/cover.webp?nonce=cfcd208495d565ef66e7dff9f98764da","updatetime":"0","height":1920,"width":1080,"video":"http:\/\/rdfile.oss-cn-hangzhou.aliyuncs.com\/filemanage\/e069b36c568d909f\/templateapi\/16678979527242\/video.mp4?nonce=cfcd208495d565ef66e7dff9f98764da","sort":0,"version":154,"cover2":"","appkey":"init","duration":0,"extra":{},"polyglot":[],"category":"0","audit":0,"is_ugc":0,"text_need":0,"picture_need":0,"video_need":5,"type":"templateapi"},{"id":"1016377","ufid":"58601753","name":"\u65d7\u888d\u4f18\u96c5\u611f\u6311\u6218","file":"http:\/\/rdfile.oss-cn-hangzhou.aliyuncs.com\/filemanage\/e069b36c568d909f\/templateapi\/16675512844187\/file.zip?nonce=cfcd208495d565ef66e7dff9f98764da","cover":"http:\/\/rdfile.oss-cn-hangzhou.aliyuncs.com\/filemanage\/e069b36c568d909f\/templateapi\/16675512844187\/cover.webp?nonce=cfcd208495d565ef66e7dff9f98764da","updatetime":"0","height":1920,"width":1080,"video":"http:\/\/rdfile.oss-cn-hangzhou.aliyuncs.com\/filemanage\/e069b36c568d909f\/templateapi\/16675512844187\/video.mp4?nonce=cfcd208495d565ef66e7dff9f98764da","sort":0,"version":154,"cover2":"","appkey":"init","duration":0,"extra":{},"polyglot":[],"category":"0","audit":0,"is_ugc":0,"text_need":0,"picture_need":0,"video_need":4,"type":"templateapi"},{"id":"1016366","ufid":"86753792","name":"\u65e9\u5b89\u8f6c\u8f6c\u5b57\u4f53\u95f9\u949f","file":"http:\/\/rdfile.oss-cn-hangzhou.aliyuncs.com\/filemanage\/e069b36c568d909f\/templateapi\/16674682991623\/file.zip?nonce=6959f47b5b76a24d3658694bb2580c25","cover":"http:\/\/rdfile.oss-cn-hangzhou.aliyuncs.com\/filemanage\/e069b36c568d909f\/templateapi\/16674682991623\/cover.webp?nonce=6959f47b5b76a24d3658694bb2580c25","updatetime":"1684896378","height":1081,"width":608,"video":"http:\/\/rdfile.oss-cn-hangzhou.aliyuncs.com\/filemanage\/e069b36c568d909f\/templateapi\/16674682991623\/video.mp4?nonce=6959f47b5b76a24d3658694bb2580c25","sort":0,"version":154,"cover2":"","appkey":"init","duration":0,"extra":{},"polyglot":[],"category":"0","audit":0,"is_ugc":0,"text_need":1,"picture_need":0,"video_need":2,"type":"templateapi"},{"id":"1016361","ufid":"10854170","name":"\u7231\u5fc3\u5bab\u683c","file":"http:\/\/rdfile.oss-cn-hangzhou.aliyuncs.com\/filemanage\/e069b36c568d909f\/templateapi\/16674627076438\/file.zip?nonce=67a6ff64c47bbc8caa0913603461497f","cover":"http:\/\/rdfile.oss-cn-hangzhou.aliyuncs.com\/filemanage\/e069b36c568d909f\/templateapi\/16674627076438\/cover.webp?nonce=67a6ff64c47bbc8caa0913603461497f","updatetime":"1684895159","height":1080,"width":1080,"video":"http:\/\/rdfile.oss-cn-hangzhou.aliyuncs.com\/filemanage\/e069b36c568d909f\/templateapi\/16674627076438\/video.mp4?nonce=67a6ff64c47bbc8caa0913603461497f","sort":0,"version":154,"cover2":"","appkey":"init","duration":0,"extra":{},"polyglot":[],"category":"0","audit":0,"is_ugc":0,"text_need":0,"picture_need":0,"video_need":1,"type":"templateapi"},{"id":"1016349","ufid":"30718064","name":"\u597d\u597d\u7231\u81ea\u5df1","file":"http:\/\/rdfile.oss-cn-hangzhou.aliyuncs.com\/filemanage\/e069b36c568d909f\/templateapi\/16673751049281\/file.zip?nonce=6964e9e8f8d21d14ee4346bd9f1cc0e6","cover":"http:\/\/rdfile.oss-cn-hangzhou.aliyuncs.com\/filemanage\/e069b36c568d909f\/templateapi\/16673751049281\/cover.webp?nonce=6964e9e8f8d21d14ee4346bd9f1cc0e6","updatetime":"1684896420","height":1746,"width":983,"video":"http:\/\/rdfile.oss-cn-hangzhou.aliyuncs.com\/filemanage\/e069b36c568d909f\/templateapi\/16673751049281\/video.mp4?nonce=6964e9e8f8d21d14ee4346bd9f1cc0e6","sort":0,"version":155,"cover2":"","appkey":"init","duration":0,"extra":{},"polyglot":[],"category":"0","audit":0,"is_ugc":0,"text_need":0,"picture_need":10,"video_need":0,"type":"templateapi"},{"id":"1016346","ufid":"88525341","name":"\u5907\u5fd8\u5f55","file":"http:\/\/rdfile.oss-cn-hangzhou.aliyuncs.com\/filemanage\/e069b36c568d909f\/templateapi\/16673708561063\/file.zip?nonce=8ad9fbd201e72fcdaf13fd6f93b691e8","cover":"http:\/\/rdfile.oss-cn-hangzhou.aliyuncs.com\/filemanage\/e069b36c568d909f\/templateapi\/16673708561063\/cover.webp?nonce=8ad9fbd201e72fcdaf13fd6f93b691e8","updatetime":"1684896436","height":1748,"width":1005,"video":"http:\/\/rdfile.oss-cn-hangzhou.aliyuncs.com\/filemanage\/e069b36c568d909f\/templateapi\/16673708561063\/video.mp4?nonce=8ad9fbd201e72fcdaf13fd6f93b691e8","sort":0,"version":154,"cover2":"","appkey":"init","duration":0,"extra":{},"polyglot":[],"category":"0","audit":0,"is_ugc":0,"text_need":1,"picture_need":0,"video_need":2,"type":"templateapi"},{"id":"1016335","ufid":"80255506","name":"\u6027\u611f\u5fa1\u59d0\u7f8e\u62cd","file":"http:\/\/rdfile.oss-cn-hangzhou.aliyuncs.com\/filemanage\/e069b36c568d909f\/templateapi\/16672846078873\/file.zip?nonce=cfcd208495d565ef66e7dff9f98764da","cover":"http:\/\/rdfile.oss-cn-hangzhou.aliyuncs.com\/filemanage\/e069b36c568d909f\/templateapi\/16672846078873\/cover.webp?nonce=cfcd208495d565ef66e7dff9f98764da","updatetime":"0","height":1280,"width":720,"video":"http:\/\/rdfile.oss-cn-hangzhou.aliyuncs.com\/filemanage\/e069b36c568d909f\/templateapi\/16672846078873\/video.mp4?nonce=cfcd208495d565ef66e7dff9f98764da","sort":0,"version":154,"cover2":"","appkey":"init","duration":0,"extra":{},"polyglot":[],"category":"0","audit":0,"is_ugc":0,"text_need":0,"picture_need":0,"video_need":4,"type":"templateapi"}]}}