{"code":0,"msg":"success","data":{"total":56,"per_page":10,"current_page":2,"last_page":6,"data":[{"id":"1016546","ufid":"71695585","name":"\u611f\u6069\u8282\u5361\u724c\u6545\u4e8b","file":"http:\/\/rdfile.oss-cn-hangzhou.aliyuncs.com\/filemanage\/e069b36c568d909f\/templateapi\/16692837325928\/file.zip?nonce=5ceed6f80f86cc358c5e3851236c5ffd","cover":"http:\/\/rdfile.oss-cn-hangzhou.aliyuncs.com\/filemanage\/e069b36c568d909f\/templateapi\/16692837325928\/cover.webp?nonce=5ceed6f80f86cc358c5e3851236c5ffd","updatetime":"1684897906","height":1059,"width":596,"video":"http:\/\/rdfile.oss-cn-hangzhou.aliyuncs.com\/filemanage\/e069b36c568d909f\/templateapi\/16692837325928\/video.mp4?nonce=5ceed6f80f86cc358c5e3851236c5ffd","sort":0,"version":155,"cover2":"","appkey":"init","duration":0,"extra":{},"polyglot":[],"category":"0","audit":0,"is_ugc":0,"text_need":4,"picture_need":0,"video_need":3,"type":"templateapi"},{"id":"1016480","ufid":"75302229","name":"\u751f\u65e5\u795d\u798f\u7f24\u7eb7\u6709\u7231","file":"http:\/\/rdfile.oss-cn-hangzhou.aliyuncs.com\/filemanage\/e069b36c568d909f\/templateapi\/16685919675328\/file.zip?nonce=cfcd208495d565ef66e7dff9f98764da","cover":"http:\/\/rdfile.oss-cn-hangzhou.aliyuncs.com\/filemanage\/e069b36c568d909f\/templateapi\/16685919675328\/cover.webp?nonce=cfcd208495d565ef66e7dff9f98764da","updatetime":"0","height":1748,"width":983,"video":"http:\/\/rdfile.oss-cn-hangzhou.aliyuncs.com\/filemanage\/e069b36c568d909f\/templateapi\/16685919675328\/video.mp4?nonce=cfcd208495d565ef66e7dff9f98764da","sort":0,"version":155,"cover2":"","appkey":"init","duration":0,"extra":{},"polyglot":[],"category":"0","audit":0,"is_ugc":0,"text_need":1,"picture_need":0,"video_need":1,"type":"templateapi"},{"id":"1016420","ufid":"73650038","name":"\u751f\u65e5\u795d\u798f\u5012\u8ba1\u65f6","file":"http:\/\/rdfile.oss-cn-hangzhou.aliyuncs.com\/filemanage\/e069b36c568d909f\/templateapi\/16684145503282\/file.zip?nonce=6e4fa2e851c2abb85526d56281099953","cover":"http:\/\/rdfile.oss-cn-hangzhou.aliyuncs.com\/filemanage\/e069b36c568d909f\/templateapi\/16684145503282\/cover.webp?nonce=6e4fa2e851c2abb85526d56281099953","updatetime":"1684896205","height":1746,"width":983,"video":"http:\/\/rdfile.oss-cn-hangzhou.aliyuncs.com\/filemanage\/e069b36c568d909f\/templateapi\/16684145503282\/video.mp4?nonce=6e4fa2e851c2abb85526d56281099953","sort":0,"version":155,"cover2":"","appkey":"init","duration":0,"extra":{},"polyglot":[],"category":"0","audit":0,"is_ugc":0,"text_need":1,"picture_need":0,"video_need":3,"type":"templateapi"},{"id":"1016387","ufid":"54217533","name":"\u7acb\u51ac","file":"http:\/\/rdfile.oss-cn-hangzhou.aliyuncs.com\/filemanage\/e069b36c568d909f\/templateapi\/16678138404255\/file.zip?nonce=e392c6590ad2571f45fd70875a30d473","cover":"http:\/\/rdfile.oss-cn-hangzhou.aliyuncs.com\/filemanage\/e069b36c568d909f\/templateapi\/16678138404255\/cover.webp?nonce=e392c6590ad2571f45fd70875a30d473","updatetime":"1684897915","height":608,"width":1080,"video":"http:\/\/rdfile.oss-cn-hangzhou.aliyuncs.com\/filemanage\/e069b36c568d909f\/templateapi\/16678138404255\/video.mp4?nonce=e392c6590ad2571f45fd70875a30d473","sort":0,"version":155,"cover2":"","appkey":"init","duration":0,"extra":{},"polyglot":[],"category":"0","audit":0,"is_ugc":0,"text_need":0,"picture_need":0,"video_need":11,"type":"templateapi"},{"id":"1015999","ufid":"72951552","name":"\u4e2d\u79cb\u6708\u5706\u591c","file":"http:\/\/rdfile.oss-cn-hangzhou.aliyuncs.com\/filemanage\/e069b36c568d909f\/templateapi\/16627161841353\/file.zip?nonce=cfcd208495d565ef66e7dff9f98764da","cover":"http:\/\/rdfile.oss-cn-hangzhou.aliyuncs.com\/filemanage\/e069b36c568d909f\/templateapi\/16627161841353\/cover.webp?nonce=cfcd208495d565ef66e7dff9f98764da","updatetime":"0","height":1275,"width":718,"video":"http:\/\/rdfile.oss-cn-hangzhou.aliyuncs.com\/filemanage\/e069b36c568d909f\/templateapi\/16627161841353\/video.mp4?nonce=cfcd208495d565ef66e7dff9f98764da","sort":0,"version":153,"cover2":"","appkey":"init","duration":0,"extra":{},"polyglot":[],"category":"0","audit":0,"is_ugc":0,"text_need":1,"picture_need":1,"video_need":0,"type":"templateapi"},{"id":"1015924","ufid":"55023046","name":"\u6211\u4eec\u7684\u7535\u5f71","file":"http:\/\/rdfile.oss-cn-hangzhou.aliyuncs.com\/filemanage\/e069b36c568d909f\/templateapi\/16614125346065\/file.zip?nonce=5e71bf18f01abc3a9f0127f9a209df7f","cover":"http:\/\/rdfile.oss-cn-hangzhou.aliyuncs.com\/filemanage\/e069b36c568d909f\/templateapi\/16614125346065\/cover.webp?nonce=5e71bf18f01abc3a9f0127f9a209df7f","updatetime":"1684898206","height":1060,"width":596,"video":"http:\/\/rdfile.oss-cn-hangzhou.aliyuncs.com\/filemanage\/e069b36c568d909f\/templateapi\/16614125346065\/video.mp4?nonce=5e71bf18f01abc3a9f0127f9a209df7f","sort":0,"version":153,"cover2":"","appkey":"init","duration":0,"extra":{},"polyglot":[],"category":"0","audit":0,"is_ugc":0,"text_need":6,"picture_need":6,"video_need":0,"type":"templateapi"},{"id":"1015550","ufid":"83194534","name":"\u4e03\u4e00\u5efa\u515a\u8282","file":"http:\/\/rdfile.oss-cn-hangzhou.aliyuncs.com\/filemanage\/e069b36c568d909f\/templateapi\/16566422037146\/file.zip?nonce=cfcd208495d565ef66e7dff9f98764da","cover":"http:\/\/rdfile.oss-cn-hangzhou.aliyuncs.com\/filemanage\/e069b36c568d909f\/templateapi\/16566422037146\/cover.webp?nonce=cfcd208495d565ef66e7dff9f98764da","updatetime":"0","height":1280,"width":720,"video":"http:\/\/rdfile.oss-cn-hangzhou.aliyuncs.com\/filemanage\/e069b36c568d909f\/templateapi\/16566422037146\/video.mp4?nonce=cfcd208495d565ef66e7dff9f98764da","sort":0,"version":153,"cover2":"","appkey":"init","duration":0,"extra":{},"polyglot":[],"category":"0","audit":0,"is_ugc":0,"text_need":0,"picture_need":0,"video_need":1,"type":"templateapi"},{"id":"1015388","ufid":"82506969","name":"\u590f\u81f3","file":"http:\/\/rdfile.oss-cn-hangzhou.aliyuncs.com\/filemanage\/e069b36c568d909f\/templateapi\/16557794017915\/file.zip?nonce=cfcd208495d565ef66e7dff9f98764da","cover":"http:\/\/rdfile.oss-cn-hangzhou.aliyuncs.com\/filemanage\/e069b36c568d909f\/templateapi\/16557794017915\/cover.webp?nonce=cfcd208495d565ef66e7dff9f98764da","updatetime":"0","height":1280,"width":720,"video":"http:\/\/rdfile.oss-cn-hangzhou.aliyuncs.com\/filemanage\/e069b36c568d909f\/templateapi\/16557794017915\/video.mp4?nonce=cfcd208495d565ef66e7dff9f98764da","sort":0,"version":153,"cover2":"","appkey":"init","duration":0,"extra":{},"polyglot":[],"category":"0","audit":0,"is_ugc":0,"text_need":0,"picture_need":0,"video_need":1,"type":"templateapi"},{"id":"1015386","ufid":"88480217","name":"\u7236\u4eb2\u8282\u5feb\u4e50","file":"http:\/\/rdfile.oss-cn-hangzhou.aliyuncs.com\/filemanage\/e069b36c568d909f\/templateapi\/16555698472342\/file.zip?nonce=cfcd208495d565ef66e7dff9f98764da","cover":"http:\/\/rdfile.oss-cn-hangzhou.aliyuncs.com\/filemanage\/e069b36c568d909f\/templateapi\/16555698472342\/cover.webp?nonce=cfcd208495d565ef66e7dff9f98764da","updatetime":"0","height":1280,"width":720,"video":"http:\/\/rdfile.oss-cn-hangzhou.aliyuncs.com\/filemanage\/e069b36c568d909f\/templateapi\/16555698472342\/video.mp4?nonce=cfcd208495d565ef66e7dff9f98764da","sort":0,"version":153,"cover2":"","appkey":"init","duration":0,"extra":{},"polyglot":[],"category":"0","audit":0,"is_ugc":0,"text_need":0,"picture_need":0,"video_need":7,"type":"templateapi"},{"id":"1015289","ufid":"60092062","name":"\u91d1\u699c\u9898\u540d","file":"http:\/\/rdfile.oss-cn-hangzhou.aliyuncs.com\/filemanage\/e069b36c568d909f\/templateapi\/16546770961351\/file.zip?nonce=cfcd208495d565ef66e7dff9f98764da","cover":"http:\/\/rdfile.oss-cn-hangzhou.aliyuncs.com\/filemanage\/e069b36c568d909f\/templateapi\/16546770961351\/cover.webp?nonce=cfcd208495d565ef66e7dff9f98764da","updatetime":"0","height":625,"width":1111,"video":"http:\/\/rdfile.oss-cn-hangzhou.aliyuncs.com\/filemanage\/e069b36c568d909f\/templateapi\/16546770961351\/video.mp4?nonce=cfcd208495d565ef66e7dff9f98764da","sort":0,"version":153,"cover2":"","appkey":"init","duration":0,"extra":{},"polyglot":[],"category":"0","audit":0,"is_ugc":0,"text_need":4,"picture_need":1,"video_need":0,"type":"templateapi"}]}}