{"code":0,"msg":"success","data":{"total":173,"per_page":10,"current_page":2,"last_page":18,"data":[{"id":"1019403","ufid":"98275037","name":"\u51ac\u81f3","file":"http:\/\/rdfile.oss-cn-hangzhou.aliyuncs.com\/filemanage\/e069b36c568d909f\/templateapi\/16716805076769\/file.zip?nonce=3dce447006335a57a6849afe5b4c83aa","cover":"http:\/\/rdfile.oss-cn-hangzhou.aliyuncs.com\/filemanage\/e069b36c568d909f\/templateapi\/16716805076769\/cover.webp?nonce=3dce447006335a57a6849afe5b4c83aa","updatetime":"1684893257","height":1058,"width":595,"video":"http:\/\/rdfile.oss-cn-hangzhou.aliyuncs.com\/filemanage\/e069b36c568d909f\/templateapi\/16716805076769\/video.mp4?nonce=3dce447006335a57a6849afe5b4c83aa","sort":0,"version":158,"cover2":"","appkey":"init","duration":0,"extra":{},"polyglot":[],"category":"0","audit":0,"is_ugc":0,"text_need":0,"picture_need":0,"video_need":2,"type":"templateapi"},{"id":"1015564","ufid":"89946769","name":"\u6b4c\u8bcd\u64ad\u653e\u5668","file":"http:\/\/rdfile.oss-cn-hangzhou.aliyuncs.com\/filemanage\/e069b36c568d909f\/templateapi\/16576224161917\/file.zip?nonce=1898dcad0d3a797857925420fcace030","cover":"http:\/\/rdfile.oss-cn-hangzhou.aliyuncs.com\/filemanage\/e069b36c568d909f\/templateapi\/16576224161917\/cover.webp?nonce=1898dcad0d3a797857925420fcace030","updatetime":"1684914350","height":1280,"width":720,"video":"http:\/\/rdfile.oss-cn-hangzhou.aliyuncs.com\/filemanage\/e069b36c568d909f\/templateapi\/16576224161917\/video.mp4?nonce=1898dcad0d3a797857925420fcace030","sort":0,"version":153,"cover2":"","appkey":"init","duration":0,"extra":{},"polyglot":[],"category":"0","audit":0,"is_ugc":0,"text_need":0,"picture_need":0,"video_need":2,"type":"templateapi"},{"id":"1020653","ufid":"98945453","name":"\u9633\u6625\u4e09\u6708","file":"http:\/\/rdfile.oss-cn-hangzhou.aliyuncs.com\/filemanage\/e069b36c568d909f\/templateapi\/16775737207662\/file.zip?nonce=d27535a200bed32ac3dc12b01282b72e","cover":"http:\/\/rdfile.oss-cn-hangzhou.aliyuncs.com\/filemanage\/e069b36c568d909f\/templateapi\/16775737207662\/cover.webp?nonce=d27535a200bed32ac3dc12b01282b72e","updatetime":"1684893386","height":607,"width":1080,"video":"http:\/\/rdfile.oss-cn-hangzhou.aliyuncs.com\/filemanage\/e069b36c568d909f\/templateapi\/16775737207662\/video.mp4?nonce=d27535a200bed32ac3dc12b01282b72e","sort":0,"version":159,"cover2":"","appkey":"init","duration":0,"extra":{},"polyglot":[],"category":"0","audit":0,"is_ugc":0,"text_need":5,"picture_need":0,"video_need":1,"type":"templateapi"},{"id":"1020628","ufid":"47736218","name":"\u5f00\u5f80\u6625\u65e5\u7684\u5217\u8f66","file":"http:\/\/rdfile.oss-cn-hangzhou.aliyuncs.com\/filemanage\/e069b36c568d909f\/templateapi\/16772297336845\/file.zip?nonce=b2f103b43b9036b4fcb55fb02c5a3909","cover":"http:\/\/rdfile.oss-cn-hangzhou.aliyuncs.com\/filemanage\/e069b36c568d909f\/templateapi\/16772297336845\/cover.webp?nonce=b2f103b43b9036b4fcb55fb02c5a3909","updatetime":"1684893394","height":1059,"width":794,"video":"http:\/\/rdfile.oss-cn-hangzhou.aliyuncs.com\/filemanage\/e069b36c568d909f\/templateapi\/16772297336845\/video.mp4?nonce=b2f103b43b9036b4fcb55fb02c5a3909","sort":0,"version":159,"cover2":"","appkey":"init","duration":0,"extra":{},"polyglot":[],"category":"0","audit":0,"is_ugc":0,"text_need":1,"picture_need":0,"video_need":6,"type":"templateapi"},{"id":"1016700","ufid":"24390097","name":"\u5bff\u53f8\u5e7f\u544a","file":"http:\/\/rdfile.oss-cn-hangzhou.aliyuncs.com\/filemanage\/e069b36c568d909f\/templateapi\/16709250913882\/file.zip?nonce=de81d69c7cd4d62b755d206320e5c9d4","cover":"http:\/\/rdfile.oss-cn-hangzhou.aliyuncs.com\/filemanage\/e069b36c568d909f\/templateapi\/16709250913882\/cover.webp?nonce=de81d69c7cd4d62b755d206320e5c9d4","updatetime":"1684914305","height":608,"width":1080,"video":"http:\/\/rdfile.oss-cn-hangzhou.aliyuncs.com\/filemanage\/e069b36c568d909f\/templateapi\/16709250913882\/video.mp4?nonce=de81d69c7cd4d62b755d206320e5c9d4","sort":0,"version":155,"cover2":"","appkey":"init","duration":0,"extra":{},"polyglot":[],"category":"0","audit":0,"is_ugc":0,"text_need":2,"picture_need":0,"video_need":0,"type":"templateapi"},{"id":"1016619","ufid":"79586398","name":"\u7247\u5c3e","file":"http:\/\/rdfile.oss-cn-hangzhou.aliyuncs.com\/filemanage\/e069b36c568d909f\/templateapi\/16698101941169\/file.zip?nonce=dceea261fe6b01526774991fe44fe932","cover":"http:\/\/rdfile.oss-cn-hangzhou.aliyuncs.com\/filemanage\/e069b36c568d909f\/templateapi\/16698101941169\/cover.webp?nonce=dceea261fe6b01526774991fe44fe932","updatetime":"1684897963","height":608,"width":1080,"video":"http:\/\/rdfile.oss-cn-hangzhou.aliyuncs.com\/filemanage\/e069b36c568d909f\/templateapi\/16698101941169\/video.mp4?nonce=dceea261fe6b01526774991fe44fe932","sort":0,"version":155,"cover2":"","appkey":"init","duration":0,"extra":{},"polyglot":[],"category":"0","audit":0,"is_ugc":0,"text_need":1,"picture_need":0,"video_need":0,"type":"templateapi"},{"id":"1016684","ufid":"68322159","name":"\u90a3\u5e74\u6211\u53cc\u624b\u63d2\u515c","file":"http:\/\/rdfile.oss-cn-hangzhou.aliyuncs.com\/filemanage\/e069b36c568d909f\/templateapi\/16704066609904\/file.zip?nonce=290438b43edb9858509e215dc82f71b1","cover":"http:\/\/rdfile.oss-cn-hangzhou.aliyuncs.com\/filemanage\/e069b36c568d909f\/templateapi\/16704066609904\/cover.webp?nonce=290438b43edb9858509e215dc82f71b1","updatetime":"1684896092","height":1920,"width":1080,"video":"http:\/\/rdfile.oss-cn-hangzhou.aliyuncs.com\/filemanage\/e069b36c568d909f\/templateapi\/16704066609904\/video.mp4?nonce=290438b43edb9858509e215dc82f71b1","sort":0,"version":156,"cover2":"","appkey":"init","duration":0,"extra":{},"polyglot":[],"category":"0","audit":0,"is_ugc":0,"text_need":0,"picture_need":0,"video_need":1,"type":"templateapi"},{"id":"1016136","ufid":"40421641","name":"\u6211\u4e0d\u8981\u518d\u60f3\u4f60","file":"http:\/\/rdfile.oss-cn-hangzhou.aliyuncs.com\/filemanage\/e069b36c568d909f\/templateapi\/16653925743721\/file.zip?nonce=26840041fd0f0395e421129dbb1cb5f7","cover":"http:\/\/rdfile.oss-cn-hangzhou.aliyuncs.com\/filemanage\/e069b36c568d909f\/templateapi\/16653925743721\/cover.webp?nonce=26840041fd0f0395e421129dbb1cb5f7","updatetime":"1684911467","height":1080,"width":1440,"video":"http:\/\/rdfile.oss-cn-hangzhou.aliyuncs.com\/filemanage\/e069b36c568d909f\/templateapi\/16653925743721\/video.mp4?nonce=26840041fd0f0395e421129dbb1cb5f7","sort":0,"version":153,"cover2":"","appkey":"init","duration":0,"extra":{},"polyglot":[],"category":"0","audit":0,"is_ugc":0,"text_need":0,"picture_need":0,"video_need":2,"type":"templateapi"},{"id":"1016625","ufid":"98386640","name":"\u5e26\u4e0a\u4f60\u7684\u732b\u79d2\u53d8\u9ed1\u8c79","file":"http:\/\/rdfile.oss-cn-hangzhou.aliyuncs.com\/filemanage\/e069b36c568d909f\/templateapi\/16698712431706\/file.zip?nonce=f0778b80f5dd6a769db6a23c1098386d","cover":"http:\/\/rdfile.oss-cn-hangzhou.aliyuncs.com\/filemanage\/e069b36c568d909f\/templateapi\/16698712431706\/cover.webp?nonce=f0778b80f5dd6a769db6a23c1098386d","updatetime":"1684896148","height":1920,"width":1080,"video":"http:\/\/rdfile.oss-cn-hangzhou.aliyuncs.com\/filemanage\/e069b36c568d909f\/templateapi\/16698712431706\/video.mp4?nonce=f0778b80f5dd6a769db6a23c1098386d","sort":0,"version":156,"cover2":"","appkey":"init","duration":0,"extra":{},"polyglot":[],"category":"0","audit":0,"is_ugc":0,"text_need":0,"picture_need":0,"video_need":2,"type":"templateapi"},{"id":"1016487","ufid":"70512027","name":"\u4eba\u7269\u5206\u5c4f\u51fa\u573a","file":"http:\/\/rdfile.oss-cn-hangzhou.aliyuncs.com\/filemanage\/e069b36c568d909f\/templateapi\/16686750428733\/file.zip?nonce=dacdef298ecee928b041e86bd1a4e5bc","cover":"http:\/\/rdfile.oss-cn-hangzhou.aliyuncs.com\/filemanage\/e069b36c568d909f\/templateapi\/16686750428733\/cover.webp?nonce=dacdef298ecee928b041e86bd1a4e5bc","updatetime":"1684894864","height":607,"width":1080,"video":"http:\/\/rdfile.oss-cn-hangzhou.aliyuncs.com\/filemanage\/e069b36c568d909f\/templateapi\/16686750428733\/video.mp4?nonce=dacdef298ecee928b041e86bd1a4e5bc","sort":0,"version":155,"cover2":"","appkey":"init","duration":0,"extra":{},"polyglot":[],"category":"0","audit":0,"is_ugc":0,"text_need":0,"picture_need":5,"video_need":0,"type":"templateapi"}]}}