{"code":0,"msg":"success","data":{"total":35,"per_page":10,"current_page":4,"last_page":4,"data":[{"id":"1012034","ufid":"46359463","name":"\u590d\u53e4\u6b4c\u8bcd","file":"http:\/\/rdfile.oss-cn-hangzhou.aliyuncs.com\/filemanage\/e069b36c568d909f\/templateapi\/16278966231099\/file.zip?nonce=38755a588aceabca4c259f99e891d9bd","cover":"http:\/\/rdfile.oss-cn-hangzhou.aliyuncs.com\/filemanage\/e069b36c568d909f\/templateapi\/16278966231099\/cover.png?nonce=38755a588aceabca4c259f99e891d9bd&x-oss-process=style\/templateapi","updatetime":"1684912629","height":1280,"width":1280,"video":"http:\/\/rdfile.oss-cn-hangzhou.aliyuncs.com\/filemanage\/e069b36c568d909f\/templateapi\/16278966231099\/video.mp4?nonce=38755a588aceabca4c259f99e891d9bd","sort":100,"version":147,"cover2":"","appkey":"init","duration":0,"extra":{},"polyglot":[],"category":"0","audit":0,"is_ugc":0,"text_need":6,"picture_need":0,"video_need":6,"type":"templateapi"},{"id":"1011914","ufid":"27473864","name":"\u5982\u771f\u5982\u5047","file":"http:\/\/rdfile.oss-cn-hangzhou.aliyuncs.com\/filemanage\/e069b36c568d909f\/templateapi\/16273727677354\/file.zip?nonce=fe2f40fc7a3650d320fbd93168e68777","cover":"http:\/\/rdfile.oss-cn-hangzhou.aliyuncs.com\/filemanage\/e069b36c568d909f\/templateapi\/16273727677354\/cover.png?nonce=fe2f40fc7a3650d320fbd93168e68777&x-oss-process=style\/templateapi","updatetime":"1684912784","height":1080,"width":607,"video":"http:\/\/rdfile.oss-cn-hangzhou.aliyuncs.com\/filemanage\/e069b36c568d909f\/templateapi\/16273727677354\/video.mp4?nonce=fe2f40fc7a3650d320fbd93168e68777","sort":100,"version":147,"cover2":"","appkey":"init","duration":0,"extra":{},"polyglot":[],"category":"0","audit":0,"is_ugc":0,"text_need":4,"picture_need":0,"video_need":4,"type":"templateapi"},{"id":"1011879","ufid":"91816797","name":"\u5927\u7247","file":"http:\/\/rdfile.oss-cn-hangzhou.aliyuncs.com\/filemanage\/e069b36c568d909f\/templateapi\/16269376678931\/file.zip?nonce=832518c3b9de8c4b7d790fa31eebb59a","cover":"http:\/\/rdfile.oss-cn-hangzhou.aliyuncs.com\/filemanage\/e069b36c568d909f\/templateapi\/16269376678931\/cover.png?nonce=832518c3b9de8c4b7d790fa31eebb59a&x-oss-process=style\/templateapi","updatetime":"1684913075","height":1080,"width":607,"video":"http:\/\/rdfile.oss-cn-hangzhou.aliyuncs.com\/filemanage\/e069b36c568d909f\/templateapi\/16269376678931\/video.mp4?nonce=832518c3b9de8c4b7d790fa31eebb59a","sort":100,"version":147,"cover2":"","appkey":"init","duration":0,"extra":{},"polyglot":[],"category":"0","audit":0,"is_ugc":0,"text_need":5,"picture_need":0,"video_need":4,"type":"templateapi"},{"id":"1007852","ufid":"67598492","name":"\u5bf9\u8bdd","file":"http:\/\/rdfile.oss-cn-hangzhou.aliyuncs.com\/filemanage\/e069b36c568d909f\/templateapi\/16239193866490\/file.zip?nonce=622273e0813fc965e5a36fb109a0aea4","cover":"http:\/\/rdfile.oss-cn-hangzhou.aliyuncs.com\/filemanage\/e069b36c568d909f\/templateapi\/16239193866490\/cover.png?nonce=622273e0813fc965e5a36fb109a0aea4&x-oss-process=style\/templateapi","updatetime":"1684910416","height":1080,"width":781,"video":"http:\/\/rdfile.oss-cn-hangzhou.aliyuncs.com\/filemanage\/e069b36c568d909f\/templateapi\/16239193866490\/video.mp4?nonce=622273e0813fc965e5a36fb109a0aea4","sort":100,"version":146,"cover2":"","appkey":"init","duration":0,"extra":{},"polyglot":[],"category":"0","audit":0,"is_ugc":0,"text_need":4,"picture_need":2,"video_need":0,"type":"templateapi"},{"id":"1007848","ufid":"18426017","name":"\u6f2b\u753bOK","file":"http:\/\/rdfile.oss-cn-hangzhou.aliyuncs.com\/filemanage\/e069b36c568d909f\/templateapi\/16238993936319\/file.zip?nonce=031283f5ee00605bd9432986e445febd","cover":"http:\/\/rdfile.oss-cn-hangzhou.aliyuncs.com\/filemanage\/e069b36c568d909f\/templateapi\/16238993936319\/cover.png?nonce=031283f5ee00605bd9432986e445febd&x-oss-process=style\/templateapi","updatetime":"1684910391","height":1080,"width":927,"video":"http:\/\/rdfile.oss-cn-hangzhou.aliyuncs.com\/filemanage\/e069b36c568d909f\/templateapi\/16238993936319\/video.mp4?nonce=031283f5ee00605bd9432986e445febd","sort":100,"version":146,"cover2":"","appkey":"init","duration":0,"extra":{},"polyglot":[],"category":"0","audit":0,"is_ugc":0,"text_need":6,"picture_need":2,"video_need":0,"type":"templateapi"}]}}