{"code":0,"msg":"success","data":{"total":636,"per_page":10,"current_page":15,"last_page":64,"data":[{"id":"1016373","ufid":"21174164","name":"\u76ae\u5361\u4e18\u4e4b\u821e\n","file":"http:\/\/rdfile.oss-cn-hangzhou.aliyuncs.com\/filemanage\/e069b36c568d909f\/templateapi\/16675414967897\/file.zip?nonce=16abe48cdbdda69e07b359d93d9be294","cover":"http:\/\/rdfile.oss-cn-hangzhou.aliyuncs.com\/filemanage\/e069b36c568d909f\/templateapi\/16675414967897\/cover.webp?nonce=16abe48cdbdda69e07b359d93d9be294","updatetime":"1704185974","height":1920,"width":1080,"video":"http:\/\/rdfile.oss-cn-hangzhou.aliyuncs.com\/filemanage\/e069b36c568d909f\/templateapi\/16675414967897\/video.mp4?nonce=16abe48cdbdda69e07b359d93d9be294","sort":0,"version":154,"cover2":"","appkey":"6ecb39f1c12f1a35","duration":0,"extra":{},"polyglot":{"en":"Pikachu Dance\n"},"category":"0","audit":0,"is_ugc":0,"text_need":0,"picture_need":0,"video_need":1,"type":"templateapi"},{"id":"1016372","ufid":"98400418","name":"\u671b\u8fdc\u955c\u53d8\u88c5","file":"http:\/\/rdfile.oss-cn-hangzhou.aliyuncs.com\/filemanage\/e069b36c568d909f\/templateapi\/16675409073890\/file.zip?nonce=16abe48cdbdda69e07b359d93d9be294","cover":"http:\/\/rdfile.oss-cn-hangzhou.aliyuncs.com\/filemanage\/e069b36c568d909f\/templateapi\/16675409073890\/cover.webp?nonce=16abe48cdbdda69e07b359d93d9be294","updatetime":"1704185974","height":1920,"width":1080,"video":"http:\/\/rdfile.oss-cn-hangzhou.aliyuncs.com\/filemanage\/e069b36c568d909f\/templateapi\/16675409073890\/video.mp4?nonce=16abe48cdbdda69e07b359d93d9be294","sort":0,"version":154,"cover2":"","appkey":"6ecb39f1c12f1a35","duration":0,"extra":{},"polyglot":{"en":"Telescope disguise"},"category":"0","audit":0,"is_ugc":0,"text_need":0,"picture_need":0,"video_need":2,"type":"templateapi"},{"id":"1016371","ufid":"46269999","name":"\u57ce\u5e02\u591c\u666f\u878d\u56fe","file":"http:\/\/rdfile.oss-cn-hangzhou.aliyuncs.com\/filemanage\/e069b36c568d909f\/templateapi\/16675360683550\/file.zip?nonce=16abe48cdbdda69e07b359d93d9be294","cover":"http:\/\/rdfile.oss-cn-hangzhou.aliyuncs.com\/filemanage\/e069b36c568d909f\/templateapi\/16675360683550\/cover.webp?nonce=16abe48cdbdda69e07b359d93d9be294","updatetime":"1704185974","height":1080,"width":608,"video":"http:\/\/rdfile.oss-cn-hangzhou.aliyuncs.com\/filemanage\/e069b36c568d909f\/templateapi\/16675360683550\/video.mp4?nonce=16abe48cdbdda69e07b359d93d9be294","sort":0,"version":155,"cover2":"","appkey":"init","duration":0,"extra":{},"polyglot":{"en":"City night view picture"},"category":"0","audit":0,"is_ugc":0,"text_need":2,"picture_need":0,"video_need":2,"type":"templateapi"},{"id":"1016366","ufid":"86753792","name":"\u65e9\u5b89\u8f6c\u8f6c\u5b57\u4f53\u95f9\u949f","file":"http:\/\/rdfile.oss-cn-hangzhou.aliyuncs.com\/filemanage\/e069b36c568d909f\/templateapi\/16674682991623\/file.zip?nonce=9995f0297c6a094ac223f976843d40a1","cover":"http:\/\/rdfile.oss-cn-hangzhou.aliyuncs.com\/filemanage\/e069b36c568d909f\/templateapi\/16674682991623\/cover.webp?nonce=9995f0297c6a094ac223f976843d40a1","updatetime":"1704185973","height":1081,"width":608,"video":"http:\/\/rdfile.oss-cn-hangzhou.aliyuncs.com\/filemanage\/e069b36c568d909f\/templateapi\/16674682991623\/video.mp4?nonce=9995f0297c6a094ac223f976843d40a1","sort":0,"version":154,"cover2":"","appkey":"init","duration":0,"extra":{},"polyglot":{"en":"Good morning turn font alarm clock"},"category":"0","audit":0,"is_ugc":0,"text_need":1,"picture_need":0,"video_need":2,"type":"templateapi"},{"id":"1016365","ufid":"98112780","name":"\u624b\u673a\u6765\u7535","file":"http:\/\/rdfile.oss-cn-hangzhou.aliyuncs.com\/filemanage\/e069b36c568d909f\/templateapi\/16674650474526\/file.zip?nonce=9995f0297c6a094ac223f976843d40a1","cover":"http:\/\/rdfile.oss-cn-hangzhou.aliyuncs.com\/filemanage\/e069b36c568d909f\/templateapi\/16674650474526\/cover.webp?nonce=9995f0297c6a094ac223f976843d40a1","updatetime":"1704185973","height":1748,"width":983,"video":"http:\/\/rdfile.oss-cn-hangzhou.aliyuncs.com\/filemanage\/e069b36c568d909f\/templateapi\/16674650474526\/video.mp4?nonce=9995f0297c6a094ac223f976843d40a1","sort":0,"version":154,"cover2":"","appkey":"init","duration":0,"extra":{},"polyglot":{"en":"Mobile phone call"},"category":"0","audit":0,"is_ugc":0,"text_need":5,"picture_need":0,"video_need":9,"type":"templateapi"},{"id":"1016363","ufid":"25015543","name":"\u63a5\u5316\u53d1 \u5361\u70b9\u8f6c\u573a","file":"http:\/\/rdfile.oss-cn-hangzhou.aliyuncs.com\/filemanage\/e069b36c568d909f\/templateapi\/16674638508638\/file.zip?nonce=9995f0297c6a094ac223f976843d40a1","cover":"http:\/\/rdfile.oss-cn-hangzhou.aliyuncs.com\/filemanage\/e069b36c568d909f\/templateapi\/16674638508638\/cover.webp?nonce=9995f0297c6a094ac223f976843d40a1","updatetime":"1704185973","height":1920,"width":1080,"video":"http:\/\/rdfile.oss-cn-hangzhou.aliyuncs.com\/filemanage\/e069b36c568d909f\/templateapi\/16674638508638\/video.mp4?nonce=9995f0297c6a094ac223f976843d40a1","sort":0,"version":154,"cover2":"","appkey":"init","duration":0,"extra":{},"polyglot":{"en":"Right time transition Hair extensions"},"category":"0","audit":0,"is_ugc":0,"text_need":0,"picture_need":0,"video_need":16,"type":"templateapi"},{"id":"1016362","ufid":"45637962","name":"\u65e9\u5b89\u6109\u5feb\u65b0\u4e00\u5929","file":"http:\/\/rdfile.oss-cn-hangzhou.aliyuncs.com\/filemanage\/e069b36c568d909f\/templateapi\/16674635791557\/file.zip?nonce=9995f0297c6a094ac223f976843d40a1","cover":"http:\/\/rdfile.oss-cn-hangzhou.aliyuncs.com\/filemanage\/e069b36c568d909f\/templateapi\/16674635791557\/cover.webp?nonce=9995f0297c6a094ac223f976843d40a1","updatetime":"1704185973","height":810,"width":1080,"video":"http:\/\/rdfile.oss-cn-hangzhou.aliyuncs.com\/filemanage\/e069b36c568d909f\/templateapi\/16674635791557\/video.mp4?nonce=9995f0297c6a094ac223f976843d40a1","sort":0,"version":154,"cover2":"","appkey":"init","duration":0,"extra":{},"polyglot":{"en":"Good morning happy new day"},"category":"0","audit":0,"is_ugc":0,"text_need":7,"picture_need":0,"video_need":1,"type":"templateapi"},{"id":"1016361","ufid":"10854170","name":"\u7231\u5fc3\u5bab\u683c","file":"http:\/\/rdfile.oss-cn-hangzhou.aliyuncs.com\/filemanage\/e069b36c568d909f\/templateapi\/16674627076438\/file.zip?nonce=9995f0297c6a094ac223f976843d40a1","cover":"http:\/\/rdfile.oss-cn-hangzhou.aliyuncs.com\/filemanage\/e069b36c568d909f\/templateapi\/16674627076438\/cover.webp?nonce=9995f0297c6a094ac223f976843d40a1","updatetime":"1704185973","height":1080,"width":1080,"video":"http:\/\/rdfile.oss-cn-hangzhou.aliyuncs.com\/filemanage\/e069b36c568d909f\/templateapi\/16674627076438\/video.mp4?nonce=9995f0297c6a094ac223f976843d40a1","sort":0,"version":154,"cover2":"","appkey":"init","duration":0,"extra":{},"polyglot":{"en":"Love grid"},"category":"0","audit":0,"is_ugc":0,"text_need":0,"picture_need":0,"video_need":1,"type":"templateapi"},{"id":"1016358","ufid":"78249344","name":"\u805a\u5149\u706f\u95ea\u8000\u53d8\u88c5","file":"http:\/\/rdfile.oss-cn-hangzhou.aliyuncs.com\/filemanage\/e069b36c568d909f\/templateapi\/16674592276885\/file.zip?nonce=d693be29db2d01c1de6636e72101daf2","cover":"http:\/\/rdfile.oss-cn-hangzhou.aliyuncs.com\/filemanage\/e069b36c568d909f\/templateapi\/16674592276885\/cover.webp?nonce=d693be29db2d01c1de6636e72101daf2","updatetime":"1704185972","height":1920,"width":1080,"video":"http:\/\/rdfile.oss-cn-hangzhou.aliyuncs.com\/filemanage\/e069b36c568d909f\/templateapi\/16674592276885\/video.mp4?nonce=d693be29db2d01c1de6636e72101daf2","sort":0,"version":154,"cover2":"","appkey":"6ecb39f1c12f1a35","duration":0,"extra":{},"polyglot":{"en":"Spotlight shines in drag"},"category":"0","audit":0,"is_ugc":0,"text_need":0,"picture_need":0,"video_need":5,"type":"templateapi"},{"id":"1016356","ufid":"87593976","name":"\u7279\u5de5\u53d8\u88c5","file":"http:\/\/rdfile.oss-cn-hangzhou.aliyuncs.com\/filemanage\/e069b36c568d909f\/templateapi\/16674507808708\/file.zip?nonce=d693be29db2d01c1de6636e72101daf2","cover":"http:\/\/rdfile.oss-cn-hangzhou.aliyuncs.com\/filemanage\/e069b36c568d909f\/templateapi\/16674507808708\/cover.webp?nonce=d693be29db2d01c1de6636e72101daf2","updatetime":"1704185972","height":1920,"width":1080,"video":"http:\/\/rdfile.oss-cn-hangzhou.aliyuncs.com\/filemanage\/e069b36c568d909f\/templateapi\/16674507808708\/video.mp4?nonce=d693be29db2d01c1de6636e72101daf2","sort":0,"version":154,"cover2":"","appkey":"6ecb39f1c12f1a35","duration":0,"extra":{},"polyglot":{"en":"Detective crossdressing"},"category":"0","audit":0,"is_ugc":0,"text_need":0,"picture_need":0,"video_need":2,"type":"templateapi"}]}}