{"code":0,"msg":"success","data":{"total":173,"per_page":10,"current_page":15,"last_page":18,"data":[{"id":"1011954","ufid":"45071068","name":"\u5206\u683c\u573a\u666f","file":"http:\/\/rdfile.oss-cn-hangzhou.aliyuncs.com\/filemanage\/e069b36c568d909f\/templateapi\/16274589272569\/file.zip?nonce=c4f2608f0c0abf783817fe69cfdc8a5d","cover":"http:\/\/rdfile.oss-cn-hangzhou.aliyuncs.com\/filemanage\/e069b36c568d909f\/templateapi\/16274589272569\/cover.png?nonce=c4f2608f0c0abf783817fe69cfdc8a5d&x-oss-process=style\/templateapi","updatetime":"1684913041","height":1080,"width":607,"video":"http:\/\/rdfile.oss-cn-hangzhou.aliyuncs.com\/filemanage\/e069b36c568d909f\/templateapi\/16274589272569\/video.mp4?nonce=c4f2608f0c0abf783817fe69cfdc8a5d","sort":100,"version":147,"cover2":"","appkey":"init","duration":0,"extra":{},"polyglot":[],"category":"0","audit":0,"is_ugc":0,"text_need":0,"picture_need":0,"video_need":4,"type":"templateapi"},{"id":"1011880","ufid":"89829858","name":"Happy Today","file":"http:\/\/rdfile.oss-cn-hangzhou.aliyuncs.com\/filemanage\/e069b36c568d909f\/templateapi\/16269407456474\/file.zip?nonce=4eafc5473f16d536e204c91201a53dbc","cover":"http:\/\/rdfile.oss-cn-hangzhou.aliyuncs.com\/filemanage\/e069b36c568d909f\/templateapi\/16269407456474\/cover.png?nonce=4eafc5473f16d536e204c91201a53dbc&x-oss-process=style\/templateapi","updatetime":"1684913244","height":1080,"width":1878,"video":"http:\/\/rdfile.oss-cn-hangzhou.aliyuncs.com\/filemanage\/e069b36c568d909f\/templateapi\/16269407456474\/video.mp4?nonce=4eafc5473f16d536e204c91201a53dbc","sort":100,"version":147,"cover2":"","appkey":"init","duration":0,"extra":{},"polyglot":[],"category":"0","audit":0,"is_ugc":0,"text_need":6,"picture_need":0,"video_need":5,"type":"templateapi"},{"id":"1020288","ufid":"37763500","name":"\u6211\u76842022","file":"http:\/\/rdfile.oss-cn-hangzhou.aliyuncs.com\/filemanage\/e069b36c568d909f\/templateapi\/16723842143870\/file.zip?nonce=249c0f44f85e81cd9a568869f08bf025","cover":"http:\/\/rdfile.oss-cn-hangzhou.aliyuncs.com\/filemanage\/e069b36c568d909f\/templateapi\/16723842143870\/cover.webp?nonce=249c0f44f85e81cd9a568869f08bf025","updatetime":"1684914859","height":608,"width":1080,"video":"http:\/\/rdfile.oss-cn-hangzhou.aliyuncs.com\/filemanage\/e069b36c568d909f\/templateapi\/16723842143870\/video.mp4?nonce=249c0f44f85e81cd9a568869f08bf025","sort":0,"version":158,"cover2":"","appkey":"init","duration":0,"extra":{},"polyglot":[],"category":"0","audit":0,"is_ugc":0,"text_need":0,"picture_need":1,"video_need":12,"type":"templateapi"},{"id":"1016675","ufid":"39520664","name":"2022\u5e74\u5ea6\u603b\u7ed3","file":"http:\/\/rdfile.oss-cn-hangzhou.aliyuncs.com\/filemanage\/e069b36c568d909f\/templateapi\/16702347837748\/file.zip?nonce=ffd64278f44f800edf50a2b915b24a70","cover":"http:\/\/rdfile.oss-cn-hangzhou.aliyuncs.com\/filemanage\/e069b36c568d909f\/templateapi\/16702347837748\/cover.webp?nonce=ffd64278f44f800edf50a2b915b24a70","updatetime":"1684914872","height":1080,"width":1920,"video":"http:\/\/rdfile.oss-cn-hangzhou.aliyuncs.com\/filemanage\/e069b36c568d909f\/templateapi\/16702347837748\/video.mp4?nonce=ffd64278f44f800edf50a2b915b24a70","sort":0,"version":156,"cover2":"","appkey":"init","duration":0,"extra":{},"polyglot":[],"category":"0","audit":0,"is_ugc":0,"text_need":0,"picture_need":0,"video_need":17,"type":"templateapi"},{"id":"1011826","ufid":"98832289","name":"\u65e5\u5e38\u5143\u6c14","file":"http:\/\/rdfile.oss-cn-hangzhou.aliyuncs.com\/filemanage\/e069b36c568d909f\/templateapi\/16267497402126\/file.zip?nonce=024151727898aacdb059b9f5502493f0","cover":"http:\/\/rdfile.oss-cn-hangzhou.aliyuncs.com\/filemanage\/e069b36c568d909f\/templateapi\/16267497402126\/cover.png?nonce=024151727898aacdb059b9f5502493f0&x-oss-process=style\/templateapi","updatetime":"1684912795","height":1080,"width":607,"video":"http:\/\/rdfile.oss-cn-hangzhou.aliyuncs.com\/filemanage\/e069b36c568d909f\/templateapi\/16267497402126\/video.mp4?nonce=024151727898aacdb059b9f5502493f0","sort":100,"version":147,"cover2":"","appkey":"init","duration":0,"extra":{},"polyglot":[],"category":"0","audit":0,"is_ugc":0,"text_need":0,"picture_need":0,"video_need":8,"type":"templateapi"},{"id":"1011772","ufid":"16119348","name":"\u4fe1\u7b3a","file":"http:\/\/rdfile.oss-cn-hangzhou.aliyuncs.com\/filemanage\/e069b36c568d909f\/templateapi\/16264087926869\/file.zip?nonce=f47e505a266dea6f0ab2d53cb4e51a54","cover":"http:\/\/rdfile.oss-cn-hangzhou.aliyuncs.com\/filemanage\/e069b36c568d909f\/templateapi\/16264087926869\/cover.png?nonce=f47e505a266dea6f0ab2d53cb4e51a54&x-oss-process=style\/templateapi","updatetime":"1684912822","height":1080,"width":607,"video":"http:\/\/rdfile.oss-cn-hangzhou.aliyuncs.com\/filemanage\/e069b36c568d909f\/templateapi\/16264087926869\/video.mp4?nonce=f47e505a266dea6f0ab2d53cb4e51a54","sort":100,"version":146,"cover2":"","appkey":"init","duration":0,"extra":{},"polyglot":[],"category":"0","audit":0,"is_ugc":0,"text_need":0,"picture_need":0,"video_need":8,"type":"templateapi"},{"id":"1016666","ufid":"56427868","name":"\u5199\u7ed9\u751f\u6d3b\u7cfb\u4e00\u5c01\u4fe1","file":"http:\/\/rdfile.oss-cn-hangzhou.aliyuncs.com\/filemanage\/e069b36c568d909f\/templateapi\/16699736736823\/file.zip?nonce=e4eba7c03d917e2ce5d7c72a49204de1","cover":"http:\/\/rdfile.oss-cn-hangzhou.aliyuncs.com\/filemanage\/e069b36c568d909f\/templateapi\/16699736736823\/cover.webp?nonce=e4eba7c03d917e2ce5d7c72a49204de1","updatetime":"1684914877","height":608,"width":1080,"video":"http:\/\/rdfile.oss-cn-hangzhou.aliyuncs.com\/filemanage\/e069b36c568d909f\/templateapi\/16699736736823\/video.mp4?nonce=e4eba7c03d917e2ce5d7c72a49204de1","sort":0,"version":155,"cover2":"","appkey":"init","duration":0,"extra":{},"polyglot":[],"category":"0","audit":0,"is_ugc":0,"text_need":3,"picture_need":0,"video_need":5,"type":"templateapi"},{"id":"1016595","ufid":"69351008","name":"\u89c6\u9891\u8fdb\u5ea6\u6761","file":"http:\/\/rdfile.oss-cn-hangzhou.aliyuncs.com\/filemanage\/e069b36c568d909f\/templateapi\/16697204054621\/file.zip?nonce=1567f1c762a30fc6e1d956d13c74f114","cover":"http:\/\/rdfile.oss-cn-hangzhou.aliyuncs.com\/filemanage\/e069b36c568d909f\/templateapi\/16697204054621\/cover.webp?nonce=1567f1c762a30fc6e1d956d13c74f114","updatetime":"1684914888","height":607,"width":1080,"video":"http:\/\/rdfile.oss-cn-hangzhou.aliyuncs.com\/filemanage\/e069b36c568d909f\/templateapi\/16697204054621\/video.mp4?nonce=1567f1c762a30fc6e1d956d13c74f114","sort":0,"version":155,"cover2":"","appkey":"init","duration":0,"extra":{},"polyglot":[],"category":"0","audit":0,"is_ugc":0,"text_need":5,"picture_need":0,"video_need":1,"type":"templateapi"},{"id":"1011704","ufid":"63340121","name":"\u65f6\u5c1a\u8fbe\u4eba","file":"http:\/\/rdfile.oss-cn-hangzhou.aliyuncs.com\/filemanage\/e069b36c568d909f\/templateapi\/16262499223404\/file.zip?nonce=9a4279372b2e874752ed97d9c426d4d2","cover":"http:\/\/rdfile.oss-cn-hangzhou.aliyuncs.com\/filemanage\/e069b36c568d909f\/templateapi\/16262499223404\/cover.png?nonce=9a4279372b2e874752ed97d9c426d4d2&x-oss-process=style\/templateapi","updatetime":"1684913196","height":1080,"width":607,"video":"http:\/\/rdfile.oss-cn-hangzhou.aliyuncs.com\/filemanage\/e069b36c568d909f\/templateapi\/16262499223404\/video.mp4?nonce=9a4279372b2e874752ed97d9c426d4d2","sort":100,"version":146,"cover2":"","appkey":"init","duration":0,"extra":{},"polyglot":[],"category":"0","audit":0,"is_ugc":0,"text_need":0,"picture_need":0,"video_need":10,"type":"templateapi"},{"id":"1011683","ufid":"18049019","name":"\u9752\u6625\u65e5\u8bb0","file":"http:\/\/rdfile.oss-cn-hangzhou.aliyuncs.com\/filemanage\/e069b36c568d909f\/templateapi\/16262316011708\/file.zip?nonce=b906cb2afb08bcba78283235e848bd18","cover":"http:\/\/rdfile.oss-cn-hangzhou.aliyuncs.com\/filemanage\/e069b36c568d909f\/templateapi\/16262316011708\/cover.png?nonce=b906cb2afb08bcba78283235e848bd18&x-oss-process=style\/templateapi","updatetime":"1684912836","height":1080,"width":607,"video":"http:\/\/rdfile.oss-cn-hangzhou.aliyuncs.com\/filemanage\/e069b36c568d909f\/templateapi\/16262316011708\/video.mp4?nonce=b906cb2afb08bcba78283235e848bd18","sort":100,"version":146,"cover2":"","appkey":"init","duration":0,"extra":{},"polyglot":[],"category":"0","audit":0,"is_ugc":0,"text_need":0,"picture_need":0,"video_need":10,"type":"templateapi"}]}}